@-header,instruction_!_ Please DO NOT CHANGE THE STRUCTURE OF THIS FILE,,,,,,,,,,,,,,
@-header,compilationTime_!_ 2018:04:04:16:45:02,,,,,,,,,,,,,,
@-header,columnCount_!_ 16,,,,,,,,,,,,,,
@-header,maximumScore_!_ 100,,,,,,,,,,,,,,
@-header,fileType_!_ results,,,,,,,,,,,,,,
@-header,fileTypeCode_!_ a68816c37b60d1e016b21809447de93c,,,,,,,,,,,,,,
@-header,courseId_!_ 8,,,,,,,,,,,,,,
@-header,courseName_!_ Bachelor of Science in Health Laboratory Science,,,,,,,,,,,,,,
@-header,year_!_ 2,,,,,,,,,,,,,,
@-header,semester_!_ 1,,,,,,,,,,,,,,
@-header,batchId_!_ 6,,,,,,,,,,,,,,
@-header,batchName_!_ 2014/2015,,,,,,,,,,,,,,
@-header,flags_!_ 0,,,,,,,,,,,,,,
,,,,,,,,,,,,,,,
,,,,,,355,223,335,224,336,207,339,356,357,358
Ref,GPA,Reg Number,Flags,Details,res,Lab Animal Sciences,Clinical Chemistry,Haematology,Histotechnology,Blood Transfussion Science,Parasitology,Foundation of Faith,Basic Pathology,Immunology,Microbiology
773,,TUMA/KCMUCo/BScHLSc/2015/2016/0543,65,,,70,55,53,64,83,73,63,63,79,55
840,,TUMA/KCMUCo/BScHLSc/2015/2016/0544,65,,,77,64,71,75,85,74,78,65,86,60
700,,TUMA/KCMUCo/BScHLSc/2015/2016/0555,65,,,63,63,63,62,75,69,71,62,87,61
865,,TUMA/KCMUCo/BScHLSc/2015/2016/0557,65,,,71,63,65,65,69,67,71,70,77,57
709,,TUMA/KCMUCo/BScHLSc/2015/2016/0559,65,,,61,66,66,59,72,67,72,82,71,54
659,,TUMA/KCMUCo/BScHLSc/2015/2016/0560,65,,,63,65,73,69,75,67,71,67,80,60
698,,TUMA/KCMUCo/BScHLSc/2015/2016/0561,65,,,62,53,58,65,55,65,71,60,76,50
587,,TUMA/KCMUCo/BScHLSc/2015/2016/0562,65,,,61,50,61,67,64,70,69,62,78,50
679,,TUMA/KCMUCo/BScHLSc/2015/2016/0565,65,,,56,60,58,73,75,64,72,73,81,51
844,,TUMA/KCMUCo/BScHLSc/2015/2016/0566,65,,,68,59,55,61,76,72,63,75,69,60
705,,TUMA/KCMUCo/BScHLSc/2015/2016/0570,65,,,73,56,61,67,66,70,67,73,83,51
776,,TUMA/KCMUCo/BScHLSc/2015/2016/0571,65,,,65,60,77,73,71,76,61,61,87,62
672,,TUMA/KCMUCo/BScHLSc/2015/2016/0572,65,,,71,57,62,69,82,79,66,71,79,62
703,,TUMA/KCMUCo/BScHLSc/2015/2016/0573,65,,,68,59,65,75,83,71,68,72,78,55
817,,TUMA/KCMUCo/BScHLSc/2015/2016/0602,65,,,59,50,54,51,65,70,72,62,76,56
710,,TUMA/KCMUCo/BScHLSc/2015/2016/0603,65,,,55,58,67,77,72,67,70,71,78,51
951,,TUMA/KCMUCo/BScHLSc/2015/2016/0608,65,,,66,50,58,56,68,66,75,68,74,53
694,,TUMA/KCMUCo/BScHLSc/2015/2016/0609,65,,,63,63,66,59,78,74,64,63,80,59
824,,TUMA/KCMUCo/BScHLSc/2015/2016/0610,65,,,55,50,52,56,64,69,69,66,70,50
553,,TUMA/KCMUCo/BScHLSc/2015/2016/0616,65,,,59,56,60,62,59,63,71,63,67,50
607,,TUMA/KCMUCo/BScHLSc/2015/2016/0631,65,,,68,64,69,64,75,73,74,74,84,57
520,,TUMA/KCMUCo/BScHLSc/2015/2016/0632,65,,,71,70,67,59,79,75,64,68,74,61
660,,TUMA/KCMUCo/BScHLSc/2015/2016/0633,65,,,64,60,64,55,73,69,73,80,77,52
680,,TUMA/KCMUCo/BScHLSc/2015/2016/0634,65,,,56,50,65,56,65,66,73,66,82,55
806,,TUMA/KCMUCo/BScHLSc/2015/2016/0635,65,,,66,65,69,71,73,70,76,83,87,65
661,,TUMA/KCMUCo/BScHLSc/2015/2016/0643,65,,,64,64,61,67,79,69,75,70,82,53
612,,TUMA/KCMUCo/BScHLSc/2015/2016/0644,65,,,62,57,67,65,62,65,67,76,80,61
465,,TUMA/KCMUCo/BScHLSc/2015/2016/0648,65,,,62,56,53,64,70,71,64,61,78,56
611,,TUMA/KCMUCo/BScHLSc/2015/2016/0652,65,,,60,50,63,72,71,65,57,78,76,50
613,,TUMA/KCMUCo/BScHLSc/2015/2016/0653,65,,,58,54,53,55,75,66,65,66,78,50
670,,TUMA/KCMUCo/BScHLSc/2015/2016/0654,65,,,69,55,55,68,70,71,77,62,81,55
523,,TUMA/KCMUCo/BScHLSc/2015/2016/0655,65,,,65,57,61,72,74,69,73,75,81,54
745,,TUMA/KCMUCo/BScHLSc/2015/2016/0656,65,,,65,60,57,67,74,68,73,65,79,51
759,,TUMA/KCMUCo/BScHLSc/2015/2016/0660,65,,,71,57,69,57,78,72,69,81,83,56
754,,TUMA/KCMUCo/BScHLSc/2015/2016/0662,65,,,55,50,52,57,69,61,62,58,75,50
629,,TUMA/KCMUCo/BScHLSc/2015/2016/0674,65,,,65,62,57,76,75,66,64,74,75,50
654,,TUMA/KCMUCo/BScHLSc/2015/2016/0678,65,,,59,50,62,62,61,63,69,58,71,50
577,,TUMA/KCMUCo/BScHLSc/2015/2016/0680,65,,,56,55,51,62,58,59,76,70,73,50
642,,TUMA/KCMUCo/BScHLSc/2015/2016/0683,65,,,64,53,54,56,65,61,62,85,72,51
938,,TUMA/KCMUCo/BScHLSc/2015/2016/0684,65,,,57,52,53,65,75,65,72,73,82,52
732,,TUMA/KCMUCo/BScHLSc/2015/2016/0688,65,,,60,50,59,70,64,66,68,73,83,50
753,,TUMA/KCMUCo/BScHLSc/2015/2016/0689,65,,,66,52,61,56,77,61,63,67,78,58
707,,TUMA/KCMUCo/BScHLSc/2015/2016/0691,65,,,62,53,57,61,78,66,57,65,81,52
908,,TUMA/KCMUCo/BScHLSc/2015/2016/0693,65,,,69,57,65,68,68,70,64,70,84,64
935,,TUMA/KCMUCo/BScHLSc/2015/2016/0695,65,,,52,50,56,64,57,69,69,57,72,54
595,,TUMA/KCMUCo/BScHLSc/2015/2016/0696,65,,,63,64,68,63,62,67,88,69,80,60
870,,TUMA/KCMUCo/BScHLSc/2015/2016/0700,65,,,60,59,78,68,75,69,68,76,83,65
934,,TUMA/KCMUCo/BScHLSc/2016/2017/0711,65,,,60,57,60,50,53,64,75,50,69,50
849,,TUMA/KCMUCo/BScHLSc/2016/2017/0781,67,,,,,,,,,,,,
