@-header,instruction_!_ Please DO NOT CHANGE THE STRUCTURE OF THIS FILE,,,,,
@-header,compilationTime_!_ 2018:11:24:18:38:21,,,,,
@-header,columnCount_!_ 7,,,,,
@-header,maximumScore_!_ 100,,,,,
@-header,fileType_!_ results,,,,,
@-header,fileTypeCode_!_ a68816c37b60d1e016b21809447de93c,,,,,
@-header,courseId_!_ 26,,,,,
@-header,courseName_!_ MMed in Ophthalmology,,,,,
@-header,year_!_ 4,,,,,
@-header,semester_!_ 2,,,,,
@-header,batchId_!_ 5,,,,,
@-header,batchName_!_ 2013/2014,,,,,
@-header,flags_!_ 0,,,,,
,,,,,,
,,,,,,1219
Ref,GPA,Reg Number,Flags,Details,res,Final University Exam
95,,TUMA/KCMUCo/MMED.OPH/2016/2017/0402,65,,,74.27
32,,TUMA/KCMUCo/MMED.OPH/2016/2017/0403,65,,,69.04
400,,TUMA/KCMUCo/MMED.OPH/2016/2017/0404,65,,,79.05
7255,,TUMA/KCMUCo/MMED.OPH/2017/2018/0406,69,,,89.75
