@-header,instruction_!_ Please DO NOT CHANGE THE STRUCTURE OF THIS FILE,,,,,,,,,,
@-header,maximumScore_!_ 100,,,,,,,,,,
@-header,fileType_!_ results,,,,,,,,,,
@-header,fileTypeCode_!_ a68816c37b60d1e016b21809447de93c,,,,,,,,,,
@-header,courseId_!_ 39,,,,,,,,,,
@-header,courseName_!_ Bachelor of Science in Nursing (In-Service),,,,,,,,,,
@-header,year_!_ 2,,,,,,,,,,
@-header,semester_!_ 2,,,,,,,,,,
@-header,batchId_!_ 6,,,,,,,,,,
@-header,batchName_!_ 2014/2015,,,,,,,,,,
@-header,flags_!_ 48,,,,,,,,,,
@-header,compilationTime_!_ 2018:09:07:13:15:00,,,,,,,,,,
@-header,columnCount_!_ 12,,,,,,,,,,
,,,,,,,,,,,
,,,,,,93,94,95,96,97,98
Ref,GPA,Reg Number,Flags,Details,res,Sociology & Anthropology,Development Studies,Advanced Nursing Sciences,Community  Health Nursing,Research Methodology ,Leadership & Management
867,2:3.9,TUMA/KCMUCo/BSC.N/2015/2016/0666,9,,2:24.2:95.1,65,62,79,76,84,70
808,2:3.7,TUMA/KCMUCo/BSC.N/2015/2016/0667,9,,2:24.2:90.5,65,63,83,63,76,70
760,2:2.8,TUMA/KCMUCo/BSC.N/2015/2016/0694,11,,2:24.2:69.3,63,56,75,55,68,60
829,2:3.3,TUMA/KCMUCo/BSC.N/2015/2016/0711,11,,2:24.2:81.5,57,61,77,65,85,61
795,2:2.6,TUMA/KCMUCo/BSC.N/2015/2016/0712,11,,2:24.2:64,65,56,68,56,69,67
887,2:4,TUMA/KCMUCo/BSC.N/2015/2016/0713,9,,2:24.2:96.8,76,72,73,72,74,75
813,2:3.8,TUMA/KCMUCo/BSC.N/2015/2016/0714,9,,2:24.2:93.1,62,69,82,70,75,66
843,2:3.6,TUMA/KCMUCo/BSC.N/2015/2016/0715,9,,2:24.2:87.5,71,61,71,69,81,63
846,2:3.6,TUMA/KCMUCo/BSC.N/2015/2016/0716,9,,2:24.2:87.8,68,64,79,75,77,69
866,2:4.2,TUMA/KCMUCo/BSC.N/2015/2016/0717,9,,2:24.2:102.1,77,59,83,77,75,80
942,2:3.9,TUMA/KCMUCo/BSC.N/2015/2016/0718,9,,2:24.2:94.8,74,62,73,74,72,73
835,2:2.8,TUMA/KCMUCo/BSC.N/2015/2016/0720,11,,2:24.2:68.9,56,50,79,61,63,56
823,2:3.6,TUMA/KCMUCo/BSC.N/2015/2016/0722,9,,2:24.2:88.1,74,59,74,72,82,56
898,2:4.2,TUMA/KCMUCo/BSC.N/2015/2016/0725,9,,2:24.2:104,75,59,82,80,83,64
805,2:3,TUMA/KCMUCo/BSC.N/2015/2016/0729,11,,2:24.2:73.7,71,70,70,49,64,77
837,2:2.6,TUMA/KCMUCo/BSC.N/2015/2016/0732,9,,2:24.2:63,53,55,73,51,53,69
903,2:3,TUMA/KCMUCo/BSC.N/2015/2016/0733,11,,2:24.2:73.3,60,59,70,58,62,73
947,2:3.2,TUMA/KCMUCo/BSC.N/2015/2016/0739,9,,2:24.2:77.6,72,60,76,51,76,64
789,2:3,TUMA/KCMUCo/BSC.N/2015/2016/0752,9,,2:24.2:73,71,63,69,56,68,70
349,2:3.1,TUMA/KCMUCo/BSC.N/2015/2016/0754,9,,2:24.2:76.6,66,75,70,59,76,66
917,2:4,TUMA/KCMUCo/BSC.N/2015/2016/0787,9,,2:24.2:98.1,71,68,78,76,84,72
832,2:2.3,TUMA/KCMUCo/BSC.N/2015/2016/0803,9,,2:24.2:57.7,57,63,59,50,67,67
812,2:3.1,TUMA/KCMUCo/BSC.N/2015/2016/0810,11,,2:24.2:75.9,65,51,73,66,69,69
857,2:3.3,TUMA/KCMUCo/BSC.N/2015/2016/0812,9,,2:24.2:79.9,62,57,74,65,66,71
913,2:3,TUMA/KCMUCo/BSC.N/2015/2016/0818,11,,2:24.2:72.6,67,56,76,58,77,69
828,2:3.6,TUMA/KCMUCo/BSC.N/2015/2016/0823,9,,2:24.2:89.5,71,69,66,79,78,70
