@-header,instruction_!_ Please DO NOT CHANGE THE STRUCTURE OF THIS FILE,,,,,,,,,,,,
@-header,compilationTime_!_ 2017:12:13:13:10:02,,,,,,,,,,,,
@-header,columnCount_!_ 14,,,,,,,,,,,,
@-header,maximumScore_!_ 100,,,,,,,,,,,,
@-header,fileType_!_ results,,,,,,,,,,,,
@-header,fileTypeCode_!_ a68816c37b60d1e016b21809447de93c,,,,,,,,,,,,
@-header,courseId_!_ 2,,,,,,,,,,,,
@-header,courseName_!_ Diploma in Occupational Therapy,,,,,,,,,,,,
@-header,year_!_ 2,,,,,,,,,,,,
@-header,semester_!_ 1,,,,,,,,,,,,
@-header,batchId_!_ 6,,,,,,,,,,,,
@-header,batchName_!_ 2014/2015,,,,,,,,,,,,
@-header,flags_!_ 0,,,,,,,,,,,,
,,,,,,,,,,,,,
,,,,,,266,267,268,269,270,963,964,965
Ref,GPA,Reg Number,Flags,Details,res,Foundation Of Ot Practice,Community,Ot Aplied To Pediatrics,Clinical Science Pediatric Conditions,Practical Media,PHYSICAL DYSFUNCTION,FIELD WORK,CLINICAL SCIENCE PSYCHIATRIC
959,,TUMA/KCMUCo/DOT/2016/2017/0089,69,,,61,81,56,77,76,60,89,88
406,,TUMA/KCMUCo/DOT/2016/2017/0131,69,,,84,74,74,81,64,65,79,77
958,,TUMA/KCMUCo/DOT/2016/2017/0132,69,,,69,74,70,81,74,67,80,76
