@-header,instruction_!_ Please DO NOT CHANGE THE STRUCTURE OF THIS FILE,,,,,,,,,
@-header,maximumScore_!_ 100,,,,,,,,,
@-header,fileType_!_ results,,,,,,,,,
@-header,fileTypeCode_!_ a68816c37b60d1e016b21809447de93c,,,,,,,,,
@-header,courseId_!_ 3,,,,,,,,,
@-header,courseName_!_ Bachelor of Science in Prosthetics and Orthotics,,,,,,,,,
@-header,year_!_ 4,,,,,,,,,
@-header,semester_!_ 1,,,,,,,,,
@-header,batchId_!_ 5,,,,,,,,,
@-header,batchName_!_ 2013/2014,,,,,,,,,
@-header,flags_!_ 48,,,,,,,,,
@-header,compilationTime_!_ 2017:09:11:09:57:56,,,,,,,,,
@-header,columnCount_!_ 11,,,,,,,,,
,,,,,,,,,,
,,,,,,431,432,433,436,437
Ref,GPA,Reg Number,Flags,Details,res,	Biomechanics – VI,Prosthetic and Orthotic Science Theory ,Clinical Workshop Management,	Research Project II,Prosthetics and Orthotics Science Practical 
357,1:3,TUMA/KCMUCo/BSc.P&O/2015/2016/0256,9,,1:57.6:174.3,70,73,68,54,65
94,1:3.9,TUMA/KCMUCo/BSc.P&O/2015/2016/0258,9,,1:57.6:228.9,74,89,73,64,73
950,1:3.9,TUMA/KCMUCo/BSc.P&O/2015/2016/0261,9,,1:57.6:225.9,62,88,68,71,71
158,1:3.2,TUMA/KCMUCo/BSc.P&O/2015/2016/0262,9,,1:57.6:186.3,77,97,75,67,69
222,1:3.8,TUMA/KCMUCo/BSc.P&O/2015/2016/0265,9,,1:57.6:222.9,66,78,63,70,72
262,1:3,TUMA/KCMUCo/BSc.P&O/2015/2016/0267,9,,1:57.6:174.3,51,68,68,74,67
253,1:3.9,TUMA/KCMUCo/BSc.P&O/2015/2016/0268,9,,1:57.6:228.9,74,84,71,69,77
273,1:3.9,TUMA/KCMUCo/BSc.P&O/2015/2016/0270,9,,1:57.6:225.9,62,84,73,60,73
76,1:3,TUMA/KCMUCo/BSc.P&O/2015/2016/0271,9,,1:57.6:175.8,61,77,71,59,68
925,1:3.9,TUMA/KCMUCo/BSc.P&O/2015/2016/0272,9,,1:57.6:228.9,71,92,72,67,74
107,1:3.1,TUMA/KCMUCo/BSc.P&O/2015/2016/0273,9,,1:57.6:183.3,62,84,73,64,66
655,1:3.9,TUMA/KCMUCo/BSc.P&O/2015/2016/0276,9,,1:57.6:225.9,64,91,69,79,79
337,1:3.7,TUMA/KCMUCo/BSc.P&O/2015/2016/0280,9,,1:57.6:218.4,57,82,64,67,71
224,1:3.8,TUMA/KCMUCo/BSc.P&O/2015/2016/0282,9,,1:57.6:221.4,60,84,60,65,72
921,1:3.5,TUMA/KCMUCo/BSc.P&O/2016/2017/0292,11,,1:57.6:203.4,46,75,55,56,77
