@-header,instruction_!_ Please DO NOT CHANGE THE STRUCTURE OF THIS FILE,,,,,,,,,,,,,,,
@-header,maximumScore_!_ 100,,,,,,,,,,,,,,,
@-header,fileType_!_ results,,,,,,,,,,,,,,,
@-header,fileTypeCode_!_ a68816c37b60d1e016b21809447de93c,,,,,,,,,,,,,,,
@-header,courseId_!_ 40,,,,,,,,,,,,,,,
@-header,courseName_!_ Bachelor of Science in Physiotherapy(Equivalent),,,,,,,,,,,,,,,
@-header,year_!_ 3,,,,,,,,,,,,,,,
@-header,semester_!_ 2,,,,,,,,,,,,,,,
@-header,batchId_!_ 6,,,,,,,,,,,,,,,
@-header,batchName_!_ 2014/2015,,,,,,,,,,,,,,,
@-header,flags_!_ 48,,,,,,,,,,,,,,,
@-header,compilationTime_!_ 2017:08:29:16:42:29,,,,,,,,,,,,,,,
@-header,columnCount_!_ 17,,,,,,,,,,,,,,,
,,,,,,,,,,,,,,,,
,,,,,,495,496,497,667,668,669,670,673,675,677,679
Ref,GPA,Reg Number,Flags,Details,res,	Research Project,Clinical Practice Level 3,	Statistics,Physiotherapy in Paediatrics (Clinical Practice),Physiotherapy in Internal Medicine (Clinical Practical),Physiotherapy in General Surgery (Practical),Physiotherapy in Orthopaedics  (Clinical Practical),Physiotherapy in Paediatrics threory,Physiotherapy in Internal Medicine  theory,Physiotherapy in General Surgery  theory,Physiotherapy in Orthopaedics  theory
527,2:2.4,TUMA/KCMUCo/BScPhysio/2015/2016/0283,9,,2:60:148,68,53,51,50,65,62,50,54,55,64,67
819,2:3.1,TUMA/KCMUCo/BScPhysio/2015/2016/0295,9,,2:60:186,72,63,59,64,60,64,64,66,69,71,64
822,2:3.4,TUMA/KCMUCo/BScPhysio/2015/2016/0300,9,,2:60:205,69,65,60,67,71,65,62,66,74,86,75
820,2:3.6,TUMA/KCMUCo/BScPhysio/2015/2016/0301,9,,2:60:221,78,72,54,75,74,66,76,74,65,79,80
88,2:2.6,TUMA/KCMUCo/BScPhysio/2016/2017/0314,9,,2:60:161,78,66,51,51,51,50,56,62,60,64,60
