@-header,instruction_!_ Please DO NOT CHANGE THE STRUCTURE OF THIS FILE,,,,,,,,,,
@-header,maximumScore_!_ 100,,,,,,,,,,
@-header,fileType_!_ results,,,,,,,,,,
@-header,fileTypeCode_!_ a68816c37b60d1e016b21809447de93c,,,,,,,,,,
@-header,courseId_!_ 9,,,,,,,,,,
@-header,courseName_!_ Doctor of Medicine,,,,,,,,,,
@-header,year_!_ 4,,,,,,,,,,
@-header,semester_!_ 1,,,,,,,,,,
@-header,batchId_!_ 4,,,,,,,,,,
@-header,batchName_!_ 2012/2013,,,,,,,,,,
@-header,flags_!_ 0,,,,,,,,,,
@-header,compilationTime_!_ 2018:04:24:15:28:13,,,,,,,,,,
@-header,columnCount_!_ 12,,,,,,,,,,
,,,,,,,,,,,
,,,,,,189,190,191,193,364,559
Ref,GPA,Reg Number,Flags,Details,res,Anesthesia,Orthopedic,Urology,Psychiatry,Dermatology,Ear Nose and Throat
1012,,TUMA/KCMUCo/MD/2015/2016/2488,65,,,72,72,54,68,73,78
1436,,TUMA/KCMUCo/MD/2015/2016/2489,65,,,75,73,58,71,60,75
1629,,TUMA/KCMUCo/MD/2015/2016/2490,65,,,76,72,63,70,72,69
1879,,TUMA/KCMUCo/MD/2015/2016/2491,65,,,70,70,54,66,72,77
1296,,TUMA/KCMUCo/MD/2015/2016/2492,65,,,77,64,60,71,69,75
1744,,TUMA/KCMUCo/MD/2015/2016/2493,65,,,81,74,67,67,73,80
1718,,TUMA/KCMUCo/MD/2015/2016/2494,65,,,65,66,60,62,68,67
1041,,TUMA/KCMUCo/MD/2015/2016/2495,65,,,71,68,51,60,72,72
1840,,TUMA/KCMUCo/MD/2015/2016/2496,65,,,62,62,57,64,63,62
1768,,TUMA/KCMUCo/MD/2015/2016/2497,65,,,64,70,56,68,67,76
1834,,TUMA/KCMUCo/MD/2015/2016/2498,65,,,73,69,59,66,67,76
1804,,TUMA/KCMUCo/MD/2015/2016/2499,65,,,79,68,67,67,71,83
1867,,TUMA/KCMUCo/MD/2015/2016/2500,65,,,68,65,57,62,71,67
1426,,TUMA/KCMUCo/MD/2015/2016/2501,65,,,75,70,69,76,63,71
1388,,TUMA/KCMUCo/MD/2015/2016/2502,65,,,76,66,68,68,67,81
1197,,TUMA/KCMUCo/MD/2015/2016/2503,65,,,69,62,60,71,72,70
1129,,TUMA/KCMUCo/MD/2015/2016/2505,65,,,70,62,58,59,66,66
1794,,TUMA/KCMUCo/MD/2015/2016/2506,65,,,70,61,56,67,72,79
972,,TUMA/KCMUCo/MD/2015/2016/2507,65,,,77,67,62,69,67,71
973,,TUMA/KCMUCo/MD/2015/2016/2508,65,,,64,60,54,62,62,64
1707,,TUMA/KCMUCo/MD/2015/2016/2509,65,,,78,66,55,68,70,65
1270,,TUMA/KCMUCo/MD/2015/2016/2510,65,,,82,80,56,70,66,70
1189,,TUMA/KCMUCo/MD/2015/2016/2511,65,,,77,67,59,70,73,73
1347,,TUMA/KCMUCo/MD/2015/2016/2512,65,,,74,64,54,71,66,77
975,,TUMA/KCMUCo/MD/2015/2016/2513,65,,,76,54,50,58,59,66
985,,TUMA/KCMUCo/MD/2015/2016/2514,65,,,70,64,53,59,66,64
1256,,TUMA/KCMUCo/MD/2015/2016/2515,65,,,81,68,57,71,71,75
1040,,TUMA/KCMUCo/MD/2015/2016/2516,65,,,79,72,52,60,72,63
1072,,TUMA/KCMUCo/MD/2015/2016/2518,65,,,70,69,63,63,68,84
1317,,TUMA/KCMUCo/MD/2015/2016/2519,65,,,82,71,61,74,70,80
1268,,TUMA/KCMUCo/MD/2015/2016/2520,65,,,71,64,52,65,67,75
1377,,TUMA/KCMUCo/MD/2015/2016/2559,69,,,69,65,50,61,51,74
1896,,TUMA/KCMUCo/MD/2015/2016/2566,65,,,68,67,50,65,60,74
1046,,TUMA/KCMUCo/MD/2015/2016/2609,65,,,79,72,63,68,68,75
1847,,TUMA/KCMUCo/MD/2015/2016/2614,65,,,77,66,61,69,69,71
1063,,TUMA/KCMUCo/MD/2015/2016/2621,65,,,70,77,63,69,69,76
1926,,TUMA/KCMUCo/MD/2015/2016/2625,65,,,71,81,53,68,65,79
1253,,TUMA/KCMUCo/MD/2015/2016/2732,65,,,61,60,56,60,62,68
1328,,TUMA/KCMUCo/MD/2015/2016/2840,65,,,81,67,80,65,68,78
1829,,TUMA/KCMUCo/MD/2015/2016/2884,65,,,71,64,50,67,68,64
966,,TUMA/KCMUCo/MD/2015/2016/2905,65,,,76,71,66,68,61,76
1238,,TUMA/KCMUCo/MD/2015/2016/2909,65,,,74,66,65,59,69,68
1763,,TUMA/KCMUCo/MD/2015/2016/2910,65,,,81,74,61,70,67,66
1358,,TUMA/KCMUCo/MD/2015/2016/2929,65,,,78,66,59,71,75,74
1560,,TUMA/KCMUCo/MD/2015/2016/2930,65,,,74,65,60,72,68,80
1337,,TUMA/KCMUCo/MD/2015/2016/2931,65,,,79,72,60,72,71,73
1578,,TUMA/KCMUCo/MD/2015/2016/2942,65,,,66,65,50,63,66,73
1549,,TUMA/KCMUCo/MD/2015/2016/2944,65,,,81,64,61,72,72,78
1019,,TUMA/KCMUCo/MD/2015/2016/2962,65,,,80,73,59,65,69,75
1170,,TUMA/KCMUCo/MD/2016/2017/2976,65,,,81,71,57,68,67,62
1254,,TUMA/KCMUCo/MD/2016/2017/3014,65,,,68,79,50,65,69,70
1767,,TUMA/KCMUCo/MD/2016/2017/3015,65,,,77,65,57,71,67,78
1001,,TUMA/KCMUCo/MD/2016/2017/3018,65,,,76,73,63,68,70,75
1016,,TUMA/KCMUCo/MD/2016/2017/3019,65,,,84,82,67,74,78,82
974,,TUMA/KCMUCo/MD/2016/2017/3021,65,,,79,64,63,71,68,69
967,,TUMA/KCMUCo/MD/2016/2017/3024,65,,,84,77,60,66,74,71
1239,,TUMA/KCMUCo/MD/2016/2017/3036,65,,,75,70,60,59,70,72
1248,,TUMA/KCMUCo/MD/2016/2017/3067,65,,,74,79,65,63,63,68
1571,,TUMA/KCMUCo/MD/2016/2017/3068,65,,,74,77,58,68,71,76
1272,,TUMA/KCMUCo/MD/2016/2017/3076,65,,,67,58,55,61,64,67
1315,,TUMA/KCMUCo/MD/2016/2017/3081,65,,,61,66,62,63,67,71
1881,,TUMA/KCMUCo/MD/2016/2017/3082,65,,,80,74,58,74,73,74
2208,,TUMA/KCMUCo/MD/2016/2017/3083,65,,,78,57,63,63,65,59
1310,,TUMA/KCMUCo/MD/2016/2017/3084,65,,,80,71,54,67,65,57
1766,,TUMA/KCMUCo/MD/2016/2017/3090,65,,,77,69,68,65,66,77
2239,,TUMA/KCMUCo/MD/2016/2017/3095,65,,,66,66,59,61,67,62
1726,,TUMA/KCMUCo/MD/2016/2017/3096,65,,,69,69,57,63,73,73
1764,,TUMA/KCMUCo/MD/2016/2017/3097,65,,,74,56,60,63,68,57
1226,,TUMA/KCMUCo/MD/2016/2017/3102,65,,,71,61,65,56,63,68
1271,,TUMA/KCMUCo/MD/2016/2017/3103,65,,,80,72,67,68,77,78
1713,,TUMA/KCMUCo/MD/2016/2017/3106,65,,,73,69,61,67,61,63
1777,,TUMA/KCMUCo/MD/2016/2017/3109,65,,,72,67,52,61,63,56
1771,,TUMA/KCMUCo/MD/2016/2017/3110,65,,,84,69,67,64,69,79
1398,,TUMA/KCMUCo/MD/2016/2017/3112,65,,,78,68,58,64,67,76
1904,,TUMA/KCMUCo/MD/2016/2017/3132,69,,,64,66,50,71,72,76
1332,,TUMA/KCMUCo/MD/2016/2017/3133,65,,,80,75,57,58,70,68
1547,,TUMA/KCMUCo/MD/2016/2017/3161,65,,,66,66,54,62,63,72
2664,,TUMA/KCMUCo/MD/2016/2017/3164,65,,,75,70,56,64,72,76
1255,,TUMA/KCMUCo/MD/2016/2017/3165,69,,,60,52,50,65,59,69
1749,,TUMA/KCMUCo/MD/2016/2017/3166,65,,,72,71,53,59,71,75
1748,,TUMA/KCMUCo/MD/2016/2017/3167,65,,,68,62,55,72,68,73
1182,,TUMA/KCMUCo/MD/2016/2017/3168,65,,,72,59,63,59,65,71
1444,,TUMA/KCMUCo/MD/2016/2017/3169,65,,,68,60,50,67,66,65
1524,,TUMA/KCMUCo/MD/2016/2017/3170,65,,,72,54,60,62,64,67
1532,,TUMA/KCMUCo/MD/2016/2017/3171,65,,,79,70,59,65,68,75
1269,,TUMA/KCMUCo/MD/2016/2017/3172,65,,,82,72,62,66,70,64
1753,,TUMA/KCMUCo/MD/2016/2017/3174,65,,,75,55,61,64,71,72
1595,,TUMA/KCMUCo/MD/2016/2017/3175,69,,,76,67,53,65,62,75
1471,,TUMA/KCMUCo/MD/2016/2017/3176,65,,,80,72,61,64,69,69
1323,,TUMA/KCMUCo/MD/2016/2017/3177,65,,,74,63,58,70,71,80
1755,,TUMA/KCMUCo/MD/2016/2017/3178,65,,,79,68,56,66,64,83
1620,,TUMA/KCMUCo/MD/2016/2017/3179,65,,,77,69,62,67,71,77
1333,,TUMA/KCMUCo/MD/2016/2017/3180,65,,,75,62,58,64,65,81
1591,,TUMA/KCMUCo/MD/2016/2017/3181,65,,,72,69,61,66,66,60
980,,TUMA/KCMUCo/MD/2016/2017/3182,65,,,81,68,59,63,69,78
1252,,TUMA/KCMUCo/MD/2016/2017/3183,65,,,79,75,61,65,70,62
997,,TUMA/KCMUCo/MD/2016/2017/3184,65,,,79,71,54,52,65,66
1600,,TUMA/KCMUCo/MD/2016/2017/3185,65,,,75,76,59,69,72,72
1385,,TUMA/KCMUCo/MD/2016/2017/3186,65,,,82,69,59,75,72,83
1927,,TUMA/KCMUCo/MD/2016/2017/3187,65,,,80,71,68,81,69,66
1740,,TUMA/KCMUCo/MD/2016/2017/3188,65,,,83,69,60,68,69,59
1793,,TUMA/KCMUCo/MD/2016/2017/3189,65,,,78,73,55,66,71,69
1865,,TUMA/KCMUCo/MD/2016/2017/3190,65,,,80,70,62,69,71,72
1792,,TUMA/KCMUCo/MD/2016/2017/3191,65,,,82,66,59,61,65,74
1613,,TUMA/KCMUCo/MD/2016/2017/3192,65,,,75,69,62,61,67,74
1442,,TUMA/KCMUCo/MD/2016/2017/3193,65,,,68,63,50,64,67,69
1391,,TUMA/KCMUCo/MD/2016/2017/3194,65,,,77,67,56,67,67,78
1576,,TUMA/KCMUCo/MD/2016/2017/3195,65,,,81,73,52,69,71,77
1632,,TUMA/KCMUCo/MD/2016/2017/3196,65,,,73,62,55,66,67,79
1259,,TUMA/KCMUCo/MD/2016/2017/3197,65,,,60,60,52,53,68,56
981,,TUMA/KCMUCo/MD/2016/2017/3198,65,,,80,79,64,64,66,73
1618,,TUMA/KCMUCo/MD/2016/2017/3199,65,,,74,69,58,57,68,62
1318,,TUMA/KCMUCo/MD/2016/2017/3200,65,,,77,71,63,57,70,70
2677,,TUMA/KCMUCo/MD/2016/2017/3201,65,,,71,72,65,65,71,73
1396,,TUMA/KCMUCo/MD/2016/2017/3202,65,,,77,74,63,70,68,69
1320,,TUMA/KCMUCo/MD/2016/2017/3203,65,,,82,79,59,68,65,72
1750,,TUMA/KCMUCo/MD/2016/2017/3204,65,,,75,71,66,63,68,62
1038,,TUMA/KCMUCo/MD/2016/2017/3205,69,,,80,67,62,67,57,79
1606,,TUMA/KCMUCo/MD/2016/2017/3206,65,,,85,70,66,79,66,53
978,,TUMA/KCMUCo/MD/2016/2017/3207,69,,,70,65,56,65,58,76
1795,,TUMA/KCMUCo/MD/2016/2017/3208,69,,,74,69,62,62,71,64
1742,,TUMA/KCMUCo/MD/2016/2017/3209,65,,,81,69,70,64,71,73
1403,,TUMA/KCMUCo/MD/2016/2017/3210,65,,,77,65,56,63,71,58
1355,,TUMA/KCMUCo/MD/2016/2017/3211,65,,,71,66,61,65,71,63
1774,,TUMA/KCMUCo/MD/2016/2017/3212,65,,,70,59,50,60,60,51
1746,,TUMA/KCMUCo/MD/2016/2017/3213,65,,,77,74,50,66,70,63
1441,,TUMA/KCMUCo/MD/2016/2017/3214,65,,,78,75,51,69,67,81
1300,,TUMA/KCMUCo/MD/2016/2017/3215,65,,,77,65,50,62,64,73
1738,,TUMA/KCMUCo/MD/2016/2017/3216,69,,,72,66,51,60,63,67
1437,,TUMA/KCMUCo/MD/2016/2017/3217,65,,,69,60,53,58,58,62
1911,,TUMA/KCMUCo/MD/2016/2017/3218,65,,,67,77,64,70,74,63
1888,,TUMA/KCMUCo/MD/2016/2017/3219,65,,,74,63,56,70,70,55
1880,,TUMA/KCMUCo/MD/2016/2017/3220,65,,,73,67,64,68,72,71
1359,,TUMA/KCMUCo/MD/2016/2017/3221,65,,,71,70,57,66,68,52
1334,,TUMA/KCMUCo/MD/2016/2017/3222,65,,,78,70,61,63,67,62
1826,,TUMA/KCMUCo/MD/2016/2017/3223,65,,,81,69,65,74,66,66
1885,,TUMA/KCMUCo/MD/2016/2017/3224,69,,,77,65,63,67,66,78
1824,,TUMA/KCMUCo/MD/2016/2017/3225,65,,,74,80,64,66,65,79
1199,,TUMA/KCMUCo/MD/2016/2017/3226,65,,,76,55,64,66,64,69
1918,,TUMA/KCMUCo/MD/2016/2017/3227,65,,,75,71,57,59,67,64
1901,,TUMA/KCMUCo/MD/2016/2017/3228,65,,,73,54,55,61,59,54
1306,,TUMA/KCMUCo/MD/2016/2017/3229,65,,,72,67,57,66,55,76
1955,,TUMA/KCMUCo/MD/2016/2017/3230,65,,,70,64,51,63,63,62
1905,,TUMA/KCMUCo/MD/2016/2017/3231,65,,,73,66,50,66,59,76
1887,,TUMA/KCMUCo/MD/2016/2017/3232,65,,,67,75,60,68,70,63
1341,,TUMA/KCMUCo/MD/2016/2017/3233,65,,,75,65,50,61,52,69
1959,,TUMA/KCMUCo/MD/2016/2017/3234,69,,,79,64,55,66,58,80
1852,,TUMA/KCMUCo/MD/2016/2017/3237,65,,,72,55,58,59,67,52
1799,,TUMA/KCMUCo/MD/2016/2017/3286,65,,,78,65,54,66,65,80
4293,,TUMA/KCMUCo/MD/2016/2017/3339,65,,,64,61,58,62,67,62
1343,,TUMA/KCMUCo/MD/2016/2017/3603,65,,,76,68,61,69,70,78
1769,,TUMA/KCMUCo/MD/2016/2017/3604,65,,,76,65,61,69,69,77
1784,,TUMA/KCMUCo/MD/2016/2017/3605,69,,,66,69,50,63,68,76
1470,,TUMA/KCMUCo/MD/2016/2017/3608,65,,,78,63,58,59,67,69
