@-header,instruction_!_ Please DO NOT CHANGE THE STRUCTURE OF THIS FILE,,,,,
@-header,maximumScore_!_ 100,,,,,
@-header,fileType_!_ results,,,,,
@-header,fileTypeCode_!_ a68816c37b60d1e016b21809447de93c,,,,,
@-header,courseId_!_ 23,,,,,
@-header,courseName_!_ MMed in General Surgery,,,,,
@-header,year_!_ 4,,,,,
@-header,semester_!_ 2,,,,,
@-header,batchId_!_ 5,,,,,
@-header,batchName_!_ 2013/2014,,,,,
@-header,flags_!_ 16,,,,,
@-header,compilationTime_!_ 2018:11:20:17:19:03,,,,,
@-header,columnCount_!_ 7,,,,,
,,,,,,
,,,,,,1157
Ref,GPA,Reg Number,Flags,Details,res,Final University Exam
113,2:3,TUMA/KCMUCo/MMED.SUR/2017/2018/0397,9,,2:60:180,65
220,2:3,TUMA/KCMUCo/MMED.SUR/2017/2018/0398,9,,2:60:180,69
