@-header,instruction_!_ Please DO NOT CHANGE THE STRUCTURE OF THIS FILE,,,,,,,,,,,,
@-header,maximumScore_!_ 100,,,,,,,,,,,,
@-header,fileType_!_ results,,,,,,,,,,,,
@-header,fileTypeCode_!_ a68816c37b60d1e016b21809447de93c,,,,,,,,,,,,
@-header,courseId_!_ 3,,,,,,,,,,,,
@-header,courseName_!_ Geology and Mineral Exploration (NTA Level 5),,,,,,,,,,,,
@-header,year_!_ 1,,,,,,,,,,,,
@-header,semester_!_ 1,,,,,,,,,,,,
@-header,batchId_!_ 7,,,,,,,,,,,,
@-header,batchName_!_ 2015/2016,,,,,,,,,,,,
@-header,compilationTime_!_ 2016:08:25:07:20:28,,,,,,,,,,,,
@-header,columnCount_!_ 14,,,,,,,,,,,,
,,,,,,,,,,,,,
,,,,,,,,,,,,,
,,,,,,19,20,21,22,23,24,25,26
Ref,Repeat,Reg Number,res,res,res,Economic Geology,Petrology,Exploration Geochemistry,Control Surveying,Calculus and Numerical Methods,Electricity and Magnetism,Computer Networks and Database systems,Technical Report Writing
4,0,0003MID16,3,,#,0,15,59,59,59,59,59,59
5,0,0004MID16,3,,#,52,0,59,59,59,59,59,59
6,0,TZ.NACTE.00005,2,,#,42,62,59,59,59,59,59,59
7,0,TZ.NACTE.0098.012,3,,#,0,72,59,59,59,59,59,59
11,0,0005MID16,2,,#,38,52,29,29,29,29,29,29
