@-header,instruction_!_ Please DO NOT CHANGE THE STRUCTURE OF THIS FILE,,,,,
@-header,maximumScore_!_ 100,,,,,
@-header,fileType_!_ results,,,,,
@-header,fileTypeCode_!_ a68816c37b60d1e016b21809447de93c,,,,,
@-header,courseId_!_ 25,,,,,
@-header,courseName_!_ MMed in Obstetrics and Gynaecology,,,,,
@-header,year_!_ 4,,,,,
@-header,semester_!_ 1,,,,,
@-header,batchId_!_ 5,,,,,
@-header,batchName_!_ 2013/2014,,,,,
@-header,flags_!_ 16,,,,,
@-header,compilationTime_!_ 2018:11:24:15:20:25,,,,,
@-header,columnCount_!_ 7,,,,,
,,,,,,
,,,,,,1174
Ref,GPA,Reg Number,Flags,Details,res,ESAT 6
140,1:3,TUMA/KCMUCo/MMED.OGY/2016/2017/0405,9,,1:60:180,63
153,1:4,TUMA/KCMUCo/MMED.OGY/2016/2017/0406,9,,1:60:240,77
164,1:3,TUMA/KCMUCo/MMED.OGY/2016/2017/0410,9,,1:60:180,67
155,1:3,TUMA/KCMUCo/MMED.OGY/2017/2018/0425,9,,1:60:180,65
33,1:4,TUMA/KCMUCo/MMED.OGY/2017/2018/0426,9,,1:60:240,75
47,1:3,TUMA/KCMUCo/MMED.OGY/2017/2018/0427,9,,1:60:180,60
