@-header,instruction_!_ Please DO NOT CHANGE THE STRUCTURE OF THIS FILE,,,,,,,,
@-header,compilationTime_!_ 2018:04:04:12:40:28,,,,,,,,
@-header,columnCount_!_ 10,,,,,,,,
@-header,maximumScore_!_ 100,,,,,,,,
@-header,fileType_!_ results,,,,,,,,
@-header,fileTypeCode_!_ a68816c37b60d1e016b21809447de93c,,,,,,,,
@-header,courseId_!_ 8,,,,,,,,
@-header,courseName_!_ Bachelor of Science in Health Laboratory Science,,,,,,,,
@-header,year_!_ 3,,,,,,,,
@-header,semester_!_ 1,,,,,,,,
@-header,batchId_!_ 6,,,,,,,,
@-header,batchName_!_ 2014/2015,,,,,,,,
@-header,flags_!_ 0,,,,,,,,
,,,,,,,,,
,,,,,,351,962,232,291
Ref,GPA,Reg Number,Flags,Details,res,Research Methodology ,Epidemiology and Biostatistics,Molecular  Biology,Lab Quality System
773,,TUMA/KCMUCo/BScHLSc/2015/2016/0543,65,,,53,61,57,67
840,,TUMA/KCMUCo/BScHLSc/2015/2016/0544,65,,,62,74,68,72
700,,TUMA/KCMUCo/BScHLSc/2015/2016/0555,65,,,61,72,72,63
865,,TUMA/KCMUCo/BScHLSc/2015/2016/0557,65,,,62,74,64,71
709,,TUMA/KCMUCo/BScHLSc/2015/2016/0559,65,,,58,75,65,53
659,,TUMA/KCMUCo/BScHLSc/2015/2016/0560,65,,,64,64,70,69
698,,TUMA/KCMUCo/BScHLSc/2015/2016/0561,65,,,54,63,61,66
587,,TUMA/KCMUCo/BScHLSc/2015/2016/0562,65,,,63,69,68,52
679,,TUMA/KCMUCo/BScHLSc/2015/2016/0565,65,,,64,75,71,62
844,,TUMA/KCMUCo/BScHLSc/2015/2016/0566,65,,,63,71,74,68
705,,TUMA/KCMUCo/BScHLSc/2015/2016/0570,65,,,57,61,60,65
776,,TUMA/KCMUCo/BScHLSc/2015/2016/0571,65,,,65,75,69,61
672,,TUMA/KCMUCo/BScHLSc/2015/2016/0572,65,,,65,66,61,75
703,,TUMA/KCMUCo/BScHLSc/2015/2016/0573,65,,,68,75,70,71
817,,TUMA/KCMUCo/BScHLSc/2015/2016/0602,65,,,54,61,54,66
710,,TUMA/KCMUCo/BScHLSc/2015/2016/0603,65,,,50,56,66,63
951,,TUMA/KCMUCo/BScHLSc/2015/2016/0608,65,,,50,60,58,65
694,,TUMA/KCMUCo/BScHLSc/2015/2016/0609,65,,,59,72,71,65
824,,TUMA/KCMUCo/BScHLSc/2015/2016/0610,65,,,50,50,68,55
553,,TUMA/KCMUCo/BScHLSc/2015/2016/0616,65,,,51,56,63,63
607,,TUMA/KCMUCo/BScHLSc/2015/2016/0631,65,,,71,69,74,64
520,,TUMA/KCMUCo/BScHLSc/2015/2016/0632,65,,,58,65,66,79
660,,TUMA/KCMUCo/BScHLSc/2015/2016/0633,65,,,62,66,61,63
680,,TUMA/KCMUCo/BScHLSc/2015/2016/0634,65,,,60,67,69,62
806,,TUMA/KCMUCo/BScHLSc/2015/2016/0635,65,,,63,71,85,74
661,,TUMA/KCMUCo/BScHLSc/2015/2016/0643,65,,,66,77,71,74
612,,TUMA/KCMUCo/BScHLSc/2015/2016/0644,65,,,57,66,70,60
465,,TUMA/KCMUCo/BScHLSc/2015/2016/0648,65,,,53,71,58,50
611,,TUMA/KCMUCo/BScHLSc/2015/2016/0652,65,,,54,60,61,52
613,,TUMA/KCMUCo/BScHLSc/2015/2016/0653,65,,,62,70,73,58
670,,TUMA/KCMUCo/BScHLSc/2015/2016/0654,65,,,55,63,64,64
523,,TUMA/KCMUCo/BScHLSc/2015/2016/0655,65,,,54,70,62,69
745,,TUMA/KCMUCo/BScHLSc/2015/2016/0656,65,,,60,67,58,70
759,,TUMA/KCMUCo/BScHLSc/2015/2016/0660,65,,,62,76,65,67
754,,TUMA/KCMUCo/BScHLSc/2015/2016/0662,65,,,57,67,66,64
629,,TUMA/KCMUCo/BScHLSc/2015/2016/0674,65,,,56,77,65,62
654,,TUMA/KCMUCo/BScHLSc/2015/2016/0678,65,,,54,64,59,60
577,,TUMA/KCMUCo/BScHLSc/2015/2016/0680,65,,,56,53,58,50
642,,TUMA/KCMUCo/BScHLSc/2015/2016/0683,65,,,50,54,54,62
938,,TUMA/KCMUCo/BScHLSc/2015/2016/0684,65,,,64,69,70,59
732,,TUMA/KCMUCo/BScHLSc/2015/2016/0688,65,,,54,65,55,57
753,,TUMA/KCMUCo/BScHLSc/2015/2016/0689,65,,,61,65,61,59
707,,TUMA/KCMUCo/BScHLSc/2015/2016/0691,65,,,53,62,57,63
908,,TUMA/KCMUCo/BScHLSc/2015/2016/0693,65,,,66,73,59,56
935,,TUMA/KCMUCo/BScHLSc/2015/2016/0695,65,,,55,65,60,57
595,,TUMA/KCMUCo/BScHLSc/2015/2016/0696,65,,,63,60,64,62
870,,TUMA/KCMUCo/BScHLSc/2015/2016/0700,65,,,62,75,73,76
934,,TUMA/KCMUCo/BScHLSc/2016/2017/0711,65,,,53,63,62,65
