@-header,instruction_!_ Please DO NOT CHANGE THE STRUCTURE OF THIS FILE,,,,,,,,
@-header,maximumScore_!_ 100,,,,,,,,
@-header,fileType_!_ results,,,,,,,,
@-header,fileTypeCode_!_ a68816c37b60d1e016b21809447de93c,,,,,,,,
@-header,courseId_!_ 9,,,,,,,,
@-header,courseName_!_ Doctor of Medicine,,,,,,,,
@-header,year_!_ 5,,,,,,,,
@-header,semester_!_ 2,,,,,,,,
@-header,batchId_!_ 4,,,,,,,,
@-header,batchName_!_ 2012/2013,,,,,,,,
@-header,flags_!_ 0,,,,,,,,
@-header,compilationTime_!_ 2018:04:24:17:03:15,,,,,,,,
@-header,columnCount_!_ 10,,,,,,,,
,,,,,,,,,
,,,,,,201,756,757,758
Ref,GPA,Reg Number,Flags,Details,res,Internal  Medicine,Paediatrics and Childhealth, Obstetrics and Gynaecology,General Surgery
1012,,TUMA/KCMUCo/MD/2015/2016/2488,65,,,67,84,77,76
1436,,TUMA/KCMUCo/MD/2015/2016/2489,65,,,58,69,70,60
1629,,TUMA/KCMUCo/MD/2015/2016/2490,65,,,61,71,67,67
1879,,TUMA/KCMUCo/MD/2015/2016/2491,65,,,67,68,79,67
1296,,TUMA/KCMUCo/MD/2015/2016/2492,65,,,56,67,69,67
1744,,TUMA/KCMUCo/MD/2015/2016/2493,65,,,67,68,78,73
1718,,TUMA/KCMUCo/MD/2015/2016/2494,65,,,51,63,62,61
1041,,TUMA/KCMUCo/MD/2015/2016/2495,65,,,63,63,67,67
1840,,TUMA/KCMUCo/MD/2015/2016/2496,65,,,67,71,65,69
1768,,TUMA/KCMUCo/MD/2015/2016/2497,65,,,55,65,71,66
1834,,TUMA/KCMUCo/MD/2015/2016/2498,65,,,64,72,63,70
1804,,TUMA/KCMUCo/MD/2015/2016/2499,65,,,70,67,69,64
1867,,TUMA/KCMUCo/MD/2015/2016/2500,65,,,56,61,67,62
1426,,TUMA/KCMUCo/MD/2015/2016/2501,65,,,67,68,70,71
1388,,TUMA/KCMUCo/MD/2015/2016/2502,65,,,65,75,63,67
1197,,TUMA/KCMUCo/MD/2015/2016/2503,65,,,62,67,65,65
1129,,TUMA/KCMUCo/MD/2015/2016/2505,65,,,58,62,64,62
1794,,TUMA/KCMUCo/MD/2015/2016/2506,65,,,63,71,71,77
972,,TUMA/KCMUCo/MD/2015/2016/2507,65,,,68,68,71,68
973,,TUMA/KCMUCo/MD/2015/2016/2508,65,,,53,62,50,57
1707,,TUMA/KCMUCo/MD/2015/2016/2509,65,,,58,71,59,68
1270,,TUMA/KCMUCo/MD/2015/2016/2510,65,,,62,50,67,65
1189,,TUMA/KCMUCo/MD/2015/2016/2511,65,,,65,68,69,72
1347,,TUMA/KCMUCo/MD/2015/2016/2512,65,,,64,50,71,59
975,,TUMA/KCMUCo/MD/2015/2016/2513,65,,,54,57,50,62
985,,TUMA/KCMUCo/MD/2015/2016/2514,65,,,50,50,50,60
1256,,TUMA/KCMUCo/MD/2015/2016/2515,65,,,66,70,61,67
1040,,TUMA/KCMUCo/MD/2015/2016/2516,65,,,63,64,75,66
1072,,TUMA/KCMUCo/MD/2015/2016/2518,65,,,64,68,64,72
1317,,TUMA/KCMUCo/MD/2015/2016/2519,65,,,70,75,78,74
1268,,TUMA/KCMUCo/MD/2015/2016/2520,65,,,52,63,65,58
1377,,TUMA/KCMUCo/MD/2015/2016/2559,69,,,56,61,60,50
1896,,TUMA/KCMUCo/MD/2015/2016/2566,65,,,63,72,70,73
1046,,TUMA/KCMUCo/MD/2015/2016/2609,65,,,64,67,72,69
1847,,TUMA/KCMUCo/MD/2015/2016/2614,65,,,68,69,76,71
1063,,TUMA/KCMUCo/MD/2015/2016/2621,65,,,65,68,75,75
1926,,TUMA/KCMUCo/MD/2015/2016/2625,65,,,58,72,71,74
1253,,TUMA/KCMUCo/MD/2015/2016/2732,65,,,58,55,67,50
1328,,TUMA/KCMUCo/MD/2015/2016/2840,65,,,68,70,58,66
1829,,TUMA/KCMUCo/MD/2015/2016/2884,65,,,64,61,68,63
966,,TUMA/KCMUCo/MD/2015/2016/2905,65,,,55,50,56,66
1238,,TUMA/KCMUCo/MD/2015/2016/2909,65,,,60,72,70,70
1763,,TUMA/KCMUCo/MD/2015/2016/2910,65,,,64,72,72,76
1358,,TUMA/KCMUCo/MD/2015/2016/2929,65,,,64,67,75,71
1560,,TUMA/KCMUCo/MD/2015/2016/2930,65,,,68,76,75,72
1337,,TUMA/KCMUCo/MD/2015/2016/2931,65,,,74,50,73,70
1578,,TUMA/KCMUCo/MD/2015/2016/2942,65,,,59,61,64,67
1549,,TUMA/KCMUCo/MD/2015/2016/2944,65,,,67,65,50,66
1019,,TUMA/KCMUCo/MD/2015/2016/2962,65,,,64,68,68,64
1170,,TUMA/KCMUCo/MD/2016/2017/2976,65,,,59,69,50,68
1254,,TUMA/KCMUCo/MD/2016/2017/3014,65,,,65,50,55,67
1767,,TUMA/KCMUCo/MD/2016/2017/3015,65,,,59,68,62,62
1001,,TUMA/KCMUCo/MD/2016/2017/3018,65,,,57,63,67,69
1016,,TUMA/KCMUCo/MD/2016/2017/3019,65,,,81,78,76,85
974,,TUMA/KCMUCo/MD/2016/2017/3021,65,,,70,60,68,62
967,,TUMA/KCMUCo/MD/2016/2017/3024,65,,,69,76,72,71
1239,,TUMA/KCMUCo/MD/2016/2017/3036,65,,,68,58,73,71
1248,,TUMA/KCMUCo/MD/2016/2017/3067,65,,,57,68,64,66
1571,,TUMA/KCMUCo/MD/2016/2017/3068,65,,,64,73,58,76
1272,,TUMA/KCMUCo/MD/2016/2017/3076,65,,,58,63,69,58
1315,,TUMA/KCMUCo/MD/2016/2017/3081,65,,,50,69,63,62
1881,,TUMA/KCMUCo/MD/2016/2017/3082,65,,,62,72,69,73
2208,,TUMA/KCMUCo/MD/2016/2017/3083,65,,,64,67,70,67
1310,,TUMA/KCMUCo/MD/2016/2017/3084,65,,,58,67,71,68
1766,,TUMA/KCMUCo/MD/2016/2017/3090,65,,,57,63,66,72
2239,,TUMA/KCMUCo/MD/2016/2017/3095,65,,,53,54,60,50
1726,,TUMA/KCMUCo/MD/2016/2017/3096,65,,,60,68,58,68
1764,,TUMA/KCMUCo/MD/2016/2017/3097,65,,,61,60,56,68
1226,,TUMA/KCMUCo/MD/2016/2017/3102,65,,,54,60,56,62
1271,,TUMA/KCMUCo/MD/2016/2017/3103,65,,,65,70,73,68
1713,,TUMA/KCMUCo/MD/2016/2017/3106,65,,,63,63,59,62
1777,,TUMA/KCMUCo/MD/2016/2017/3109,65,,,61,65,52,62
1771,,TUMA/KCMUCo/MD/2016/2017/3110,65,,,60,67,61,66
1398,,TUMA/KCMUCo/MD/2016/2017/3112,65,,,62,66,71,64
1904,,TUMA/KCMUCo/MD/2016/2017/3132,69,,,67,67,60,62
1332,,TUMA/KCMUCo/MD/2016/2017/3133,65,,,61,50,67,65
1547,,TUMA/KCMUCo/MD/2016/2017/3161,65,,,59,62,58,67
2664,,TUMA/KCMUCo/MD/2016/2017/3164,65,,,61,64,70,67
1255,,TUMA/KCMUCo/MD/2016/2017/3165,69,,,55,50,50,50
1749,,TUMA/KCMUCo/MD/2016/2017/3166,65,,,61,59,57,66
1748,,TUMA/KCMUCo/MD/2016/2017/3167,65,,,66,66,77,68
1182,,TUMA/KCMUCo/MD/2016/2017/3168,65,,,73,68,65,67
1444,,TUMA/KCMUCo/MD/2016/2017/3169,65,,,67,68,67,71
1524,,TUMA/KCMUCo/MD/2016/2017/3170,65,,,64,50,66,67
1532,,TUMA/KCMUCo/MD/2016/2017/3171,65,,,50,63,67,66
1269,,TUMA/KCMUCo/MD/2016/2017/3172,65,,,67,62,70,67
1753,,TUMA/KCMUCo/MD/2016/2017/3174,65,,,62,60,62,65
1595,,TUMA/KCMUCo/MD/2016/2017/3175,69,,,64,54,58,63
1471,,TUMA/KCMUCo/MD/2016/2017/3176,65,,,66,69,69,74
1323,,TUMA/KCMUCo/MD/2016/2017/3177,65,,,74,65,70,73
1755,,TUMA/KCMUCo/MD/2016/2017/3178,65,,,50,59,69,63
1620,,TUMA/KCMUCo/MD/2016/2017/3179,65,,,68,73,71,72
1333,,TUMA/KCMUCo/MD/2016/2017/3180,65,,,68,60,73,71
1591,,TUMA/KCMUCo/MD/2016/2017/3181,65,,,50,67,64,69
980,,TUMA/KCMUCo/MD/2016/2017/3182,65,,,61,63,67,65
1252,,TUMA/KCMUCo/MD/2016/2017/3183,65,,,63,72,69,73
997,,TUMA/KCMUCo/MD/2016/2017/3184,65,,,63,63,63,50
1600,,TUMA/KCMUCo/MD/2016/2017/3185,65,,,58,50,65,67
1385,,TUMA/KCMUCo/MD/2016/2017/3186,65,,,66,67,75,70
1927,,TUMA/KCMUCo/MD/2016/2017/3187,65,,,78,74,70,81
1740,,TUMA/KCMUCo/MD/2016/2017/3188,65,,,69,64,73,72
1793,,TUMA/KCMUCo/MD/2016/2017/3189,65,,,73,70,66,72
1865,,TUMA/KCMUCo/MD/2016/2017/3190,65,,,66,69,68,71
1792,,TUMA/KCMUCo/MD/2016/2017/3191,65,,,66,67,72,66
1613,,TUMA/KCMUCo/MD/2016/2017/3192,65,,,62,62,70,65
1442,,TUMA/KCMUCo/MD/2016/2017/3193,65,,,50,50,63,65
1391,,TUMA/KCMUCo/MD/2016/2017/3194,65,,,62,66,69,68
1576,,TUMA/KCMUCo/MD/2016/2017/3195,65,,,65,66,69,64
1632,,TUMA/KCMUCo/MD/2016/2017/3196,65,,,67,55,61,65
1259,,TUMA/KCMUCo/MD/2016/2017/3197,65,,,61,50,50,64
981,,TUMA/KCMUCo/MD/2016/2017/3198,65,,,50,64,58,71
1618,,TUMA/KCMUCo/MD/2016/2017/3199,65,,,62,50,59,65
1318,,TUMA/KCMUCo/MD/2016/2017/3200,65,,,65,60,65,60
2677,,TUMA/KCMUCo/MD/2016/2017/3201,65,,,71,72,64,69
1396,,TUMA/KCMUCo/MD/2016/2017/3202,65,,,67,70,80,74
1320,,TUMA/KCMUCo/MD/2016/2017/3203,65,,,69,67,68,69
1750,,TUMA/KCMUCo/MD/2016/2017/3204,65,,,65,62,73,63
1038,,TUMA/KCMUCo/MD/2016/2017/3205,69,,,63,70,61,68
1606,,TUMA/KCMUCo/MD/2016/2017/3206,65,,,59,72,63,74
978,,TUMA/KCMUCo/MD/2016/2017/3207,69,,,68,59,67,64
1795,,TUMA/KCMUCo/MD/2016/2017/3208,69,,,50,61,50,68
1742,,TUMA/KCMUCo/MD/2016/2017/3209,65,,,66,75,69,72
1403,,TUMA/KCMUCo/MD/2016/2017/3210,65,,,74,70,69,66
1355,,TUMA/KCMUCo/MD/2016/2017/3211,65,,,50,50,66,58
1774,,TUMA/KCMUCo/MD/2016/2017/3212,65,,,60,60,56,60
1746,,TUMA/KCMUCo/MD/2016/2017/3213,65,,,52,62,67,65
1441,,TUMA/KCMUCo/MD/2016/2017/3214,65,,,64,77,66,72
1300,,TUMA/KCMUCo/MD/2016/2017/3215,65,,,68,66,69,70
1738,,TUMA/KCMUCo/MD/2016/2017/3216,69,,,59,60,50,59
1437,,TUMA/KCMUCo/MD/2016/2017/3217,65,,,50,55,50,66
1911,,TUMA/KCMUCo/MD/2016/2017/3218,65,,,68,77,65,75
1888,,TUMA/KCMUCo/MD/2016/2017/3219,65,,,66,66,77,63
1880,,TUMA/KCMUCo/MD/2016/2017/3220,65,,,56,69,74,64
1359,,TUMA/KCMUCo/MD/2016/2017/3221,65,,,66,65,63,66
1334,,TUMA/KCMUCo/MD/2016/2017/3222,65,,,50,67,66,69
1826,,TUMA/KCMUCo/MD/2016/2017/3223,65,,,64,65,69,68
1885,,TUMA/KCMUCo/MD/2016/2017/3224,69,,,65,70,82,61
1824,,TUMA/KCMUCo/MD/2016/2017/3225,65,,,69,72,65,75
1199,,TUMA/KCMUCo/MD/2016/2017/3226,65,,,64,50,75,63
1918,,TUMA/KCMUCo/MD/2016/2017/3227,65,,,66,68,63,65
1901,,TUMA/KCMUCo/MD/2016/2017/3228,65,,,65,54,67,61
1306,,TUMA/KCMUCo/MD/2016/2017/3229,65,,,67,68,63,66
1955,,TUMA/KCMUCo/MD/2016/2017/3230,65,,,69,69,65,62
1905,,TUMA/KCMUCo/MD/2016/2017/3231,65,,,60,63,64,73
1887,,TUMA/KCMUCo/MD/2016/2017/3232,65,,,66,78,71,65
1341,,TUMA/KCMUCo/MD/2016/2017/3233,65,,,50,50,65,59
1959,,TUMA/KCMUCo/MD/2016/2017/3234,69,,,59,67,65,50
1852,,TUMA/KCMUCo/MD/2016/2017/3237,65,,,50,60,57,58
1799,,TUMA/KCMUCo/MD/2016/2017/3286,65,,,67,65,59,68
4293,,TUMA/KCMUCo/MD/2016/2017/3339,65,,,73,71,71,56
1343,,TUMA/KCMUCo/MD/2016/2017/3603,65,,,63,74,66,71
1769,,TUMA/KCMUCo/MD/2016/2017/3604,65,,,59,69,57,62
1784,,TUMA/KCMUCo/MD/2016/2017/3605,69,,,50,50,60,63
1470,,TUMA/KCMUCo/MD/2016/2017/3608,65,,,53,70,60,68
