@-header,instruction_!_ Please DO NOT CHANGE THE STRUCTURE OF THIS FILE,,,,,,,,,
@-header,maximumScore_!_ 100,,,,,,,,,
@-header,fileType_!_ results,,,,,,,,,
@-header,fileTypeCode_!_ a68816c37b60d1e016b21809447de93c,,,,,,,,,
@-header,courseId_!_ 9,,,,,,,,,
@-header,courseName_!_ Doctor of Medicine,,,,,,,,,
@-header,year_!_ 3,,,,,,,,,
@-header,semester_!_ 2,,,,,,,,,
@-header,batchId_!_ 4,,,,,,,,,
@-header,batchName_!_ 2012/2013,,,,,,,,,
@-header,flags_!_ 0,,,,,,,,,
@-header,compilationTime_!_ 2018:04:24:10:50:54,,,,,,,,,
@-header,columnCount_!_ 11,,,,,,,,,
,,,,,,,,,,
,,,,,,185,186,188,567,922
Ref,GPA,Reg Number,Flags,Details,res,Dental,Radiology,Ophthalmology,	Psychiatry,Clinical Laboratory
1012,,TUMA/KCMUCo/MD/2015/2016/2488,65,,,73,85,72,67,71
1436,,TUMA/KCMUCo/MD/2015/2016/2489,65,,,73,63,67,74,68
1629,,TUMA/KCMUCo/MD/2015/2016/2490,65,,,78,78,75,71,68
1879,,TUMA/KCMUCo/MD/2015/2016/2491,65,,,77,67,67,67,65
1296,,TUMA/KCMUCo/MD/2015/2016/2492,65,,,70,72,76,66,55
1744,,TUMA/KCMUCo/MD/2015/2016/2493,65,,,75,65,76,67,73
1718,,TUMA/KCMUCo/MD/2015/2016/2494,65,,,76,58,75,69,73
1041,,TUMA/KCMUCo/MD/2015/2016/2495,65,,,72,62,75,62,67
1840,,TUMA/KCMUCo/MD/2015/2016/2496,65,,,63,59,68,65,62
1768,,TUMA/KCMUCo/MD/2015/2016/2497,65,,,68,72,74,73,66
1834,,TUMA/KCMUCo/MD/2015/2016/2498,65,,,76,80,71,69,70
1804,,TUMA/KCMUCo/MD/2015/2016/2499,65,,,76,70,73,71,74
1867,,TUMA/KCMUCo/MD/2015/2016/2500,65,,,66,66,76,66,68
1426,,TUMA/KCMUCo/MD/2015/2016/2501,65,,,80,74,80,75,80
1388,,TUMA/KCMUCo/MD/2015/2016/2502,65,,,76,77,79,71,71
1197,,TUMA/KCMUCo/MD/2015/2016/2503,65,,,80,62,73,70,72
1129,,TUMA/KCMUCo/MD/2015/2016/2505,65,,,76,68,67,63,67
1794,,TUMA/KCMUCo/MD/2015/2016/2506,65,,,73,79,74,71,71
972,,TUMA/KCMUCo/MD/2015/2016/2507,65,,,82,67,73,74,65
973,,TUMA/KCMUCo/MD/2015/2016/2508,65,,,71,51,75,65,70
1707,,TUMA/KCMUCo/MD/2015/2016/2509,65,,,78,76,84,69,63
1270,,TUMA/KCMUCo/MD/2015/2016/2510,65,,,81,67,87,73,78
1189,,TUMA/KCMUCo/MD/2015/2016/2511,65,,,84,70,88,73,69
1347,,TUMA/KCMUCo/MD/2015/2016/2512,65,,,76,79,78,74,61
975,,TUMA/KCMUCo/MD/2015/2016/2513,65,,,68,63,64,63,53
985,,TUMA/KCMUCo/MD/2015/2016/2514,65,,,67,55,71,62,68
1256,,TUMA/KCMUCo/MD/2015/2016/2515,65,,,74,74,77,73,71
1040,,TUMA/KCMUCo/MD/2015/2016/2516,65,,,76,78,76,66,71
1072,,TUMA/KCMUCo/MD/2015/2016/2518,65,,,76,78,62,70,79
1317,,TUMA/KCMUCo/MD/2015/2016/2519,65,,,81,75,88,77,72
1268,,TUMA/KCMUCo/MD/2015/2016/2520,65,,,73,67,69,71,58
1377,,TUMA/KCMUCo/MD/2015/2016/2559,69,,,70,58,63,67,50
1896,,TUMA/KCMUCo/MD/2015/2016/2566,65,,,74,59,69,65,66
1046,,TUMA/KCMUCo/MD/2015/2016/2609,65,,,72,78,79,69,61
1847,,TUMA/KCMUCo/MD/2015/2016/2614,65,,,74,76,66,73,63
1063,,TUMA/KCMUCo/MD/2015/2016/2621,65,,,82,82,75,72,71
1926,,TUMA/KCMUCo/MD/2015/2016/2625,65,,,82,78,69,72,70
1253,,TUMA/KCMUCo/MD/2015/2016/2732,65,,,69,55,61,66,60
1328,,TUMA/KCMUCo/MD/2015/2016/2840,65,,,75,81,80,73,70
1829,,TUMA/KCMUCo/MD/2015/2016/2884,65,,,68,64,60,72,51
966,,TUMA/KCMUCo/MD/2015/2016/2905,65,,,75,74,74,74,70
1238,,TUMA/KCMUCo/MD/2015/2016/2909,65,,,70,73,66,71,67
1763,,TUMA/KCMUCo/MD/2015/2016/2910,65,,,79,83,71,72,72
1358,,TUMA/KCMUCo/MD/2015/2016/2929,65,,,80,63,64,72,63
1560,,TUMA/KCMUCo/MD/2015/2016/2930,65,,,83,78,82,74,70
1337,,TUMA/KCMUCo/MD/2015/2016/2931,65,,,73,63,71,73,66
1578,,TUMA/KCMUCo/MD/2015/2016/2942,65,,,65,62,66,71,54
1549,,TUMA/KCMUCo/MD/2015/2016/2944,65,,,76,85,66,74,61
1019,,TUMA/KCMUCo/MD/2015/2016/2962,65,,,83,80,82,72,61
1170,,TUMA/KCMUCo/MD/2016/2017/2976,65,,,72,71,78,72,67
1254,,TUMA/KCMUCo/MD/2016/2017/3014,65,,,74,70,76,67,70
1767,,TUMA/KCMUCo/MD/2016/2017/3015,65,,,72,69,63,71,60
1001,,TUMA/KCMUCo/MD/2016/2017/3018,65,,,74,74,72,73,70
1016,,TUMA/KCMUCo/MD/2016/2017/3019,65,,,76,86,85,75,75
974,,TUMA/KCMUCo/MD/2016/2017/3021,65,,,75,79,80,74,72
967,,TUMA/KCMUCo/MD/2016/2017/3024,65,,,77,79,80,71,73
1239,,TUMA/KCMUCo/MD/2016/2017/3036,65,,,79,72,75,75,69
1248,,TUMA/KCMUCo/MD/2016/2017/3067,65,,,74,72,66,68,58
1571,,TUMA/KCMUCo/MD/2016/2017/3068,65,,,74,85,81,74,62
1272,,TUMA/KCMUCo/MD/2016/2017/3076,65,,,67,61,77,59,51
1315,,TUMA/KCMUCo/MD/2016/2017/3081,65,,,72,67,72,65,70
1881,,TUMA/KCMUCo/MD/2016/2017/3082,65,,,79,83,80,72,76
2208,,TUMA/KCMUCo/MD/2016/2017/3083,65,,,75,71,69,69,62
1310,,TUMA/KCMUCo/MD/2016/2017/3084,65,,,77,81,78,68,70
1766,,TUMA/KCMUCo/MD/2016/2017/3090,65,,,72,70,76,66,58
2239,,TUMA/KCMUCo/MD/2016/2017/3095,65,,,71,60,63,67,67
1726,,TUMA/KCMUCo/MD/2016/2017/3096,65,,,74,62,67,73,62
1764,,TUMA/KCMUCo/MD/2016/2017/3097,65,,,65,51,65,73,58
1226,,TUMA/KCMUCo/MD/2016/2017/3102,65,,,69,57,64,63,71
1271,,TUMA/KCMUCo/MD/2016/2017/3103,65,,,83,75,80,73,71
1713,,TUMA/KCMUCo/MD/2016/2017/3106,65,,,68,64,72,64,65
1777,,TUMA/KCMUCo/MD/2016/2017/3109,65,,,70,55,62,66,50
1771,,TUMA/KCMUCo/MD/2016/2017/3110,65,,,73,73,68,69,60
1398,,TUMA/KCMUCo/MD/2016/2017/3112,65,,,70,74,75,69,60
1904,,TUMA/KCMUCo/MD/2016/2017/3132,69,,,67,71,62,66,60
1332,,TUMA/KCMUCo/MD/2016/2017/3133,65,,,72,68,74,67,74
1547,,TUMA/KCMUCo/MD/2016/2017/3161,65,,,75,62,64,62,55
2664,,TUMA/KCMUCo/MD/2016/2017/3164,65,,,75,64,66,73,55
1255,,TUMA/KCMUCo/MD/2016/2017/3165,69,,,74,62,66,65,50
1749,,TUMA/KCMUCo/MD/2016/2017/3166,65,,,74,66,75,72,63
1748,,TUMA/KCMUCo/MD/2016/2017/3167,65,,,73,70,81,69,71
1182,,TUMA/KCMUCo/MD/2016/2017/3168,65,,,71,67,62,64,62
1444,,TUMA/KCMUCo/MD/2016/2017/3169,65,,,71,68,67,70,58
1524,,TUMA/KCMUCo/MD/2016/2017/3170,65,,,70,64,66,70,57
1532,,TUMA/KCMUCo/MD/2016/2017/3171,65,,,76,70,68,67,62
1269,,TUMA/KCMUCo/MD/2016/2017/3172,65,,,65,69,84,74,68
1753,,TUMA/KCMUCo/MD/2016/2017/3174,65,,,73,65,77,71,67
1595,,TUMA/KCMUCo/MD/2016/2017/3175,69,,,65,56,64,67,50
1471,,TUMA/KCMUCo/MD/2016/2017/3176,65,,,72,71,76,68,72
1323,,TUMA/KCMUCo/MD/2016/2017/3177,65,,,79,83,79,75,71
1755,,TUMA/KCMUCo/MD/2016/2017/3178,65,,,68,76,68,69,70
1620,,TUMA/KCMUCo/MD/2016/2017/3179,65,,,72,70,66,78,59
1333,,TUMA/KCMUCo/MD/2016/2017/3180,65,,,64,70,60,68,74
1591,,TUMA/KCMUCo/MD/2016/2017/3181,65,,,68,67,67,75,71
980,,TUMA/KCMUCo/MD/2016/2017/3182,65,,,73,81,69,70,65
1252,,TUMA/KCMUCo/MD/2016/2017/3183,65,,,75,70,80,71,69
997,,TUMA/KCMUCo/MD/2016/2017/3184,65,,,70,64,65,63,69
1600,,TUMA/KCMUCo/MD/2016/2017/3185,65,,,78,72,72,72,67
1385,,TUMA/KCMUCo/MD/2016/2017/3186,65,,,79,86,76,73,79
1927,,TUMA/KCMUCo/MD/2016/2017/3187,65,,,82,85,86,77,74
1740,,TUMA/KCMUCo/MD/2016/2017/3188,65,,,71,77,78,71,72
1793,,TUMA/KCMUCo/MD/2016/2017/3189,65,,,74,74,64,70,72
1865,,TUMA/KCMUCo/MD/2016/2017/3190,65,,,73,79,67,75,75
1792,,TUMA/KCMUCo/MD/2016/2017/3191,65,,,72,73,73,65,66
1613,,TUMA/KCMUCo/MD/2016/2017/3192,65,,,77,66,66,70,60
1442,,TUMA/KCMUCo/MD/2016/2017/3193,65,,,70,61,65,71,60
1391,,TUMA/KCMUCo/MD/2016/2017/3194,65,,,74,64,75,74,64
1576,,TUMA/KCMUCo/MD/2016/2017/3195,65,,,82,64,73,72,72
1632,,TUMA/KCMUCo/MD/2016/2017/3196,65,,,74,68,73,73,56
1259,,TUMA/KCMUCo/MD/2016/2017/3197,65,,,65,53,58,63,52
981,,TUMA/KCMUCo/MD/2016/2017/3198,65,,,73,70,70,63,71
1618,,TUMA/KCMUCo/MD/2016/2017/3199,65,,,74,75,65,59,53
1318,,TUMA/KCMUCo/MD/2016/2017/3200,65,,,72,75,65,70,69
2677,,TUMA/KCMUCo/MD/2016/2017/3201,65,,,72,77,81,64,73
1396,,TUMA/KCMUCo/MD/2016/2017/3202,65,,,68,75,74,67,63
1320,,TUMA/KCMUCo/MD/2016/2017/3203,65,,,79,84,82,74,60
1750,,TUMA/KCMUCo/MD/2016/2017/3204,65,,,75,71,64,68,66
1038,,TUMA/KCMUCo/MD/2016/2017/3205,69,,,68,67,65,69,56
1606,,TUMA/KCMUCo/MD/2016/2017/3206,65,,,79,80,83,74,79
978,,TUMA/KCMUCo/MD/2016/2017/3207,69,,,69,62,69,73,58
1795,,TUMA/KCMUCo/MD/2016/2017/3208,69,,,73,60,66,67,56
1742,,TUMA/KCMUCo/MD/2016/2017/3209,65,,,76,88,86,76,75
1403,,TUMA/KCMUCo/MD/2016/2017/3210,65,,,77,63,75,70,72
1355,,TUMA/KCMUCo/MD/2016/2017/3211,65,,,64,63,62,66,51
1774,,TUMA/KCMUCo/MD/2016/2017/3212,65,,,68,50,57,62,53
1746,,TUMA/KCMUCo/MD/2016/2017/3213,65,,,76,62,67,74,67
1441,,TUMA/KCMUCo/MD/2016/2017/3214,65,,,72,69,70,73,70
1300,,TUMA/KCMUCo/MD/2016/2017/3215,65,,,72,64,66,68,66
1738,,TUMA/KCMUCo/MD/2016/2017/3216,69,,,66,55,65,61,66
1437,,TUMA/KCMUCo/MD/2016/2017/3217,65,,,68,60,60,64,60
1911,,TUMA/KCMUCo/MD/2016/2017/3218,65,,,72,85,87,73,69
1888,,TUMA/KCMUCo/MD/2016/2017/3219,65,,,72,72,71,69,54
1880,,TUMA/KCMUCo/MD/2016/2017/3220,65,,,73,69,74,71,69
1359,,TUMA/KCMUCo/MD/2016/2017/3221,65,,,61,64,65,75,61
1334,,TUMA/KCMUCo/MD/2016/2017/3222,65,,,68,58,62,64,58
1826,,TUMA/KCMUCo/MD/2016/2017/3223,65,,,74,63,79,70,75
1885,,TUMA/KCMUCo/MD/2016/2017/3224,69,,,71,69,66,74,67
1824,,TUMA/KCMUCo/MD/2016/2017/3225,65,,,70,74,73,71,72
1199,,TUMA/KCMUCo/MD/2016/2017/3226,65,,,70,67,61,62,56
1918,,TUMA/KCMUCo/MD/2016/2017/3227,65,,,68,83,65,69,68
1901,,TUMA/KCMUCo/MD/2016/2017/3228,65,,,76,61,60,68,54
1306,,TUMA/KCMUCo/MD/2016/2017/3229,65,,,64,65,62,71,60
1955,,TUMA/KCMUCo/MD/2016/2017/3230,65,,,64,70,70,64,70
1905,,TUMA/KCMUCo/MD/2016/2017/3231,65,,,68,61,64,69,60
1887,,TUMA/KCMUCo/MD/2016/2017/3232,65,,,69,61,73,67,64
1341,,TUMA/KCMUCo/MD/2016/2017/3233,65,,,57,51,62,61,56
1959,,TUMA/KCMUCo/MD/2016/2017/3234,69,,,64,60,63,62,54
1852,,TUMA/KCMUCo/MD/2016/2017/3237,65,,,68,70,75,66,54
1799,,TUMA/KCMUCo/MD/2016/2017/3286,65,,,67,64,63,73,68
4293,,TUMA/KCMUCo/MD/2016/2017/3339,65,,,70,54,70,62,50
1343,,TUMA/KCMUCo/MD/2016/2017/3603,65,,,80,82,70,68,74
1769,,TUMA/KCMUCo/MD/2016/2017/3604,65,,,74,80,73,74,69
1784,,TUMA/KCMUCo/MD/2016/2017/3605,69,,,72,67,77,66,67
1470,,TUMA/KCMUCo/MD/2016/2017/3608,65,,,78,79,63,68,75
