@-header,instruction_!_ Please DO NOT CHANGE THE STRUCTURE OF THIS FILE,,,,,
@-header,compilationTime_!_ 2019:02:01:18:13:14,,,,,
@-header,columnCount_!_ 7,,,,,
@-header,maximumScore_!_ 100,,,,,
@-header,fileType_!_ results,,,,,
@-header,fileTypeCode_!_ a68816c37b60d1e016b21809447de93c,,,,,
@-header,courseId_!_ 16,,,,,
@-header,courseName_!_ MSc Medical Microbiology,,,,,
@-header,year_!_ 2,,,,,
@-header,semester_!_ 2,,,,,
@-header,batchId_!_ 7,,,,,
@-header,batchName_!_ 2015/2016,,,,,
@-header,flags_!_ 0,,,,,
,,,,,,
,,,,,,1026
Ref,GPA,Reg Number,Flags,Details,res,Dissertation 
3614,,TUMA/KCMUCo/MSc.MMIM/2016/2017/0042,65,,,72
3368,,TUMA/KCMUCo/MSc.MMIM/2016/2017/0043,65,,,75
3547,,TUMA/KCMUCo/MSc.MMIM/2016/2017/0044,65,,,76
3211,,TUMA/KCMUCo/MSc.MMIM/2016/2017/0045,65,,,70
3412,,TUMA/KCMUCo/MSc.MMIM/2016/2017/0046,65,,,68
