@-header,instruction_!_ Please DO NOT CHANGE THE STRUCTURE OF THIS FILE,,,,,,,,,,,,,
@-header,maximumScore_!_ 100,,,,,,,,,,,,,
@-header,fileType_!_ results,,,,,,,,,,,,,
@-header,fileTypeCode_!_ a68816c37b60d1e016b21809447de93c,,,,,,,,,,,,,
@-header,courseId_!_ 39,,,,,,,,,,,,,
@-header,courseName_!_ Bachelor of Science in Nursing (In-Service),,,,,,,,,,,,,
@-header,year_!_ 2,,,,,,,,,,,,,
@-header,semester_!_ 1,,,,,,,,,,,,,
@-header,batchId_!_ 8,,,,,,,,,,,,,
@-header,batchName_!_ 2016/2017,,,,,,,,,,,,,
@-header,flags_!_ 0,,,,,,,,,,,,,
@-header,compilationTime_!_ 2018:05:28:12:10:27,,,,,,,,,,,,,
@-header,columnCount_!_ 15,,,,,,,,,,,,,
,,,,,,,,,,,,,,
,,,,,,90,86,87,92,89,88,1029,91,894
Ref,GPA,Reg Number,Flags,Details,res,Community  Health Nursing,Sociology & Anthropology,Psychology,Leadership & Management,Advanced Nursing Sciences,Development Studies,Epidemiology and Biostatistics,Research Methodology ,Foundation of Faith
3218,,TUMA/KCMUCo/BSC.N/2015/2016/0623,15,,,36.1,60,61,66,59,50,27,,
5115,,TUMA/KCMUCo/BSC.N/2016/2017/0846,11,,,69.3,53,63,60,79,62,44,,
5197,,TUMA/KCMUCo/BSC.N/2016/2017/0848,11,,,80.3,58,83,62,58,73,68,,
5198,,TUMA/KCMUCo/BSC.N/2016/2017/0849,67,,,74.4,56,73,68,58,69,43,,
5257,,TUMA/KCMUCo/BSC.N/2016/2017/0855,67,,,51.6,53,50,55,50,64,34,,
5316,,TUMA/KCMUCo/BSC.N/2016/2017/0858,11,,,74.4,67,57,48,54,58,40,,
5508,,TUMA/KCMUCo/BSC.N/2016/2017/0862,67,,,76.7,62,69,67,74,66,47,,
5545,,TUMA/KCMUCo/BSC.N/2016/2017/0865,11,,,59.5,60,70,58,63,63,48,,
5555,,TUMA/KCMUCo/BSC.N/2016/2017/0866,67,,,66.3,67,50,73,55,61,52,,
5556,,TUMA/KCMUCo/BSC.N/2016/2017/0867,67,,,74.4,53,67,59,70,69,55,,
5797,,TUMA/KCMUCo/BSC.N/2016/2017/0876,11,,,60.8,67,66,47,62,71,40,,
5920,,TUMA/KCMUCo/BSC.N/2016/2017/0878,11,,,59.8,76,51,59,46,66,39,,
6097,,TUMA/KCMUCo/BSC.N/2016/2017/0881,67,,,54.5,69,54,66,60,61,45,,
6132,,TUMA/KCMUCo/BSC.N/2016/2017/0883,67,,,51.2,69,53,55,58,66,43,,
6415,,TUMA/KCMUCo/BSC.N/2016/2017/0888,67,,,0,0,0,0,0,0,,,
6617,,TUMA/KCMUCo/BSC.N/2016/2017/0889,11,,,62.6,69,60,58,69,72,43,,
6759,,TUMA/KCMUCo/BSC.N/2016/2017/0892,11,,,81.2,58,67,54,60,68,47,,
6863,,TUMA/KCMUCo/BSC.N/2016/2017/0895,11,,,65.5,56,56,55,61,73,35,,
