@-header,instruction_!_ Please DO NOT CHANGE THE STRUCTURE OF THIS FILE,,,,,,,,,,,,,
@-header,compilationTime_!_ 2017:12:15:13:11:08,,,,,,,,,,,,,
@-header,columnCount_!_ 15,,,,,,,,,,,,,
@-header,maximumScore_!_ 100,,,,,,,,,,,,,
@-header,fileType_!_ results,,,,,,,,,,,,,
@-header,fileTypeCode_!_ a68816c37b60d1e016b21809447de93c,,,,,,,,,,,,,
@-header,courseId_!_ 4,,,,,,,,,,,,,
@-header,courseName_!_ Bachelor of Science in Physiotherapy (Direct),,,,,,,,,,,,,
@-header,year_!_ 4,,,,,,,,,,,,,
@-header,semester_!_ 2,,,,,,,,,,,,,
@-header,batchId_!_ 5,,,,,,,,,,,,,
@-header,batchName_!_ 2013/2014,,,,,,,,,,,,,
@-header,flags_!_ 0,,,,,,,,,,,,,
,,,,,,,,,,,,,,
,,,,,,653,655,656,657,659,661,663,665,666
Ref,GPA,Reg Number,Flags,Details,res,Research Project ,Physiotherapy in Paediatrics (Clinical Practice),Physiotherapy in Internal Medicine(Clinical Pr),Physiotherapy in General Surgery  (Clinical Pr),Physiotherapy in Paediatrics (theory),Physiotherapy in Internal Medicine  theory,Physiotherapy in General Surgery  theory,Physiotherapy in Orthopaedics  theory,Physiotherapy in Orthopaedics  (Clinical Pr)
351,,TUMA/KCMUCo/BScPhysio/2015/2016/0212,65,,,65,62,68,68,70,73,67,76,64
308,,TUMA/KCMUCo/BScPhysio/2015/2016/0213,65,,,68,62,72,71,65,71,56,65,65
202,,TUMA/KCMUCo/BScPhysio/2015/2016/0214,65,,,66,70,68,62,75,63,65,86,73
335,,TUMA/KCMUCo/BScPhysio/2015/2016/0215,65,,,75,61,64,69,71,62,78,80,64
353,,TUMA/KCMUCo/BScPhysio/2015/2016/0216,65,,,76,60,68,73,72,69,69,80,74
214,,TUMA/KCMUCo/BScPhysio/2015/2016/0217,65,,,76,66,72,57,74,80,77,82,63
350,,TUMA/KCMUCo/BScPhysio/2015/2016/0218,65,,,85,69,59,74,70,74,83,89,69
206,,TUMA/KCMUCo/BScPhysio/2015/2016/0219,65,,,66,68,59,63,68,67,73,75,56
277,,TUMA/KCMUCo/BScPhysio/2015/2016/0220,65,,,61,63,65,62,69,71,77,67,56
236,,TUMA/KCMUCo/BScPhysio/2015/2016/0223,65,,,83,62,60,68,67,77,76,62,59
199,,TUMA/KCMUCo/BScPhysio/2015/2016/0226,65,,,68,67,70,53,77,58,73,80,65
38,,TUMA/KCMUCo/BScPhysio/2015/2016/0227,65,,,69,67,57,69,68,79,70,67,60
21,,TUMA/KCMUCo/BScPhysio/2015/2016/0228,65,,,74,59,67,51,72,53,65,70,61
322,,TUMA/KCMUCo/BScPhysio/2015/2016/0229,65,,,70,60,51,61,69,60,72,87,62
247,,TUMA/KCMUCo/BScPhysio/2015/2016/0244,65,,,72,65,62,72,60,65,68,65,69
314,,TUMA/KCMUCo/BScPhysio/2015/2016/0246,65,,,70,62,55,62,69,64,66,66,63
311,,TUMA/KCMUCo/BScPhysio/2015/2016/0249,65,,,84,70,65,63,69,76,65,58,64
285,,TUMA/KCMUCo/BScPhysio/2016/2017/0315,65,,,70,69,65,66,64,60,75,73,69
