@-header,instruction_!_ Please DO NOT CHANGE THE STRUCTURE OF THIS FILE,,,,,,,,,,
@-header,maximumScore_!_ 100,,,,,,,,,,
@-header,fileType_!_ results,,,,,,,,,,
@-header,fileTypeCode_!_ a68816c37b60d1e016b21809447de93c,,,,,,,,,,
@-header,courseId_!_ 6,,,,,,,,,,
@-header,courseName_!_ Bachelor of Science in Nursing (Pre-Service),,,,,,,,,,
@-header,year_!_ 3,,,,,,,,,,
@-header,semester_!_ 1,,,,,,,,,,
@-header,batchId_!_ 7,,,,,,,,,,
@-header,batchName_!_ 2015/2016,,,,,,,,,,
@-header,flags_!_ 0,,,,,,,,,,
@-header,compilationTime_!_ 2018:06:05:11:32:24,,,,,,,,,,
@-header,columnCount_!_ 12,,,,,,,,,,
,,,,,,,,,,,
,,,,,,592,590,591,589,1028,1027
Ref,GPA,Reg Number,Flags,Details,res,Pediatric Nursing,Nutrition,Nursing Education,Medical and Surgical Nursing,Epi-Bio,Nursing Practical 
3905,,TUMA/KCMUCo/BSC.N/2015/2016/0587,67,,,55,63.5,46,46,49,54
3745,,TUMA/KCMUCo/BSC.N/2015/2016/0588,9,,,70,82,52,60,69,85
4036,,TUMA/KCMUCo/BSC.N/2015/2016/0589,9,,,78,78,65,65,63,59
4039,,TUMA/KCMUCo/BSC.N/2015/2016/0590,11,,,72,77.5,42,59,63,50
3763,,TUMA/KCMUCo/BSC.N/2015/2016/0591,11,,,63,69.5,42,45,54,38
3899,,TUMA/KCMUCo/BSC.N/2015/2016/0592,11,,,82,82.5,45,52,64,57
3795,,TUMA/KCMUCo/BSC.N/2015/2016/0594,65,,,72,81.5,72,75,67,60
4057,,TUMA/KCMUCo/BSC.N/2015/2016/0596,11,,,62,70.5,34,64,61,60
3762,,TUMA/KCMUCo/BSC.N/2015/2016/0597,9,,,75,88,63,50,61,65
3670,,TUMA/KCMUCo/BSC.N/2015/2016/0598,67,,,45,77,51,50,47,60
3787,,TUMA/KCMUCo/BSC.N/2015/2016/0599,65,,,57,86.5,61,63,76,56
4056,,TUMA/KCMUCo/BSC.N/2015/2016/0601,11,,,0,,,,,
3892,,TUMA/KCMUCo/BSC.N/2015/2016/0608,65,,,74,83.5,69,64,62,80
3922,,TUMA/KCMUCo/BSC.N/2015/2016/0609,11,,,68,70,57,67,49,54
3534,,TUMA/KCMUCo/BSC.N/2015/2016/0610,9,,,76,92.5,75,79,83,85
3912,,TUMA/KCMUCo/BSC.N/2015/2016/0611,11,,,64,75.5,44,50,64,62.5
3747,,TUMA/KCMUCo/BSC.N/2015/2016/0613,9,,,70,76.5,56,66,62,62.5
3791,,TUMA/KCMUCo/BSC.N/2015/2016/0614,9,,,74,84.5,57,62,66,54
4059,,TUMA/KCMUCo/BSC.N/2015/2016/0617,67,,,0,0,,,,
3776,,TUMA/KCMUCo/BSC.N/2015/2016/0621,67,,,64,72,39,58,57,45
3979,,TUMA/KCMUCo/BSC.N/2015/2016/0622,9,,,57,78.5,55,57,55,55
3502,,TUMA/KCMUCo/BSC.N/2015/2016/0624,67,,,72,83,68,63,66,40
3493,,TUMA/KCMUCo/BSC.N/2015/2016/0625,11,,,58,77,44,58,63,45
3966,,TUMA/KCMUCo/BSC.N/2015/2016/0626,11,,,67,69,62,53,48,80
3804,,TUMA/KCMUCo/BSC.N/2015/2016/0627,67,,,40,65,41,48,56,37
3792,,TUMA/KCMUCo/BSC.N/2015/2016/0629,9,,,70,81.5,53,60,67,81
3942,,TUMA/KCMUCo/BSC.N/2015/2016/0630,11,,,66,87,43,68,63,74
3739,,TUMA/KCMUCo/BSC.N/2015/2016/0631,67,,,76,83,44,65,51,75
3960,,TUMA/KCMUCo/BSC.N/2015/2016/0633,9,,,80,73,64,66,63,76
3761,,TUMA/KCMUCo/BSC.N/2015/2016/0637,11,,,68,82.5,29,64,68,55
3175,,TUMA/KCMUCo/BSC.N/2015/2016/0639,11,,,67,78,35,52,65,58
3978,,TUMA/KCMUCo/BSC.N/2015/2016/0641,11,,,67,76.5,31,58,51,46
3692,,TUMA/KCMUCo/BSC.N/2015/2016/0643,11,,,70,86.5,54,60,64,47
2971,,TUMA/KCMUCo/BSC.N/2015/2016/0644,11,,,71,86,62,59,72,0
3695,,TUMA/KCMUCo/BSC.N/2015/2016/0645,11,,,70,69,47,47,47,71
3780,,TUMA/KCMUCo/BSC.N/2015/2016/0646,11,,,60,89,70,54,65,0
3209,,TUMA/KCMUCo/BSC.N/2015/2016/0647,11,,,68,69,62,59,58,44
4049,,TUMA/KCMUCo/BSC.N/2015/2016/0649,65,,,77,83,54,63,64,58
3906,,TUMA/KCMUCo/BSC.N/2015/2016/0650,9,,,74,79.5,54,57,69,62
3266,,TUMA/KCMUCo/BSC.N/2015/2016/0651,9,,,65,82.5,75,66,68,58
3917,,TUMA/KCMUCo/BSC.N/2015/2016/0653,11,,,70,75.5,39,55,66,47
3862,,TUMA/KCMUCo/BSC.N/2015/2016/0654,9,,,70,85,59,57,66,68
4019,,TUMA/KCMUCo/BSC.N/2015/2016/0655,11,,,69,78,44,72,68,60
3387,,TUMA/KCMUCo/BSC.N/2015/2016/0656,67,,,65,63.5,37,77,73,55
3927,,TUMA/KCMUCo/BSC.N/2015/2016/0657,11,,,67,73.5,18,49,55,62
3017,,TUMA/KCMUCo/BSC.N/2015/2016/0658,11,,,85,83,82,56,74,0
3959,,TUMA/KCMUCo/BSC.N/2015/2016/0660,9,,,78,81.5,52,54,76,58.5
3601,,TUMA/KCMUCo/BSC.N/2015/2016/0663,9,,,68,75.5,65,59,56,66
3449,,TUMA/KCMUCo/BSC.N/2015/2016/0664,67,,,65,80,41,62,59,54
3940,,TUMA/KCMUCo/BSC.N/2015/2016/0665,11,,,55,78,35,61,65,57
3800,,TUMA/KCMUCo/BSC.N/2015/2016/0671,65,,,73,75.5,55,72,65,60
3882,,TUMA/KCMUCo/BSC.N/2015/2016/0672,11,,,81,80,40,61,63,47
3801,,TUMA/KCMUCo/BSC.N/2015/2016/0674,11,,,76,89.5,59,67,61,0
3523,,TUMA/KCMUCo/BSC.N/2015/2016/0675,11,,,81,88.5,49,59,61,57
3897,,TUMA/KCMUCo/BSC.N/2015/2016/0676,67,,,64,79,37,61,63,59
2831,,TUMA/KCMUCo/BSC.N/2015/2016/0677,9,,,70,84,59,54,62,70
3034,,TUMA/KCMUCo/BSC.N/2015/2016/0678,9,,,51,72.5,50,53,71,56
4060,,TUMA/KCMUCo/BSC.N/2015/2016/0680,9,,,60,66.5,58,52,64,63
3723,,TUMA/KCMUCo/BSC.N/2015/2016/0684,11,,,67,78.5,34,56,55,57
4061,,TUMA/KCMUCo/BSC.N/2015/2016/0687,9,,,81,85.5,54,62,64,68
3837,,TUMA/KCMUCo/BSC.N/2015/2016/0690,67,,,67,82.5,42,55,48,53
3937,,TUMA/KCMUCo/BSC.N/2015/2016/0695,9,,,80,78,50,63,65,84
3810,,TUMA/KCMUCo/BSC.N/2015/2016/0696,11,,,66,81,27,65,58,51
3863,,TUMA/KCMUCo/BSC.N/2015/2016/0700,67,,,58,75.5,42,32,63,48
4051,,TUMA/KCMUCo/BSC.N/2015/2016/0701,9,,,74,77,74,62,67,66
3911,,TUMA/KCMUCo/BSC.N/2015/2016/0702,67,,,70,70.5,54,50,55,44
3964,,TUMA/KCMUCo/BSC.N/2015/2016/0706,11,,,54,82.5,55,43,58,64
3018,,TUMA/KCMUCo/BSC.N/2015/2016/0707,67,,,60,83,43,62,66,44
4014,,TUMA/KCMUCo/BSC.N/2015/2016/0708,11,,,83,85.5,34,63,67,43
3888,,TUMA/KCMUCo/BSC.N/2015/2016/0710,11,,,71,83.5,49,58,63,75
3838,,TUMA/KCMUCo/BSC.N/2015/2016/0738,11,,,65,76,73,53,51,47
3699,,TUMA/KCMUCo/BSC.N/2015/2016/0740,65,,,72,69,50,62,57,52
3659,,TUMA/KCMUCo/BSC.N/2015/2016/0741,9,,,76,78,54,69,64,78
4009,,TUMA/KCMUCo/BSC.N/2015/2016/0744,67,,,70,75.5,43,50,55,62
3851,,TUMA/KCMUCo/BSC.N/2015/2016/0745,67,,,67,85,28,44,68,60
3950,,TUMA/KCMUCo/BSC.N/2015/2016/0751,11,,,42,75.5,27,44,58,45
3830,,TUMA/KCMUCo/BSC.N/2015/2016/0758,67,,,65,84,53,71,78,44
3725,,TUMA/KCMUCo/BSC.N/2015/2016/0762,11,,,66,87,38,68,62,88
4041,,TUMA/KCMUCo/BSC.N/2015/2016/0763,9,,,74,81,52,56,57,54
924,,TUMA/KCMUCo/BSC.N/2015/2016/0764,15,,,0,,,,,
3997,,TUMA/KCMUCo/BSC.N/2015/2016/0765,11,,,64,83,66,39,66,59
4058,,TUMA/KCMUCo/BSC.N/2015/2016/0766,67,,,64,81.5,38,52,55,50
3972,,TUMA/KCMUCo/BSC.N/2015/2016/0767,11,,,65,73,51,43,59,57
3956,,TUMA/KCMUCo/BSC.N/2015/2016/0769,11,,,63,74,51,48,59,58
3738,,TUMA/KCMUCo/BSC.N/2015/2016/0772,65,,,74,91,58,68,62,70
3958,,TUMA/KCMUCo/BSC.N/2015/2016/0773,11,,,54,71,41,47,48,40
2810,,TUMA/KCMUCo/BSC.N/2015/2016/0774,11,,,75,89.5,61,67,76,0
3973,,TUMA/KCMUCo/BSC.N/2015/2016/0775,11,,,76,85,49,70,59,78
4013,,TUMA/KCMUCo/BSC.N/2015/2016/0776,67,,,70,65.5,63,52,59,46
3936,,TUMA/KCMUCo/BSC.N/2015/2016/0777,9,,,66,79,60,51,59,60
3689,,TUMA/KCMUCo/BSC.N/2015/2016/0778,9,,,68,68,58,54,59,57
3834,,TUMA/KCMUCo/BSC.N/2015/2016/0779,11,,,73,71.5,39,50,65,51
3203,,TUMA/KCMUCo/BSC.N/2015/2016/0780,11,,,0,,0,0,,0
3977,,TUMA/KCMUCo/BSC.N/2015/2016/0782,67,,,58,71,40,41,56,47
3781,,TUMA/KCMUCo/BSC.N/2015/2016/0790,11,,,63,80,23,57,62,70
3726,,TUMA/KCMUCo/BSC.N/2015/2016/0792,11,,,73,82,40,45,69,70
3983,,TUMA/KCMUCo/BSC.N/2015/2016/0793,67,,,66,80,66,50,61,46
3398,,TUMA/KCMUCo/BSC.N/2015/2016/0794,9,,,71,81,60,55,75,50
3788,,TUMA/KCMUCo/BSC.N/2015/2016/0797,9,,,68,80.5,58,61,65,57
3778,,TUMA/KCMUCo/BSC.N/2015/2016/0798,11,,,61,75.5,56,59,61,44.5
3711,,TUMA/KCMUCo/BSC.N/2015/2016/0799,11,,,61,75.5,53,53,49,47
3986,,TUMA/KCMUCo/BSC.N/2015/2016/0800,65,,,80,85,51,55,53,72
3961,,TUMA/KCMUCo/BSC.N/2015/2016/0806,11,,,60,71.5,31,50,46,52
3394,,TUMA/KCMUCo/BSC.N/2015/2016/0807,9,,,65,73.5,68,60,67,65
3907,,TUMA/KCMUCo/BSC.N/2015/2016/0808,67,,,63,83.5,47,60,50,49
4018,,TUMA/KCMUCo/BSC.N/2015/2016/0811,67,,,56,66.5,39,37,32,44
3789,,TUMA/KCMUCo/BSC.N/2015/2016/0815,67,,,60,88.5,50,48,63,66
3656,,TUMA/KCMUCo/BSC.N/2015/2016/0820,67,,,0,,0,0,,0
3967,,TUMA/KCMUCo/BSC.N/2015/2016/0821,67,,,73,73,50,63,62,36.5
3965,,TUMA/KCMUCo/BSC.N/2016/2017/0825,11,,,71,76,50,46,49,61
3588,,TUMA/KCMUCo/BSC.N/2016/2017/0898,67,,,0,,,0,,0
3467,,TUMA/KCMUCo/BSC.N/2016/2017/0902,67,,,0,,,0,,0
2824,,TUMA/KCMUCo/BSC.N/2017/2018/0904,67,,,0,,,0,,0
