@-header,instruction_!_ Please DO NOT CHANGE THE STRUCTURE OF THIS FILE,,,,,
@-header,maximumScore_!_ 100,,,,,
@-header,fileType_!_ results,,,,,
@-header,fileTypeCode_!_ a68816c37b60d1e016b21809447de93c,,,,,
@-header,courseId_!_ 21,,,,,
@-header,courseName_!_ MMed in Dermato-Venereology,,,,,
@-header,year_!_ 4,,,,,
@-header,semester_!_ 1,,,,,
@-header,batchId_!_ 5,,,,,
@-header,batchName_!_ 2013/2014,,,,,
@-header,flags_!_ 16,,,,,
@-header,compilationTime_!_ 2018:11:22:11:21:36,,,,,
@-header,columnCount_!_ 7,,,,,
,,,,,,
,,,,,,1135
Ref,GPA,Reg Number,Flags,Details,res,ESAT 6
2576,1:4,TUMA/KCMUCo/MMED.DER/2017/2018/0115,9,,1:60:240,78
26,1:4,TUMA/KCMUCo/MMED.DER/2017/2018/0116,9,,1:60:240,79
