@-header,instruction_!_ Please DO NOT CHANGE THE STRUCTURE OF THIS FILE,,,,,
@-header,maximumScore_!_ 100,,,,,
@-header,fileType_!_ results,,,,,
@-header,fileTypeCode_!_ a68816c37b60d1e016b21809447de93c,,,,,
@-header,courseId_!_ 27,,,,,
@-header,courseName_!_ MMed in Orthopaedic Surgery,,,,,
@-header,year_!_ 3,,,,,
@-header,semester_!_ 1,,,,,
@-header,batchId_!_ 5,,,,,
@-header,batchName_!_ 2013/2014,,,,,
@-header,flags_!_ 16,,,,,
@-header,compilationTime_!_ 2018:12:04:09:55:03,,,,,
@-header,columnCount_!_ 7,,,,,
,,,,,,
,,,,,,1231
Ref,GPA,Reg Number,Flags,Details,res,ESAT 4
7,1:4,TUMA/KCMUCo/MMED.ORT/2016/2017/0381,9,,1:60:240,84
89,1:3,TUMA/KCMUCo/MMED.ORT/2017/2018/0394,9,,1:60:180,71
165,1:4,TUMA/KCMUCo/MMED.ORT/2017/2018/0395,9,,1:60:240,83
