@-header,instruction_!_ Please DO NOT CHANGE THE STRUCTURE OF THIS FILE,,,,,
@-header,maximumScore_!_ 100,,,,,
@-header,fileType_!_ results,,,,,
@-header,fileTypeCode_!_ a68816c37b60d1e016b21809447de93c,,,,,
@-header,courseId_!_ 25,,,,,
@-header,courseName_!_ MMed in Obstetrics and Gynaecology,,,,,
@-header,year_!_ 2,,,,,
@-header,semester_!_ 2,,,,,
@-header,batchId_!_ 5,,,,,
@-header,batchName_!_ 2013/2014,,,,,
@-header,flags_!_ 16,,,,,
@-header,compilationTime_!_ 2018:11:24:14:52:22,,,,,
@-header,columnCount_!_ 7,,,,,
,,,,,,
,,,,,,1170
Ref,GPA,Reg Number,Flags,Details,res,ESAT 3
140,2:3,TUMA/KCMUCo/MMED.OGY/2016/2017/0405,9,,2:60:180,69
153,2:4,TUMA/KCMUCo/MMED.OGY/2016/2017/0406,9,,2:60:240,75
164,2:3,TUMA/KCMUCo/MMED.OGY/2016/2017/0410,9,,2:60:180,61
155,2:2,TUMA/KCMUCo/MMED.OGY/2017/2018/0425,9,,2:60:120,59
33,2:3,TUMA/KCMUCo/MMED.OGY/2017/2018/0426,9,,2:60:180,68
47,2:2,TUMA/KCMUCo/MMED.OGY/2017/2018/0427,9,,2:60:120,58
