,,YEAR I,,,,,,,,,,,,,,,,,,,,,,,,,,,,,,
S/N,NAME,ANATOMY,,,,COMPUTER SKILLS,,,,BASIC CHEMISTRY,,,,COMMUNICATION SKILLS,,,,INSTRUMENTATION,,,,BIOSTATISTICS,,,,PHYSIOLOGY,,,,HISTOLOGY,,,,CLINICAL BIOCHEMISTRY,,,,HAEMATOLOGY,,,,PARASITOLOGY ,,,,BLOOD TRANSFUSION,,,,MICROBIOLOGY,,,,MOLECULAR BIOLOGY,,,,,,
,,MARKS,CREDIT HOURS,GPEq,GP,MARKS,CREDIT HOURS,GPEq,GP,MARKS,CREDIT HOURS,GPEq,GP,MARKS,CREDIT HOURS,GPEq,GP,MARKS,CREDIT HOURS,GPEq,GP,MARKS,CREDIT HOURS,GPEq,GP,MARKS,CREDIT HOURS,GPEq,GP,MARKS,CREDIT HOURS,GPEq,GP,MARKS,CREDIT HOURS,GPEq,GP,MARKS,CREDIT HOURS,GPEq,GP,MARKS,CREDIT HOURS,GPEq,GP,MARKS,CREDIT HOURS,GPEq,GP,MARKS,CREDIT HOURS,GPEq,GP,MARKS,CREDIT HOURS,GPEq,GP,Total Credit Hours,Total GP,GPA
1,SAMWEL MASHAKA,74,9,3.58,32.22,79,12,4.496,53.952,57,6,2.486,14.916,66,6,3.181,19.0859,64,6,3.025,18.15,68,6,3.337,20.022,66,9,3.181,28.629,53,4.5,2.218,9.981,75,4.5,4.4,19.8,62,4.5,2.869,12.9105,51,4.5,2.084,9.378,62,3,2.869,8.607,63,4.5,2.947,13.2615,61,6,2.791,16.746,85.5,277.6589,3.2
2,ADOLF S. KAVISHE,78,9,4.472,40.248,70,12,3.5,42,74,6,3.58,21.48,65,6,3.103,18.618,68,6,3.337,20.022,74,6,3.58,21.48,74,9,3.58,32.22,58,4.5,2.553,11.4885,81,4.5,4.544,20.4479,70,4.5,3.5,15.75,77,4.5,4.448,20.016,91,3,4.784,14.352,74,4.5,3.58,16.11,58,6,2.553,15.318,85.5,309.5504,3.6
3,AGNES S. MUSHI,61,9,2.791,25.119,55,12,2.352,28.2239,61,6,2.791,16.746,62,6,2.869,17.214,58,6,2.553,15.318,51,6,2.084,12.504,71,9,3.52,31.68,51,4.5,2.084,9.378,57,4.5,2.486,11.187,54,4.5,2.285,10.2825,50,4.5,2.017,9.0765,74,3,3.58,10.74,50,4.5,2.017,9.0765,50,6,2.017,12.102,85.5,218.6474,2.5
4,SHOLASTICA MTWEVE,73,9,3.56,32.04,81,12,4.544,54.5279,50,6,2.017,12.102,73,6,3.56,21.36,58,6,2.553,15.318,51,6,2.084,12.504,56,9,2.419,21.771,50,4.5,2.017,9.0765,50,4.5,2.017,9.0765,71,4.5,3.52,15.84,50,4.5,2.017,9.0765,72,3,3.54,10.62,52,4.5,2.151,9.6794,52,6,2.151,12.9059,85.5,245.8977,2.8
5,OMBENI MWANGA,75,9,4.4,39.6,53,12,2.218,26.616,74,6,3.58,21.48,73,6,3.56,21.36,57,6,2.486,14.916,78,6,4.472,26.832,70,9,3.5,31.5,65,4.5,3.103,13.9635,72,4.5,3.54,15.93,77,4.5,4.448,20.016,69,4.5,3.415,15.3675,79,3,4.496,13.488,76,4.5,4.424,19.908,62,6,2.869,17.214,85.5,298.191,3.4
6,REBECCA JAPHET,78,9,4.472,40.248,75,12,4.4,52.8,56,6,2.419,14.514,78,6,4.472,26.832,58,6,2.553,15.318,54,6,2.285,13.71,64,9,3.025,27.225,50,4.5,2.017,9.0765,70,4.5,3.5,15.75,57,4.5,2.486,11.187,55,4.5,2.352,10.584,75,3,4.4,13.2,78,4.5,4.472,20.124,54,6,2.285,13.71,85.5,284.2785,3.3
7,SECILIA A. MSELLE,69,9,3.415,30.735,56,12,2.419,29.028,54,6,2.285,13.71,63,6,2.947,17.682,59,6,2.62,15.72,59,6,2.62,15.72,61,9,2.791,25.119,50,4.5,2.017,9.0765,50,4.5,2.017,9.0765,65,4.5,3.103,13.9635,52,4.5,2.151,9.6794,69,3,3.415,10.245,66,4.5,3.181,14.3145,52,6,2.151,12.9059,85.5,226.9753,2.6
8,WENSESLAUS HAMIS,84,9,4.616,41.5439,65,12,3.103,37.236,64,6,3.025,18.15,74,6,3.58,21.48,72,6,3.54,21.24,66,6,3.181,19.0859,82,9,4.568,41.1119,68,4.5,3.337,15.0165,82,4.5,4.568,20.5559,83,4.5,4.592,20.6639,68,4.5,3.337,15.0165,88,3,4.712,14.136,77,4.5,4.448,20.016,62,6,2.869,17.214,85.5,322.4665,3.7
9,TERESIA EZEKIEL ,61,9,2.791,25.119,66,12,3.181,38.1719,64,6,3.025,18.15,57,6,2.486,14.916,64,6,3.025,18.15,54,6,2.285,13.71,59,9,2.62,23.58,55,4.5,2.352,10.584,65,4.5,3.103,13.9635,74,4.5,3.58,16.11,64,4.5,3.025,13.6125,62,3,2.869,8.607,54,4.5,2.285,10.2825,50,6,2.017,12.102,85.5,237.0584,2.7
10,AUGUSTINO CHAMI,74,9,3.58,32.22,61,12,2.791,33.492,60,6,2.713,16.278,75,6,4.4,26.4,56,6,2.419,14.514,57,6,2.486,14.916,83,9,4.592,41.3279,64,4.5,3.025,13.6125,75,4.5,4.4,19.8,79,4.5,4.496,20.232,60,4.5,2.713,12.2085,81,3,4.544,13.6319,75,4.5,4.4,19.8,59,6,2.62,15.72,85.5,294.1528,3.4
11,MATILDA V. KAYOMBO,78,9,4.472,40.248,86,12,4.664,55.968,67,6,3.259,19.5539,74,6,3.58,21.48,60,6,2.713,16.278,73,6,3.56,21.36,74,9,3.58,32.22,57,4.5,2.486,11.187,76,4.5,4.424,19.908,76,4.5,4.424,19.908,75,4.5,4.4,19.8,84,3,4.616,13.848,66,4.5,3.181,14.3145,62,6,2.869,17.214,85.5,323.2874,3.7
12,OLIVA I. ISSAYA,60,7.5,2.713,20.3475,78,7.5,4.472,33.54,68,7.5,3.337,25.0275,73,6,3.56,21.36,56,7.5,2.419,18.1425,60,7.5,2.713,20.3475,73,7.5,3.56,26.7,61,24,2.791,66.984,61,4.5,2.791,12.5595,70,4.5,3.5,15.75,53,4.5,2.218,9.981,74,3,3.58,10.74,63,4.5,2.947,13.2615,62,6,2.869,17.214,102,311.955,3
13,MARIA F. MUSHI,83,7.5,4.592,34.44,56,7.5,2.419,18.1425,68,7.5,3.337,25.0275,65,6,3.103,18.618,61,7.5,2.791,20.9325,69,7.5,3.415,25.6125,64,7.5,3.025,22.6875,56,24,2.419,58.056,67,4.5,3.259,14.6655,73,4.5,3.56,16.02,58,4.5,2.553,11.4885,77,3,4.448,13.344,73,4.5,3.56,16.02,64,6,3.025,18.15,102,313.2045,3
14,MARIA P.LUBUVA,65,7.5,3.103,23.2725,50,7.5,2.017,15.1275,50,7.5,2.017,15.1275,74,6,3.58,21.48,62,7.5,2.869,21.5175,55,7.5,2.352,17.64,62,7.5,2.869,21.5175,61,24,2.791,66.984,73,4.5,3.56,16.02,73,4.5,3.56,16.02,72,4.5,3.54,15.93,73,3,3.56,10.68,71,4.5,3.52,15.84,50,6,2.017,12.102,102,289.2585,2.8
15,IDD OYAKO,64,7.5,3.025,22.6875,58,7.5,2.553,19.1475,61,7.5,2.791,20.9325,68,6,3.337,20.022,71,7.5,3.52,26.4,51,7.5,2.084,15.63,65,7.5,3.103,23.2725,60,24,2.713,65.112,71,4.5,3.52,15.84,72,4.5,3.54,15.93,82,4.5,4.568,20.5559,75,3,4.4,13.2,72,4.5,3.54,15.93,50,6,2.017,12.102,102,306.7619,3
16,KURUTHUM ANAS SULEIMAN,69,7.5,3.415,25.6125,74,7.5,3.58,26.85,55,7.5,2.352,17.64,75,6,4.4,26.4,59,7.5,2.62,19.65,53,7.5,2.218,16.6349,59,7.5,2.62,19.65,53,24,2.218,53.232,63,4.5,2.947,13.2615,58,4.5,2.553,11.4885,59,4.5,2.62,11.79,78,3,4.472,13.416,59,4.5,2.62,11.79,50,6,2.017,12.102,102,279.5174,2.7
17,MAJUTO JACKSON,85,7.5,4.64,34.8,87,7.5,4.688,35.1599,70,7.5,3.5,26.25,75,6,4.4,26.4,72,7.5,3.54,26.55,69,7.5,3.415,25.6125,78,7.5,4.472,33.54,61,24,2.791,66.984,77,4.5,4.448,20.016,77,4.5,4.448,20.016,62,4.5,2.869,12.9105,90,3,4.76,14.28,76,4.5,4.424,19.908,69,6,3.415,20.49,102,382.9169,3.7
18,MARIO KITWANGE,68,7.5,3.337,25.0275,54,7.5,2.285,17.1375,51,7.5,2.084,15.63,54,6,2.285,13.71,58,7.5,2.553,19.1475,50,7.5,2.017,15.1275,66,7.5,3.181,23.8575,56,24,2.419,58.056,63,4.5,2.947,13.2615,54,4.5,2.285,10.2825,62,4.5,2.869,12.9105,57,3,2.486,7.458,60,4.5,2.713,12.2085,50,6,2.017,12.102,102,255.9165,2.5
19,ILUMINATHA C. MUSHI,77,7.5,4.448,33.36,74,7.5,3.58,26.85,61,7.5,2.791,20.9325,83,6,4.592,27.552,66,7.5,3.181,23.8575,72,7.5,3.54,26.55,71,7.5,3.52,26.4,66,24,3.181,76.3439,64,4.5,3.025,13.6125,65,4.5,3.103,13.9635,66,4.5,3.181,14.3145,79,3,4.496,13.488,74,4.5,3.58,16.11,56,6,2.419,14.514,102,347.8484,3.4
20,JOEL J. KIMARO,66,7.5,3.181,23.8575,71,7.5,3.52,26.4,50,7.5,2.017,15.1275,64,6,3.025,18.15,60,7.5,2.713,20.3475,62,7.5,2.869,21.5175,72,7.5,3.54,26.55,53,24,2.218,53.232,50,4.5,2.017,9.0765,60,4.5,2.713,12.2085,62,4.5,2.869,12.9105,67,3,3.259,9.7769,58,4.5,2.553,11.4885,50,6,2.017,12.102,102,272.7449,2.6
21,JOSEPH OLOMI,68,7.5,3.337,25.0275,70,7.5,3.5,26.25,60,7.5,2.713,20.3475,67,6,3.259,19.5539,69,7.5,3.415,25.6125,72,7.5,3.54,26.55,70,7.5,3.5,26.25,57,24,2.486,59.664,77,4.5,4.448,20.016,67,4.5,3.259,14.6655,61,4.5,2.791,12.5595,78,3,4.472,13.416,66,4.5,3.181,14.3145,50,6,2.017,12.102,102,316.3289,3.1
22,ASHURA ABBAS,70,7.5,3.5,26.25,67,7.5,3.259,24.4425,62,7.5,2.869,21.5175,81,6,4.544,27.2639,70,7.5,3.5,26.25,73,7.5,3.56,26.7,70,7.5,3.5,26.25,55,24,2.352,56.4479,69,4.5,3.415,15.3675,77,4.5,4.448,20.016,62,4.5,2.869,12.9105,88,3,4.712,14.136,70,4.5,3.5,15.75,64,6,3.025,18.15,102,331.4518,3.2
23,ALBERT RUMISHA SANDI,71,7.5,3.52,26.4,73,7.5,3.56,26.7,50,7.5,2.017,15.1275,57,6,2.486,14.916,68,7.5,3.337,25.0275,51,7.5,2.084,15.63,53,7.5,2.218,16.6349,50,24,2.017,48.408,61,4.5,2.791,12.5595,67,4.5,3.259,14.6655,58,4.5,2.553,11.4885,68,3,3.337,10.011,61,4.5,2.791,12.5595,50,6,2.017,12.102,102,262.2299,2.5
24,OSCAR C. MINJA,74,7.5,3.58,26.85,64,7.5,3.025,22.6875,51,7.5,2.084,15.63,70,6,3.5,21,68,7.5,3.337,25.0275,50,7.5,2.017,15.1275,65,7.5,3.103,23.2725,60,24,2.713,65.112,55,4.5,2.352,10.584,54,4.5,2.285,10.2825,50,4.5,2.017,9.0765,69,3,3.415,10.245,61,4.5,2.791,12.5595,55,6,2.352,14.1119,102,281.5664,2.7
25,SAMSON N. LIKOMBE,72,7.5,3.54,26.55,89,7.5,4.736,35.5199,65,7.5,3.103,23.2725,55,6,2.352,14.1119,60,7.5,2.713,20.3475,52,7.5,2.151,16.1325,56,7.5,2.419,18.1425,50,24,2.017,48.408,57,4.5,2.486,11.187,68,4.5,3.337,15.0165,50,4.5,2.017,9.0765,68,3,3.337,10.011,59,4.5,2.62,11.79,50,6,2.017,12.102,102,271.6678,2.6
26,PILI MWIDAWALO,53,7.5,2.218,16.6349,68,7.5,3.337,25.0275,56,7.5,2.419,18.1425,66,6,3.181,19.0859,66,7.5,3.181,23.8575,51,7.5,2.084,15.63,79,7.5,4.496,33.72,61,24,2.791,66.984,55,4.5,2.352,10.584,69,4.5,3.415,15.3675,75,4.5,4.4,19.8,77,3,4.448,13.344,62,4.5,2.869,12.9105,50,6,2.017,12.102,102,303.1903,2.9
27,EZEKIEL MWIGUNE,65,7.5,3.103,23.2725,66,7.5,3.181,23.8575,66,7.5,3.181,23.8575,77,6,4.448,26.688,65,7.5,3.103,23.2725,74,7.5,3.58,26.85,59,7.5,2.62,19.65,57,24,2.486,59.664,74,4.5,3.58,16.11,70,4.5,3.5,15.75,73,4.5,3.56,16.02,74,3,3.58,10.74,71,4.5,3.52,15.84,56,6,2.419,14.514,102,316.086,3
28,TIMOTHEO MSEWA,82,7.5,4.568,34.26,71,7.5,3.52,26.4,65,7.5,3.103,23.2725,76,6,4.424,26.544,66,7.5,3.181,23.8575,73,7.5,3.56,26.7,66,7.5,3.181,23.8575,54,24,2.285,54.84,65,4.5,3.103,13.9635,56,4.5,2.419,10.8855,50,4.5,2.017,9.0765,71,3,3.52,10.56,67,4.5,3.259,14.6655,55,6,2.352,14.1119,102,312.9944,3
29,GILIAD ADAM,76,7.5,4.424,33.18,80,7.5,4.52,33.9,64,7.5,3.025,22.6875,67,6,3.259,19.5539,74,7.5,3.58,26.85,59,7.5,2.62,19.65,66,7.5,3.181,23.8575,50,24,2.017,48.408,72,4.5,3.54,15.93,64,4.5,3.025,13.6125,63,4.5,2.947,13.2615,77,3,4.448,13.344,53,4.5,2.218,9.981,57,6,2.486,14.916,102,309.1319,3
30,GAUDENSIA MAGUNO,75,7.5,4.4,33,70,7.5,3.5,26.25,53,7.5,2.218,16.6349,69,6,3.415,20.49,61,7.5,2.791,20.9325,69,7.5,3.415,25.6125,70,7.5,3.5,26.25,60,24,2.713,65.112,67,4.5,3.259,14.6655,72,4.5,3.54,15.93,54,4.5,2.285,10.2825,83,3,4.592,13.776,65,4.5,3.103,13.9635,54,6,2.285,13.71,102,316.6094,3.1
31,ANNA V. KISSIMA,68,7.5,3.337,25.0275,72,7.5,3.54,26.55,50,7.5,2.017,15.1275,72,6,3.54,21.24,50,7.5,2.017,15.1275,63,7.5,2.947,22.1025,56,7.5,2.419,18.1425,50,24,2.017,48.408,50,4.5,2.017,9.0765,59,4.5,2.62,11.79,50,4.5,2.017,9.0765,62,3,2.869,8.607,52,4.5,2.151,9.6794,50,6,2.017,12.102,102,252.0569,2.4
32,YESSE MSUYA,74,7.5,3.58,26.85,68,7.5,3.337,25.0275,50,7.5,2.017,15.1275,69,6,3.415,20.49,63,7.5,2.947,22.1025,72,7.5,3.54,26.55,60,7.5,2.713,20.3475,50,24,2.017,48.408,70,4.5,3.5,15.75,61,4.5,2.791,12.5595,61,4.5,2.791,12.5595,66,3,3.181,9.5429,50,4.5,2.017,9.0765,55,6,2.352,14.1119,102,278.5033,2.7
33,PHILIPO ELISHA,73,7.5,3.56,26.7,50,7.5,2.017,15.1275,64,7.5,3.025,22.6875,72,6,3.54,21.24,67,7.5,3.259,24.4425,65,7.5,3.103,23.2725,71,7.5,3.52,26.4,56,24,2.419,58.056,70,4.5,3.5,15.75,62,4.5,2.869,12.9105,60,4.5,2.713,12.2085,78,3,4.472,13.416,66,4.5,3.181,14.3145,50,6,2.017,12.102,102,298.6275,2.9
34,OMARY M.MMBAGA,59,7.5,2.62,19.65,50,7.5,2.017,15.1275,65,7.5,3.103,23.2725,64,6,3.025,18.15,54,7.5,2.285,17.1375,60,7.5,2.713,20.3475,65,7.5,3.103,23.2725,52,24,2.151,51.6239,62,4.5,2.869,12.9105,52,4.5,2.151,9.6794,50,4.5,2.017,9.0765,62,3,2.869,8.607,50,4.5,2.017,9.0765,51,6,2.084,12.504,102,250.4353,2.4
35,RAFAEL V. MASSAWE,77,7.5,4.448,33.36,61,7.5,2.791,20.9325,73,7.5,3.56,26.7,79,6,4.496,26.976,71,7.5,3.52,26.4,70,7.5,3.5,26.25,71,7.5,3.52,26.4,53,24,2.218,53.232,85,4.5,4.64,20.88,71,4.5,3.52,15.84,78,4.5,4.472,20.124,86,3,4.664,13.992,72,4.5,3.54,15.93,57,6,2.486,14.916,102,341.9325,3.3
36,KETINA MALLYA,70,7.5,3.5,26.25,59,7.5,2.62,19.65,50,7.5,2.017,15.1275,73,6,3.56,21.36,65,7.5,3.103,23.2725,54,7.5,2.285,17.1375,71,7.5,3.52,26.4,57,24,2.486,59.664,66,4.5,3.181,14.3145,53,4.5,2.218,9.981,54,4.5,2.285,10.2825,70,3,3.5,10.5,57,4.5,2.486,11.187,50,6,2.017,12.102,102,277.2285,2.7
37,BENSON S. TARIMO,82,7.5,4.568,34.26,80,7.5,4.52,33.9,63,7.5,2.947,22.1025,74,6,3.58,21.48,59,7.5,2.62,19.65,73,7.5,3.56,26.7,72,7.5,3.54,26.55,61,24,2.791,66.984,84,4.5,4.616,20.7719,77,4.5,4.448,20.016,68,4.5,3.337,15.0165,85,3,4.64,13.9199,63,4.5,2.947,13.2615,55,6,2.352,14.1119,102,348.7242,3.4
38,BLASSO G. KAJIRU,69,7.5,3.415,25.6125,83,7.5,4.592,34.44,67,7.5,3.259,24.4425,65,6,3.103,18.618,69,7.5,3.415,25.6125,73,7.5,3.56,26.7,74,7.5,3.58,26.85,58,24,2.553,61.272,76,4.5,4.424,19.908,73,4.5,3.56,16.02,67,4.5,3.259,14.6655,85,3,4.64,13.9199,84,4.5,4.616,20.7719,80,6,4.52,27.12,102,355.9528,3.4
39,COSMAS MWINUKA,82,7.5,4.568,34.26,63,7.5,2.947,22.1025,71,7.5,3.52,26.4,77,6,4.448,26.688,73,7.5,3.56,26.7,70,7.5,3.5,26.25,63,7.5,2.947,22.1025,64,24,3.025,72.6,84,4.5,4.616,20.7719,58,4.5,2.553,11.4885,63,4.5,2.947,13.2615,80,3,4.52,13.56,75,4.5,4.4,19.8,65,6,3.103,18.618,102,354.6029,3.4
40,JOEL GERALD MALEO,72,7.5,3.54,26.55,58,7.5,2.553,19.1475,65,7.5,3.103,23.2725,65,6,3.103,18.618,66,7.5,3.181,23.8575,58,7.5,2.553,19.1475,73,7.5,3.56,26.7,58,24,2.553,61.272,66,4.5,3.181,14.3145,60,4.5,2.713,12.2085,69,4.5,3.415,15.3675,85,3,4.64,13.9199,74,4.5,3.58,16.11,68,6,3.337,20.022,102,310.5074,3
41,EDWARD T. MAJOR,71,7.5,3.52,26.4,53,7.5,2.218,16.6349,59,7.5,2.62,19.65,60,6,2.713,16.278,70,7.5,3.5,26.25,65,7.5,3.103,23.2725,67,7.5,3.259,24.4425,52,24,2.151,51.6239,59,4.5,2.62,11.79,61,4.5,2.791,12.5595,63,4.5,2.947,13.2615,76,3,4.424,13.272,73,4.5,3.56,16.02,56,6,2.419,14.514,102,285.9688,2.8
42,DORICE CHRISTOPHER,83,7.5,4.592,34.44,88,7.5,4.712,35.3399,58,7.5,2.553,19.1475,79,6,4.496,26.976,66,7.5,3.181,23.8575,71,7.5,3.52,26.4,80,7.5,4.52,33.9,69,24,3.415,81.96,78,4.5,4.472,20.124,77,4.5,4.448,20.016,82,4.5,4.568,20.5559,83,3,4.592,13.776,80,4.5,4.52,20.3399,58,6,2.553,15.318,102,392.1507,3.8
43,ELIUD FESTO,72,7.5,3.54,26.55,71,7.5,3.52,26.4,66,7.5,3.181,23.8575,68,6,3.337,20.022,68,7.5,3.337,25.0275,66,7.5,3.181,23.8575,78,7.5,4.472,33.54,61,24,2.791,66.984,69,4.5,3.415,15.3675,60,4.5,2.713,12.2085,55,4.5,2.352,10.584,72,3,3.54,10.62,62,4.5,2.869,12.9105,50,6,2.017,12.102,102,320.031,3.1
44,ESTHER CORNEL,71,7.5,3.52,26.4,82,7.5,4.568,34.26,62,7.5,2.869,21.5175,70,6,3.5,21,69,7.5,3.415,25.6125,60,7.5,2.713,20.3475,68,7.5,3.337,25.0275,55,24,2.352,56.4479,71,4.5,3.52,15.84,85,4.5,4.64,20.88,73,4.5,3.56,16.02,81,3,4.544,13.6319,73,4.5,3.56,16.02,62,6,2.869,17.214,102,330.2188,3.2
45,ESAU N. NGOMUO,82,7.5,4.568,34.26,68,7.5,3.337,25.0275,70,7.5,3.5,26.25,72,6,3.54,21.24,65,7.5,3.103,23.2725,69,7.5,3.415,25.6125,79,7.5,4.496,33.72,65,24,3.103,74.472,72,4.5,3.54,15.93,72,4.5,3.54,15.93,72,4.5,3.54,15.93,74,3,3.58,10.74,68,4.5,3.337,15.0165,58,6,2.553,15.318,102,352.719,3.4
46,ELIEZA KONE,72,7.5,3.54,26.55,76,7.5,4.424,33.18,58,7.5,2.553,19.1475,72,6,3.54,21.24,68,7.5,3.337,25.0275,56,7.5,2.419,18.1425,66,7.5,3.181,23.8575,52,24,2.151,51.6239,61,4.5,2.791,12.5595,55,4.5,2.352,10.584,58,4.5,2.553,11.4885,70,3,3.5,10.5,68,4.5,3.337,15.0165,50,6,2.017,12.102,102,291.0194,2.8
