,,YEAR I,,,,,,,,,,,,,,,,,,,,,,,,,,,,,,
S/N,NAME,ANATOMY,,,,COMPUTER SKILLS,,,,BASIC CHEMISTRY,,,,COMMUNICATION SKILLS,,,,INSTRUMENTATION,,,,BIOSTATISTICS,,,,PHYSIOLOGY,,,,HISTOLOGY,,,,CLINICAL BIOCHEMISTRY,,,,HAEMATOLOGY,,,,PARASITOLOGY ,,,,BLOOD TRANSFUSION,,,,MICROBIOLOGY,,,,MOLECULAR BIOLOGY,,,,,,
,,MARKS,CREDIT HOURS,GPEq,GP,MARKS,CREDIT HOURS,GPEq,GP,MARKS,CREDIT HOURS,GPEq,GP,MARKS,CREDIT HOURS,GPEq,GP,MARKS,CREDIT HOURS,GPEq,GP,MARKS,CREDIT HOURS,GPEq,GP,MARKS,CREDIT HOURS,GPEq,GP,MARKS,CREDIT HOURS,GPEq,GP,MARKS,CREDIT HOURS,GPEq,GP,MARKS,CREDIT HOURS,GPEq,GP,MARKS,CREDIT HOURS,GPEq,GP,MARKS,CREDIT HOURS,GPEq,GP,MARKS,CREDIT HOURS,GPEq,GP,MARKS,CREDIT HOURS,GPEq,GP,Total Credit Hours,Total GP,GPA
1,SAMWEL MASHAKA,74,9,3.58,32.22,79,12,4.496,53.952,57,6,2.486,14.916,66,6,3.181,19.0859,64,6,3.025,18.15,68,6,3.337,20.022,66,9,3.181,28.629,53,4.5,2.218,9.981,75,4.5,4.4,19.8,62,4.5,2.869,12.9105,51,4.5,2.084,9.378,62,3,2.869,8.607,63,4.5,2.947,13.2615,61,6,2.791,16.746,85.5,277.6589,3.2
2,ADOLF S. KAVISHE,78,9,4.472,40.248,70,12,3.5,42,74,6,3.58,21.48,65,6,3.103,18.618,68,6,3.337,20.022,74,6,3.58,21.48,74,9,3.58,32.22,58,4.5,2.553,11.4885,81,4.5,4.544,20.4479,70,4.5,3.5,15.75,77,4.5,4.448,20.016,91,3,4.784,14.352,74,4.5,3.58,16.11,58,6,2.553,15.318,85.5,309.5504,3.6
3,AGNES S. MUSHI,61,9,2.791,25.119,55,12,2.352,28.2239,61,6,2.791,16.746,62,6,2.869,17.214,58,6,2.553,15.318,51,6,2.084,12.504,71,9,3.52,31.68,51,4.5,2.084,9.378,57,4.5,2.486,11.187,54,4.5,2.285,10.2825,50,4.5,2.017,9.0765,74,3,3.58,10.74,50,4.5,2.017,9.0765,50,6,2.017,12.102,85.5,218.6474,2.5
4,SHOLASTICA MTWEVE,73,9,3.56,32.04,81,12,4.544,54.5279,50,6,2.017,12.102,73,6,3.56,21.36,58,6,2.553,15.318,51,6,2.084,12.504,56,9,2.419,21.771,50,4.5,2.017,9.0765,50,4.5,2.017,9.0765,71,4.5,3.52,15.84,50,4.5,2.017,9.0765,72,3,3.54,10.62,52,4.5,2.151,9.6794,52,6,2.151,12.9059,85.5,245.8977,2.8
5,OMBENI MWANGA,75,9,4.4,39.6,53,12,2.218,26.616,74,6,3.58,21.48,73,6,3.56,21.36,57,6,2.486,14.916,78,6,4.472,26.832,70,9,3.5,31.5,65,4.5,3.103,13.9635,72,4.5,3.54,15.93,77,4.5,4.448,20.016,69,4.5,3.415,15.3675,79,3,4.496,13.488,76,4.5,4.424,19.908,62,6,2.869,17.214,85.5,298.191,3.4
6,REBECCA JAPHET,78,9,4.472,40.248,75,12,4.4,52.8,56,6,2.419,14.514,78,6,4.472,26.832,58,6,2.553,15.318,54,6,2.285,13.71,64,9,3.025,27.225,50,4.5,2.017,9.0765,70,4.5,3.5,15.75,57,4.5,2.486,11.187,55,4.5,2.352,10.584,75,3,4.4,13.2,78,4.5,4.472,20.124,54,6,2.285,13.71,85.5,284.2785,3.3
7,SECILIA A. MSELLE,69,9,3.415,30.735,56,12,2.419,29.028,54,6,2.285,13.71,63,6,2.947,17.682,59,6,2.62,15.72,59,6,2.62,15.72,61,9,2.791,25.119,50,4.5,2.017,9.0765,50,4.5,2.017,9.0765,65,4.5,3.103,13.9635,52,4.5,2.151,9.6794,69,3,3.415,10.245,66,4.5,3.181,14.3145,52,6,2.151,12.9059,85.5,226.9753,2.6
8,WENSESLAUS HAMIS,84,9,4.616,41.5439,65,12,3.103,37.236,64,6,3.025,18.15,74,6,3.58,21.48,72,6,3.54,21.24,66,6,3.181,19.0859,82,9,4.568,41.1119,68,4.5,3.337,15.0165,82,4.5,4.568,20.5559,83,4.5,4.592,20.6639,68,4.5,3.337,15.0165,88,3,4.712,14.136,77,4.5,4.448,20.016,62,6,2.869,17.214,85.5,322.4665,3.7
9,TERESIA EZEKIEL ,61,9,2.791,25.119,66,12,3.181,38.1719,64,6,3.025,18.15,57,6,2.486,14.916,64,6,3.025,18.15,54,6,2.285,13.71,59,9,2.62,23.58,55,4.5,2.352,10.584,65,4.5,3.103,13.9635,74,4.5,3.58,16.11,64,4.5,3.025,13.6125,62,3,2.869,8.607,54,4.5,2.285,10.2825,50,6,2.017,12.102,85.5,237.0584,2.7
10,AUGUSTINO CHAMI,74,9,3.58,32.22,61,12,2.791,33.492,60,6,2.713,16.278,75,6,4.4,26.4,56,6,2.419,14.514,57,6,2.486,14.916,83,9,4.592,41.3279,64,4.5,3.025,13.6125,75,4.5,4.4,19.8,79,4.5,4.496,20.232,60,4.5,2.713,12.2085,81,3,4.544,13.6319,75,4.5,4.4,19.8,59,6,2.62,15.72,85.5,294.1528,3.4
11,MATILDA V. KAYOMBO,78,9,4.472,40.248,86,12,4.664,55.968,67,6,3.259,19.5539,74,6,3.58,21.48,60,6,2.713,16.278,73,6,3.56,21.36,74,9,3.58,32.22,57,4.5,2.486,11.187,76,4.5,4.424,19.908,76,4.5,4.424,19.908,75,4.5,4.4,19.8,84,3,4.616,13.848,66,4.5,3.181,14.3145,62,6,2.869,17.214,85.5,323.2874,3.7
12,OLIVA I. ISSAYA,60,9,2.713,24.417,78,12,4.472,53.664,68,6,3.337,20.022,73,6,3.56,21.36,56,6,2.419,14.514,60,6,2.713,16.278,73,9,3.56,32.04,61,4.5,2.791,12.5595,61,4.5,2.791,12.5595,70,4.5,3.5,15.75,53,4.5,2.218,9.981,74,3,3.58,10.74,63,4.5,2.947,13.2615,62,6,2.869,17.214,85.5,274.3605,3.2
13,MARIA F. MUSHI,83,9,4.592,41.3279,56,12,2.419,29.028,68,6,3.337,20.022,65,6,3.103,18.618,61,6,2.791,16.746,69,6,3.415,20.49,64,9,3.025,27.225,56,4.5,2.419,10.8855,67,4.5,3.259,14.6655,73,4.5,3.56,16.02,58,4.5,2.553,11.4885,77,3,4.448,13.344,73,4.5,3.56,16.02,64,6,3.025,18.15,85.5,274.0304,3.2
14,MARIA P.LUBUVA,65,9,3.103,27.927,50,12,2.017,24.204,50,6,2.017,12.102,74,6,3.58,21.48,62,6,2.869,17.214,55,6,2.352,14.1119,62,9,2.869,25.821,61,4.5,2.791,12.5595,73,4.5,3.56,16.02,73,4.5,3.56,16.02,72,4.5,3.54,15.93,73,3,3.56,10.68,71,4.5,3.52,15.84,50,6,2.017,12.102,85.5,242.0114,2.8
15,IDD OYAKO,64,9,3.025,27.225,58,12,2.553,30.636,61,6,2.791,16.746,68,6,3.337,20.022,71,6,3.52,21.12,51,6,2.084,12.504,65,9,3.103,27.927,60,4.5,2.713,12.2085,71,4.5,3.52,15.84,72,4.5,3.54,15.93,82,4.5,4.568,20.5559,75,3,4.4,13.2,72,4.5,3.54,15.93,50,6,2.017,12.102,85.5,261.9464,3
16,KURUTHUM ANAS SULEIMAN,69,9,3.415,30.735,74,12,3.58,42.96,55,6,2.352,14.1119,75,6,4.4,26.4,59,6,2.62,15.72,53,6,2.218,13.308,59,9,2.62,23.58,53,4.5,2.218,9.981,63,4.5,2.947,13.2615,58,4.5,2.553,11.4885,59,4.5,2.62,11.79,78,3,4.472,13.416,59,4.5,2.62,11.79,50,6,2.017,12.102,85.5,250.6439,2.9
17,MAJUTO JACKSON,85,9,4.64,41.76,87,12,4.688,56.256,70,6,3.5,21,75,6,4.4,26.4,72,6,3.54,21.24,69,6,3.415,20.49,78,9,4.472,40.248,61,4.5,2.791,12.5595,77,4.5,4.448,20.016,77,4.5,4.448,20.016,62,4.5,2.869,12.9105,90,3,4.76,14.28,76,4.5,4.424,19.908,69,6,3.415,20.49,85.5,347.574,4
18,MARIO KITWANGE,68,9,3.337,30.033,54,12,2.285,27.42,51,6,2.084,12.504,54,6,2.285,13.71,58,6,2.553,15.318,50,6,2.017,12.102,66,9,3.181,28.629,56,4.5,2.419,10.8855,63,4.5,2.947,13.2615,54,4.5,2.285,10.2825,62,4.5,2.869,12.9105,57,3,2.486,7.458,60,4.5,2.713,12.2085,50,6,2.017,12.102,85.5,218.8245,2.5
19,ILUMINATHA C. MUSHI,77,9,4.448,40.032,74,12,3.58,42.96,61,6,2.791,16.746,83,6,4.592,27.552,66,6,3.181,19.0859,72,6,3.54,21.24,71,9,3.52,31.68,66,4.5,3.181,14.3145,64,4.5,3.025,13.6125,65,4.5,3.103,13.9635,66,4.5,3.181,14.3145,79,3,4.496,13.488,74,4.5,3.58,16.11,56,6,2.419,14.514,85.5,299.6129,3.5
20,JOEL J. KIMARO,66,9,3.181,28.629,71,12,3.52,42.24,50,6,2.017,12.102,64,6,3.025,18.15,60,6,2.713,16.278,62,6,2.869,17.214,72,9,3.54,31.86,53,4.5,2.218,9.981,50,4.5,2.017,9.0765,60,4.5,2.713,12.2085,62,4.5,2.869,12.9105,67,3,3.259,9.7769,58,4.5,2.553,11.4885,50,6,2.017,12.102,85.5,244.0169,2.8
21,JOSEPH OLOMI,68,9,3.337,30.033,70,12,3.5,42,60,6,2.713,16.278,67,6,3.259,19.5539,69,6,3.415,20.49,72,6,3.54,21.24,70,9,3.5,31.5,57,4.5,2.486,11.187,77,4.5,4.448,20.016,67,4.5,3.259,14.6655,61,4.5,2.791,12.5595,78,3,4.472,13.416,66,4.5,3.181,14.3145,50,6,2.017,12.102,85.5,279.3554,3.2
22,ASHURA ABBAS,70,9,3.5,31.5,67,12,3.259,39.1079,62,6,2.869,17.214,81,6,4.544,27.2639,70,6,3.5,21,73,6,3.56,21.36,70,9,3.5,31.5,55,4.5,2.352,10.584,69,4.5,3.415,15.3675,77,4.5,4.448,20.016,62,4.5,2.869,12.9105,88,3,4.712,14.136,70,4.5,3.5,15.75,64,6,3.025,18.15,85.5,295.8598,3.4
23,ALBERT RUMISHA SANDI,71,9,3.52,31.68,73,12,3.56,42.72,50,6,2.017,12.102,57,6,2.486,14.916,68,6,3.337,20.022,51,6,2.084,12.504,53,9,2.218,19.962,50,4.5,2.017,9.0765,61,4.5,2.791,12.5595,67,4.5,3.259,14.6655,58,4.5,2.553,11.4885,68,3,3.337,10.011,61,4.5,2.791,12.5595,50,6,2.017,12.102,85.5,236.3685,2.7
24,OSCAR C. MINJA,74,9,3.58,32.22,64,12,3.025,36.3,51,6,2.084,12.504,70,6,3.5,21,68,6,3.337,20.022,50,6,2.017,12.102,65,9,3.103,27.927,60,4.5,2.713,12.2085,55,4.5,2.352,10.584,54,4.5,2.285,10.2825,50,4.5,2.017,9.0765,69,3,3.415,10.245,61,4.5,2.791,12.5595,55,6,2.352,14.1119,85.5,241.1429,2.8
25,SAMSON N. LIKOMBE,72,9,3.54,31.86,89,12,4.736,56.8319,65,6,3.103,18.618,55,6,2.352,14.1119,60,6,2.713,16.278,52,6,2.151,12.9059,56,9,2.419,21.771,50,4.5,2.017,9.0765,57,4.5,2.486,11.187,68,4.5,3.337,15.0165,50,4.5,2.017,9.0765,68,3,3.337,10.011,59,4.5,2.62,11.79,50,6,2.017,12.102,85.5,250.6362,2.9
26,PILI MWIDAWALO,53,9,2.218,19.962,68,12,3.337,40.044,56,6,2.419,14.514,66,6,3.181,19.0859,66,6,3.181,19.0859,51,6,2.084,12.504,79,9,4.496,40.464,61,4.5,2.791,12.5595,55,4.5,2.352,10.584,69,4.5,3.415,15.3675,75,4.5,4.4,19.8,77,3,4.448,13.344,62,4.5,2.869,12.9105,50,6,2.017,12.102,85.5,262.3273,3
27,EZEKIEL MWIGUNE,65,9,3.103,27.927,66,12,3.181,38.1719,66,6,3.181,19.0859,77,6,4.448,26.688,65,6,3.103,18.618,74,6,3.58,21.48,59,9,2.62,23.58,57,4.5,2.486,11.187,74,4.5,3.58,16.11,70,4.5,3.5,15.75,73,4.5,3.56,16.02,74,3,3.58,10.74,71,4.5,3.52,15.84,56,6,2.419,14.514,85.5,275.7118,3.2
28,TIMOTHEO MSEWA,82,9,4.568,41.1119,71,12,3.52,42.24,65,6,3.103,18.618,76,6,4.424,26.544,66,6,3.181,19.0859,73,6,3.56,21.36,66,9,3.181,28.629,54,4.5,2.285,10.2825,65,4.5,3.103,13.9635,56,4.5,2.419,10.8855,50,4.5,2.017,9.0765,71,3,3.52,10.56,67,4.5,3.259,14.6655,55,6,2.352,14.1119,85.5,281.1342,3.2
29,GILIAD ADAM,76,9,4.424,39.816,80,12,4.52,54.24,64,6,3.025,18.15,67,6,3.259,19.5539,74,6,3.58,21.48,59,6,2.62,15.72,66,9,3.181,28.629,50,4.5,2.017,9.0765,72,4.5,3.54,15.93,64,4.5,3.025,13.6125,63,4.5,2.947,13.2615,77,3,4.448,13.344,53,4.5,2.218,9.981,57,6,2.486,14.916,85.5,287.7104,3.3
30,GAUDENSIA MAGUNO,75,9,4.4,39.6,70,12,3.5,42,53,6,2.218,13.308,69,6,3.415,20.49,61,6,2.791,16.746,69,6,3.415,20.49,70,9,3.5,31.5,60,4.5,2.713,12.2085,67,4.5,3.259,14.6655,72,4.5,3.54,15.93,54,4.5,2.285,10.2825,83,3,4.592,13.776,65,4.5,3.103,13.9635,54,6,2.285,13.71,85.5,278.67,3.2
31,ANNA V. KISSIMA,68,9,3.337,30.033,72,12,3.54,42.48,50,6,2.017,12.102,72,6,3.54,21.24,50,6,2.017,12.102,63,6,2.947,17.682,56,9,2.419,21.771,50,4.5,2.017,9.0765,50,4.5,2.017,9.0765,59,4.5,2.62,11.79,50,4.5,2.017,9.0765,62,3,2.869,8.607,52,4.5,2.151,9.6794,50,6,2.017,12.102,85.5,226.8179,2.6
32,YESSE MSUYA,74,9,3.58,32.22,68,12,3.337,40.044,50,6,2.017,12.102,69,6,3.415,20.49,63,6,2.947,17.682,72,6,3.54,21.24,60,9,2.713,24.417,50,4.5,2.017,9.0765,70,4.5,3.5,15.75,61,4.5,2.791,12.5595,61,4.5,2.791,12.5595,66,3,3.181,9.5429,50,4.5,2.017,9.0765,55,6,2.352,14.1119,85.5,250.8718,2.9
33,PHILIPO ELISHA,73,9,3.56,32.04,50,12,2.017,24.204,64,6,3.025,18.15,72,6,3.54,21.24,67,6,3.259,19.5539,65,6,3.103,18.618,71,9,3.52,31.68,56,4.5,2.419,10.8855,70,4.5,3.5,15.75,62,4.5,2.869,12.9105,60,4.5,2.713,12.2085,78,3,4.472,13.416,66,4.5,3.181,14.3145,50,6,2.017,12.102,85.5,257.0729,3
34,OMARY M.MMBAGA,59,9,2.62,23.58,50,12,2.017,24.204,65,6,3.103,18.618,64,6,3.025,18.15,54,6,2.285,13.71,60,6,2.713,16.278,65,9,3.103,27.927,52,4.5,2.151,9.6794,62,4.5,2.869,12.9105,52,4.5,2.151,9.6794,50,4.5,2.017,9.0765,62,3,2.869,8.607,50,4.5,2.017,9.0765,51,6,2.084,12.504,85.5,214.0003,2.5
35,RAFAEL V. MASSAWE,77,9,4.448,40.032,61,12,2.791,33.492,73,6,3.56,21.36,79,6,4.496,26.976,71,6,3.52,21.12,70,6,3.5,21,71,9,3.52,31.68,53,4.5,2.218,9.981,85,4.5,4.64,20.88,71,4.5,3.52,15.84,78,4.5,4.472,20.124,86,3,4.664,13.992,72,4.5,3.54,15.93,57,6,2.486,14.916,85.5,307.323,3.5
36,KETINA MALLYA,70,9,3.5,31.5,59,12,2.62,31.44,50,6,2.017,12.102,73,6,3.56,21.36,65,6,3.103,18.618,54,6,2.285,13.71,71,9,3.52,31.68,57,4.5,2.486,11.187,66,4.5,3.181,14.3145,53,4.5,2.218,9.981,54,4.5,2.285,10.2825,70,3,3.5,10.5,57,4.5,2.486,11.187,50,6,2.017,12.102,85.5,239.964,2.8
37,BENSON S. TARIMO,82,9,4.568,41.1119,80,12,4.52,54.24,63,6,2.947,17.682,74,6,3.58,21.48,59,6,2.62,15.72,73,6,3.56,21.36,72,9,3.54,31.86,61,4.5,2.791,12.5595,84,4.5,4.616,20.7719,77,4.5,4.448,20.016,68,4.5,3.337,15.0165,85,3,4.64,13.9199,63,4.5,2.947,13.2615,55,6,2.352,14.1119,85.5,313.1111,3.6
38,BLASSO G. KAJIRU,69,9,3.415,30.735,83,12,4.592,55.104,67,6,3.259,19.5539,65,6,3.103,18.618,69,6,3.415,20.49,73,6,3.56,21.36,74,9,3.58,32.22,58,4.5,2.553,11.4885,76,4.5,4.424,19.908,73,4.5,3.56,16.02,67,4.5,3.259,14.6655,85,3,4.64,13.9199,84,4.5,4.616,20.7719,80,6,4.52,27.12,85.5,321.9747,3.7
39,COSMAS MWINUKA,82,9,4.568,41.1119,63,12,2.947,35.364,71,6,3.52,21.12,77,6,4.448,26.688,73,6,3.56,21.36,70,6,3.5,21,63,9,2.947,26.523,64,4.5,3.025,13.6125,84,4.5,4.616,20.7719,58,4.5,2.553,11.4885,63,4.5,2.947,13.2615,80,3,4.52,13.56,75,4.5,4.4,19.8,65,6,3.103,18.618,85.5,304.2793,3.5
40,JOEL GERALD MALEO,72,9,3.54,31.86,58,12,2.553,30.636,65,6,3.103,18.618,65,6,3.103,18.618,66,6,3.181,19.0859,58,6,2.553,15.318,73,9,3.56,32.04,58,4.5,2.553,11.4885,66,4.5,3.181,14.3145,60,4.5,2.713,12.2085,69,4.5,3.415,15.3675,85,3,4.64,13.9199,74,4.5,3.58,16.11,68,6,3.337,20.022,85.5,269.6068,3.1
41,EDWARD T. MAJOR,71,9,3.52,31.68,53,12,2.218,26.616,59,6,2.62,15.72,60,6,2.713,16.278,70,6,3.5,21,65,6,3.103,18.618,67,9,3.259,29.331,52,4.5,2.151,9.6794,59,4.5,2.62,11.79,61,4.5,2.791,12.5595,63,4.5,2.947,13.2615,76,3,4.424,13.272,73,4.5,3.56,16.02,56,6,2.419,14.514,85.5,250.3394,2.9
42,DORICE CHRISTOPHER,83,9,4.592,41.3279,88,12,4.712,56.544,58,6,2.553,15.318,79,6,4.496,26.976,66,6,3.181,19.0859,71,6,3.52,21.12,80,9,4.52,40.6799,69,4.5,3.415,15.3675,78,4.5,4.472,20.124,77,4.5,4.448,20.016,82,4.5,4.568,20.5559,83,3,4.592,13.776,80,4.5,4.52,20.3399,58,6,2.553,15.318,85.5,346.549,4
43,ELIUD FESTO,72,9,3.54,31.86,71,12,3.52,42.24,66,6,3.181,19.0859,68,6,3.337,20.022,68,6,3.337,20.022,66,6,3.181,19.0859,78,9,4.472,40.248,61,4.5,2.791,12.5595,69,4.5,3.415,15.3675,60,4.5,2.713,12.2085,55,4.5,2.352,10.584,72,3,3.54,10.62,62,4.5,2.869,12.9105,50,6,2.017,12.102,85.5,278.9158,3.2
44,ESTHER CORNEL,71,9,3.52,31.68,82,12,4.568,54.816,62,6,2.869,17.214,70,6,3.5,21,69,6,3.415,20.49,60,6,2.713,16.278,68,9,3.337,30.033,55,4.5,2.352,10.584,71,4.5,3.52,15.84,85,4.5,4.64,20.88,73,4.5,3.56,16.02,81,3,4.544,13.6319,73,4.5,3.56,16.02,62,6,2.869,17.214,85.5,301.7009,3.5
45,ESAU N. NGOMUO,82,9,4.568,41.1119,68,12,3.337,40.044,70,6,3.5,21,72,6,3.54,21.24,65,6,3.103,18.618,69,6,3.415,20.49,79,9,4.496,40.464,65,4.5,3.103,13.9635,72,4.5,3.54,15.93,72,4.5,3.54,15.93,72,4.5,3.54,15.93,74,3,3.58,10.74,68,4.5,3.337,15.0165,58,6,2.553,15.318,85.5,305.7959,3.5
46,ELIEZA KONE,72,9,3.54,31.86,76,12,4.424,53.088,58,6,2.553,15.318,72,6,3.54,21.24,68,6,3.337,20.022,56,6,2.419,14.514,66,9,3.181,28.629,52,4.5,2.151,9.6794,61,4.5,2.791,12.5595,55,4.5,2.352,10.584,58,4.5,2.553,11.4885,70,3,3.5,10.5,68,4.5,3.337,15.0165,50,6,2.017,12.102,85.5,266.6009,3.1
