Code,Name,Sys.Name,Group,Contact,Physical.Address,Postal.Address,Telephone,Tax.Number,Registration.Number,Credit.Limit,Email,Currency
BSN848,Leliosa Mmasy,,BSN 1,,,,,,,,,
BSN851,Ester Mbewa,,BSN 1,,,,,,,,,
BSN896,Anna P Kanje-Help to Help,,BSN 1,,,,,,,,,
BSN837,Prisca J Stephano,,BSN 1,,,,,,,,,
BSN864,Gloria O Mlowe,,BSN 1,,,,,,,,,
BSN832,Isaka J Fungo,,BSN 1,,,,,,,,,
BSN835,Elizabeth F Amando,,BSN 1,,,,,,,,,
BSN806,Zakayo A Diddi,,BSN 1,,,,,,,,,
BSN811,Zakayo P Ezekiel,,BSN 1,,,,,,,,,
BSN816,Fredrick M Mbise,,BSN 1,,,,,,,,,
BSN819,Getruda E Tweve,,BSN 1,,,,,,,,,
BSN831,Magreth Pilla,,BSN 1,,,,,,,,,
BSN820,Emanuel D Mnyambeu,,BSN 1,,,,,,,,,
BSN894,Tosten B Minja,,BSN 1,,,,,,,,,
BSN890,Justina E Ndyai,,BSN 1,,,,,,,,,
BSN863,Cesilia S Kimaro,,BSN 1,,,,,,,,,
BSN813,Lambert R Nicas,,BSN 1,,,,,,,,,
BSN821,Mwanahamisi  I  Lipamba,,BSN 1,,,,,,,,,
BSN891,Anna Emanuel J,,BSN 1,,,,,,,,,
BSN892,Gladness Nikolaus Mkawe,,BSN 1,,,,,,,,,
BSN898,Margareth .P.Kiria,,BSN 1,,,,,,,,,
BSN805,Faustine C Makwenda,,BSN 1,,,,,,,,,
BSN804,Stephano P Kimario,,BSN 1,,,,,,,,,
BSN824,Mwita G Mkono,,BSN 1,,,,,,,,,
BSN859,Victoria  M Kimaka,,BSN 1,,,,,,,,,
BSN862,Pascal L Kastuly,,BSN 1,,,,,,,,,
BSN810,Alfa B Gazulu,,BSN 1,,,,,,,,,
BSN703,Epiphania .F.Massawe,,BSN 2,,,,,,,,,
BSN562,James Ngo'nye,,BSN 2,,,,,,,,,
BSN665,Paulo R Mwafubela,,BSN 2,,,,,,,,,
DHL423,Monica Bernard chng to BSN,,BSN 2,,,,,,,,,
BSN642,Brenda N Shirima,,BSN 2,,,,,,,,,
BSM686,Kelison Kassian Mtwange,,BSN 2,,,,,,,,,
BSN520,Neserian Ojung'u,,BSN 2,,,,,,,,,
BSN650,Chesco A Polla,,BSN 2,,,,,,,,,
BSN685,Joshua Maiko Malala,,BSN 2,,,,,,,,,
BSN601,Elisia G Kisanga,,BSN 2,,,,,,,,,
BSN652,Blessing M Mseke,,BSN 2,,,,,,,,,
BSN675,Yasin Adam Said,,BSN 2,,,,,,,,,
BSN600,Pius Barththromeo,,BSN 2,,,,,,,,,
BSN607,Dickson Organess  Mchome,,BSN 2,,,,,,,,,
PH212,Jenoveva Dickson-change to nursuing,,BSN 2,,,,,,,,,
BSN647,Mariam D Nyavanga,,BSN 2,,,,,,,,,
BSN578,Zaituni Said Shekimweri,,BSN 2,,,,,,,,,
BSN540,Happyness Patric,,BSN 2,,,,,,,,,
BSN632,Mauki  E Walter,,BSN 2,,,,,,,,,
BSN602,Alphonsina M Mgumba,,BSN 2,,,,,,,,,
BSN559,Esther Mshana,,BSN 2,,,,,,,,,
BSN556,William John,,BSN 2,,,,,,,,,
BSN646,Dickson G Towo,,BSN 2,,,,,,,,,
DHL425,Isaac .S. Shemdoe-change to nursing-Disc,,BSN 2,,,,,,,,,
BPO204,Shekha Y Ally- Change to Nursing,,BSN 2,,,,,,,,,
BSN662,Elibariki Steven,,BSN 2,,,,,,,,,
BSN697,Nelson A Naman,,BSN 2,,,,,,,,,
BSN612,Glory Y Siao,,BSN 2,,,,,,,,,
BSN638,Anthony D Nyakamwe,,BSN 2,,,,,,,,,
BSN426,Fredrick Meshack Mzimya,,BSN 3,,,,,,,,,
BSN432,Judith Margareth Mandala,,BSN 3,,,,,,,,,
BSN443,Joyce Ewald Marenge,,BSN 3,,,,,,,,,
BSN435,Mwanasha Bakari Nyangasa,,BSN 3,,,,,,,,,
BSN400,Kuluthum.S.Mohamed,,BSN 3,,,,,,,,,
BSN434,Neema Prisca Onesmo,,BSN 3,,,,,,,,,
BSN418,Mpoki  William,,BSN 3,,,,,,,,,
BSN425,Elisamia Rabson Maro,,BSN 3,,,,,,,,,
BSN465,David Gerald Mbilinyi,,BSN 3,,,,,,,,,
BSN430,Jenipha Valentine silayo,,BSN 3,,,,,,,,,
BSN431,Ester Richard Makupa,,BSN 3,,,,,,,,,
BSN422,Jane Nyairabu Miniko,,BSN 3,,,,,,,,,
BSN500,Hortensia .B.Tarimo,,BSN 3,,,,,,,,,
BHL500,Elimringi Ngao-Postponed,,BSCLAB 1,,,,,,,,,
BHL861,Frank F Ndunguru,,BSCLAB 1,,,,,,,,,
BHL600,Damian J Kahamba,,BSCLAB 1,,,,,,,,,
BHL522,Edward T Mojor,,BSCLAB 1,,,,,,,,,
BHL642,Witness Paul Gailanga,,BSCLAB 1,,,,,,,,,
BHL667,Felix Ibrahim Mosha,,BSCLAB 1,,,,,,,,,
MD1639,Fausta L Nshushi,,BSCLAB 1,,,,,,,,,
MD1776,Khamis H Kyaabi-change to lab,,BSCLAB 1,,,,,,,,,
MD1794,Hellen H Ndanu-change to lab,,BSCLAB 1,,,,,,,,,
PH310,Jesca D William-change to lab,,BSCLAB 1,,,,,,,,,
BHL634,Vivian M Laizer,,BSCLAB 1,,,,,,,,,
BHL668,Mary J Kimario-Help to Help,,BSCLAB 1,,,,,,,,,
BHL638,Nickson N Mligo,,BSCLAB 1,,,,,,,,,
BHL609,Eugenia J Mmasi,,BSCLAB 1,,,,,,,,,
BHL632,Doreen M Mgayo,,BSCLAB 1,,,,,,,,,
BHL603,Heavenlight F Ngomasi,,BSCLAB 1,,,,,,,,,
BHL628,Faustine R Mtalo,,BSCLAB 1,,,,,,,,,
BHL611,Irene D Jeremiah,,BSCLAB 1,,,,,,,,,
BHL630,Gabriel E Shoo,,BSCLAB 1,,,,,,,,,
BHL635,Daniel A Mwandisi,,BSCLAB 1,,,,,,,,,
BHL641,Michael J Ngowi,,BSCLAB 1,,,,,,,,,
BPO205,Daudi Sailepu-Change to Lab,,BSCLAB 1,,,,,,,,,
BHL616,Jueni M Mrope,,BSCLAB 1,,,,,,,,,
BHL605,Ibrahim I Mauki,,BSCLAB 1,,,,,,,,,
BHL615,Seury G Mmbaga,,BSCLAB 1,,,,,,,,,
BSN611,Magweiga Magige chg to BHL,,BSCLAB 1,,,,,,,,,
BHL626,Laurent A Kurwa,,BSCLAB 1,,,,,,,,,
BHL863,Jasmin G Mhanga,,BSCLAB 1,,,,,,,,,
BHL528,Faraja A Wimbi,,BSCLAB 2,,,,,,,,,
BHL457,Ibrahim Sanda,,BSCLAB 2,,,,,,,,,
BHL496,Hilda Franscis,,BSCLAB 2,,,,,,,,,
BSN518,Goodluck Ndosi chg to BHL,,BSCLAB 2,,,,,,,,,
BSN489,SALVATORY .A. SAMBOTI-chg to Lab,,BSCLAB 2,,,,,,,,,
BHL514,Alfred.Chacha. Charles,,BSCLAB 2,,,,,,,,,
BHL403,Benedicto  Shimula  Nyalika,,BSCLAB 2,,,,,,,,,
BHL448,Ezekiel E. Wahhay,,BSCLAB 2,,,,,,,,,
BHL525,Mabula L Patrick,,BSCLAB 2,,,,,,,,,
PH222,Edwiga Assenga-change to Lab,,BSCLAB 2,,,,,,,,,
BHL529,Deogratius V Mpotwa,,BSCLAB 2,,,,,,,,,
BSO018,Thadeo Kayanda-change to Bhl,,BSCLAB 2,,,,,,,,,
BHL374,Gema Sirili Kiwale,,BSCLAB 3,,,,,,,,,
BHL404,Flora  Khabele,,BSCLAB 3,,,,,,,,,
DHL360,Glory Bryson Lema(Change to Bhl),,BSCLAB 3,,,,,,,,,
BHL369,Emmanuel  Samwel  Mwita,,BSCLAB 3,,,,,,,,,
BHL337,Anastazia M. Bruno,,BSCLAB 3,,,,,,,,,
BHL443,Silvestera Nicholaus Ngowi,,BSCLAB 3,,,,,,,,,
PH202,Mary  J  Msumari-change to Lab,,BSCLAB 3,,,,,,,,,
BHL401,Noela  E  John,,BSCLAB 3,,,,,,,,,
BPO233,Happyness G Mtundu,,P&O 1,,,,,,,,,
BPO234,Diana E Mulwafu,,P&O 1,,,,,,,,,
BPO230,Hilary T Kadinde,,P&O 1,,,,,,,,,
BPO237,Alkaldo K Benedicto,,P&O 1,,,,,,,,,
BPO201,Daniel Mwakisapile,,P&O 2,,,,,,,,,
BPO207,Muslih K Haji,,P&O 2,,,,,,,,,
BPO206,Gasper N Shirima,,P&O 2,,,,,,,,,
BPO202,Victor Simkoko,,P&O 3,,,,,,,,,
BPO210,Haggar Mahmood,,P&O 3,,,,,,,,,
BPD155,Heita Onesmos,,P&O 4,,,,,,,,,
BPO172,Enoch J.Mwigirwa,,P&O 4,,,,,,,,,
PH291,Husseina Z Akberali,,BSC PHY 1,,,,,,,,,
PH323,Majidah H Makame,,BSC PHY 1,,,,,,,,,
PH313,Frida F Manyanga,,BSC PHY 1,,,,,,,,,
PH319,Margareth S Chuwa,,BSC PHY 1,,,,,,,,,
PH324,Melchzedeck.H.Macha,,BSC PHY 1,,,,,,,,,
PH290,Francisca E Msuya,,BSC PHY 1,,,,,,,,,
PH292,Saidi A Abdi,,BSC PHY 1,,,,,,,,,
PH322,Chacha Zacharia Singisya,,BSC PHY 1,,,,,,,,,
PH314,Mohamed A Sultan,,BSC PHY 1,,,,,,,,,
PH299,Catherine A Mallya,,BSC PHY 1,,,,,,,,,
PH293,Michael J Sangilamoto,,BSC PHY 1,,,,,,,,,
PH284,Beatus D Mshana,,BSC PHY 1,,,,,,,,,
PH297,Goodluck L Kaduma,,BSC PHY 1,,,,,,,,,
PH308,Anthony F Komba,,BSC PHY 1,,,,,,,,,
PH309,Abdulla M Abdulla,,BSC PHY 1,,,,,,,,,
PH260,Nickson Robinson Mushi,,BSC PHY 2,,,,,,,,,
BHL489,Chantal Ayoub - chg physio,,BSC PHY 2,,,,,,,,,
BSN507,Musa Suya-change to physio,,BSC PHY 2,,,,,,,,,
PH233,Fredinand Ladislatus,,BSC PHY 2,,,,,,,,,
PH240,Gilbert Florence,,BSC PHY 2,,,,,,,,,
PH167,Nuru  H.  Mohammed,,BSC PHY 3,,,,,,,,,
PH210,Flaviana John Kitally,,BSC PHY 3,,,,,,,,,
PH146,Winniefrida Kassim,,BSC PHY 4,,,,,,,,,
DHL535,Gidion J Silayo,,DIP LAB 1,,,,,,,,,
DHL462,Happiness G Rutunda,,DIP LAB 1,,,,,,,,,
DHL524,Emmanuel E Macha,,DIP LAB 1,,,,,,,,,
DHL429,Winner Emmanuel Munga,,DIP LAB 1,,,,,,,,,
DOT233,Happyness E Missay-Change Dhl,,DIP LAB 1,,,,,,,,,
DHL453,Hellen C Abia,,DIP LAB 1,,,,,,,,,
DHL471,Glory I Manjuu,,DIP LAB 1,,,,,,,,,
DHL473,Jacqueline C Njau,,DIP LAB 1,,,,,,,,,
DHL487,Happy A Ngoda,,DIP LAB 1,,,,,,,,,
DHL431,Doreen D Massawe,,DIP LAB 1,,,,,,,,,
DHL434,Helga P Mmari,,DIP LAB 1,,,,,,,,,
DHL451,Tumainiel J Kowero,,DIP LAB 1,,,,,,,,,
DHL468,David A Mramba,,DIP LAB 1,,,,,,,,,
DHL492,Safina K Hassani,,DIP LAB 1,,,,,,,,,
DHL510,Eleonora Thomas,,DIP LAB 1,,,,,,,,,
DHL519,Anselim M Ngasa,,DIP LAB 1,,,,,,,,,
DHL527,Kennedy U Lema,,DIP LAB 1,,,,,,,,,
DHL529,Glory E Mtui,,DIP LAB 1,,,,,,,,,
DHL441,Luckymay P Ongiri,,DIP LAB 1,,,,,,,,,
DHL435,Elson E Kimaro,,DIP LAB 1,,,,,,,,,
DHL488,Oscar J Sizya,,DIP LAB 1,,,,,,,,,
DHL528,Calvin D Ngowi,,DIP LAB 1,,,,,,,,,
DHL432,Silvia S Mwacha,,DIP LAB 1,,,,,,,,,
DHL438,Husna S Mboya,,DIP LAB 1,,,,,,,,,
DHL445,Mwajuma A Zullu,,DIP LAB 1,,,,,,,,,
DHL454,Essau S Mwansanga,,DIP LAB 1,,,,,,,,,
DHL458,James P Masinga,,DIP LAB 1,,,,,,,,,
DHL465,Gloria A Manyerere,,DIP LAB 1,,,,,,,,,
DHL469,Mariam Y Msalali,,DIP LAB 1,,,,,,,,,
DHL470,Doreen K Mayemba,,DIP LAB 1,,,,,,,,,
DHL482,Shedrack P Mbilinyi,,DIP LAB 1,,,,,,,,,
DHL483,Daniel M Kileo,,DIP LAB 1,,,,,,,,,
DHL484,Grace A Masisila,,DIP LAB 1,,,,,,,,,
DHL485,Victor T Makundi,,DIP LAB 1,,,,,,,,,
DHL486,Pendonsia G Ussiri,,DIP LAB 1,,,,,,,,,
DHL493,Vivian V Kaaya,,DIP LAB 1,,,,,,,,,
DHL502,Steven C. J Moshi,,DIP LAB 1,,,,,,,,,
DHL512,Elizaabeth G Swai,,DIP LAB 1,,,,,,,,,
DHL534,Judith.L. Mtalo,,DIP LAB 1,,,,,,,,,
DHL459,Rosalind R Matola,,DIP LAB 1,,,,,,,,,
DHL497,Otieno A Isaac,,DIP LAB 1,,,,,,,,,
DHL515,Jerome T Mbowe,,DIP LAB 1,,,,,,,,,
DHL400,Temba Consolatha Victor,,DIP LAB 2,,,,,,,,,
DHL378,Sulle Joyce vincent,,DIP LAB 2,,,,,,,,,
DHL399,Matiku Wambura Piter,,DIP LAB 2,,,,,,,,,
DHL364,Kobelo Jasmine Phillip,,DIP LAB 2,,,,,,,,,
DHL374,Assenga Joyce Hubert,,DIP LAB 2,,,,,,,,,
DHL376,Manyori Benigni Peter,,DIP LAB 2,,,,,,,,,
DHL395,Singano Simon Roman,,DIP LAB 2,,,,,,,,,
DHL411,Sedekia Joshua Bazikamwe,,DIP LAB 2,,,,,,,,,
DHL412,Mbwambo Wilfed Allen,,DIP LAB 2,,,,,,,,,
DHL418,Urio Veronica Francis,,DIP LAB 2,,,,,,,,,
DHL428,Zawadi.V.John,,DIP LAB 2,,,,,,,,,
DHL430,Debora .J. Mbilinyi,,DIP LAB 2,,,,,,,,,
DHL394,Uiso Violeth Immanueli,,DIP LAB 2,,,,,,,,,
DHL322,JESCA  S. TARIMO,,DIP LAB 3,,,,,,,,,
DHL312,Mmari Godwin Gasper,,DIP LAB 3,,,,,,,,,
DHL361,George Kanuiti Massawe,,DIP LAB 3,,,,,,,,,
DHL329,Vicent Wilfred Dule,,DIP LAB 3,,,,,,,,,
DOT254,Emmnuel C Manyone,,DIP OCC 1,,,,,,,,,
DOT263,Anastazia R Diameri,,DIP OCC 1,,,,,,,,,
DOT246,Kilian F Tarimo,,DIP OCC 1,,,,,,,,,
DOT259,Habibu H Athman,,DIP OCC 1,,,,,,,,,
DOT223,William J Arope,,DIP OCC 1,,,,,,,,,
DOT243,Coletha M Ernest,,DIP OCC 1,,,,,,,,,
DOT219,Isack F Mombury,,DIP OCC 1,,,,,,,,,
DOT222,Advellah A Rweikiza,,DIP OCC 1,,,,,,,,,
DOT240,Okuli I Swai,,DIP OCC 1,,,,,,,,,
DOT262,Gasper J Mushi,,DIP OCC 1,,,,,,,,,
DOT266,Kuluthum Shaban,,DIP OCC 1,,,,,,,,,
DOT269,Mwanahawa Y Mndeme,,DIP OCC 1,,,,,,,,,
DOT272,Festus Lukas .J,,DIP OCC 1,,,,,,,,,
DOT273,Alfred .M.Nghisolwa,,DIP OCC 1,,,,,,,,,
DOT224,Iddy I Bulyo,,DIP OCC 1,,,,,,,,,
DOT267,Coleman E Rutha,,DIP OCC 1,,,,,,,,,
DOT236,Nishaeli F Kileo,,DIP OCC 1,,,,,,,,,
DOT245,Innocent I Mrema,,DIP OCC 1,,,,,,,,,
DOT248,Mary Silvester,,DIP OCC 1,,,,,,,,,
PH320,Secilia .J.Lyimo-Occ Therapy.,,DIP OCC 1,,,,,,,,,
DOT228,Winifrida A Tarimo,,DIP OCC 1,,,,,,,,,
DOT242,Hamisi V Mkuku,,DIP OCC 1,,,,,,,,,
DOT158,Nicholaus.G.Nyemba,,DIP OCC 2,,,,,,,,,
DOT155,Dativa Pastor Minja,,DIP OCC 2,,,,,,,,,
DOT204,Magnaomi Kandonga,,DIP OCC 2,,,,,,,,,
DOT144,Salmin Maghembe Shabani,,DIP OCC 2,,,,,,,,,
DOT153,Kelvin Fredrick Fares,,DIP OCC 2,,,,,,,,,
DOT202,Eleno Maira Lusangija,,DIP OCC 2,,,,,,,,,
DOT201,Aneth Mujwauzi,,DIP OCC 2,,,,,,,,,
DOT145,Magesa Manji,,DIP OCC 2,,,,,,,,,
DOT143,Shalu Anstley Kahemele,,DIP OCC 2,,,,,,,,,
DOT142,Veronica Paul Muhe,,DIP OCC 2,,,,,,,,,
DOT154,Bernard Losina Adolph,,DIP OCC 2,,,,,,,,,
DOT157,Grace Donald Pama,,DIP OCC 2,,,,,,,,,
DOT203,Mathias Boniphace,,DIP OCC 2,,,,,,,,,
DOT146,Justine Phidely,,DIP OCC 2,,,,,,,,,
DOT152,Anderson Mtui,,DIP OCC 2,,,,,,,,,
MMD586,Raziya Gaffur,,MMD 1,,,,,,,,,
MMD682,Kiondo S Kiondo-MOH,,MMD 1,,,,,,,,,
MMD571,Shariza R. Kanji,,MMD 1,,,,,,,,,
MMD602,Tarmohamed Muradally Mohamed,,MMD 1,,,,,,,,,
MMD608,Abid M Sadiq,,MMD 1,,,,,,,,,
MMD693,Abraham.A.Matova,,MMD 1,,,,,,,,,
MMD694,Mario.J.Monjane,,MMD 1,,,,,,,,,
MMD697,salem L.N.Nambahu,,MMD 1,,,,,,,,,
MMD699,Lyasimana Ndaningina,,MMD 1,,,,,,,,,
MMD700,Hileni.T.Nangolo,,MMD 1,,,,,,,,,
MMD701,Nelego Amagulu,,MMD 1,,,,,,,,,
MMD709,Dennis.K. Murethi,,MMD 1,,,,,,,,,
MMD676,Gabriel W. Mbwete,,MMD 1,,,,,,,,,
MMD612,Elikaanany E Urio-MOH,,MMD 1,,,,,,,,,
MMD649,Mbarouk S Mohd,,MMD 1,,,,,,,,,
MMD588,Kiwango Sophia Isaac-MOH,,MMD 1,,,,,,,,,
MMD614,Dorothy A Mkinga-MOH,,MMD 1,,,,,,,,,
MMD666,Adrian A Matasha,,MMD 1,,,,,,,,,
MMD657,Denis R Katundu-MOH,,MMD 1,,,,,,,,,
MMD619,Peter J Chapa-MOH,,MMD 1,,,,,,,,,
MMD646,Emmanuel J Itambu-MOH,,MMD 1,,,,,,,,,
MMD655,Kenneth J Mlay-MOH,,MMD 1,,,,,,,,,
MMD680,Filemon Darabe-MOH,,MMD 1,,,,,,,,,
MMD527,Noormohamed dur-E-Nayab,,MMD 2,,,,,,,,,
MMD134,Mbwambo Orgenss Jasper,,MMD 2,,,,,,,,,
MMD559,Faustina E Mbuya,,MMD 2,,,,,,,,,
MMD563,Nelly Guylene-new,,MMD 2,,,,,,,,,
MMD564,JOYCE NCHEDA-NEW,,MMD 2,,,,,,,,,
MMD567,Lyidia Kahgomia - new,,MMD 2,,,,,,,,,
MMD671,Hashim shaukatali Badru,,MMD 2,,,,,,,,,
MMD522,Jaqueline Iraba,,MMD 2,,,,,,,,,
MMD537,Edwin Jacob,,MMD 2,,,,,,,,,
MMD485,Diva  M wakanyamale,,MMD 2,,,,,,,,,
MMD539,Tarimo Gabriel,,MMD 2,,,,,,,,,
MMD472,Maria Goodhope,,MMD 2,,,,,,,,,
MMD507,Theresia Edward-Friends of kcmc,,MMD 2,,,,,,,,,
MMD505,Kelvin Rogath,,MMD 2,,,,,,,,,
MMD477,Jubilate S Msangi - MOHSW,,MMD 2,,,,,,,,,
MMD503,Wapalila Daudi - MOHSW,,MMD 2,,,,,,,,,
MMD506,Nkini Hanson - MOHSW,,MMD 2,,,,,,,,,
MMD521,Leticia Komba - MOHSW,,MMD 2,,,,,,,,,
MMD535,Lyanga E.Emannuel - MOHSW,,MMD 2,,,,,,,,,
MMD558,Rogatus Duwe - MOHSW,,MMD 2,,,,,,,,,
MMD107,Kindole Chrirstine Aloyce,,MMD 3,,,,,,,,,
MMD112,Baine Annethe,,MMD 3,,,,,,,,,
MMD131,Urasa Emil Richard,,MMD 3,,,,,,,,,
MMD102,Elichilia Robert Shao,,MMD 3,,,,,,,,,
MMD132,Mngere Christopher Felix,,MMD 3,,,,,,,,,
MMD70,Muniro Zainabu Suleiman Said-MOH,,MMD 3,,,,,,,,,
MMD98,Ruhangisa Flora Galcan,,MMD 3,,,,,,,,,
MMD401,Njete Hassan Ismail,,MMD 4,,,,,,,,,
MMD395,Jafar Ally Majala,,MMD 4,,,,,,,,,
MMD390,Jacqueline Adolph Mchilla,,MMD 4,,,,,,,,,
MMD457,Amos Frezer Msekandriana,,MMD 4,,,,,,,,,
MMD325,Matsihne Daniel Cristovao,,MMD 4,,,,,,,,,
MMD431,Deborah Nerey Mchaile,,MMD 4,,,,,,,,,
MMD463,Birjna Ashok Hirani,,MMD 4,,,,,,,,,
MMD368,Ofunguo Estomick Kuringe,,MMD 4,,,,,,,,,
MMD406,Nyobasi Ainory Gessase,,MMD 4,,,,,,,,,
MMD415,Rashid Ali Suleiman,,MMD 4,,,,,,,,,
MMD438,Frank Kora Chacha,,MMD 4,,,,,,,,,
MMD443,Augustino Mark Mmbaga,,MMD 4,,,,,,,,,
MD1600,Hunaina M Ismail,,MD1,,,,,,,,,
MD1785,Noreen N Nyange,,MD1,,,,,,,,,
MD1654,Issa K Issa,,MD1,,,,,,,,,
MD1760,Mohamed H Issa,,MD1,,,,,,,,,
MD1677,Danford D Suleiman,,MD1,,,,,,,,,
MD1702,Angelina M Anthony,,MD1,,,,,,,,,
MD1622,Lilian K Valerian,,MD1,,,,,,,,,
PH287,Happiness D Kajoka-change to md,,MD1,,,,,,,,,
MD1795,Gladness F Lyimo,,MD1,,,,,,,,,
MD1736,Paul G Ugani,,MD1,,,,,,,,,
MD1749,Etelbert B Rusali,,MD1,,,,,,,,,
MD1610,Saida M Ally,,MD1,,,,,,,,,
MD1698,Anna T Mhombo,,MD1,,,,,,,,,
MD1720,Harieth Makirye,,MD1,,,,,,,,,
MD1729,Jojet J Nyonyi,,MD1,,,,,,,,,
MD1745,Azikiwe M Kyangala,,MD1,,,,,,,,,
MD1747,Elizabeth Assey Thadei,,MD1,,,,,,,,,
MD1748,Halima Ally Salim,,MD1,,,,,,,,,
MD1751,Emmanuel Charles Mwandu,,MD1,,,,,,,,,
MD1756,Anaelderrick F Kimaro,,MD1,,,,,,,,,
MD1782,Ephraim J Mkwavi,,MD1,,,,,,,,,
MD1792,Elihudi P Kituma,,MD1,,,,,,,,,
MD1798,Brenda Z Kisamo.,,MD1,,,,,,,,,
MD1805,Gloria D Rwakatema,,MD1,,,,,,,,,
MD1763,Daniel C Koola,,MD1,,,,,,,,,
MD1718,Baraka M Ulirk,,MD1,,,,,,,,,
MD1679,Ezekiel  P Mwakitinya,,MD1,,,,,,,,,
MD1620,Diana D Kisanga,,MD1,,,,,,,,,
MD1628,Norah J Kaaya,,MD1,,,,,,,,,
MD1632,Suzana P Somoka,,MD1,,,,,,,,,
MD1688,Bruno I Boniface,,MD1,,,,,,,,,
MD1605,Leah J Duttu,,MD1,,,,,,,,,
MD1621,Said M Mbogakwaga,,MD1,,,,,,,,,
MD1774,Emmanuel M Tesha,,MD1,,,,,,,,,
BPO236,Happiness E Mushi-change to md,,MD1,,,,,,,,,
MD1703,Stanley K Speratus,,MD1,,,,,,,,,
MD1606,Frijenia G Sumbai,,MD1,,,,,,,,,
MD1728,Agness E Mwidunda,,MD1,,,,,,,,,
MD1613,Brastus A Mbilinyi,,MD1,,,,,,,,,
MD1618,Device F Edwine,,MD1,,,,,,,,,
MD1631,Beatrice I Nasari,,MD1,,,,,,,,,
MD1670,Daud I Shija,,MD1,,,,,,,,,
MD1602,Maxine M Harker,,MD1,,,,,,,,,
MD1686,Andrea M Mayala,,MD1,,,,,,,,,
MD1675,Mathew G Mlay,,MD1,,,,,,,,,
MD1674,Asteria M Busungu,,MD1,,,,,,,,,
MD1612,Jesca B Shirima,,MD1,,,,,,,,,
MD1706,Glory J Isack,,MD1,,,,,,,,,
MD1781,Justine J Bruno,,MD1,,,,,,,,,
MD1700,Doreen O Msemakweli,,MD1,,,,,,,,,
MD1683,Evance K Mwalongo,,MD1,,,,,,,,,
MD1704,Alto A Deule,,MD1,,,,,,,,,
MD1717,Deograsias F Nzobakeng,,MD1,,,,,,,,,
MD1694,Gosbert S Amani,,MD1,,,,,,,,,
MD1681,Mariana B Mikindo,,MD1,,,,,,,,,
MD1759,Steven A Komba,,MD1,,,,,,,,,
MD1626,Jackson L Nziku,,MD1,,,,,,,,,
MD1609,Muna B Samhenda,,MD1,,,,,,,,,
MD1615,Faustini C Kimondo,,MD1,,,,,,,,,
MD1640,Oscar S Mtui,,MD1,,,,,,,,,
MD1641,Emmanuel Burerwa,,MD1,,,,,,,,,
MD1646,Shallody A Salali,,MD1,,,,,,,,,
MD1647,Eladi  D Sway,,MD1,,,,,,,,,
MD1657,Roman R Sabas,,MD1,,,,,,,,,
MD1662,Abdukadiri S Madaraka,,MD1,,,,,,,,,
MD1664,Amos M Ryoba,,MD1,,,,,,,,,
MD1665,Malimi M Martine,,MD1,,,,,,,,,
MD1673,Kassimu H Gilla,,MD1,,,,,,,,,
MD1676,Martin E Malyawere,,MD1,,,,,,,,,
MD1690,Milton A Kiponda,,MD1,,,,,,,,,
MD1693,Japhet S Chugambuli,,MD1,,,,,,,,,
MD1793,Dawita E Yohani,,MD1,,,,,,,,,
MD1796,Ibrahim C Senkawa,,MD1,,,,,,,,,
MD1791,Alpha E Olomi,,MD1,,,,,,,,,
MD1468,Mabula Migeto-POSTPONED,,MD1,,,,,,,,,
MD1603,Magdalena J Tesha,,MD1,,,,,,,,,
MD1636,Emmanuel M Proches,,MD1,,,,,,,,,
PH283,Janeth M Bayo,,MD1,,,,,,,,,
MD1701,Mwanahawa H Hamisi,,MD1,,,,,,,,,
MD1528,Wallace B Lyimo-repeat MD I 2016/17,,MD1,,,,,,,,,
MD1678,Tungu M Pawa,,MD1,,,,,,,,,
MD1779,Costa D Biyoga,,MD1,,,,,,,,,
MD1726,Salvatory G Kyara,,MD1,,,,,,,,,
MD1629,Jimmyson A Masinga,,MD1,,,,,,,,,
MD1637,Neema J Sangalali,,MD1,,,,,,,,,
MD1799,Highness P Shao-Help to Help,,MD1,,,,,,,,,
MD2005,Masungwa John Masaka,,MD2,,,,,,,,,
MD1451,Proches Vara-GRANT,,MD2,,,,,,,,,
BPO191,Shigemelo Sugwa-change to MD,,MD2,,,,,,,,,
MD941,Ayubu Kasato-help to help,,MD2,,,,,,,,,
MD986,Dayness Temba-GRANT-Help to help,,MD2,,,,,,,,,
MD927,Kassian Mwolongo,,MD2,,,,,,,,,
MD1566,Gloria J Mtui,,MD2,,,,,,,,,
MD933,Linna Njau-Help to Help,,MD2,,,,,,,,,
MD2011,Isaack Mboya,,MD2,,,,,,,,,
MD916,Eva Sarakikya-GRANT,,MD2,,,,,,,,,
MD879,Edwin Muchunguzi-GRANT,,MD2,,,,,,,,,
MD946,Irene Masue-GRANT,,MD2,,,,,,,,,
BSN510,Joel Mfungomara-transfer to MD,,MD2,,,,,,,,,
BSN567,Winfrida Mwendo-change to md,,MD2,,,,,,,,,
MD931,Fatma Mohammed,,MD2,,,,,,,,,
MD921,Gloria Mangula,,MD2,,,,,,,,,
MD1488,Nangida Mchome,,MD2,,,,,,,,,
MD1483,Emmanuel Mushi-GRANT,,MD2,,,,,,,,,
MD886,Suleiman Hango,,MD2,,,,,,,,,
MD911,Amani Kweka-GRANT,,MD2,,,,,,,,,
PH223,Calvin Assenga chg to MD,,MD2,,,,,,,,,
MD948,Catherine Mtali-GRANT,,MD2,,,,,,,,,
BSN473,Nuru.S.Gilva chg to MD,,MD2,,,,,,,,,
MD1526,Mary A Nicholaus,,MD2,,,,,,,,,
MD876,Cuthbert Matay,,MD2,,,,,,,,,
PH211,Brenda Elimin Kanza-change to Md,,MD2,,,,,,,,,
MD1561,Venance P Luguhu,,MD2,,,,,,,,,
MD1456,Sharifa Hassan-GRANT,,MD2,,,,,,,,,
MD1461,Musa Ndumbogani-GRANT,,MD2,,,,,,,,,
MD1472,Doreen Rweikiza-GRANT,,MD2,,,,,,,,,
MD1478,Rosemary Mange-GRANT,,MD2,,,,,,,,,
MD873,Frank Ringo-GRANT,,MD2,,,,,,,,,
MD907,Hajra Majala-GRANT,,MD2,,,,,,,,,
MD910,Makubi Galashi-GRANT,,MD2,,,,,,,,,
MD917,Helena Mhagama-GRANT,,MD2,,,,,,,,,
BHL475,Makolo Makolo chng to MD,,MD2,,,,,,,,,
MD1482,George Godfrey,,MD2,,,,,,,,,
MD1540,Philipo T Mchome,,MD2,,,,,,,,,
MD1541,Jerome F Kayanda,,MD2,,,,,,,,,
MD1558,Kasindi P Mdehwa,,MD2,,,,,,,,,
MD923,Luyeye Buhulula,,MD2,,,,,,,,,
MD1999,Dinanike Peniel Kwayu,,MD2,,,,,,,,,
MD1563,Sumaiya J Masunga-Friends of KCMC,,MD2,,,,,,,,,
BPO178,Kulwa Batule-Transfer to MD-Friends of K,,MD2,,,,,,,,,
BSN513,Basiliana Paul-change to md,,MD2,,,,,,,,,
BSN579,Bilal Jummanne chg MD,,MD2,,,,,,,,,
MD860,Clara Victor Lyamuya,,MD3,,,,,,,,,
MD157,Eva  D.  Bubelwa,,MD3,,,,,,,,,
MD176,Joan  Kwesigabo  Ahmbisibwe,,MD3,,,,,,,,,
MD867,Bilal Ahmed-N ew,,MD3,,,,,,,,,
MD049,MEING'WARI NGOILENYA,,MD3,,,,,,,,,
MD112,Herriethsiah  S. N Noah,,MD3,,,,,,,,,
MD866,JASPER JOHN MSANYA,,MD3,,,,,,,,,
MD20,Anelmina  Mwangonela,,MD3,,,,,,,,,
MD022,Tulafiona  Issack  Nyakonji,,MD3,,,,,,,,,
MD161,Philimon  J. Panga,,MD3,,,,,,,,,
MD178,Juliana  Mwakasitu,,MD3,,,,,,,,,
MD862,Emmanuel samson Mbalayi,,MD3,,,,,,,,,
MD117,Emmanuel  R. Mushi,,MD3,,,,,,,,,
MD145,Pooja  Ramesh  Divesha,,MD3,,,,,,,,,
MD149,Lucy  A.  Tarimo,,MD3,,,,,,,,,
MD160,Pelicia  P. Musigula,,MD3,,,,,,,,,
MD186,Green  Magezi  Geofrey,,MD3,,,,,,,,,
MD243,Vivian   E. Ngoma,,MD3,,,,,,,,,
MD261,Edwin  Mohammed,,MD3,,,,,,,,,
MD142,Desire  D.  Ruhinda-GRANT,,MD3,,,,,,,,,
MD162,Amedeus  Vincent  Lasway-GRANT,,MD3,,,,,,,,,
MD1365,Joshua Chikoma-Repeat yr 1,,MD3,,,,,,,,,
MD1397,Nurban Abubakar-Repeat yr 1,,MD3,,,,,,,,,
MD1401,Osward Mbwile-Repeat yr 1,,MD3,,,,,,,,,
BPO171,Eneck Kibopile-change to MD-Friends of K,,MD3,,,,,,,,,
MD1299,Catherine Mnyeti-GRANT,,MD4,,,,,,,,,
MD1442,Omary Musa Kondo,,MD4,,,,,,,,,
MD1329,Faraja Ng'ida,,MD4,,,,,,,,,
MD1409,Rayner S. Mtasingwa,,MD4,,,,,,,,,
MD1378,Mathias Philbert-GRANT,,MD4,,,,,,,,,
BHL308,Mohamed Sodangu-change to MD,,MD4,,,,,,,,,
BHL328,Yohana Mwanda-change to MD,,MD4,,,,,,,,,
MD1280,Alice Andongolile-GRANT,,MD4,,,,,,,,,
MD1304,Consolata Kyengu-GRANT,,MD4,,,,,,,,,
MD1325,Ernest Masanja-GRANT,,MD4,,,,,,,,,
MD1327,Evaline Laizer-GRANT,,MD4,,,,,,,,,
MD1330,Febronia Shirima-GRANT,,MD4,,,,,,,,,
MD1333,Frank Kiwango-GRANT,,MD4,,,,,,,,,
MD1334,Gelestiana Mbilinyi-GRANT,,MD4,,,,,,,,,
MD1343,Happyness J. Swai,,MD4,,,,,,,,,
MD1357,Joel Manala,,MD4,,,,,,,,,
MD1372,Latif Bashir-GRANT,,MD4,,,,,,,,,
MD1402,Paschal Ng'wandu-GRANT,,MD4,,,,,,,,,
MD1415,Rogega Mong'ateko,,MD4,,,,,,,,,
MD1430,Thecla Kisusi-GRANT,,MD4,,,,,,,,,
MD1436,Muzna Khalfan Masoud,,MD4,,,,,,,,,
MD1437,Anaam S.A.Kadri,,MD4,,,,,,,,,
MD1311,Edwin Msele-GRANT,,MD4,,,,,,,,,
MD1445,Buyegi Anthony,,MD4,,,,,,,,,
MD1132,Jacquline S.Kiwia,,MD5,,,,,,,,,
MD1143,Dorica C.Burengelo,,MD5,,,,,,,,,
MD1119,Allan A.Naali,,MD5,,,,,,,,,
MD1092,Merciana G.Mliga,,MD5,,,,,,,,,
MD1147,Regan V. Massawe,,MD5,,,,,,,,,
MD1220,Itambu Blandina Leon,,MD5,,,,,,,,,
MD1136,Peter A.Kayange,,MD5,,,,,,,,,
MD1160,Nateiya M.Yongolo,,MD5,,,,,,,,,
MD1134,Samwel G.Msangi,,MD5,,,,,,,,,
MD1203,Linda PA.Paul,,MD5,,,,,,,,,
MD1271,HENRY JOHN MUNGIA,,MD5,,,,,,,,,
MD1242,Getruda D.Mpangile,,MD5,,,,,,,,,
MD1093,Demetria C.Moshi,,MD5,,,,,,,,,
MD1095,Prince NJ.Byemerwa,,MD5,,,,,,,,,
MD1121,Gloria R.Lyimo,,MD5,,,,,,,,,
MD1125,Albert DV Kihwele,,MD5,,,,,,,,,
MD1129,Alina A.Giga,,MD5,,,,,,,,,
MD1133,Agness P.Ndunguru,,MD5,,,,,,,,,
MD1140,Godwin A.Nnko,,MD5,,,,,,,,,
MD1144,Salama O.Mahawi,,MD5,,,,,,,,,
MD1150,Christopher J.Kilongola,,MD5,,,,,,,,,
MD1158,Andrew R.Masetta,,MD5,,,,,,,,,
MD1170,Waziri M.Gahhu,,MD5,,,,,,,,,
MD1191,Benjamin A.Kiteleke,,MD5,,,,,,,,,
MD1219,Mahembe George Christian,,MD5,,,,,,,,,
MD1248,Sophia O.Othman,,MD5,,,,,,,,,
MD1265,Justine D Ngwanda,,MD5,,,,,,,,,
MD1152,Arafat A.Massawe,,MD5,,,,,,,,,
MD1155,Emmanuel V.Assey,,MD5,,,,,,,,,
MD1240,Lyimo Luiyana Dennis,,MD5,,,,,,,,,
MD1139,Boniface H.Mruma-GRANT,,MD5,,,,,,,,,
MD1135,Nyamhanga Maro-GRANT,,MD5,,,,,,,,,
MD1146,Anselim E.Raphael-GRANT,,MD5,,,,,,,,,
MD1164,Asiraji W.Mfinanga-GRANT,,MD5,,,,,,,,,
MD1128,Samwel A.Seth-Friends of kcmc,,MD5,,,,,,,,,
MPH321,Ali H Said,,MPH,,,,,,,,,
MPH313,Hadija Y Lyellu,,MPH,,,,,,,,,
MPH312,Situ O Muhunzi-MOH,,MPH,,,,,,,,,
MUR022,Marvin M Mwesigwa,,MSCUROLOGY 1,,,,,,,,,
MMBO41,Rashid H Mtima,,MCS ENT & PAR 1,,,,,,,,,
PHD056,Edson W Mollel-2016/17,,PHD 1,,,,,,,,,
PHD033,Akili Kalinga,,PHD 4,,,,,,,,,
PHD031,Celine Mandara,,PHD 4,,,,,,,,,
PHD026,Happiness .H.Kumburu,,PHD 4,,,,,,,,,
MCR063,Kenneth Byashalira-MOH,,MSC CLINIC 1,,,,,,,,,
MMIM16,Shaban R mziray-MOH,,MMIM1,,,,,,,,,
MEP088,Ephracia Aloyce Hugho,,MSC EPID& BIOST 1,,,,,,,,,
MEP094,Ummi A Kibondo,,MSC EPID& BIOST 1,,,,,,,,,
MEP083,Nathaniel K Kalengo,,MSC EPID& BIOST 1,,,,,,,,,
MEP078,Festo Stephen Mazunguni,,MSC EPID& BIOST 2,,,,,,,,,
MEP81,Oliver Safari,,MSC EPID& BIOST 2,,,,,,,,,
MEP082,Abdin Mujahid Sheikhdin,,MSC EPID& BIOST 2,,,,,,,,,
MEP080,Ola F Jahanpour,,MSC EPID& BIOST 2,,,,,,,,,
BSO037,Bernadeta L Lyimo,,BSC OPT 1,,,,,,,,,
BSO041,Elizabeth S Manase,,BSC OPT 1,,,,,,,,,
BSO029,Ibrahim I Mgonza,,BSC OPT 1,,,,,,,,,
BSO030,Theresia N Masanja,,BSC OPT 1,,,,,,,,,
BSO017,Ian N Macha-Rpt yr,,BSC OPT 1,,,,,,,,,
BSO027,Charles E Ngowi,,BSC OPT 1,,,,,,,,,
PH302,Kessy J Marco,,BSC OPT 1,,,,,,,,,
BSO016,Shangali Hendrick H-Rpt yr,,BSC OPT 1,,,,,,,,,
BSO034,Christina C Mlemeta,,BSC OPT 1,,,,,,,,,
BSO033,Elia J Sospeter,,BSC OPT 1,,,,,,,,,
BSN515,Harley Mkini-change to Optometry,,BSC OPT 2,,,,,,,,,
MSA002,Zawadi J. Mahumbuga-repeat,,BSC OPT 2,,,,,,,,,
MSA003,Happines J Kimaro-MOH,,BSC OPT 2,,,,,,,,,
MMW013,Cattherine S Massay,,MSC MIDWIFREY 1,,,,,,,,,
MMW011,Anna M Mshanga,,MSC MIDWIFREY 1,,,,,,,,,
MMW018,Anastazia Josef Ngao,,MSC MIDWIFREY 1,,,,,,,,,
MMW17,Tina Nicolaus Shao,,MSC MIDWIFREY 1,,,,,,,,,
MMW007,Adelina Kavishe,,MSC MIDWIFREY 2,,,,,,,,,
MMW008,Rose Mallya-MOH,,MSC MIDWIFREY 2,,,,,,,,,
MMW001,Sabina Samwel Mmao,,MSC MIDWIFREY 2,,,,,,,,,
MMW005,Jackline Ndanshau-MOH,,MSC MIDWIFREY 2,,,,,,,,,
MMW009,Anne E Shuma-MOH,,MSC MIDWIFREY 2,,,,,,,,,
MMW006,Cecilia Mushi Evarest-MOH,,MSC MIDWIFREY 2,,,,,,,,,
,TOTAL,,,,,,,,,,,
