@-header,instruction_!_ Please DO NOT CHANGE THE STRUCTURE OF THIS FILE,,,,,
@-header,compilationTime_!_ 2017:08:23:17:59:40,,,,,
@-header,columnCount_!_ 7,,,,,
@-header,maximumScore_!_ 80,,,,,
@-header,fileType_!_ results,,,,,
@-header,fileTypeCode_!_ a68816c37b60d1e016b21809447de93c,,,,,
@-header,courseId_!_ 4,,,,,
@-header,courseName_!_ Bachelor of Science in Physiotherapy (Direct),,,,,
@-header,year_!_ 1,,,,,
@-header,semester_!_ 2,,,,,
@-header,batchId_!_ 8,,,,,
@-header,batchName_!_ 2016/2017,,,,,
@-header,flags_!_ 0,,,,,
,,,,,,
,,,,,,514
Ref,GPA,Reg Number,Flags,Details,res,Basic Parasitology & Entomology
6119,,TUMA/KCMUCo/BScPhysio/2016/2017/0317,65,,,57
6373,,TUMA/KCMUCo/BScPhysio/2016/2017/0318,9,,,46
4803,,TUMA/KCMUCo/BScPhysio/2016/2017/0319,9,,,55
5061,,TUMA/KCMUCo/BScPhysio/2016/2017/0320,65,,,56
5102,,TUMA/KCMUCo/BScPhysio/2016/2017/0321,9,,,51
5142,,TUMA/KCMUCo/BScPhysio/2016/2017/0322,9,,,60
5167,,TUMA/KCMUCo/BScPhysio/2016/2017/0324,9,,,56
5223,,TUMA/KCMUCo/BScPhysio/2016/2017/0325,9,,,62
5309,,TUMA/KCMUCo/BScPhysio/2016/2017/0326,9,,,58
5345,,TUMA/KCMUCo/BScPhysio/2016/2017/0328,65,,,53
5472,,TUMA/KCMUCo/BScPhysio/2016/2017/0329,9,,,56
5539,,TUMA/KCMUCo/BScPhysio/2016/2017/0330,9,,,63
5610,,TUMA/KCMUCo/BScPhysio/2016/2017/0331,65,,,55
5640,,TUMA/KCMUCo/BScPhysio/2016/2017/0332,9,,,49
5645,,TUMA/KCMUCo/BScPhysio/2016/2017/0333,9,,,58
5646,,TUMA/KCMUCo/BScPhysio/2016/2017/0334,9,,,51
5777,,TUMA/KCMUCo/BScPhysio/2016/2017/0335,9,,,56
5796,,TUMA/KCMUCo/BScPhysio/2016/2017/0336,9,,,58
5869,,TUMA/KCMUCo/BScPhysio/2016/2017/0337,9,,,43
5947,,TUMA/KCMUCo/BScPhysio/2016/2017/0338,9,,,60
6115,,TUMA/KCMUCo/BScPhysio/2016/2017/0340,9,,,45
6118,,TUMA/KCMUCo/BScPhysio/2016/2017/0341,9,,,52
6161,,TUMA/KCMUCo/BScPhysio/2016/2017/0342,9,,,62
6562,,TUMA/KCMUCo/BScPhysio/2016/2017/0345,9,,,52
6648,,TUMA/KCMUCo/BScPhysio/2016/2017/0346,65,,,58
6754,,TUMA/KCMUCo/BScPhysio/2016/2017/0347,65,,,60
6809,,TUMA/KCMUCo/BScPhysio/2016/2017/0348,65,,,54
