@-header,instruction_!_ Please DO NOT CHANGE THE STRUCTURE OF THIS FILE,,,,,
@-header,maximumScore_!_ 20,,,,,
@-header,fileType_!_ results,,,,,
@-header,fileTypeCode_!_ a68816c37b60d1e016b21809447de93c,,,,,
@-header,courseId_!_ 9,,,,,
@-header,courseName_!_ Doctor of Medicine,,,,,
@-header,year_!_ 2,,,,,
@-header,semester_!_ 1,,,,,
@-header,batchId_!_ 7,,,,,
@-header,batchName_!_ 2015/2016,,,,,
@-header,flags_!_ 0,,,,,
@-header,compilationTime_!_ 2017:04:28:12:54:49,,,,,
@-header,columnCount_!_ 7,,,,,
,,,,,,
,,,,,,170
Ref,GPA,Reg Number,Flags,Details,res,Parasitology
3260,,TUMA/KCMUCo/BScPhysio/2016/2017/0351,9,,,
3869,,TUMA/KCMUCo/MD/2015/2016/2527,9,,,13
3710,,TUMA/KCMUCo/MD/2015/2016/2529,9,,,13
3671,,TUMA/KCMUCo/MD/2015/2016/2532,9,,,13
3893,,TUMA/KCMUCo/MD/2015/2016/2541,9,,,13
3698,,TUMA/KCMUCo/MD/2015/2016/2549,9,,,13
3686,,TUMA/KCMUCo/MD/2015/2016/2554,9,,,13
2848,,TUMA/KCMUCo/MD/2015/2016/2558,9,,,13
3073,,TUMA/KCMUCo/MD/2015/2016/2564,9,,,13
3724,,TUMA/KCMUCo/MD/2015/2016/2565,9,,,13
3908,,TUMA/KCMUCo/MD/2015/2016/2567,9,,,13
3431,,TUMA/KCMUCo/MD/2015/2016/2571,9,,,12
3891,,TUMA/KCMUCo/MD/2015/2016/2572,9,,,12
3265,,TUMA/KCMUCo/MD/2015/2016/2573,9,,,12
3713,,TUMA/KCMUCo/MD/2015/2016/2576,9,,,12
3903,,TUMA/KCMUCo/MD/2015/2016/2577,9,,,15
3653,,TUMA/KCMUCo/MD/2015/2016/2578,9,,,12
2914,,TUMA/KCMUCo/MD/2015/2016/2579,9,,,12
2909,,TUMA/KCMUCo/MD/2015/2016/2580,9,,,12
2892,,TUMA/KCMUCo/MD/2015/2016/2581,9,,,12
3019,,TUMA/KCMUCo/MD/2015/2016/2582,9,,,12
3250,,TUMA/KCMUCo/MD/2015/2016/2583,9,,,12
3252,,TUMA/KCMUCo/MD/2015/2016/2585,9,,,15
3147,,TUMA/KCMUCo/MD/2015/2016/2586,9,,,15
3080,,TUMA/KCMUCo/MD/2015/2016/2587,9,,,15
3274,,TUMA/KCMUCo/MD/2015/2016/2588,9,,,13
3898,,TUMA/KCMUCo/MD/2015/2016/2590,9,,,15
3809,,TUMA/KCMUCo/MD/2015/2016/2591,9,,,15
2917,,TUMA/KCMUCo/MD/2015/2016/2592,9,,,13
3752,,TUMA/KCMUCo/MD/2015/2016/2593,65,,,
3223,,TUMA/KCMUCo/MD/2015/2016/2594,9,,,15
3254,,TUMA/KCMUCo/MD/2015/2016/2595,9,,,15
2867,,TUMA/KCMUCo/MD/2015/2016/2596,9,,,15
3210,,TUMA/KCMUCo/MD/2015/2016/2597,65,,,10
2847,,TUMA/KCMUCo/MD/2015/2016/2598,9,,,15
3022,,TUMA/KCMUCo/MD/2015/2016/2599,9,,,15
3114,,TUMA/KCMUCo/MD/2015/2016/2600,9,,,15
3228,,TUMA/KCMUCo/MD/2015/2016/2601,9,,,15
3669,,TUMA/KCMUCo/MD/2015/2016/2602,9,,,15
3712,,TUMA/KCMUCo/MD/2015/2016/2603,9,,,15
3840,,TUMA/KCMUCo/MD/2015/2016/2606,9,,,15
3270,,TUMA/KCMUCo/MD/2015/2016/2607,65,,,15
3037,,TUMA/KCMUCo/MD/2015/2016/2608,9,,,15
3279,,TUMA/KCMUCo/MD/2015/2016/2610,9,,,15
3011,,TUMA/KCMUCo/MD/2015/2016/2611,9,,,15
3158,,TUMA/KCMUCo/MD/2015/2016/2612,9,,,15
3204,,TUMA/KCMUCo/MD/2015/2016/2613,65,,,12
3326,,TUMA/KCMUCo/MD/2015/2016/2615,9,,,12
3170,,TUMA/KCMUCo/MD/2015/2016/2616,9,,,12
2803,,TUMA/KCMUCo/MD/2015/2016/2617,9,,,12
3023,,TUMA/KCMUCo/MD/2015/2016/2618,9,,,12
2869,,TUMA/KCMUCo/MD/2015/2016/2619,9,,,12
2981,,TUMA/KCMUCo/MD/2015/2016/2620,9,,,12
3027,,TUMA/KCMUCo/MD/2015/2016/2622,9,,,12
3064,,TUMA/KCMUCo/MD/2015/2016/2623,9,,,13
3665,,TUMA/KCMUCo/MD/2015/2016/2624,9,,,12
3592,,TUMA/KCMUCo/MD/2015/2016/2626,9,,,12
2861,,TUMA/KCMUCo/MD/2015/2016/2627,9,,,12
3779,,TUMA/KCMUCo/MD/2015/2016/2628,9,,,12
3664,,TUMA/KCMUCo/MD/2015/2016/2629,9,,,12
3245,,TUMA/KCMUCo/MD/2015/2016/2630,9,,,12
2823,,TUMA/KCMUCo/MD/2015/2016/2631,9,,,12
3273,,TUMA/KCMUCo/MD/2015/2016/2632,9,,,12
3654,,TUMA/KCMUCo/MD/2015/2016/2633,9,,,12
2839,,TUMA/KCMUCo/MD/2015/2016/2635,9,,,12
2875,,TUMA/KCMUCo/MD/2015/2016/2636,9,,,15
2935,,TUMA/KCMUCo/MD/2015/2016/2637,9,,,12
4008,,TUMA/KCMUCo/MD/2015/2016/2639,9,,,12
3058,,TUMA/KCMUCo/MD/2015/2016/2640,65,,,17
2797,,TUMA/KCMUCo/MD/2015/2016/2641,9,,,17
3811,,TUMA/KCMUCo/MD/2015/2016/2642,65,,,15
3007,,TUMA/KCMUCo/MD/2015/2016/2644,9,,,17
3323,,TUMA/KCMUCo/MD/2015/2016/2645,9,,,17
3159,,TUMA/KCMUCo/MD/2015/2016/2646,9,,,17
2938,,TUMA/KCMUCo/MD/2015/2016/2647,9,,,17
3282,,TUMA/KCMUCo/MD/2015/2016/2648,9,,,13
3216,,TUMA/KCMUCo/MD/2015/2016/2650,9,,,17
3312,,TUMA/KCMUCo/MD/2015/2016/2651,9,,,17
3317,,TUMA/KCMUCo/MD/2015/2016/2652,9,,,17
3198,,TUMA/KCMUCo/MD/2015/2016/2653,9,,,17
3094,,TUMA/KCMUCo/MD/2015/2016/2654,9,,,15
3456,,TUMA/KCMUCo/MD/2015/2016/2655,65,,,12
2807,,TUMA/KCMUCo/MD/2015/2016/2656,9,,,12
2912,,TUMA/KCMUCo/MD/2015/2016/2657,9,,,12
3217,,TUMA/KCMUCo/MD/2015/2016/2658,9,,,12
3104,,TUMA/KCMUCo/MD/2015/2016/2659,9,,,10
3013,,TUMA/KCMUCo/MD/2015/2016/2660,9,,,12
3135,,TUMA/KCMUCo/MD/2015/2016/2661,9,,,12
3663,,TUMA/KCMUCo/MD/2015/2016/2663,9,,,12
3281,,TUMA/KCMUCo/MD/2015/2016/2664,65,,,12
3119,,TUMA/KCMUCo/MD/2015/2016/2665,9,,,12
2873,,TUMA/KCMUCo/MD/2015/2016/2667,65,,,10
2983,,TUMA/KCMUCo/MD/2015/2016/2668,9,,,12
2927,,TUMA/KCMUCo/MD/2015/2016/2669,9,,,13
2811,,TUMA/KCMUCo/MD/2015/2016/2670,9,,,13
2859,,TUMA/KCMUCo/MD/2015/2016/2671,9,,,13
3043,,TUMA/KCMUCo/MD/2015/2016/2672,65,,,13
3890,,TUMA/KCMUCo/MD/2015/2016/2673,9,,,13
3078,,TUMA/KCMUCo/MD/2015/2016/2674,9,,,13
3133,,TUMA/KCMUCo/MD/2015/2016/2675,9,,,13
3939,,TUMA/KCMUCo/MD/2015/2016/2676,9,,,13
2870,,TUMA/KCMUCo/MD/2015/2016/2677,9,,,13
3796,,TUMA/KCMUCo/MD/2015/2016/2678,65,,,13
3599,,TUMA/KCMUCo/MD/2015/2016/2680,9,,,15
3448,,TUMA/KCMUCo/MD/2015/2016/2681,9,,,16
3065,,TUMA/KCMUCo/MD/2015/2016/2682,9,,,16
3363,,TUMA/KCMUCo/MD/2015/2016/2683,9,,,16
3278,,TUMA/KCMUCo/MD/2015/2016/2684,9,,,16
3887,,TUMA/KCMUCo/MD/2015/2016/2685,65,,,
3355,,TUMA/KCMUCo/MD/2015/2016/2686,65,,,10
2857,,TUMA/KCMUCo/MD/2015/2016/2688,9,,,16
3146,,TUMA/KCMUCo/MD/2015/2016/2689,9,,,16
2922,,TUMA/KCMUCo/MD/2015/2016/2690,9,,,16
2806,,TUMA/KCMUCo/MD/2015/2016/2691,9,,,16
3042,,TUMA/KCMUCo/MD/2015/2016/2692,9,,,16
3140,,TUMA/KCMUCo/MD/2015/2016/2693,9,,,15
3364,,TUMA/KCMUCo/MD/2015/2016/2694,9,,,15
3610,,TUMA/KCMUCo/MD/2015/2016/2695,9,,,15
3672,,TUMA/KCMUCo/MD/2015/2016/2696,9,,,15
3051,,TUMA/KCMUCo/MD/2015/2016/2697,65,,,15
3350,,TUMA/KCMUCo/MD/2015/2016/2698,9,,,15
2923,,TUMA/KCMUCo/MD/2015/2016/2699,9,,,15
2805,,TUMA/KCMUCo/MD/2015/2016/2700,9,,,15
3327,,TUMA/KCMUCo/MD/2015/2016/2701,9,,,15
2849,,TUMA/KCMUCo/MD/2015/2016/2703,9,,,15
2835,,TUMA/KCMUCo/MD/2015/2016/2704,9,,,15
3275,,TUMA/KCMUCo/MD/2015/2016/2705,9,,,15
2895,,TUMA/KCMUCo/MD/2015/2016/2706,9,,,15
3009,,TUMA/KCMUCo/MD/2015/2016/2707,9,,,15
3340,,TUMA/KCMUCo/MD/2015/2016/2709,9,,,15
3630,,TUMA/KCMUCo/MD/2015/2016/2710,9,,,15
3491,,TUMA/KCMUCo/MD/2015/2016/2711,9,,,15
2887,,TUMA/KCMUCo/MD/2015/2016/2712,9,,,15
2900,,TUMA/KCMUCo/MD/2015/2016/2713,9,,,13
2825,,TUMA/KCMUCo/MD/2015/2016/2714,9,,,15
3230,,TUMA/KCMUCo/MD/2015/2016/2715,9,,,15
3151,,TUMA/KCMUCo/MD/2015/2016/2716,9,,,15
2834,,TUMA/KCMUCo/MD/2015/2016/2717,9,,,14
3594,,TUMA/KCMUCo/MD/2015/2016/2718,9,,,14
3740,,TUMA/KCMUCo/MD/2015/2016/2719,9,,,14
3090,,TUMA/KCMUCo/MD/2015/2016/2720,9,,,14
2964,,TUMA/KCMUCo/MD/2015/2016/2721,9,,,14
3433,,TUMA/KCMUCo/MD/2015/2016/2722,9,,,15
3087,,TUMA/KCMUCo/MD/2015/2016/2724,9,,,14
3920,,TUMA/KCMUCo/MD/2015/2016/2725,9,,,14
3855,,TUMA/KCMUCo/MD/2015/2016/2726,9,,,
3033,,TUMA/KCMUCo/MD/2015/2016/2727,9,,,
3162,,TUMA/KCMUCo/MD/2015/2016/2728,65,,,15
2855,,TUMA/KCMUCo/MD/2015/2016/2729,9,,,14
3349,,TUMA/KCMUCo/MD/2015/2016/2730,9,,,15
3577,,TUMA/KCMUCo/MD/2015/2016/2733,9,,,15
2936,,TUMA/KCMUCo/MD/2015/2016/2734,65,,,15
3354,,TUMA/KCMUCo/MD/2015/2016/2735,9,,,15
3947,,TUMA/KCMUCo/MD/2015/2016/2736,9,,,15
3176,,TUMA/KCMUCo/MD/2015/2016/2737,9,,,15
2943,,TUMA/KCMUCo/MD/2015/2016/2738,9,,,15
3024,,TUMA/KCMUCo/MD/2015/2016/2739,65,,,15
3089,,TUMA/KCMUCo/MD/2015/2016/2740,9,,,15
3258,,TUMA/KCMUCo/MD/2015/2016/2741,9,,,15
2853,,TUMA/KCMUCo/MD/2015/2016/2742,65,,,
3184,,TUMA/KCMUCo/MD/2015/2016/2743,9,,,15
3263,,TUMA/KCMUCo/MD/2015/2016/2744,9,,,15
3257,,TUMA/KCMUCo/MD/2015/2016/2746,9,,,15
3231,,TUMA/KCMUCo/MD/2015/2016/2747,9,,,12
3091,,TUMA/KCMUCo/MD/2015/2016/2748,9,,,12
3185,,TUMA/KCMUCo/MD/2015/2016/2749,9,,,12
3736,,TUMA/KCMUCo/MD/2015/2016/2751,9,,,12
3144,,TUMA/KCMUCo/MD/2015/2016/2752,9,,,12
2785,,TUMA/KCMUCo/MD/2015/2016/2753,9,,,12
3005,,TUMA/KCMUCo/MD/2015/2016/2759,9,,,12
3195,,TUMA/KCMUCo/MD/2015/2016/2761,9,,,12
3451,,TUMA/KCMUCo/MD/2015/2016/2764,9,,,12
3008,,TUMA/KCMUCo/MD/2015/2016/2771,9,,,13
3121,,TUMA/KCMUCo/MD/2015/2016/2774,9,,,10
3676,,TUMA/KCMUCo/MD/2015/2016/2778,9,,,12
3675,,TUMA/KCMUCo/MD/2015/2016/2779,65,,,15
3677,,TUMA/KCMUCo/MD/2015/2016/2781,65,,,
3469,,TUMA/KCMUCo/MD/2015/2016/2782,65,,,
3115,,TUMA/KCMUCo/MD/2015/2016/2783,65,,,10
2817,,TUMA/KCMUCo/MD/2015/2016/2785,9,,,15
2913,,TUMA/KCMUCo/MD/2015/2016/2786,9,,,15
3197,,TUMA/KCMUCo/MD/2015/2016/2789,9,,,15
3642,,TUMA/KCMUCo/MD/2015/2016/2790,9,,,15
3719,,TUMA/KCMUCo/MD/2015/2016/2794,9,,,15
3098,,TUMA/KCMUCo/MD/2015/2016/2797,9,,,15
3107,,TUMA/KCMUCo/MD/2015/2016/2798,9,,,15
562,,TUMA/KCMUCo/MD/2015/2016/2803,13,,,
3173,,TUMA/KCMUCo/MD/2015/2016/2809,9,,,15
3696,,TUMA/KCMUCo/MD/2015/2016/2811,9,,,15
2969,,TUMA/KCMUCo/MD/2015/2016/2812,9,,,15
3259,,TUMA/KCMUCo/MD/2015/2016/2814,9,,,14
3477,,TUMA/KCMUCo/MD/2015/2016/2815,9,,,14
3568,,TUMA/KCMUCo/MD/2015/2016/2816,9,,,14
3229,,TUMA/KCMUCo/MD/2015/2016/2818,9,,,14
3464,,TUMA/KCMUCo/MD/2015/2016/2823,65,,,
3625,,TUMA/KCMUCo/MD/2015/2016/2824,9,,,14
3072,,TUMA/KCMUCo/MD/2015/2016/2827,9,,,14
3673,,TUMA/KCMUCo/MD/2015/2016/2828,9,,,14
3044,,TUMA/KCMUCo/MD/2015/2016/2829,9,,,14
2850,,TUMA/KCMUCo/MD/2015/2016/2830,9,,,14
3769,,TUMA/KCMUCo/MD/2015/2016/2831,9,,,14
4005,,TUMA/KCMUCo/MD/2015/2016/2832,9,,,14
3608,,TUMA/KCMUCo/MD/2015/2016/2833,9,,,14
2858,,TUMA/KCMUCo/MD/2015/2016/2835,9,,,14
3865,,TUMA/KCMUCo/MD/2015/2016/2837,9,,,14
4042,,TUMA/KCMUCo/MD/2015/2016/2838,9,,,15
3817,,TUMA/KCMUCo/MD/2015/2016/2839,65,,,15
2815,,TUMA/KCMUCo/MD/2015/2016/2841,9,,,10
3341,,TUMA/KCMUCo/MD/2015/2016/2842,9,,,14
3305,,TUMA/KCMUCo/MD/2015/2016/2843,65,,,14
3112,,TUMA/KCMUCo/MD/2015/2016/2844,9,,,14
3858,,TUMA/KCMUCo/MD/2015/2016/2845,65,,,
3963,,TUMA/KCMUCo/MD/2015/2016/2846,9,,,14
3482,,TUMA/KCMUCo/MD/2015/2016/2847,9,,,15
3639,,TUMA/KCMUCo/MD/2015/2016/2849,9,,,14
3243,,TUMA/KCMUCo/MD/2015/2016/2851,9,,,14
3875,,TUMA/KCMUCo/MD/2015/2016/2852,9,,,15
3861,,TUMA/KCMUCo/MD/2015/2016/2853,9,,,15
2989,,TUMA/KCMUCo/MD/2015/2016/2855,9,,,14
3160,,TUMA/KCMUCo/MD/2015/2016/2857,9,,,10
3262,,TUMA/KCMUCo/MD/2015/2016/2859,9,,,14
2821,,TUMA/KCMUCo/MD/2015/2016/2860,65,,,13
3841,,TUMA/KCMUCo/MD/2015/2016/2864,65,,,14
3596,,TUMA/KCMUCo/MD/2015/2016/2865,9,,,14
3480,,TUMA/KCMUCo/MD/2015/2016/2866,65,,,15
3032,,TUMA/KCMUCo/MD/2015/2016/2869,65,,,14
3324,,TUMA/KCMUCo/MD/2015/2016/2870,9,,,14
3386,,TUMA/KCMUCo/MD/2015/2016/2872,9,,,15
3156,,TUMA/KCMUCo/MD/2015/2016/2874,9,,,14
2888,,TUMA/KCMUCo/MD/2015/2016/2876,9,,,14
3538,,TUMA/KCMUCo/MD/2015/2016/2878,9,,,14
3895,,TUMA/KCMUCo/MD/2015/2016/2880,65,,,
2872,,TUMA/KCMUCo/MD/2015/2016/2881,65,,,14
3298,,TUMA/KCMUCo/MD/2015/2016/2882,9,,,11
4001,,TUMA/KCMUCo/MD/2015/2016/2883,9,,,11
3832,,TUMA/KCMUCo/MD/2015/2016/2887,9,,,11
4004,,TUMA/KCMUCo/MD/2015/2016/2888,9,,,11
3533,,TUMA/KCMUCo/MD/2015/2016/2889,9,,,11
3999,,TUMA/KCMUCo/MD/2015/2016/2892,65,,,11
2962,,TUMA/KCMUCo/MD/2015/2016/2895,9,,,11
3598,,TUMA/KCMUCo/MD/2015/2016/2896,9,,,11
3872,,TUMA/KCMUCo/MD/2015/2016/2897,65,,,11
3652,,TUMA/KCMUCo/MD/2015/2016/2898,65,,,
3174,,TUMA/KCMUCo/MD/2015/2016/2899,9,,,11
3041,,TUMA/KCMUCo/MD/2015/2016/2900,9,,,16
3857,,TUMA/KCMUCo/MD/2015/2016/2901,9,,,16
3697,,TUMA/KCMUCo/MD/2015/2016/2903,9,,,16
3852,,TUMA/KCMUCo/MD/2015/2016/2904,65,,,16
3404,,TUMA/KCMUCo/MD/2015/2016/2907,9,,,16
3082,,TUMA/KCMUCo/MD/2015/2016/2908,9,,,16
3853,,TUMA/KCMUCo/MD/2015/2016/2921,9,,,16
3774,,TUMA/KCMUCo/MD/2015/2016/2923,9,,,13
3130,,TUMA/KCMUCo/MD/2015/2016/2925,9,,,16
3859,,TUMA/KCMUCo/MD/2015/2016/2926,65,,,15
2868,,TUMA/KCMUCo/MD/2015/2016/2933,9,,,16
2931,,TUMA/KCMUCo/MD/2015/2016/2934,9,,,13
3873,,TUMA/KCMUCo/MD/2015/2016/2936,9,,,16
853,,TUMA/KCMUCo/MD/2015/2016/2939,13,,,16
3021,,TUMA/KCMUCo/MD/2015/2016/2941,9,,,15
3753,,TUMA/KCMUCo/MD/2015/2016/2949,65,,,15
3681,,TUMA/KCMUCo/MD/2015/2016/2953,9,,,15
3771,,TUMA/KCMUCo/MD/2015/2016/2958,65,,,10
3836,,TUMA/KCMUCo/MD/2015/2016/2960,65,,,15
3226,,TUMA/KCMUCo/MD/2015/2016/2961,65,,,
3099,,TUMA/KCMUCo/MD/2016/2017/2984,9,,,15
3191,,TUMA/KCMUCo/MD/2016/2017/2985,9,,,10
3582,,TUMA/KCMUCo/MD/2016/2017/2986,9,,,15
2976,,TUMA/KCMUCo/MD/2016/2017/2987,9,,,15
3668,,TUMA/KCMUCo/MD/2016/2017/2989,9,,,15
3054,,TUMA/KCMUCo/MD/2016/2017/3002,9,,,15
2918,,TUMA/KCMUCo/MD/2016/2017/3008,9,,,15
3720,,TUMA/KCMUCo/MD/2016/2017/3016,9,,,13
3199,,TUMA/KCMUCo/MD/2016/2017/3321,9,,,15
3461,,TUMA/KCMUCo/MD/2016/2017/3322,9,,,15
