@-header,instruction_!_ Please DO NOT CHANGE THE STRUCTURE OF THIS FILE,,,,,
@-header,compilationTime_!_ 2017:08:23:17:59:58,,,,,
@-header,columnCount_!_ 7,,,,,
@-header,maximumScore_!_ 10,,,,,
@-header,fileType_!_ results,,,,,
@-header,fileTypeCode_!_ a68816c37b60d1e016b21809447de93c,,,,,
@-header,courseId_!_ 4,,,,,
@-header,courseName_!_ Bachelor of Science in Physiotherapy (Direct),,,,,
@-header,year_!_ 1,,,,,
@-header,semester_!_ 2,,,,,
@-header,batchId_!_ 8,,,,,
@-header,batchName_!_ 2016/2017,,,,,
@-header,flags_!_ 0,,,,,
,,,,,,
,,,,,,514
Ref,GPA,Reg Number,Flags,Details,res,Basic Parasitology & Entomology
6119,,TUMA/KCMUCo/BScPhysio/2016/2017/0317,65,,,6.5
6373,,TUMA/KCMUCo/BScPhysio/2016/2017/0318,9,,,6.5
4803,,TUMA/KCMUCo/BScPhysio/2016/2017/0319,9,,,6.5
5061,,TUMA/KCMUCo/BScPhysio/2016/2017/0320,65,,,6.5
5102,,TUMA/KCMUCo/BScPhysio/2016/2017/0321,9,,,6.5
5142,,TUMA/KCMUCo/BScPhysio/2016/2017/0322,9,,,6.5
5167,,TUMA/KCMUCo/BScPhysio/2016/2017/0324,9,,,6.5
5223,,TUMA/KCMUCo/BScPhysio/2016/2017/0325,9,,,6.5
5309,,TUMA/KCMUCo/BScPhysio/2016/2017/0326,9,,,6.5
5345,,TUMA/KCMUCo/BScPhysio/2016/2017/0328,65,,,4.5
5472,,TUMA/KCMUCo/BScPhysio/2016/2017/0329,9,,,4.5
5539,,TUMA/KCMUCo/BScPhysio/2016/2017/0330,9,,,4.5
5610,,TUMA/KCMUCo/BScPhysio/2016/2017/0331,65,,,4.5
5640,,TUMA/KCMUCo/BScPhysio/2016/2017/0332,9,,,4.5
5645,,TUMA/KCMUCo/BScPhysio/2016/2017/0333,9,,,4.5
5646,,TUMA/KCMUCo/BScPhysio/2016/2017/0334,9,,,4.5
5777,,TUMA/KCMUCo/BScPhysio/2016/2017/0335,9,,,4.5
5796,,TUMA/KCMUCo/BScPhysio/2016/2017/0336,9,,,4.5
5869,,TUMA/KCMUCo/BScPhysio/2016/2017/0337,9,,,4.5
5947,,TUMA/KCMUCo/BScPhysio/2016/2017/0338,9,,,4.5
6115,,TUMA/KCMUCo/BScPhysio/2016/2017/0340,9,,,5.5
6118,,TUMA/KCMUCo/BScPhysio/2016/2017/0341,9,,,5.5
6161,,TUMA/KCMUCo/BScPhysio/2016/2017/0342,9,,,5.5
6562,,TUMA/KCMUCo/BScPhysio/2016/2017/0345,9,,,5.5
6648,,TUMA/KCMUCo/BScPhysio/2016/2017/0346,65,,,5.5
6754,,TUMA/KCMUCo/BScPhysio/2016/2017/0347,65,,,5.5
6809,,TUMA/KCMUCo/BScPhysio/2016/2017/0348,65,,,5.5
