@-header,instruction_!_ Please DO NOT CHANGE THE STRUCTURE OF THIS FILE,,,,,
@-header,compilationTime_!_ 2018:05:09:13:23:12,,,,,
@-header,columnCount_!_ 7,,,,,
@-header,maximumScore_!_ 100,,,,,
@-header,fileType_!_ results,,,,,
@-header,fileTypeCode_!_ a68816c37b60d1e016b21809447de93c,,,,,
@-header,courseId_!_ 6,,,,,
@-header,courseName_!_ Bachelor of Science in Nursing (Pre-Service),,,,,
@-header,year_!_ 2,,,,,
@-header,semester_!_ 1,,,,,
@-header,batchId_!_ 8,,,,,
@-header,batchName_!_ 2016/2017,,,,,
@-header,flags_!_ 0,,,,,
,,,,,,
,,,,,,583
Ref,GPA,Reg Number,Flags,Details,res,Behavioral Sciences
4025,,TUMA/KCMUCo/BSC.N/2015/2016/0747,69,,,
4732,,TUMA/KCMUCo/BSC.N/2016/2017/0837,9,,,
4780,,TUMA/KCMUCo/BSC.N/2016/2017/0838,9,,,
4823,,TUMA/KCMUCo/BSC.N/2016/2017/0839,65,,,
4862,,TUMA/KCMUCo/BSC.N/2016/2017/0840,65,,,
4959,,TUMA/KCMUCo/BSC.N/2016/2017/0841,65,,,
5020,,TUMA/KCMUCo/BSC.N/2016/2017/0842,65,,,
5082,,TUMA/KCMUCo/BSC.N/2016/2017/0843,9,,,
5100,,TUMA/KCMUCo/BSC.N/2016/2017/0844,65,,,
5101,,TUMA/KCMUCo/BSC.N/2016/2017/0845,9,,,
5157,,TUMA/KCMUCo/BSC.N/2016/2017/0847,65,,,
5222,,TUMA/KCMUCo/BSC.N/2016/2017/0850,9,,,
5232,,TUMA/KCMUCo/BSC.N/2016/2017/0851,9,,,
5237,,TUMA/KCMUCo/BSC.N/2016/2017/0852,65,,,
5242,,TUMA/KCMUCo/BSC.N/2016/2017/0853,65,,,
5245,,TUMA/KCMUCo/BSC.N/2016/2017/0854,9,,,
5274,,TUMA/KCMUCo/BSC.N/2016/2017/0856,65,,,
5297,,TUMA/KCMUCo/BSC.N/2016/2017/0857,65,,,
5339,,TUMA/KCMUCo/BSC.N/2016/2017/0859,9,,,
5401,,TUMA/KCMUCo/BSC.N/2016/2017/0860,65,,,
5464,,TUMA/KCMUCo/BSC.N/2016/2017/0861,9,,,
5522,,TUMA/KCMUCo/BSC.N/2016/2017/0863,65,,,
5533,,TUMA/KCMUCo/BSC.N/2016/2017/0864,9,,,
5560,,TUMA/KCMUCo/BSC.N/2016/2017/0868,9,,,
5564,,TUMA/KCMUCo/BSC.N/2016/2017/0869,9,,,
5612,,TUMA/KCMUCo/BSC.N/2016/2017/0870,9,,,
5614,,TUMA/KCMUCo/BSC.N/2016/2017/0871,9,,,
5658,,TUMA/KCMUCo/BSC.N/2016/2017/0872,9,,,
5741,,TUMA/KCMUCo/BSC.N/2016/2017/0873,9,,,
5767,,TUMA/KCMUCo/BSC.N/2016/2017/0874,65,,,
5790,,TUMA/KCMUCo/BSC.N/2016/2017/0875,9,,,
5848,,TUMA/KCMUCo/BSC.N/2016/2017/0877,65,,,
5993,,TUMA/KCMUCo/BSC.N/2016/2017/0879,9,,,
6000,,TUMA/KCMUCo/BSC.N/2016/2017/0880,65,,,
6117,,TUMA/KCMUCo/BSC.N/2016/2017/0882,65,,,
6152,,TUMA/KCMUCo/BSC.N/2016/2017/0884,65,,,
6180,,TUMA/KCMUCo/BSC.N/2016/2017/0885,65,,,
6221,,TUMA/KCMUCo/BSC.N/2016/2017/0886,9,,,
6245,,TUMA/KCMUCo/BSC.N/2016/2017/0887,9,,,
6682,,TUMA/KCMUCo/BSC.N/2016/2017/0890,9,,,
6718,,TUMA/KCMUCo/BSC.N/2016/2017/0891,9,,,
6776,,TUMA/KCMUCo/BSC.N/2016/2017/0893,9,,,
6779,,TUMA/KCMUCo/BSC.N/2016/2017/0894,65,,,
6782,,TUMA/KCMUCo/BSC.N/2016/2017/0896,65,,,
