@-header,instruction_!_ Please DO NOT CHANGE THE STRUCTURE OF THIS FILE,,,,,
@-header,compilationTime_!_ 2018:05:21:09:45:28,,,,,
@-header,columnCount_!_ 7,,,,,
@-header,maximumScore_!_ 100,,,,,
@-header,fileType_!_ results,,,,,
@-header,fileTypeCode_!_ a68816c37b60d1e016b21809447de93c,,,,,
@-header,courseId_!_ 4,,,,,
@-header,courseName_!_ Bachelor of Science in Physiotherapy (Direct),,,,,
@-header,year_!_ 4,,,,,
@-header,semester_!_ 1,,,,,
@-header,batchId_!_ 5,,,,,
@-header,batchName_!_ 2013/2014,,,,,
@-header,flags_!_ 0,,,,,
,,,,,,
,,,,,,654
Ref,GPA,Reg Number,Flags,Details,res,Research Methodology Level 3
351,,TUMA/KCMUCo/BScPhysio/2015/2016/0212,65,,,
308,,TUMA/KCMUCo/BScPhysio/2015/2016/0213,65,,,
202,,TUMA/KCMUCo/BScPhysio/2015/2016/0214,65,,,
335,,TUMA/KCMUCo/BScPhysio/2015/2016/0215,65,,,
353,,TUMA/KCMUCo/BScPhysio/2015/2016/0216,65,,,
214,,TUMA/KCMUCo/BScPhysio/2015/2016/0217,65,,,
350,,TUMA/KCMUCo/BScPhysio/2015/2016/0218,65,,,
206,,TUMA/KCMUCo/BScPhysio/2015/2016/0219,65,,,
277,,TUMA/KCMUCo/BScPhysio/2015/2016/0220,65,,,
236,,TUMA/KCMUCo/BScPhysio/2015/2016/0223,65,,,
84,,TUMA/KCMUCo/BScPhysio/2015/2016/0224,65,,,
199,,TUMA/KCMUCo/BScPhysio/2015/2016/0226,65,,,
38,,TUMA/KCMUCo/BScPhysio/2015/2016/0227,65,,,
21,,TUMA/KCMUCo/BScPhysio/2015/2016/0228,65,,,
322,,TUMA/KCMUCo/BScPhysio/2015/2016/0229,65,,,
247,,TUMA/KCMUCo/BScPhysio/2015/2016/0244,65,,,
314,,TUMA/KCMUCo/BScPhysio/2015/2016/0246,65,,,
311,,TUMA/KCMUCo/BScPhysio/2015/2016/0249,65,,,
96,,TUMA/KCMUCo/BScPhysio/2015/2016/0289,65,,,
87,,TUMA/KCMUCo/BScPhysio/2015/2016/0299,65,,,
285,,TUMA/KCMUCo/BScPhysio/2016/2017/0315,65,,,
