@-header,instruction_!_ Please DO NOT CHANGE THE STRUCTURE OF THIS FILE,,,,,,,,,,,,,,,,,,,
@-header,compilationTime_!_ 2018:04:17:16:27:13,,,,,,,,,,,,,,,,,,,
@-header,columnCount_!_ 21,,,,,,,,,,,,,,,,,,,
@-header,maximumScore_!_ 100,,,,,,,,,,,,,,,,,,,
@-header,fileType_!_ results,,,,,,,,,,,,,,,,,,,
@-header,fileTypeCode_!_ a68816c37b60d1e016b21809447de93c,,,,,,,,,,,,,,,,,,,
@-header,courseId_!_ 19,,,,,,,,,,,,,,,,,,,
@-header,courseName_!_ Master of Public Health(MPH),,,,,,,,,,,,,,,,,,,
@-header,year_!_ 1,,,,,,,,,,,,,,,,,,,
@-header,semester_!_ 1,,,,,,,,,,,,,,,,,,,
@-header,batchId_!_ 8,,,,,,,,,,,,,,,,,,,
@-header,batchName_!_ 2016/2017,,,,,,,,,,,,,,,,,,,
@-header,flags_!_ 0,,,,,,,,,,,,,,,,,,,
,,,,,,,,,,,,,,,,,,,,
,,,,,,109,110,111,112,113,115,116,117,118,930,931,932,933,934,935
Ref,GPA,Reg Number,Flags,Details,res,Introduction to Global Health,Biostatistics,Epidemiology,Research Methodology,Research management and leadership,Sociology of Health and Illness,Sexual and Reproductive Health,Communicable Disease Control,Epidemiology of Non-communicable Diseases,Health Promotion,Surveillance,Health System and Health Policy,Monitoring and Evaluation of Health Projects,Law  Ethics & Public Health,Environmental Health
4456,,TUMA/KCMUCo/MPH/2016/2017/0242,65,,,,,,,,,,,,,,,,,
4521,,TUMA/KCMUCo/MPH/2016/2017/0243,65,,,,,,,,,,,,,,,,,
4572,,TUMA/KCMUCo/MPH/2016/2017/0244,65,,,,,,,,,,,,,,,,,
4593,,TUMA/KCMUCo/MPH/2016/2017/0245,65,,,,,,,,,,,,,,,,,
4633,,TUMA/KCMUCo/MPH/2016/2017/0246,65,,,,,,,,,,,,,,,,,
4696,,TUMA/KCMUCo/MPH/2016/2017/0247,65,,,,,,,,,,,,,,,,,
