@-header,instruction_!_ Please DO NOT CHANGE THE STRUCTURE OF THIS FILE,,,,,
@-header,compilationTime_!_ 2018:09:04:16:00:54,,,,,
@-header,columnCount_!_ 7,,,,,
@-header,maximumScore_!_ 100,,,,,
@-header,fileType_!_ results,,,,,
@-header,fileTypeCode_!_ a68816c37b60d1e016b21809447de93c,,,,,
@-header,courseId_!_ 8,,,,,
@-header,courseName_!_ Bachelor of Science in Health Laboratory Science,,,,,
@-header,year_!_ 3,,,,,
@-header,semester_!_ 2,,,,,
@-header,batchId_!_ 7,,,,,
@-header,batchName_!_ 2015/2016,,,,,
@-header,flags_!_ 0,,,,,
,,,,,,
,,,,,,245
Ref,GPA,Reg Number,Flags,Details,res,Parasitology and Entomology
3488,,TUMA/KCMUCo/BScHLSc/2015/2016/0545,9,,,
3750,,TUMA/KCMUCo/BScHLSc/2015/2016/0546,9,,,
2781,,TUMA/KCMUCo/BScHLSc/2015/2016/0547,65,,,
2915,,TUMA/KCMUCo/BScHLSc/2015/2016/0548,65,,,
3400,,TUMA/KCMUCo/BScHLSc/2015/2016/0549,9,,,
3847,,TUMA/KCMUCo/BScHLSc/2015/2016/0550,9,,,
3411,,TUMA/KCMUCo/BScHLSc/2015/2016/0551,9,,,
3860,,TUMA/KCMUCo/BScHLSc/2015/2016/0552,9,,,
3399,,TUMA/KCMUCo/BScHLSc/2015/2016/0553,9,,,
3439,,TUMA/KCMUCo/BScHLSc/2015/2016/0554,9,,,
4026,,TUMA/KCMUCo/BScHLSc/2015/2016/0556,9,,,
3382,,TUMA/KCMUCo/BScHLSc/2015/2016/0558,9,,,
3751,,TUMA/KCMUCo/BScHLSc/2015/2016/0563,9,,,
3998,,TUMA/KCMUCo/BScHLSc/2015/2016/0564,65,,,
3351,,TUMA/KCMUCo/BScHLSc/2015/2016/0574,9,,,
3879,,TUMA/KCMUCo/BScHLSc/2015/2016/0575,9,,,
3987,,TUMA/KCMUCo/BScHLSc/2015/2016/0577,9,,,
2926,,TUMA/KCMUCo/BScHLSc/2015/2016/0578,9,,,
3991,,TUMA/KCMUCo/BScHLSc/2015/2016/0579,9,,,
3178,,TUMA/KCMUCo/BScHLSc/2015/2016/0580,9,,,
3353,,TUMA/KCMUCo/BScHLSc/2015/2016/0581,9,,,
3239,,TUMA/KCMUCo/BScHLSc/2015/2016/0582,9,,,
3145,,TUMA/KCMUCo/BScHLSc/2015/2016/0583,9,,,
3660,,TUMA/KCMUCo/BScHLSc/2015/2016/0584,65,,,
3360,,TUMA/KCMUCo/BScHLSc/2015/2016/0585,9,,,
3535,,TUMA/KCMUCo/BScHLSc/2015/2016/0586,9,,,
3955,,TUMA/KCMUCo/BScHLSc/2015/2016/0587,9,,,
3138,,TUMA/KCMUCo/BScHLSc/2015/2016/0588,65,,,
3597,,TUMA/KCMUCo/BScHLSc/2015/2016/0589,9,,,
3026,,TUMA/KCMUCo/BScHLSc/2015/2016/0590,9,,,
3219,,TUMA/KCMUCo/BScHLSc/2015/2016/0591,9,,,
3303,,TUMA/KCMUCo/BScHLSc/2015/2016/0592,9,,,
3352,,TUMA/KCMUCo/BScHLSc/2015/2016/0593,9,,,
3308,,TUMA/KCMUCo/BScHLSc/2015/2016/0594,9,,,
3251,,TUMA/KCMUCo/BScHLSc/2015/2016/0595,9,,,
3952,,TUMA/KCMUCo/BScHLSc/2015/2016/0596,9,,,
2832,,TUMA/KCMUCo/BScHLSc/2015/2016/0597,9,,,
3315,,TUMA/KCMUCo/BScHLSc/2015/2016/0598,9,,,
3489,,TUMA/KCMUCo/BScHLSc/2015/2016/0599,9,,,
3926,,TUMA/KCMUCo/BScHLSc/2015/2016/0600,9,,,
3683,,TUMA/KCMUCo/BScHLSc/2015/2016/0601,65,,,
3122,,TUMA/KCMUCo/BScHLSc/2015/2016/0604,9,,,
2957,,TUMA/KCMUCo/BScHLSc/2015/2016/0606,9,,,
3113,,TUMA/KCMUCo/BScHLSc/2015/2016/0614,9,,,
3110,,TUMA/KCMUCo/BScHLSc/2015/2016/0620,9,,,
3981,,TUMA/KCMUCo/BScHLSc/2015/2016/0622,65,,,
3139,,TUMA/KCMUCo/BScHLSc/2015/2016/0623,9,,,
3134,,TUMA/KCMUCo/BScHLSc/2015/2016/0625,9,,,
2959,,TUMA/KCMUCo/BScHLSc/2015/2016/0626,9,,,
2921,,TUMA/KCMUCo/BScHLSc/2015/2016/0627,65,,,
3512,,TUMA/KCMUCo/BScHLSc/2015/2016/0630,9,,,
3108,,TUMA/KCMUCo/BScHLSc/2015/2016/0636,9,,,
3067,,TUMA/KCMUCo/BScHLSc/2015/2016/0639,9,,,
3208,,TUMA/KCMUCo/BScHLSc/2015/2016/0642,9,,,
3380,,TUMA/KCMUCo/BScHLSc/2015/2016/0645,9,,,
2882,,TUMA/KCMUCo/BScHLSc/2015/2016/0649,9,,,
3132,,TUMA/KCMUCo/BScHLSc/2015/2016/0650,9,,,
3186,,TUMA/KCMUCo/BScHLSc/2015/2016/0658,9,,,
4044,,TUMA/KCMUCo/BScHLSc/2015/2016/0661,9,,,
3406,,TUMA/KCMUCo/BScHLSc/2015/2016/0663,9,,,
4012,,TUMA/KCMUCo/BScHLSc/2015/2016/0664,65,,,
3190,,TUMA/KCMUCo/BScHLSc/2015/2016/0665,65,,,
3616,,TUMA/KCMUCo/BScHLSc/2015/2016/0666,65,,,
3881,,TUMA/KCMUCo/BScHLSc/2015/2016/0667,9,,,
3807,,TUMA/KCMUCo/BScHLSc/2015/2016/0668,9,,,
3314,,TUMA/KCMUCo/BScHLSc/2015/2016/0669,9,,,
3256,,TUMA/KCMUCo/BScHLSc/2015/2016/0670,9,,,
2819,,TUMA/KCMUCo/BScHLSc/2015/2016/0671,9,,,
3770,,TUMA/KCMUCo/BScHLSc/2015/2016/0672,9,,,
4030,,TUMA/KCMUCo/BScHLSc/2015/2016/0675,9,,,
3749,,TUMA/KCMUCo/BScHLSc/2015/2016/0676,65,,,
3938,,TUMA/KCMUCo/BScHLSc/2015/2016/0677,65,,,
3661,,TUMA/KCMUCo/BScHLSc/2015/2016/0681,9,,,
3028,,TUMA/KCMUCo/BScHLSc/2015/2016/0685,9,,,
3503,,TUMA/KCMUCo/BScHLSc/2015/2016/0686,9,,,
3447,,TUMA/KCMUCo/BScHLSc/2015/2016/0687,9,,,
3127,,TUMA/KCMUCo/BScHLSc/2015/2016/0690,65,,,
3367,,TUMA/KCMUCo/BScHLSc/2015/2016/0692,9,,,
3232,,TUMA/KCMUCo/BScHLSc/2015/2016/0697,9,,,
4052,,TUMA/KCMUCo/BScHLSc/2015/2016/0699,9,,,
3894,,TUMA/KCMUCo/BScHLSc/2016/2017/0706,65,,,
