@-header,instruction_!_ Please DO NOT CHANGE THE STRUCTURE OF THIS FILE,,,,,,,,
@-header,compilationTime_!_ 2018:04:05:12:18:11,,,,,,,,
@-header,columnCount_!_ 10,,,,,,,,
@-header,maximumScore_!_ 100,,,,,,,,
@-header,fileType_!_ results,,,,,,,,
@-header,fileTypeCode_!_ a68816c37b60d1e016b21809447de93c,,,,,,,,
@-header,courseId_!_ 9,,,,,,,,
@-header,courseName_!_ Doctor of Medicine,,,,,,,,
@-header,year_!_ 5,,,,,,,,
@-header,semester_!_ 1,,,,,,,,
@-header,batchId_!_ 4,,,,,,,,
@-header,batchName_!_ 2012/2013,,,,,,,,
@-header,flags_!_ 0,,,,,,,,
,,,,,,,,,
,,,,,,732,196,730,733
Ref,GPA,Reg Number,Flags,Details,res,General Surgery,Internal  Medicine 1, Obstetrics and Gynaecology,Paediatrics and Childhealth
1012,,TUMA/KCMUCo/MD/2015/2016/2488,65,,,,,,
1436,,TUMA/KCMUCo/MD/2015/2016/2489,65,,,,,,
1629,,TUMA/KCMUCo/MD/2015/2016/2490,65,,,,,,
1879,,TUMA/KCMUCo/MD/2015/2016/2491,65,,,,,,
1296,,TUMA/KCMUCo/MD/2015/2016/2492,65,,,,,,
1744,,TUMA/KCMUCo/MD/2015/2016/2493,65,,,,,,
1718,,TUMA/KCMUCo/MD/2015/2016/2494,65,,,,,,
1041,,TUMA/KCMUCo/MD/2015/2016/2495,65,,,,,,
1840,,TUMA/KCMUCo/MD/2015/2016/2496,65,,,,,,
1768,,TUMA/KCMUCo/MD/2015/2016/2497,65,,,,,,
1834,,TUMA/KCMUCo/MD/2015/2016/2498,65,,,,,,
1804,,TUMA/KCMUCo/MD/2015/2016/2499,65,,,,,,
1867,,TUMA/KCMUCo/MD/2015/2016/2500,65,,,,,,
1426,,TUMA/KCMUCo/MD/2015/2016/2501,65,,,,,,
1388,,TUMA/KCMUCo/MD/2015/2016/2502,65,,,,,,
1197,,TUMA/KCMUCo/MD/2015/2016/2503,65,,,,,,
1129,,TUMA/KCMUCo/MD/2015/2016/2505,65,,,,,,
1794,,TUMA/KCMUCo/MD/2015/2016/2506,65,,,,,,
972,,TUMA/KCMUCo/MD/2015/2016/2507,65,,,,,,
973,,TUMA/KCMUCo/MD/2015/2016/2508,65,,,,,,
1707,,TUMA/KCMUCo/MD/2015/2016/2509,65,,,,,,
1270,,TUMA/KCMUCo/MD/2015/2016/2510,65,,,,,,
1189,,TUMA/KCMUCo/MD/2015/2016/2511,65,,,,,,
1347,,TUMA/KCMUCo/MD/2015/2016/2512,65,,,,,,
975,,TUMA/KCMUCo/MD/2015/2016/2513,65,,,,,,
985,,TUMA/KCMUCo/MD/2015/2016/2514,65,,,,,,
1256,,TUMA/KCMUCo/MD/2015/2016/2515,65,,,,,,
1040,,TUMA/KCMUCo/MD/2015/2016/2516,65,,,,,,
1072,,TUMA/KCMUCo/MD/2015/2016/2518,65,,,,,,
1317,,TUMA/KCMUCo/MD/2015/2016/2519,65,,,,,,
1268,,TUMA/KCMUCo/MD/2015/2016/2520,65,,,,,,
1377,,TUMA/KCMUCo/MD/2015/2016/2559,69,,,,,,
1896,,TUMA/KCMUCo/MD/2015/2016/2566,65,,,,,,
1046,,TUMA/KCMUCo/MD/2015/2016/2609,65,,,,,,
1847,,TUMA/KCMUCo/MD/2015/2016/2614,65,,,,,,
1063,,TUMA/KCMUCo/MD/2015/2016/2621,65,,,,,,
1926,,TUMA/KCMUCo/MD/2015/2016/2625,65,,,,,,
1253,,TUMA/KCMUCo/MD/2015/2016/2732,65,,,,,,
1328,,TUMA/KCMUCo/MD/2015/2016/2840,65,,,,,,
1829,,TUMA/KCMUCo/MD/2015/2016/2884,65,,,,,,
966,,TUMA/KCMUCo/MD/2015/2016/2905,65,,,,,,
1238,,TUMA/KCMUCo/MD/2015/2016/2909,65,,,,,,
1763,,TUMA/KCMUCo/MD/2015/2016/2910,65,,,,,,
1358,,TUMA/KCMUCo/MD/2015/2016/2929,65,,,,,,
1560,,TUMA/KCMUCo/MD/2015/2016/2930,65,,,,,,
1337,,TUMA/KCMUCo/MD/2015/2016/2931,65,,,,,,
1578,,TUMA/KCMUCo/MD/2015/2016/2942,65,,,,,,
1549,,TUMA/KCMUCo/MD/2015/2016/2944,65,,,,,,
1019,,TUMA/KCMUCo/MD/2015/2016/2962,65,,,,,,
1170,,TUMA/KCMUCo/MD/2016/2017/2976,65,,,,,,
1254,,TUMA/KCMUCo/MD/2016/2017/3014,65,,,,,,
1767,,TUMA/KCMUCo/MD/2016/2017/3015,65,,,,,,
1001,,TUMA/KCMUCo/MD/2016/2017/3018,65,,,,,,
1016,,TUMA/KCMUCo/MD/2016/2017/3019,65,,,,,,
974,,TUMA/KCMUCo/MD/2016/2017/3021,65,,,,,,
967,,TUMA/KCMUCo/MD/2016/2017/3024,65,,,,,,
1239,,TUMA/KCMUCo/MD/2016/2017/3036,65,,,,,,
1248,,TUMA/KCMUCo/MD/2016/2017/3067,65,,,,,,
1571,,TUMA/KCMUCo/MD/2016/2017/3068,65,,,,,,
1743,,TUMA/KCMUCo/MD/2016/2017/3072,65,,,,,,
1272,,TUMA/KCMUCo/MD/2016/2017/3076,65,,,,,,
1315,,TUMA/KCMUCo/MD/2016/2017/3081,65,,,,,,
1881,,TUMA/KCMUCo/MD/2016/2017/3082,65,,,,,,
2208,,TUMA/KCMUCo/MD/2016/2017/3083,65,,,,,,
1310,,TUMA/KCMUCo/MD/2016/2017/3084,65,,,,,,
1766,,TUMA/KCMUCo/MD/2016/2017/3090,65,,,,,,
2239,,TUMA/KCMUCo/MD/2016/2017/3095,65,,,,,,
1726,,TUMA/KCMUCo/MD/2016/2017/3096,65,,,,,,
1764,,TUMA/KCMUCo/MD/2016/2017/3097,65,,,,,,
1226,,TUMA/KCMUCo/MD/2016/2017/3102,65,,,,,,
1271,,TUMA/KCMUCo/MD/2016/2017/3103,65,,,,,,
1713,,TUMA/KCMUCo/MD/2016/2017/3106,65,,,,,,
1777,,TUMA/KCMUCo/MD/2016/2017/3109,65,,,,,,
1771,,TUMA/KCMUCo/MD/2016/2017/3110,65,,,,,,
1398,,TUMA/KCMUCo/MD/2016/2017/3112,65,,,,,,
1904,,TUMA/KCMUCo/MD/2016/2017/3132,69,,,,,,
1332,,TUMA/KCMUCo/MD/2016/2017/3133,65,,,,,,
1547,,TUMA/KCMUCo/MD/2016/2017/3161,65,,,,,,
2664,,TUMA/KCMUCo/MD/2016/2017/3164,65,,,,,,
1255,,TUMA/KCMUCo/MD/2016/2017/3165,69,,,,,,
1749,,TUMA/KCMUCo/MD/2016/2017/3166,65,,,,,,
1748,,TUMA/KCMUCo/MD/2016/2017/3167,65,,,,,,
1182,,TUMA/KCMUCo/MD/2016/2017/3168,65,,,,,,
1444,,TUMA/KCMUCo/MD/2016/2017/3169,65,,,,,,
1524,,TUMA/KCMUCo/MD/2016/2017/3170,65,,,,,,
1532,,TUMA/KCMUCo/MD/2016/2017/3171,65,,,,,,
1269,,TUMA/KCMUCo/MD/2016/2017/3172,65,,,,,,
1753,,TUMA/KCMUCo/MD/2016/2017/3174,65,,,,,,
1595,,TUMA/KCMUCo/MD/2016/2017/3175,69,,,,,,
1471,,TUMA/KCMUCo/MD/2016/2017/3176,65,,,,,,
1323,,TUMA/KCMUCo/MD/2016/2017/3177,65,,,,,,
1755,,TUMA/KCMUCo/MD/2016/2017/3178,65,,,,,,
1620,,TUMA/KCMUCo/MD/2016/2017/3179,65,,,,,,
1333,,TUMA/KCMUCo/MD/2016/2017/3180,65,,,,,,
1591,,TUMA/KCMUCo/MD/2016/2017/3181,65,,,,,,
980,,TUMA/KCMUCo/MD/2016/2017/3182,65,,,,,,
1252,,TUMA/KCMUCo/MD/2016/2017/3183,65,,,,,,
997,,TUMA/KCMUCo/MD/2016/2017/3184,65,,,,,,
1600,,TUMA/KCMUCo/MD/2016/2017/3185,65,,,,,,
1385,,TUMA/KCMUCo/MD/2016/2017/3186,65,,,,,,
1927,,TUMA/KCMUCo/MD/2016/2017/3187,65,,,,,,
1740,,TUMA/KCMUCo/MD/2016/2017/3188,65,,,,,,
1793,,TUMA/KCMUCo/MD/2016/2017/3189,65,,,,,,
1865,,TUMA/KCMUCo/MD/2016/2017/3190,65,,,,,,
1792,,TUMA/KCMUCo/MD/2016/2017/3191,65,,,,,,
1613,,TUMA/KCMUCo/MD/2016/2017/3192,65,,,,,,
1442,,TUMA/KCMUCo/MD/2016/2017/3193,65,,,,,,
1391,,TUMA/KCMUCo/MD/2016/2017/3194,65,,,,,,
1576,,TUMA/KCMUCo/MD/2016/2017/3195,65,,,,,,
1632,,TUMA/KCMUCo/MD/2016/2017/3196,65,,,,,,
1259,,TUMA/KCMUCo/MD/2016/2017/3197,65,,,,,,
981,,TUMA/KCMUCo/MD/2016/2017/3198,65,,,,,,
1618,,TUMA/KCMUCo/MD/2016/2017/3199,65,,,,,,
1318,,TUMA/KCMUCo/MD/2016/2017/3200,65,,,,,,
2677,,TUMA/KCMUCo/MD/2016/2017/3201,65,,,,,,
1396,,TUMA/KCMUCo/MD/2016/2017/3202,65,,,,,,
1320,,TUMA/KCMUCo/MD/2016/2017/3203,65,,,,,,
1750,,TUMA/KCMUCo/MD/2016/2017/3204,65,,,,,,
1038,,TUMA/KCMUCo/MD/2016/2017/3205,69,,,,,,
1606,,TUMA/KCMUCo/MD/2016/2017/3206,65,,,,,,
978,,TUMA/KCMUCo/MD/2016/2017/3207,69,,,,,,
1742,,TUMA/KCMUCo/MD/2016/2017/3209,65,,,,,,
1403,,TUMA/KCMUCo/MD/2016/2017/3210,65,,,,,,
1355,,TUMA/KCMUCo/MD/2016/2017/3211,65,,,,,,
1774,,TUMA/KCMUCo/MD/2016/2017/3212,65,,,,,,
1746,,TUMA/KCMUCo/MD/2016/2017/3213,65,,,,,,
1441,,TUMA/KCMUCo/MD/2016/2017/3214,65,,,,,,
1300,,TUMA/KCMUCo/MD/2016/2017/3215,65,,,,,,
1738,,TUMA/KCMUCo/MD/2016/2017/3216,69,,,,,,
1437,,TUMA/KCMUCo/MD/2016/2017/3217,65,,,,,,
1911,,TUMA/KCMUCo/MD/2016/2017/3218,65,,,,,,
1888,,TUMA/KCMUCo/MD/2016/2017/3219,65,,,,,,
1880,,TUMA/KCMUCo/MD/2016/2017/3220,65,,,,,,
1359,,TUMA/KCMUCo/MD/2016/2017/3221,65,,,,,,
1334,,TUMA/KCMUCo/MD/2016/2017/3222,65,,,,,,
1826,,TUMA/KCMUCo/MD/2016/2017/3223,65,,,,,,
1885,,TUMA/KCMUCo/MD/2016/2017/3224,69,,,,,,
1824,,TUMA/KCMUCo/MD/2016/2017/3225,65,,,,,,
1199,,TUMA/KCMUCo/MD/2016/2017/3226,65,,,,,,
1918,,TUMA/KCMUCo/MD/2016/2017/3227,65,,,,,,
1901,,TUMA/KCMUCo/MD/2016/2017/3228,65,,,,,,
1306,,TUMA/KCMUCo/MD/2016/2017/3229,65,,,,,,
1955,,TUMA/KCMUCo/MD/2016/2017/3230,65,,,,,,
1905,,TUMA/KCMUCo/MD/2016/2017/3231,65,,,,,,
1887,,TUMA/KCMUCo/MD/2016/2017/3232,65,,,,,,
1341,,TUMA/KCMUCo/MD/2016/2017/3233,65,,,,,,
1959,,TUMA/KCMUCo/MD/2016/2017/3234,69,,,,,,
1852,,TUMA/KCMUCo/MD/2016/2017/3237,65,,,,,,
1799,,TUMA/KCMUCo/MD/2016/2017/3286,65,,,,,,
4293,,TUMA/KCMUCo/MD/2016/2017/3339,65,,,,,,
4376,,TUMA/KCMUCo/MD/2016/2017/3387,65,,,,,,
1343,,TUMA/KCMUCo/MD/2016/2017/3603,65,,,,,,
1769,,TUMA/KCMUCo/MD/2016/2017/3604,65,,,,,,
1784,,TUMA/KCMUCo/MD/2016/2017/3605,69,,,,,,
1470,,TUMA/KCMUCo/MD/2016/2017/3608,65,,,,,,
