@-header,instruction_!_ Please DO NOT CHANGE THE STRUCTURE OF THIS FILE,,,,,
@-header,compilationTime_!_ 2018:03:26:10:30:45,,,,,
@-header,columnCount_!_ 7,,,,,
@-header,maximumScore_!_ 100,,,,,
@-header,fileType_!_ results,,,,,
@-header,fileTypeCode_!_ a68816c37b60d1e016b21809447de93c,,,,,
@-header,courseId_!_ 6,,,,,
@-header,courseName_!_ Bachelor of Science in Nursing (Pre-Service),,,,,
@-header,year_!_ 3,,,,,
@-header,semester_!_ 1,,,,,
@-header,batchId_!_ 7,,,,,
@-header,batchName_!_ 2015/2016,,,,,
@-header,flags_!_ 0,,,,,
,,,,,,
,,,,,,590
Ref,GPA,Reg Number,Flags,Details,res,Nutrition
3905,,TUMA/KCMUCo/BSC.N/2015/2016/0587,65,,,
3745,,TUMA/KCMUCo/BSC.N/2015/2016/0588,9,,,
4036,,TUMA/KCMUCo/BSC.N/2015/2016/0589,9,,,
4039,,TUMA/KCMUCo/BSC.N/2015/2016/0590,9,,,
3763,,TUMA/KCMUCo/BSC.N/2015/2016/0591,9,,,
3899,,TUMA/KCMUCo/BSC.N/2015/2016/0592,9,,,
3795,,TUMA/KCMUCo/BSC.N/2015/2016/0594,65,,,
4057,,TUMA/KCMUCo/BSC.N/2015/2016/0596,9,,,
3762,,TUMA/KCMUCo/BSC.N/2015/2016/0597,9,,,
3670,,TUMA/KCMUCo/BSC.N/2015/2016/0598,65,,,
3787,,TUMA/KCMUCo/BSC.N/2015/2016/0599,65,,,
4056,,TUMA/KCMUCo/BSC.N/2015/2016/0601,9,,,
3892,,TUMA/KCMUCo/BSC.N/2015/2016/0608,65,,,
3922,,TUMA/KCMUCo/BSC.N/2015/2016/0609,9,,,
3534,,TUMA/KCMUCo/BSC.N/2015/2016/0610,9,,,
3912,,TUMA/KCMUCo/BSC.N/2015/2016/0611,9,,,
3747,,TUMA/KCMUCo/BSC.N/2015/2016/0613,9,,,
3791,,TUMA/KCMUCo/BSC.N/2015/2016/0614,9,,,
4059,,TUMA/KCMUCo/BSC.N/2015/2016/0617,65,,,
3776,,TUMA/KCMUCo/BSC.N/2015/2016/0621,65,,,
3979,,TUMA/KCMUCo/BSC.N/2015/2016/0622,9,,,
3502,,TUMA/KCMUCo/BSC.N/2015/2016/0624,65,,,
3493,,TUMA/KCMUCo/BSC.N/2015/2016/0625,9,,,
3966,,TUMA/KCMUCo/BSC.N/2015/2016/0626,9,,,
3804,,TUMA/KCMUCo/BSC.N/2015/2016/0627,65,,,
3792,,TUMA/KCMUCo/BSC.N/2015/2016/0629,9,,,
3942,,TUMA/KCMUCo/BSC.N/2015/2016/0630,9,,,
3739,,TUMA/KCMUCo/BSC.N/2015/2016/0631,65,,,
3960,,TUMA/KCMUCo/BSC.N/2015/2016/0633,9,,,
3761,,TUMA/KCMUCo/BSC.N/2015/2016/0637,9,,,
3175,,TUMA/KCMUCo/BSC.N/2015/2016/0639,9,,,
3978,,TUMA/KCMUCo/BSC.N/2015/2016/0641,9,,,
3692,,TUMA/KCMUCo/BSC.N/2015/2016/0643,9,,,
2971,,TUMA/KCMUCo/BSC.N/2015/2016/0644,9,,,
3695,,TUMA/KCMUCo/BSC.N/2015/2016/0645,9,,,
3780,,TUMA/KCMUCo/BSC.N/2015/2016/0646,9,,,
3209,,TUMA/KCMUCo/BSC.N/2015/2016/0647,9,,,
4049,,TUMA/KCMUCo/BSC.N/2015/2016/0649,65,,,
3906,,TUMA/KCMUCo/BSC.N/2015/2016/0650,9,,,
3266,,TUMA/KCMUCo/BSC.N/2015/2016/0651,9,,,
3917,,TUMA/KCMUCo/BSC.N/2015/2016/0653,9,,,
3862,,TUMA/KCMUCo/BSC.N/2015/2016/0654,9,,,
4019,,TUMA/KCMUCo/BSC.N/2015/2016/0655,9,,,
3387,,TUMA/KCMUCo/BSC.N/2015/2016/0656,65,,,
3927,,TUMA/KCMUCo/BSC.N/2015/2016/0657,9,,,
3017,,TUMA/KCMUCo/BSC.N/2015/2016/0658,9,,,
3959,,TUMA/KCMUCo/BSC.N/2015/2016/0660,9,,,
3601,,TUMA/KCMUCo/BSC.N/2015/2016/0663,9,,,
3449,,TUMA/KCMUCo/BSC.N/2015/2016/0664,65,,,
3940,,TUMA/KCMUCo/BSC.N/2015/2016/0665,9,,,
3800,,TUMA/KCMUCo/BSC.N/2015/2016/0671,65,,,
3882,,TUMA/KCMUCo/BSC.N/2015/2016/0672,9,,,
3801,,TUMA/KCMUCo/BSC.N/2015/2016/0674,9,,,
3523,,TUMA/KCMUCo/BSC.N/2015/2016/0675,9,,,
3897,,TUMA/KCMUCo/BSC.N/2015/2016/0676,65,,,
2831,,TUMA/KCMUCo/BSC.N/2015/2016/0677,9,,,
3034,,TUMA/KCMUCo/BSC.N/2015/2016/0678,9,,,
4060,,TUMA/KCMUCo/BSC.N/2015/2016/0680,9,,,
3723,,TUMA/KCMUCo/BSC.N/2015/2016/0684,9,,,
4061,,TUMA/KCMUCo/BSC.N/2015/2016/0687,9,,,
3837,,TUMA/KCMUCo/BSC.N/2015/2016/0690,65,,,
3937,,TUMA/KCMUCo/BSC.N/2015/2016/0695,9,,,
3810,,TUMA/KCMUCo/BSC.N/2015/2016/0696,9,,,
3863,,TUMA/KCMUCo/BSC.N/2015/2016/0700,65,,,
4051,,TUMA/KCMUCo/BSC.N/2015/2016/0701,9,,,
3911,,TUMA/KCMUCo/BSC.N/2015/2016/0702,65,,,
3964,,TUMA/KCMUCo/BSC.N/2015/2016/0706,9,,,
3018,,TUMA/KCMUCo/BSC.N/2015/2016/0707,65,,,
4014,,TUMA/KCMUCo/BSC.N/2015/2016/0708,9,,,
3888,,TUMA/KCMUCo/BSC.N/2015/2016/0710,9,,,
3838,,TUMA/KCMUCo/BSC.N/2015/2016/0738,9,,,
3699,,TUMA/KCMUCo/BSC.N/2015/2016/0740,65,,,
3659,,TUMA/KCMUCo/BSC.N/2015/2016/0741,9,,,
4009,,TUMA/KCMUCo/BSC.N/2015/2016/0744,65,,,
3851,,TUMA/KCMUCo/BSC.N/2015/2016/0745,65,,,
3950,,TUMA/KCMUCo/BSC.N/2015/2016/0751,9,,,
3830,,TUMA/KCMUCo/BSC.N/2015/2016/0758,65,,,
3725,,TUMA/KCMUCo/BSC.N/2015/2016/0762,9,,,
4041,,TUMA/KCMUCo/BSC.N/2015/2016/0763,9,,,
924,,TUMA/KCMUCo/BSC.N/2015/2016/0764,13,,,
3997,,TUMA/KCMUCo/BSC.N/2015/2016/0765,9,,,
4058,,TUMA/KCMUCo/BSC.N/2015/2016/0766,65,,,
3972,,TUMA/KCMUCo/BSC.N/2015/2016/0767,9,,,
3956,,TUMA/KCMUCo/BSC.N/2015/2016/0769,9,,,
3738,,TUMA/KCMUCo/BSC.N/2015/2016/0772,65,,,
3958,,TUMA/KCMUCo/BSC.N/2015/2016/0773,9,,,
2810,,TUMA/KCMUCo/BSC.N/2015/2016/0774,9,,,
3973,,TUMA/KCMUCo/BSC.N/2015/2016/0775,9,,,
4013,,TUMA/KCMUCo/BSC.N/2015/2016/0776,65,,,
3936,,TUMA/KCMUCo/BSC.N/2015/2016/0777,9,,,
3689,,TUMA/KCMUCo/BSC.N/2015/2016/0778,9,,,
3834,,TUMA/KCMUCo/BSC.N/2015/2016/0779,9,,,
3203,,TUMA/KCMUCo/BSC.N/2015/2016/0780,9,,,
3977,,TUMA/KCMUCo/BSC.N/2015/2016/0782,65,,,
3781,,TUMA/KCMUCo/BSC.N/2015/2016/0790,9,,,
3726,,TUMA/KCMUCo/BSC.N/2015/2016/0792,9,,,
3983,,TUMA/KCMUCo/BSC.N/2015/2016/0793,65,,,
3398,,TUMA/KCMUCo/BSC.N/2015/2016/0794,9,,,
3788,,TUMA/KCMUCo/BSC.N/2015/2016/0797,9,,,
3778,,TUMA/KCMUCo/BSC.N/2015/2016/0798,9,,,
3711,,TUMA/KCMUCo/BSC.N/2015/2016/0799,9,,,
3986,,TUMA/KCMUCo/BSC.N/2015/2016/0800,65,,,
3961,,TUMA/KCMUCo/BSC.N/2015/2016/0806,9,,,
3394,,TUMA/KCMUCo/BSC.N/2015/2016/0807,9,,,
3907,,TUMA/KCMUCo/BSC.N/2015/2016/0808,65,,,
4018,,TUMA/KCMUCo/BSC.N/2015/2016/0811,65,,,
3789,,TUMA/KCMUCo/BSC.N/2015/2016/0815,65,,,
3656,,TUMA/KCMUCo/BSC.N/2015/2016/0820,65,,,
3967,,TUMA/KCMUCo/BSC.N/2015/2016/0821,65,,,
3965,,TUMA/KCMUCo/BSC.N/2016/2017/0825,9,,,
3588,,TUMA/KCMUCo/BSC.N/2016/2017/0898,65,,,
3467,,TUMA/KCMUCo/BSC.N/2016/2017/0902,65,,,
2824,,TUMA/KCMUCo/BSC.N/2017/2018/0904,65,,,
