@-header,instruction_!_ Please DO NOT CHANGE THE STRUCTURE OF THIS FILE,,,,,,,,,
@-header,compilationTime_!_ 2018:03:08:14:31:23,,,,,,,,,
@-header,columnCount_!_ 11,,,,,,,,,
@-header,maximumScore_!_ 100,,,,,,,,,
@-header,fileType_!_ results,,,,,,,,,
@-header,fileTypeCode_!_ a68816c37b60d1e016b21809447de93c,,,,,,,,,
@-header,courseId_!_ 39,,,,,,,,,
@-header,courseName_!_ Bachelor of Science in Nursing (In-Service),,,,,,,,,
@-header,year_!_ 3,,,,,,,,,
@-header,semester_!_ 2,,,,,,,,,
@-header,batchId_!_ 6,,,,,,,,,
@-header,batchName_!_ 2014/2015,,,,,,,,,
@-header,flags_!_ 0,,,,,,,,,
,,,,,,,,,,
,,,,,,105,106,107,108,569
Ref,GPA,Reg Number,Flags,Details,res,Nursing Education,Research Methodology ,Community Nursing ,Leadership & Management,Advanced Nursing Sciences
867,,TUMA/KCMUCo/BSC.N/2015/2016/0666,65,,,,,,,
808,,TUMA/KCMUCo/BSC.N/2015/2016/0667,65,,,,,,,
760,,TUMA/KCMUCo/BSC.N/2015/2016/0694,65,,,,,,,
829,,TUMA/KCMUCo/BSC.N/2015/2016/0711,65,,,,,,,
795,,TUMA/KCMUCo/BSC.N/2015/2016/0712,65,,,,,,,
887,,TUMA/KCMUCo/BSC.N/2015/2016/0713,65,,,,,,,
813,,TUMA/KCMUCo/BSC.N/2015/2016/0714,65,,,,,,,
843,,TUMA/KCMUCo/BSC.N/2015/2016/0715,65,,,,,,,
846,,TUMA/KCMUCo/BSC.N/2015/2016/0716,65,,,,,,,
866,,TUMA/KCMUCo/BSC.N/2015/2016/0717,65,,,,,,,
942,,TUMA/KCMUCo/BSC.N/2015/2016/0718,65,,,,,,,
835,,TUMA/KCMUCo/BSC.N/2015/2016/0720,65,,,,,,,
823,,TUMA/KCMUCo/BSC.N/2015/2016/0722,65,,,,,,,
898,,TUMA/KCMUCo/BSC.N/2015/2016/0725,65,,,,,,,
895,,TUMA/KCMUCo/BSC.N/2015/2016/0726,65,,,,,,,
805,,TUMA/KCMUCo/BSC.N/2015/2016/0729,65,,,,,,,
837,,TUMA/KCMUCo/BSC.N/2015/2016/0732,65,,,,,,,
903,,TUMA/KCMUCo/BSC.N/2015/2016/0733,65,,,,,,,
947,,TUMA/KCMUCo/BSC.N/2015/2016/0739,65,,,,,,,
789,,TUMA/KCMUCo/BSC.N/2015/2016/0752,65,,,,,,,
349,,TUMA/KCMUCo/BSC.N/2015/2016/0754,69,,,,,,,
917,,TUMA/KCMUCo/BSC.N/2015/2016/0787,65,,,,,,,
832,,TUMA/KCMUCo/BSC.N/2015/2016/0803,65,,,,,,,
812,,TUMA/KCMUCo/BSC.N/2015/2016/0810,65,,,,,,,
857,,TUMA/KCMUCo/BSC.N/2015/2016/0812,65,,,,,,,
913,,TUMA/KCMUCo/BSC.N/2015/2016/0818,65,,,,,,,
828,,TUMA/KCMUCo/BSC.N/2015/2016/0823,65,,,,,,,
