@-header,instruction_!_ Please DO NOT CHANGE THE STRUCTURE OF THIS FILE,,,,,
@-header,compilationTime_!_ 2018:05:17:10:24:03,,,,,
@-header,columnCount_!_ 7,,,,,
@-header,maximumScore_!_ 100,,,,,
@-header,fileType_!_ results,,,,,
@-header,fileTypeCode_!_ a68816c37b60d1e016b21809447de93c,,,,,
@-header,courseId_!_ 8,,,,,
@-header,courseName_!_ Bachelor of Science in Health Laboratory Science,,,,,
@-header,year_!_ 2,,,,,
@-header,semester_!_ 1,,,,,
@-header,batchId_!_ 8,,,,,
@-header,batchName_!_ 2016/2017,,,,,
@-header,flags_!_ 0,,,,,
,,,,,,
,,,,,,223
Ref,GPA,Reg Number,Flags,Details,res,Clinical Chemistry
5067,,TUMA/KCMUCo/BScHLSc/2016/2017/0713,65,,,
3408,,TUMA/KCMUCo/BScHLSc/2016/2017/0714,13,,,
4730,,TUMA/KCMUCo/BScHLSc/2016/2017/0715,65,,,
4844,,TUMA/KCMUCo/BScHLSc/2016/2017/0716,9,,,
4853,,TUMA/KCMUCo/BScHLSc/2016/2017/0717,65,,,
4901,,TUMA/KCMUCo/BScHLSc/2016/2017/0718,9,,,
4907,,TUMA/KCMUCo/BScHLSc/2016/2017/0719,9,,,
4985,,TUMA/KCMUCo/BScHLSc/2016/2017/0721,9,,,
4990,,TUMA/KCMUCo/BScHLSc/2016/2017/0722,65,,,
5113,,TUMA/KCMUCo/BScHLSc/2016/2017/0723,9,,,
5144,,TUMA/KCMUCo/BScHLSc/2016/2017/0724,9,,,
5145,,TUMA/KCMUCo/BScHLSc/2016/2017/0725,9,,,
5171,,TUMA/KCMUCo/BScHLSc/2016/2017/0726,9,,,
5174,,TUMA/KCMUCo/BScHLSc/2016/2017/0727,9,,,
5184,,TUMA/KCMUCo/BScHLSc/2016/2017/0728,9,,,
5193,,TUMA/KCMUCo/BScHLSc/2016/2017/0729,9,,,
5195,,TUMA/KCMUCo/BScHLSc/2016/2017/0730,65,,,
5227,,TUMA/KCMUCo/BScHLSc/2016/2017/0731,9,,,
5261,,TUMA/KCMUCo/BScHLSc/2016/2017/0732,9,,,
5300,,TUMA/KCMUCo/BScHLSc/2016/2017/0733,9,,,
5310,,TUMA/KCMUCo/BScHLSc/2016/2017/0734,9,,,
5341,,TUMA/KCMUCo/BScHLSc/2016/2017/0735,65,,,
5357,,TUMA/KCMUCo/BScHLSc/2016/2017/0736,9,,,
5450,,TUMA/KCMUCo/BScHLSc/2016/2017/0737,9,,,
5501,,TUMA/KCMUCo/BScHLSc/2016/2017/0738,9,,,
5506,,TUMA/KCMUCo/BScHLSc/2016/2017/0739,9,,,
5513,,TUMA/KCMUCo/BScHLSc/2016/2017/0740,9,,,
5515,,TUMA/KCMUCo/BScHLSc/2016/2017/0741,9,,,
5527,,TUMA/KCMUCo/BScHLSc/2016/2017/0742,9,,,
5562,,TUMA/KCMUCo/BScHLSc/2016/2017/0743,9,,,
5606,,TUMA/KCMUCo/BScHLSc/2016/2017/0744,9,,,
5633,,TUMA/KCMUCo/BScHLSc/2016/2017/0745,9,,,
5641,,TUMA/KCMUCo/BScHLSc/2016/2017/0746,9,,,
5674,,TUMA/KCMUCo/BScHLSc/2016/2017/0747,9,,,
5700,,TUMA/KCMUCo/BScHLSc/2016/2017/0748,9,,,
5703,,TUMA/KCMUCo/BScHLSc/2016/2017/0749,9,,,
5709,,TUMA/KCMUCo/BScHLSc/2016/2017/0750,9,,,
5785,,TUMA/KCMUCo/BScHLSc/2016/2017/0751,9,,,
5898,,TUMA/KCMUCo/BScHLSc/2016/2017/0752,9,,,
6001,,TUMA/KCMUCo/BScHLSc/2016/2017/0753,65,,,
6024,,TUMA/KCMUCo/BScHLSc/2016/2017/0754,65,,,
6068,,TUMA/KCMUCo/BScHLSc/2016/2017/0755,9,,,
6106,,TUMA/KCMUCo/BScHLSc/2016/2017/0756,9,,,
6259,,TUMA/KCMUCo/BScHLSc/2016/2017/0757,65,,,
6279,,TUMA/KCMUCo/BScHLSc/2016/2017/0758,9,,,
6309,,TUMA/KCMUCo/BScHLSc/2016/2017/0759,9,,,
6370,,TUMA/KCMUCo/BScHLSc/2016/2017/0760,9,,,
6500,,TUMA/KCMUCo/BScHLSc/2016/2017/0761,9,,,
6581,,TUMA/KCMUCo/BScHLSc/2016/2017/0762,9,,,
6612,,TUMA/KCMUCo/BScHLSc/2016/2017/0763,9,,,
6638,,TUMA/KCMUCo/BScHLSc/2016/2017/0764,9,,,
6716,,TUMA/KCMUCo/BScHLSc/2016/2017/0765,9,,,
6756,,TUMA/KCMUCo/BScHLSc/2016/2017/0766,9,,,
6783,,TUMA/KCMUCo/BScHLSc/2016/2017/0767,9,,,
6798,,TUMA/KCMUCo/BScHLSc/2016/2017/0768,9,,,
6817,,TUMA/KCMUCo/BScHLSc/2016/2017/0769,9,,,
6847,,TUMA/KCMUCo/BScHLSc/2016/2017/0770,65,,,
3984,,TUMA/KCMUCo/BScHLSc/2016/2017/0771,13,,,
3457,,TUMA/KCMUCo/BScHLSc/2016/2017/0772,13,,,
3949,,TUMA/KCMUCo/BScHLSc/2016/2017/0773,13,,,
5275,,TUMA/KCMUCo/BScHLSc/2016/2017/0774,9,,,
4043,,TUMA/KCMUCo/BScHLSc/2016/2017/0775,13,,,
3798,,TUMA/KCMUCo/BScHLSc/2016/2017/0776,13,,,
3633,,TUMA/KCMUCo/BScHLSc/2016/2017/0777,69,,,
3934,,TUMA/KCMUCo/BScHLSc/2016/2017/0778,13,,,
3946,,TUMA/KCMUCo/BScHLSc/2016/2017/0779,69,,,
5877,,TUMA/KCMUCo/BScHLSc/2016/2017/0780,9,,,
