@-header,instruction_!_ Please DO NOT CHANGE THE STRUCTURE OF THIS FILE,,,,,
@-header,compilationTime_!_ 2019:04:12:10:37:25,,,,,
@-header,columnCount_!_ 7,,,,,
@-header,maximumScore_!_ 100,,,,,
@-header,fileType_!_ results,,,,,
@-header,fileTypeCode_!_ a68816c37b60d1e016b21809447de93c,,,,,
@-header,courseId_!_ 27,,,,,
@-header,courseName_!_ MMed in Orthopaedic Surgery,,,,,
@-header,year_!_ 2,,,,,
@-header,semester_!_ 1,,,,,
@-header,batchId_!_ 4,,,,,
@-header,batchName_!_ 2012/2013,,,,,
@-header,flags_!_ 0,,,,,
,,,,,,
,,,,,,1229
Ref,GPA,Reg Number,Flags,Details,res,ESAT 2
8185,,TUMA/KCMUCo/MMED.ORT/2017/2018/0397,65,,,
