1025.registrationNumber,1025.examinationNumber,1022.firstname,1022.middlename,1022.lastname,1010.courseName
TUMA/KCMUCo/BScHLSc.2013/2014/TZ/0270,,Cecilia,Sundi,Anthony,Bachelor of Science in Health Laboratory Science
TUMA/KCMUCo/BScHLSc.2013/2014/TZ/0266,TUMA/KCMUCo/BScHLSc/2016/2017/0710,Rehema,Alpha,Tenga,Bachelor of Science in Health Laboratory Science
TUMA/KCMUCo/BScHLSc.2013/2014/TZ/0261,TUMA/KCMUCo/BScHLSc/2015/2016/0651,YUNI,TEOPHILO,MBWILO,Bachelor of Science in Health Laboratory Science
TUMA/KCMUCo/BScHLSc.2013/2014/TZ/0257,TUMA/KCMUCo/BScHLSc/2015/2016/0659,SALEH,ALI,SALEH,Bachelor of Science in Health Laboratory Science
TUMA/KCMUCo/BScHLSc.2013/2014/TZ/0255,,MOHAMED,ATHUMAN,SODANGU,Bachelor of Science in Health Laboratory Science
TUMA/KCMUCo/BScHLSc.2013/2014/TZ/0269,TUMA/KCMUCo/BScHLSc/2015/2016/0613,MUSA,MNADA,GESURA,Bachelor of Science in Health Laboratory Science
TUMA/KCMUCo/BScHLSc.2013/2014/TZ/0258,TUMA/KCMUCo/BScHLSc/2015/2016/0619,Wedi,Aron,Mndeme,Bachelor of Science in Health Laboratory Science
TUMA/KCMUCo/BScHLSc.2013/2014/TZ/0259,TUMA/KCMUCo/BScHLSc/2015/2016/0567,HAJIRA,IDDI,ESYA,Bachelor of Science in Health Laboratory Science
TUMA/KCMUCo/BScHLSc.2013/2014/TZ/0263,,NDEALILIA,SENYAEL,SWAI,Bachelor of Science in Health Laboratory Science
TUMA/KCMUCo/BScHLSc.2013/2014/TZ/0264,TUMA/KCMUCo/BScHLSc/2015/2016/0673,Regina,Mohamed,Linus,Bachelor of Science in Health Laboratory Science
TUMA/KCMUCo/BScHLSc.2013/2014/TZ/0260,TUMA/KCMUCo/BScHLSc/2016/2017/0709,Dorothy,Macmillan,Moshy,Bachelor of Science in Health Laboratory Science
TUMA/KCMUCo/BScHLSc.2013/2014/TZ/0262,TUMA/KCMUCo/BScHLSc/2016/2017/0707,ARISTIDIS,BALTAZARI,kinyaiya,Bachelor of Science in Health Laboratory Science
TUMA/KCMUCo/BScHLSc.2013/2014/TZ/0265,TUMA/KCMUCo/BScHLSc/2015/2016/0605,ALEX,ALEX,MBAWALA,Bachelor of Science in Health Laboratory Science
TUMA/KCMUCo/BScHLSc.2013/2014/TZ/0267,TUMA/KCMUCo/BScHLSc/2015/2016/0646,NEEMA,WILLIUM,MREMA,Bachelor of Science in Health Laboratory Science
TUMA/KCMUCo/BScHLSc.2013/2014/TZ/0268,TUMA/KCMUCo/BScHLSc/2015/2016/0615,RAPHAEL,CHRISTOPHER,MKINGA,Bachelor of Science in Health Laboratory Science
TUMA/KCMUCo/BScHLSc.2013/2014/TZ/0272,TUMA/KCMUCo/BScHLSc/2015/2016/0637,GODSON,JOSEPH,NGOWI,Bachelor of Science in Health Laboratory Science
TUMA/KCMUCo/BScHLSc.2013/2014/TZ/0276,TUMA/KCMUCo/BScHLSc/2015/2016/0612,HILOLIMS,EMANUERY,MLELWA,Bachelor of Science in Health Laboratory Science
TUMA/KCMUCo/BScHLSc.2013/2014/TZ/0271,TUMA/KCMUCo/BScHLSc/2015/2016/0607,SAMWEL,EDWARD,KAHEMA,Bachelor of Science in Health Laboratory Science
TUMA/KCMUCo/BScHLSc.2013/2014/TZ/0277,TUMA/KCMUCo/BScHLSc/2016/2017/0701,EUSTADIUS,KAMUGISHA,FELICIAN,Bachelor of Science in Health Laboratory Science
TUMA/KCMUCo/BScHLSc.2013/2014/TZ/0273,TUMA/KCMUCo/BScHLSc/2015/2016/0641,GILBERT,JOSEPHAT,BETETSE,Bachelor of Science in Health Laboratory Science
TUMA/KCMUCo/BScHLSc.2013/2014/TZ/0284,,Eizabeth,Michael,Temu,Bachelor of Science in Health Laboratory Science
TUMA/KCMUCo/BScHLSc.2013/2014/TZ/0274,TUMA/KCMUCo/BScHLSc/2016/2017/0702,OCTAVIAN,ARON,NGODA,Bachelor of Science in Health Laboratory Science
TUMA/KCMUCo/BScHLSc.2013/2014/TZ/0275,TUMA/KCMUCo/BScHLSc/2015/2016/0698,PILLY,SHABANI,MACHIVYA,Bachelor of Science in Health Laboratory Science
TUMA/KCMUCo/BScHLSc.2013/2014/TZ/0283,TUMA/KCMUCo/BScHLSc/2015/2016/0611,RUKIA,AMBAKISYE,SIMON,Bachelor of Science in Health Laboratory Science
TUMA/KCMUCo/BScHLSc.2013/2014/KE/0279,TUMA/KCMUCo/BScHLSc/2015/2016/0657,CYNTHIA,SIVA,JOEL,Bachelor of Science in Health Laboratory Science
TUMA/KCMUCo/BScHLSc.2013/2014/TZ/0278,TUMA/KCMUCo/BScHLSc/2015/2016/0569,SEGOLENA,DONALD,CHISUSE,Bachelor of Science in Health Laboratory Science
TUMA/KCMUCo/BScHLSc.2013/2014/TZ/0280,TUMA/KCMUCo/BScHLSc/2015/2016/0640,CHOGERO,EDWIN,CHECHE,Bachelor of Science in Health Laboratory Science
TUMA/KCMUCo/BScHLSc.2013/2014/TZ/0281,TUMA/KCMUCo/BScHLSc/2016/2017/0705,jackson,peterclaver,mushumbusi,Bachelor of Science in Health Laboratory Science
TUMA/KCMUCo/BScHLSc.2013/2014/TZ/0282,TUMA/KCMUCo/BScHLSc/2015/2016/0624,HAWA,HUSSEIN,TURRA,Bachelor of Science in Health Laboratory Science
TUMA/KCMUCo/BScHLSc.2013/2014/TZ/0291,TUMA/KCMUCo/BScHLSc/2015/2016/0694,ESUVAT,ABEL,MOSES,Bachelor of Science in Health Laboratory Science
TUMA/KCMUCo/BScHLSc.2013/2014/TZ/0286,TUMA/KCMUCo/BScHLSc/2015/2016/0617,GOODLUCK,ELIAMINI,MBWAMBO,Bachelor of Science in Health Laboratory Science
TUMA/KCMUCo/BScHLSc.2013/2014/TZ/0285,TUMA/KCMUCo/BScHLSc/2015/2016/0638,RICHARD,ALEXANDA,CLEMENT,Bachelor of Science in Health Laboratory Science
TUMA/KCMUCo/BScHLSc.2013/2014/TZ/0287,TUMA/KCMUCo/BScHLSc/2015/2016/0621,JONATHAN,JONATHAN,YONA,Bachelor of Science in Health Laboratory Science
TUMA/KCMUCo/BScHLSc.2013/2014/TZ/0293,TUMA/KCMUCo/BScHLSc/2015/2016/0647,ELIZABETH,EDWARD,MGHASE,Bachelor of Science in Health Laboratory Science
TUMA/KCMUCo/BScHLSc.2013/2014/TZ/0290,TUMA/KCMUCo/BScHLSc/2015/2016/0628,BEATRICE,NAZAR,TINGO,Bachelor of Science in Health Laboratory Science
TUMA/KCMUCo/BScHLSc.2013/2014/TZ/0288,TUMA/KCMUCo/BScHLSc/2015/2016/0629,MARIAM,CHARLES,MONAH,Bachelor of Science in Health Laboratory Science
TUMA/KCMUCo/BScHLSc.2013/2014/TZ/0289,TUMA/KCMUCo/BScHLSc/2015/2016/0576,tumaini,julius,ngowi,Bachelor of Science in Health Laboratory Science
TUMA/KCMUCo/BScHLSc.2013/2014/TZ/0292,TUMA/KCMUCo/BScHLSc/2015/2016/0618,Ansibelt,Mushumbusi,Archard,Bachelor of Science in Health Laboratory Science
TUMA/KCMUCo/BScHLSc.2013/2014/TZ/0294,TUMA/KCMUCo/BScHLSc/2015/2016/0568,KURUTHUM,GEORGE,MWANSEMBO,Bachelor of Science in Health Laboratory Science
TUMA/KCMUCo/BScHLSc.2013/2014/TZ/0295,TUMA/KCMUCo/BScHLSc/2015/2016/0679,RENARD,CHARLES,MLYAKADO,Bachelor of Science in Health Laboratory Science
TUMA/KCMUCo/BScHLSc.2013/2014/TZ/0297,TUMA/KCMUCo/BScHLSc/2016/2017/0708,monica,vincent,chuwa,Bachelor of Science in Health Laboratory Science
TUMA/KCMUCo/BScHLSc.2013/2014/TZ/0296,TUMA/KCMUCo/BScHLSc/2016/2017/0703,RUTH,DANIEL,MCHOMVU,Bachelor of Science in Health Laboratory Science
TUMA/KCMUCo/BScHLSc.2013/2014/TZ/0298,TUMA/KCMUCo/BScHLSc/2016/2017/0704,andrew,issamulah,charles,Bachelor of Science in Health Laboratory Science
TUMA/KCMUCo/BScHLSc.2014/2015/TZ/0299,TUMA/KCMUCo/BScHLSc/2015/2016/0648,Gema,Sirili,Kiwale,Bachelor of Science in Health Laboratory Science
TUMA/KCMUCo/BScHLSc.2014/2015/TZ/0301,TUMA/KCMUCo/BScHLSc/2015/2016/0632,EMMANUEL,SAMWEL,MWITA,Bachelor of Science in Health Laboratory Science
TUMA/KCMUCo/BScHLSc.2014/2015/TZ/0300,TUMA/KCMUCo/BScHLSc/2015/2016/0655,FROLA,SILAS,KHABELE,Bachelor of Science in Health Laboratory Science
TUMA/KCMUCo/BScHLSc.2014/2015/TZ/0303,TUMA/KCMUCo/BScHLSc/2015/2016/0616,MESHACK,PETRO,LEVI,Bachelor of Science in Health Laboratory Science
TUMA/KCMUCo/BScHLSc.2014/2015/TZ/0318,TUMA/KCMUCo/BScHLSc/2015/2016/0680,EMMY,ADRIAN,TEMBA,Bachelor of Science in Health Laboratory Science
TUMA/KCMUCo/BScHLSc.2014/2015/TZ/0302,TUMA/KCMUCo/BScHLSc/2015/2016/0562,Anastazia,Massawe,Bruno,Bachelor of Science in Health Laboratory Science
TUMA/KCMUCo/BScHLSc.2014/2015/TZ/0328,TUMA/KCMUCo/BScHLSc/2015/2016/0696,Noela,Elly,John,Bachelor of Science in Health Laboratory Science
TUMA/KCMUCo/BScHLSc.2014/2015/TZ/0304,TUMA/KCMUCo/BScHLSc/2015/2016/0631,Benedicto,Shimula,Nyalika,Bachelor of Science in Health Laboratory Science
TUMA/KCMUCo/BScHLSc.2014/2015/TZ/0306,TUMA/KCMUCo/BScHLSc/2015/2016/0652,KASHINJE,BATRIDA,MWIGULU,Bachelor of Science in Health Laboratory Science
TUMA/KCMUCo/BScHLSc.2014/2015/TZ/0305,TUMA/KCMUCo/BScHLSc/2015/2016/0644,TEDDY,FANUEL,MLUMBA,Bachelor of Science in Health Laboratory Science
TUMA/KCMUCo/BScHLSc.2014/2015/TZ/0307,TUMA/KCMUCo/BScHLSc/2015/2016/0653,JOSELINA,BEATUS,MFUGALE,Bachelor of Science in Health Laboratory Science
TUMA/KCMUCo/BScHLSc.2014/2015/TZ/0308,TUMA/KCMUCo/BScHLSc/2015/2016/0674,Khalid,Ramadhani,Ausi,Bachelor of Science in Health Laboratory Science
TUMA/KCMUCo/BScHLSc.2014/2015/TZ/0309,TUMA/KCMUCo/BScHLSc/2015/2016/0683,JUDICA,SHIFWAYANDUMI,MMARI,Bachelor of Science in Health Laboratory Science
TUMA/KCMUCo/BScHLSc.2014/2015/TZ/0310,TUMA/KCMUCo/BScHLSc/2015/2016/0678,JACLEAN,CLIFFORD,MWANJOKA,Bachelor of Science in Health Laboratory Science
TUMA/KCMUCo/BScHLSc.2014/2015/TZ/0314,TUMA/KCMUCo/BScHLSc/2015/2016/0560,lusungu,laurent,mhenzi,Bachelor of Science in Health Laboratory Science
TUMA/KCMUCo/BScHLSc.2014/2015/TZ/0311,TUMA/KCMUCo/BScHLSc/2015/2016/0633,Fathiya,Abdi,Hussein,Bachelor of Science in Health Laboratory Science
TUMA/KCMUCo/BScHLSc.2014/2015/TZ/0312,TUMA/KCMUCo/BScHLSc/2015/2016/0643,NEEMA,NAP,FARAJA,Bachelor of Science in Health Laboratory Science
TUMA/KCMUCo/BScHLSc.2014/2015/TZ/0332,,goodlove,timotheo,mwakalobe,Bachelor of Science in Health Laboratory Science
TUMA/KCMUCo/BScHLSc.2014/2015/TZ/0313,TUMA/KCMUCo/BScHLSc/2015/2016/0654,megan,fredrick,molla,Bachelor of Science in Health Laboratory Science
TUMA/KCMUCo/BScHLSc.2014/2015/TZ/0330,TUMA/KCMUCo/BScHLSc/2015/2016/0572,ELLY,DAUDI,AMBILIKILE,Bachelor of Science in Health Laboratory Science
TUMA/KCMUCo/BScHLSc.2014/2015/TZ/0316,TUMA/KCMUCo/BScHLSc/2015/2016/0565,NOBERT,TARIMO,EFREMU,Bachelor of Science in Health Laboratory Science
TUMA/KCMUCo/BScHLSc.2014/2015/TZ/0315,TUMA/KCMUCo/BScHLSc/2015/2016/0634,SOPHIA,HASSAN,SAIDI,Bachelor of Science in Health Laboratory Science
TUMA/KCMUCo/BScHLSc.2014/2015/TZ/0317,TUMA/KCMUCo/BScHLSc/2015/2016/0609,JANE,BENJAMINI,DANDA,Bachelor of Science in Health Laboratory Science
TUMA/KCMUCo/BScHLSc.2014/2015/TZ/0321,TUMA/KCMUCo/BScHLSc/2015/2016/0561,MOLOLO,NOAH,MWANJALA,Bachelor of Science in Health Laboratory Science
TUMA/KCMUCo/BScHLSc.2014/2015/TZ/0319,TUMA/KCMUCo/BScHLSc/2015/2016/0555,ATHANAS,CHRISTOPHER,LUNYESHA,Bachelor of Science in Health Laboratory Science
TUMA/KCMUCo/BScHLSc.2014/2015/TZ/0320,TUMA/KCMUCo/BScHLSc/2015/2016/0573,RHODA,LAWRANCE,MOLLEL,Bachelor of Science in Health Laboratory Science
TUMA/KCMUCo/BScHLSc.2014/2015/TZ/0322,TUMA/KCMUCo/BScHLSc/2015/2016/0570,shangwe,lusekelo,mahena,Bachelor of Science in Health Laboratory Science
TUMA/KCMUCo/BScHLSc.2014/2015/TZ/0325,TUMA/KCMUCo/BScHLSc/2015/2016/0691,ZAHIRI,RICHARD,MUNISI,Bachelor of Science in Health Laboratory Science
TUMA/KCMUCo/BScHLSc.2014/2015/TZ/0323,TUMA/KCMUCo/BScHLSc/2015/2016/0559,SARA,TESHA,RICHARD,Bachelor of Science in Health Laboratory Science
TUMA/KCMUCo/BScHLSc.2014/2015/TZ/0324,TUMA/KCMUCo/BScHLSc/2015/2016/0603,ALFRED,MESHUKO,LOISHIYE,Bachelor of Science in Health Laboratory Science
TUMA/KCMUCo/BScHLSc.2014/2015/TZ/0326,TUMA/KCMUCo/BScHLSc/2015/2016/0688,petro,julius,mnzava,Bachelor of Science in Health Laboratory Science
TUMA/KCMUCo/BScHLSc.2014/2015/TZ/0327,TUMA/KCMUCo/BScHLSc/2015/2016/0656,SILVESTERA,NICHOLAUS,NGOWI,Bachelor of Science in Health Laboratory Science
TUMA/KCMUCo/BScHLSc.2014/2015/TZ/0333,TUMA/KCMUCo/BScHLSc/2015/2016/0689,NGOLLO,SIMON,MISALABA,Bachelor of Science in Health Laboratory Science
TUMA/KCMUCo/BScHLSc.2014/2015/TZ/0329,TUMA/KCMUCo/BScHLSc/2015/2016/0662,NADHRA,HANEIN,ABDALLAH,Bachelor of Science in Health Laboratory Science
TUMA/KCMUCo/BScHLSc.2014/2015/TZ/0334,TUMA/KCMUCo/BScHLSc/2015/2016/0660,DINA,GERALD,JOSEPH,Bachelor of Science in Health Laboratory Science
TUMA/KCMUCo/BScHLSc.2014/2015/TZ/0331,TUMA/KCMUCo/BScHLSc/2015/2016/0543,JOSEPH,ELIMRINGI,MSHIU,Bachelor of Science in Health Laboratory Science
TUMA/KCMUCo/BScHLSc.2014/2015/TZ/0335,TUMA/KCMUCo/BScHLSc/2015/2016/0571,ALJAWADI,OMARI,KIDUBA,Bachelor of Science in Health Laboratory Science
TUMA/KCMUCo/BScHLSc.2014/2015/TZ/0336,TUMA/KCMUCo/BScHLSc/2015/2016/0635,Neema,Emily,Shabalenga,Bachelor of Science in Health Laboratory Science
TUMA/KCMUCo/BScHLSc.2014/2015/TZ/0338,TUMA/KCMUCo/BScHLSc/2015/2016/0602,thadeus,simon,mollel,Bachelor of Science in Health Laboratory Science
TUMA/KCMUCo/BScHLSc.2014/2015/TZ/0337,TUMA/KCMUCo/BScHLSc/2015/2016/0610,holyness,philemon,samson,Bachelor of Science in Health Laboratory Science
TUMA/KCMUCo/BScHLSc.2014/2015/TZ/0339,TUMA/KCMUCo/BScHLSc/2015/2016/0544,DONATH,MKENDA,VALERIAN,Bachelor of Science in Health Laboratory Science
TUMA/KCMUCo/BScHLSc.2014/2015/TZ/0340,TUMA/KCMUCo/BScHLSc/2015/2016/0566,EDASTELLA,AMANYA,WILSON,Bachelor of Science in Health Laboratory Science
TUMA/KCMUCo/BScHLSc.2014/2015/TZ/0341,TUMA/KCMUCo/BScHLSc/2016/2017/0781,JOACHIM,ELIBARIKI,MOSHA,Bachelor of Science in Health Laboratory Science
TUMA/KCMUCo/BScHLSc.2014/2015/TZ/0342,TUMA/KCMUCo/BScHLSc/2015/2016/0557,samwel,saringe,mollel,Bachelor of Science in Health Laboratory Science
TUMA/KCMUCo/BScHLSc.2014/2015/TZ/0343,TUMA/KCMUCo/BScHLSc/2015/2016/0700,NEEMA,MAGETTA,OTAIGO,Bachelor of Science in Health Laboratory Science
TUMA/KCMUCo/BScHLSc.2014/2015/TZ/0344,TUMA/KCMUCo/BScHLSc/2015/2016/0693,dickson,dagobert,kagirwa,Bachelor of Science in Health Laboratory Science
TUMA/KCMUCo/BScHLSc.2014/2015/TZ/0345,TUMA/KCMUCo/BScHLSc/2016/2017/0711,MARY,JOHN,MSUMARI,Bachelor of Science in Health Laboratory Science
TUMA/KCMUCo/BScHLSc.2014/2015/TZ/0346,TUMA/KCMUCo/BScHLSc/2015/2016/0695,GLORY,BRAYSON,LEMA,Bachelor of Science in Health Laboratory Science
TUMA/KCMUCo/BScHLSc.2014/2015/TZ/0347,TUMA/KCMUCo/BScHLSc/2015/2016/0684,Rose,Alphonce,Magambo,Bachelor of Science in Health Laboratory Science
TUMA/KCMUCo/BScHLSc.2014/2015/TZ/0348,TUMA/KCMUCo/BScHLSc/2015/2016/0608,jonass,ismail,james,Bachelor of Science in Health Laboratory Science
TUMA/KCMUCO/PHY/2011/TZ/0091,,JULIANA,BONIFACE,PANGA,Bachelor of Science in Health Laboratory Science
TUMA/KCMUCo/BScHLS.2012/13/TANZANIA/210,,JEREMIA,JACKSON,PYUZA,Bachelor of Science in Health Laboratory Science
TUMA/KCMUCO/BScHLSc.2012/2013 TZ/0230,,FRED,FRANCIS,NGILIULE,Bachelor of Science in Health Laboratory Science
TUMA/KCMUCo/BScHLSc/2012/13/TZ/0245,,idefonce,christian,mkingule,Bachelor of Science in Health Laboratory Science
TUMA/KCMUCo/BScHLSc/2012/13/TZ/0244,,TASILO,TASILO,KAMENYA,Bachelor of Science in Health Laboratory Science
tUMA/KCMUCo/BScHLSc.2012/2013/TZ.0219,,magdalena,joseph,massawe,Bachelor of Science in Health Laboratory Science
TUMA/KCMUCo/BSCHLSC.2012/2013/TZ/0233,,DAUD,CHRISTIAN,MASWAGA,Bachelor of Science in Health Laboratory Science
TUMA/KCMUCO/BSc.HLSc.2012/2013/TZ/0221,,YULITHA,BARNABAS,JOSEPH,Bachelor of Science in Health Laboratory Science
TUMA/KCMUCO/BscHLS.2012/2013/TANZANIA/0240,,ANIU,ROBERT,MLENGE,Bachelor of Science in Health Laboratory Science
TUMA/KCMUCO/BscHLS.2012/2013/TANZANIA/0252,,MOSES,RABISAMEHE,MUNUO,Bachelor of Science in Health Laboratory Science
TUMA/KCMUCO/BscHLS.2012/2013/TANZANIA/0220,TUMA/KCMUCo/BScHLSc/2015/2016/0682,STEPHEN,SELLA,TARMO,Bachelor of Science in Health Laboratory Science
TUMA/KCMUCO/BscHLS.2012/2013/TANZANIA/0251,,DON,DOLCETTO,NGILISHO,Bachelor of Science in Health Laboratory Science
TUMA/KCMUCO/BScHLSc/2012/2013/TZ/0213,,RYOBA,MWITA,KEBACHO,Bachelor of Science in Health Laboratory Science
TUMA/KCMUCO/BscHLS.2012/2013/TZ/0238,,JUMANNE,PETRO,LUOGA,Bachelor of Science in Health Laboratory Science
TUMA/KCMUCO/BscHLS.2012/2013/TZ/0241,,ELISIFA,MANGU,MUNA,Bachelor of Science in Health Laboratory Science
TUMA/KCMUCo/BScHLSc/2012/2013/TZ/0246,,PHILIP,MILENGANILO,LUTANDULA,Bachelor of Science in Health Laboratory Science
TUMA/KCMUCO/BScHLSc/2012/2013/TZ/0243,,HAPPYNESS,HURDSON,TEMU,Bachelor of Science in Health Laboratory Science
TUMA/KCMUCO/BHLSC2012/2013/TZ/0247,,DOMINIC,BARNABAS,NTIKAREJO,Bachelor of Science in Health Laboratory Science
TUMA/KCMUCO/BSHLSc/2012/2013/TZ/0237,,SELINA,LOHAY,HOMBO,Bachelor of Science in Health Laboratory Science
TUMA/KCMUCO/BSc.LAB/2012/2013/TZ/0243,,INNOCENT,TITUS,KAMWAMWA,Bachelor of Science in Health Laboratory Science
TUMA/KCMUCo/BScHLS/2012/13/TZ/0214,,AKILI,MWAKABHANA,MAWAZO,Bachelor of Science in Health Laboratory Science
TUMA/KCMUCo/LAB/2011/2012/TZ/0265,,SARAPIA,PAUL,MALLYA,Bachelor of Science in Health Laboratory Science
Tuma/kcmuco/bsc hlsc/2012/2013/TZ/0269,,victor,vincent,mosha,Bachelor of Science in Health Laboratory Science
TUMA/KCMUCO/BSc.HLS/2012/2013/TZ/0233,,ELIZABETH,AUGUSTINE,KASAGAMA,Bachelor of Science in Health Laboratory Science
TUMA/KCMUCo/BSc.LAB/2012/2013/TZ/0232,,ZUHURA,DHAHIRI,KIVAJU,Bachelor of Science in Health Laboratory Science
TUMA/KCMUCo/BScHLS/2012/2013/TZ/0211,,EXAVERY,LULAMSO,MHANZE,Bachelor of Science in Health Laboratory Science
TUMA/KCMUCo/BSCHLS2012/2013/TZ/0217,,SALVERIUS,BLASHID,MWALONGO,Bachelor of Science in Health Laboratory Science
TUMA/KCMUCo/BScHLSc/2012/2013/TZ/0208,,CALISTUS,FRANCE,NZOTA,Bachelor of Science in Health Laboratory Science
TUMA/KCMUCO/BSCHLS/2012/13/TZ/0227,,OMARY,JUMA,KAPANDE,Bachelor of Science in Health Laboratory Science
TUMA/KCMUCo/BScHLSc/2012/2013/TZ/0212,,ERNEST,OBEDI,NTYAKUNZE,Bachelor of Science in Health Laboratory Science
TUMA/KCMUCO/BScHLSc/2012/2013/TZ/0228,,ROSE,ZACHARIA,RYOBA,Bachelor of Science in Health Laboratory Science
TUMA/KCMUCO/BScHLSc2012/2013/TZ/0231,,Aniseth,Eliezer,Malenga,Bachelor of Science in Health Laboratory Science
TUMA/KCMUCo/BSHL/2012/2013/TZ/0225,,Sarah,Gabriel,Mwakyoma,Bachelor of Science in Health Laboratory Science
TUMA/KCMUCO/BScHLSc/2012/2013/Tz/0234,,Yusuph,Vincent,Mgaya,Bachelor of Science in Health Laboratory Science
TUMA/KCMUCO/BScHLSc/2012/2013/TZ/0215,,ESTHER,REUBEN,BUGUMBA,Bachelor of Science in Health Laboratory Science
TU/KCMUCO/BScHLS/2012/13/TZ/0222,,MASUMBUKO,ERNEST,SAGENGE,Bachelor of Science in Health Laboratory Science
TUMA/KCMUCO/BScHLSc/2012/2013/TZ/0223,,JOHN,GABRIELY,DAFFY,Bachelor of Science in Health Laboratory Science
TUMA/KCMUCO/BHLS/2012/2013/TZ/0239,,GODFREY,GERVAS,LWANGILIZA,Bachelor of Science in Health Laboratory Science
TU/KCMUCO/BSCHLS/2012/2013/TZ/0249,,IBRAHIM,JAMES,KANYATA,Bachelor of Science in Health Laboratory Science
tUMA/KCMUCo/BScHLSc.2012/2013/TZ/0250,,ntakilumo,kalulu,Bihendwa,Bachelor of Science in Health Laboratory Science
TUMA/KCMUCO/BscHLSc.2012/2013/TZ/0235,,Nirav,Sudhir,Parmar,Bachelor of Science in Health Laboratory Science
TUMA/KCMUCo/BscHLS/2012/2013/TZ/0236,,SALEH,SHENI,MAKAME,Bachelor of Science in Health Laboratory Science
TUMA/KCMUCO/BSCHLS/2012/2013/TZ/0216,,Benedict,hugo,haule,Bachelor of Science in Health Laboratory Science
TUMA/KCMUCo/BScHLSc.2015/2016/TZ/0349,TUMA/KCMUCo/BScHLSc/2015/2016/0547,AZIZI,HUSSEIN,ITUKA,Bachelor of Science in Health Laboratory Science
TUMA/KCMUCo/BScHLSc.2015/2016/TZ/0352,TUMA/KCMUCo/BScHLSc/2015/2016/0671,JULIANA,BONIFACE,PANGA,Bachelor of Science in Health Laboratory Science
TUMA/KCMUCo/BScHLSc.2015/2016/TZ/0350,TUMA/KCMUCo/BScHLSc/2015/2016/0597,ILYAS,ABDUL,MASOUD,Bachelor of Science in Health Laboratory Science
TUMA/KCMUCo/BScHLSc.2015/2016/TZ/0351,TUMA/KCMUCo/BScHLSc/2015/2016/0649,GIANSIA,ROWEL,MARIKI,Bachelor of Science in Health Laboratory Science
TUMA/KCMUCo/BScHLSc.2015/2016/TZ/0353,TUMA/KCMUCo/BScHLSc/2015/2016/0548,AUDAX,ALPHONCE,TANDITSE,Bachelor of Science in Health Laboratory Science
TUMA/KCMUCo/BScHLSc.2015/2016/TZ/0355,TUMA/KCMUCo/BScHLSc/2015/2016/0627,IBRAHIMU,HALIFA,SANDA,Bachelor of Science in Health Laboratory Science
TUMA/KCMUCo/BScHLSc.2015/2016/TZ/0356,TUMA/KCMUCo/BScHLSc/2015/2016/0578,PATRICK,GEORGE,CHUWA,Bachelor of Science in Health Laboratory Science
TUMA/KCMUCo/BScHLSc.2015/2016/TZ/0359,TUMA/KCMUCo/BScHLSc/2015/2016/0606,Bethsheba,Elibariki,Pallangyo,Bachelor of Science in Health Laboratory Science
TUMA/KCMUCo/BScHLSc.2015/2016/TZ/0354,TUMA/KCMUCo/BScHLSc/2015/2016/0626,NUSAIBA,FUAD,BARAHIYAN,Bachelor of Science in Health Laboratory Science
TUMA/KCMUCo/BScHLSc.2015/2016/TZ/0374,TUMA/KCMUCo/BScHLSc/2015/2016/0590,EGNO,NALZIS,NDUNGURU,Bachelor of Science in Health Laboratory Science
TUMA/KCMUCo/BScHLSc.2015/2016/TZ/0402,TUMA/KCMUCo/BScHLSc/2015/2016/0685,Anneth,Joel,Kimaro,Bachelor of Science in Health Laboratory Science
TUMA/KCMUCo/BScHLSc.2015/2016/TZ/0358,TUMA/KCMUCo/BScHLSc/2015/2016/0639,ALAWI,SULEIMAN,SAID,Bachelor of Science in Health Laboratory Science
TUMA/KCMUCo/BScHLSc.2015/2016/TZ/0357,TUMA/KCMUCo/BScHLSc/2015/2016/0636,MARK,GODGAVE,CHAGULLA,Bachelor of Science in Health Laboratory Science
TUMA/KCMUCo/BScHLSc.2015/2016/TZ/0361,TUMA/KCMUCo/BScHLSc/2015/2016/0620,DAVID,JAMES,SANG'UDI,Bachelor of Science in Health Laboratory Science
TUMA/KCMUCo/BScHLSc.2015/2016/TZ/0398,TUMA/KCMUCo/BScHLSc/2015/2016/0614,fadhili,nuhu,nyalusi,Bachelor of Science in Health Laboratory Science
TUMA/KCMUCo/BScHLSc.2015/2016/TZ/0362,TUMA/KCMUCo/BScHLSc/2015/2016/0604,Ikran,Hussein,Ahmed,Bachelor of Science in Health Laboratory Science
TUMA/KCMUCo/BScHLSc.2015/2016/TZ/0360,TUMA/KCMUCo/BScHLSc/2015/2016/0690,SALVATORY,ALOYCE,SAMBOTI,Bachelor of Science in Health Laboratory Science
TUMA/KCMUCo/BScHLSc.2015/2016/TZ/0368,TUMA/KCMUCo/BScHLSc/2015/2016/0650,JOSEPH,EDWARD,JOSEPH,Bachelor of Science in Health Laboratory Science
TUMA/KCMUCo/BScHLSc.2015/2016/TZ/0393,TUMA/KCMUCo/BScHLSc/2015/2016/0625,yasmin,zulu,sadik,Bachelor of Science in Health Laboratory Science
TUMA/KCMUCo/BScHLSc.2015/2016/TZ/0364,TUMA/KCMUCo/BScHLSc/2015/2016/0588,JENADY,GERODY,NGOGO,Bachelor of Science in Health Laboratory Science
TUMA/KCMUCo/BScHLSc.2015/2016/TZ/0363,TUMA/KCMUCo/BScHLSc/2015/2016/0623,Abdon,Tarimo,Julius,Bachelor of Science in Health Laboratory Science
TUMA/KCMUCo/BScHLSc.2015/2016/TZ/0367,TUMA/KCMUCo/BScHLSc/2015/2016/0583,HUGO,PETER,MUSHI,Bachelor of Science in Health Laboratory Science
TUMA/KCMUCo/BScHLSc.2015/2016/TZ/0366,TUMA/KCMUCo/BScHLSc/2015/2016/0580,faith,allan,mosi,Bachelor of Science in Health Laboratory Science
TUMA/KCMUCo/BScHLSc.2015/2016/TZ/0365,TUMA/KCMUCo/BScHLSc/2015/2016/0658,Hilda,Galda,Francis,Bachelor of Science in Health Laboratory Science
TUMA/KCMUCo/BScHLSc.2015/2016/TZ/0380,TUMA/KCMUCo/BScHLSc/2015/2016/0665,Evarest,Ernest,Musei,Bachelor of Science in Health Laboratory Science
TUMA/KCMUCo/BScHLSc.2015/2016/TZ/0369,TUMA/KCMUCo/BScHLSc/2015/2016/0642,Elizabeth,Mayala,Richard,Bachelor of Science in Health Laboratory Science
TUMA/KCMUCo/BScHLSc.2015/2016/TZ/0370,TUMA/KCMUCo/BScHLSc/2015/2016/0591,SARAH,LEONCE,RUBAGUMYA,Bachelor of Science in Health Laboratory Science
TUMA/KCMUCo/BScHLSc.2015/2016/TZ/0371,TUMA/KCMUCo/BScHLSc/2015/2016/0697,NEEMA,ALLY,BENDERA,Bachelor of Science in Health Laboratory Science
TUMA/KCMUCo/BScHLSc.2015/2016/TZ/0372,TUMA/KCMUCo/BScHLSc/2015/2016/0582,EDWIN,JAMES,MATEE,Bachelor of Science in Health Laboratory Science
TUMA/KCMUCo/BScHLSc.2015/2016/TZ/0373,TUMA/KCMUCo/BScHLSc/2015/2016/0595,sophia,kitasowa,bukula,Bachelor of Science in Health Laboratory Science
TUMA/KCMUCo/BScHLSc.2015/2016/TZ/0375,TUMA/KCMUCo/BScHLSc/2015/2016/0670,GERALD,JONATHAN,ZAKAYO,Bachelor of Science in Health Laboratory Science
TUMA/KCMUCo/BScHLSc.2015/2016/TZ/0379,TUMA/KCMUCo/BScHLSc/2015/2016/0592,MBARAKA,ABEID,ABDALLAH,Bachelor of Science in Health Laboratory Science
TUMA/KCMUCo/BScHLSc.2015/2016/TZ/0376,TUMA/KCMUCo/BScHLSc/2015/2016/0594,caroline,sonni,mwaselela,Bachelor of Science in Health Laboratory Science
TUMA/KCMUCo/BScHLSc.2015/2016/TZ/0377,TUMA/KCMUCo/BScHLSc/2015/2016/0669,MAULID,NASS0R0,MAGANGA,Bachelor of Science in Health Laboratory Science
TUMA/KCMUCo/BScHLSc.2015/2016/TZ/0378,TUMA/KCMUCo/BScHLSc/2015/2016/0598,Joel,Jackson,Nikupala,Bachelor of Science in Health Laboratory Science
TUMA/KCMUCo/BScHLSc.2015/2016/TZ/0383,TUMA/KCMUCo/BScHLSc/2015/2016/0574,SALAMA,SALEHE,KINGWAHI,Bachelor of Science in Health Laboratory Science
TUMA/KCMUCo/BScHLSc.2015/2016/TZ/0381,TUMA/KCMUCo/BScHLSc/2015/2016/0593,furaha,loomu,mollel,Bachelor of Science in Health Laboratory Science
TUMA/KCMUCo/BScHLSc.2015/2016/TZ/0382,TUMA/KCMUCo/BScHLSc/2015/2016/0581,medard,mganyizi,joseph,Bachelor of Science in Health Laboratory Science
TUMA/KCMUCo/BScHLSc.2015/2016/TZ/0384,TUMA/KCMUCo/BScHLSc/2015/2016/0585,Ebenezer,Lazaro,Mmari,Bachelor of Science in Health Laboratory Science
TUMA/KCMUCo/BScHLSc.2015/2016/TZ/0385,TUMA/KCMUCo/BScHLSc/2015/2016/0692,edwiga,paul,assenga,Bachelor of Science in Health Laboratory Science
TUMA/KCMUCo/BScHLSc.2015/2016/TZ/0391,TUMA/KCMUCo/BScHLSc/2015/2016/0645,JESCA,WINGIA,UISSO,Bachelor of Science in Health Laboratory Science
TUMA/KCMUCo/BScHLSc.2015/2016/TZ/0386,TUMA/KCMUCo/BScHLSc/2015/2016/0558,EZEKIEL,EMANUEL,WAHHAY,Bachelor of Science in Health Laboratory Science
TUMA/KCMUCo/BScHLSc.2015/2016/TZ/0388,TUMA/KCMUCo/BScHLSc/2015/2016/0553,SEVERINE,MERCHIORY,MLUNGWANA,Bachelor of Science in Health Laboratory Science
TUMA/KCMUCo/BScHLSc.2015/2016/TZ/0390,TUMA/KCMUCo/BScHLSc/2015/2016/0549,wilson,marco,hape,Bachelor of Science in Health Laboratory Science
TUMA/KCMUCo/BScHLSc.2015/2016/TZ/0389,TUMA/KCMUCo/BScHLSc/2015/2016/0663,GOODLUCK,GAMALIEL,NDOSSY,Bachelor of Science in Health Laboratory Science
TUMA/KCMUCo/BScHLSc.2016/2017/TZ/0497,TUMA/KCMUCo/BScHLSc/2016/2017/0714,ABEL,LUCAS,LIHWEULI,Bachelor of Science in Health Laboratory Science
TUMA/KCMUCo/BScHLSc.2015/2016/TZ/0392,TUMA/KCMUCo/BScHLSc/2015/2016/0551,SHUKURU,JOSEPH,KIMARO,Bachelor of Science in Health Laboratory Science
TUMA/KCMUCo/BScHLSc.2015/2016/TZ/0395,TUMA/KCMUCo/BScHLSc/2015/2016/0554,PETER,RAPHAEL,MASSAWE,Bachelor of Science in Health Laboratory Science
TUMA/KCMUCo/BScHLSc.2015/2016/TZ/0394,TUMA/KCMUCo/BScHLSc/2015/2016/0687,KAREN,MANASA,URASA,Bachelor of Science in Health Laboratory Science
TUMA/KCMUCo/BScHLSc.2016/2017/TZ/0499,TUMA/KCMUCo/BScHLSc/2016/2017/0772,CHRISTOPHER,ISRAEL,MWIHOMEKE,Bachelor of Science in Health Laboratory Science
TUMA/KCMUCo/BScHLSc.2015/2016/TZ/0396,TUMA/KCMUCo/BScHLSc/2015/2016/0545,PETER,GEORGE,GONDWE,Bachelor of Science in Health Laboratory Science
TUMA/KCMUCo/BScHLSc.2015/2016/TZ/0397,TUMA/KCMUCo/BScHLSc/2015/2016/0599,EDAGRACE,PETER,ADAM,Bachelor of Science in Health Laboratory Science
TUMA/KCMUCo/BScHLSc.2015/2016/TZ/0399,TUMA/KCMUCo/BScHLSc/2015/2016/0686,lengai,samwel,saruni,Bachelor of Science in Health Laboratory Science
TUMA/KCMUCo/BScHLSc.2015/2016/TZ/0400,TUMA/KCMUCo/BScHLSc/2015/2016/0630,Yona,Amos,Ndangalasi,Bachelor of Science in Health Laboratory Science
TUMA/KCMUCo/BScHLSc.2015/2016/TZ/0401,TUMA/KCMUCo/BScHLSc/2015/2016/0586,mamba,mwita,mohamed,Bachelor of Science in Health Laboratory Science
TUMA/KCMUCo/BScHLSc.2015/2016/TZ/0403,TUMA/KCMUCo/BScHLSc/2015/2016/0589,ANDREW,ROBINSON,ANDREA,Bachelor of Science in Health Laboratory Science
TUMA/KCMUCo/BScHLSc.2015/2016/TZ/0404,TUMA/KCMUCo/BScHLSc/2015/2016/0666,saitoti,timoth,saetwa,Bachelor of Science in Health Laboratory Science
TUMA/KCMUCo/BScHLSc.2016/2017/TZ/0505,TUMA/KCMUCo/BScHLSc/2016/2017/0777,SEPHANIA,WILIAD,MBILINYI,Bachelor of Science in Health Laboratory Science
TUMA/KCMUCo/BScHLSc.2015/2016/TZ/0406,TUMA/KCMUCo/BScHLSc/2015/2016/0584,ALFRED,CHACHA,CHARLES,Bachelor of Science in Health Laboratory Science
TUMA/KCMUCo/BScHLSc.2015/2016/TZ/0405,TUMA/KCMUCo/BScHLSc/2015/2016/0681,PETER,JOHN,MSAKI,Bachelor of Science in Health Laboratory Science
TUMA/KCMUCo/BScHLSc.2015/2016/TZ/0407,TUMA/KCMUCo/BScHLSc/2015/2016/0601,RODA,MAKALWE,MWANISI,Bachelor of Science in Health Laboratory Science
TUMA/KCMUCo/BScHLSc.2015/2016/TZ/0413,TUMA/KCMUCo/BScHLSc/2015/2016/0676,thadeo,philipo,kayanda,Bachelor of Science in Health Laboratory Science
TUMA/KCMUCo/BScHLSc.2015/2016/TZ/0408,TUMA/KCMUCo/BScHLSc/2015/2016/0546,BARAKA,GIDEON,NGOTONYINGI,Bachelor of Science in Health Laboratory Science
TUMA/KCMUCo/BScHLSc.2015/2016/TZ/0409,TUMA/KCMUCo/BScHLSc/2015/2016/0563,HAMZA,HAMISI,MAWAZO,Bachelor of Science in Health Laboratory Science
TUMA/KCMUCo/BScHLSc.2015/2016/TZ/0410,TUMA/KCMUCo/BScHLSc/2015/2016/0672,HEMED,NASSORO,HEMED,Bachelor of Science in Health Laboratory Science
TUMA/KCMUCo/BScHLSc.2016/2017/TZ/0504,TUMA/KCMUCo/BScHLSc/2016/2017/0776,MAGWEIGA,MAGIGE,MWITA,Bachelor of Science in Health Laboratory Science
TUMA/KCMUCo/BScHLSc.2015/2016/TZ/0411,TUMA/KCMUCo/BScHLSc/2015/2016/0668,KARLSON,ROWLAND,MTOROBO,Bachelor of Science in Health Laboratory Science
TUMA/KCMUCo/BScHLSc.2015/2016/TZ/0415,TUMA/KCMUCo/BScHLSc/2015/2016/0550,BONIFACE,PAUL,MOLLEL,Bachelor of Science in Health Laboratory Science
TUMA/KCMUCo/BScHLSc.2015/2016/TZ/0414,TUMA/KCMUCo/BScHLSc/2015/2016/0552,CLEMENT,JOSEPH,MBOJE,Bachelor of Science in Health Laboratory Science
TUMA/KCMUCo/BScHLSc.2015/2016/TZ/0416,TUMA/KCMUCo/BScHLSc/2015/2016/0575,MICHAEL,ULIMBU,CLEMENCE,Bachelor of Science in Health Laboratory Science
TUMA/KCMUCo/BScHLSc.2015/2016/TZ/0412,TUMA/KCMUCo/BScHLSc/2015/2016/0667,EDWIN,CHRISTIAN,CHVALA,Bachelor of Science in Health Laboratory Science
TUMA/KCMUCo/BScHLSc.2015/2016/TZ/0417,TUMA/KCMUCo/BScHLSc/2016/2017/0706,KELLY,ISSA,KAZINYINGI,Bachelor of Science in Health Laboratory Science
TUMA/KCMUCo/BScHLSc.2015/2016/TZ/0418,TUMA/KCMUCo/BScHLSc/2015/2016/0600,BARAKA,SOLOMON,MSOMBA,Bachelor of Science in Health Laboratory Science
TUMA/KCMUCo/BScHLSc.2016/2017/TZ/0506,TUMA/KCMUCo/BScHLSc/2016/2017/0778,KELVIN,SIFAIDA,CHAULA,Bachelor of Science in Health Laboratory Science
TUMA/KCMUCo/BScHLSc.2015/2016/TZ/0419,TUMA/KCMUCo/BScHLSc/2015/2016/0677,GEOFREY,HERYCO,MUGANYIZI,Bachelor of Science in Health Laboratory Science
TUMA/KCMUCo/BScHLSc.2016/2017/TZ/0507,TUMA/KCMUCo/BScHLSc/2016/2017/0779,layson,peter,mwakipesile,Bachelor of Science in Health Laboratory Science
TUMA/KCMUCo/BScHLSc.2016/2017/TZ/0500,TUMA/KCMUCo/BScHLSc/2016/2017/0773,DAUDI,SAILEPU,SIRIA,Bachelor of Science in Health Laboratory Science
TUMA/KCMUCo/BScHLSc.2015/2016/TZ/0424,TUMA/KCMUCo/BScHLSc/2015/2016/0596,MUJUNI,JOSEPHAT,MAGAMBO,Bachelor of Science in Health Laboratory Science
TUMA/KCMUCo/BScHLSc.2015/2016/TZ/0420,TUMA/KCMUCo/BScHLSc/2015/2016/0587,Charles,Michael,Msuya,Bachelor of Science in Health Laboratory Science
TUMA/KCMUCo/BScHLSc.2015/2016/TZ/0422,TUMA/KCMUCo/BScHLSc/2015/2016/0622,GRAYSON,ALOYCE,SHEMALAMBA,Bachelor of Science in Health Laboratory Science
TUMA/KCMUCo/BScHLSc.2016/2017/TZ/0498,TUMA/KCMUCo/BScHLSc/2016/2017/0771,BUNANE,SWEKE,KADINGU,Bachelor of Science in Health Laboratory Science
TUMA/KCMUCo/BScHLSc.2015/2016/TZ/0421,TUMA/KCMUCo/BScHLSc/2015/2016/0577,FARAJA,ABEL,WIMBI,Bachelor of Science in Health Laboratory Science
TUMA/KCMUCo/BScHLSc.2015/2016/TZ/0429,TUMA/KCMUCo/BScHLSc/2015/2016/0579,NEEMA,PETER,SHINDIKA,Bachelor of Science in Health Laboratory Science
TUMA/KCMUCo/BScHLSc.2015/2016/TZ/0423,TUMA/KCMUCo/BScHLSc/2015/2016/0564,PATRICK,LUCAS,MABULA,Bachelor of Science in Health Laboratory Science
TUMA/KCMUCo/BScHLSc.2015/2016/TZ/0425,TUMA/KCMUCo/BScHLSc/2015/2016/0664,KELVIN,JORDAN,FWALO,Bachelor of Science in Health Laboratory Science
TUMA/KCMUCo/BScHLSc.2015/2016/TZ/0427,TUMA/KCMUCo/BScHLSc/2015/2016/0556,DAVID,ROBERT,KUSEKWA,Bachelor of Science in Health Laboratory Science
TUMA/KCMUCo/BScHLSc.2015/2016/TZ/0426,TUMA/KCMUCo/BScHLSc/2015/2016/0675,DEOGRACIOUS,VENANCE,MPOTWA,Bachelor of Science in Health Laboratory Science
TUMA/KCMUCo/BScHLSc.2016/2017/TZ/0503,TUMA/KCMUCo/BScHLSc/2016/2017/0775,gilbert,godfrey,waria,Bachelor of Science in Health Laboratory Science
TUMA/KCMUCo/BScHLSc.2015/2016/TZ/0428,TUMA/KCMUCo/BScHLSc/2015/2016/0661,NG'UMBE,LUBABA,MTEMBA,Bachelor of Science in Health Laboratory Science
TUMA/KCMUCo/BScHLSc.2015/2016/TZ/0430,TUMA/KCMUCo/BScHLSc/2015/2016/0699,EUNICE,JULIUS,KISANGA,Bachelor of Science in Health Laboratory Science
,,Example,Test,Student,Bachelor of Science in Health Laboratory Science
TUMA/KCMUCo/BScHLSc.2016/2017/TZ/0431,TUMA/KCMUCo/BScHLSc/2016/2017/0715,MAGRETH,ASSONS,MLEMBA,Bachelor of Science in Health Laboratory Science
TUMA/KCMUCo/BScHLSc.2016/2017/TZ/0437,TUMA/KCMUCo/BScHLSc/2016/2017/0716,VIVIAN,MESHACK,LAIZER,Bachelor of Science in Health Laboratory Science
TUMA/KCMUCo/BScHLSc.2016/2017/TZ/0433,TUMA/KCMUCo/BScHLSc/2016/2017/0717,MICHAEL,JOHN,NGOWI,Bachelor of Science in Health Laboratory Science
,,LETICIA,GOODLUCK,LAIZER,Bachelor of Science in Health Laboratory Science
TUMA/KCMUCo/BScHLSc.2016/2017/TZ/0432,TUMA/KCMUCo/BScHLSc/2016/2017/0718,ELIMRINGI,HANNINGTON,NGAO,Bachelor of Science in Health Laboratory Science
TUMA/KCMUCo/BScHLSc.2016/2017/TZ/0480,TUMA/KCMUCo/BScHLSc/2016/2017/0719,JESCA,DEOGRATIAS,WILIAM,Bachelor of Science in Health Laboratory Science
,,JOSEPH,JOHN,OBONYO,Bachelor of Science in Health Laboratory Science
TUMA/KCMUCo/BScHLSc.2016/2017/TZ/0461,TUMA/KCMUCo/BScHLSc/2016/2017/0721,JOSEPH,JOHN,OBONYO,Bachelor of Science in Health Laboratory Science
TUMA/KCMUCo/BScHLSc.2016/2017/TZ/0444,TUMA/KCMUCo/BScHLSc/2016/2017/0722,LAURENT,ALPHONCE,KURWA,Bachelor of Science in Health Laboratory Science
TUMA/KCMUCo/BScHLSc.2016/2017/TZ/0496,TUMA/KCMUCo/BScHLSc/2016/2017/0713,FAUSTA,LUKUNDO,NSHUSHI,Bachelor of Science in Health Laboratory Science
,,MVINJE,ZACHARIA,JAMSON,Bachelor of Science in Health Laboratory Science
TUMA/KCMUCo/BScHLSc.2016/2017/TZ/0454,TUMA/KCMUCo/BScHLSc/2016/2017/0723,GABRIEL,EZROM,SHOO,Bachelor of Science in Health Laboratory Science
,,WITNESS,PAUL,GAILANGA,Bachelor of Science in Health Laboratory Science
TUMA/KCMUCo/BScHLSc.2016/2017/TZ/0457,TUMA/KCMUCo/BScHLSc/2016/2017/0724,ELIZABETH,ALFRED,JOHN,Bachelor of Science in Health Laboratory Science
TUMA/KCMUCo/BScHLSc.2016/2017/TZ/0476,TUMA/KCMUCo/BScHLSc/2016/2017/0725,PASTORY,MAHAHILA,NDIMI,Bachelor of Science in Health Laboratory Science
,,BERNADIN,AMATI,MASSAWE,Bachelor of Science in Health Laboratory Science
TUMA/KCMUCo/BScHLSc.2016/2017/TZ/0435,TUMA/KCMUCo/BScHLSc/2016/2017/0726,IBRAHIM,IRENEUS,MAUKI,Bachelor of Science in Health Laboratory Science
TUMA/KCMUCo/BScHLSc.2016/2017/TZ/0440,TUMA/KCMUCo/BScHLSc/2016/2017/0727,WITNESS,PAUL,GAILANGA,Bachelor of Science in Health Laboratory Science
TUMA/KCMUCo/BScHLSc.2016/2017/TZ/0478,TUMA/KCMUCo/BScHLSc/2016/2017/0728,JOSEPH,DANIEL,OLOMI,Bachelor of Science in Health Laboratory Science
,,GABRIEL,EZROM,SHOO,Bachelor of Science in Health Laboratory Science
TUMA/KCMUCo/BScHLSc.2016/2017/TZ/0446,TUMA/KCMUCo/BScHLSc/2016/2017/0729,DOREEN,MTAJE,MGAYO,Bachelor of Science in Health Laboratory Science
TUMA/KCMUCo/BScHLSc.2016/2017/TZ/0466,TUMA/KCMUCo/BScHLSc/2016/2017/0730,JASPER,KEFA,KIMAMBO,Bachelor of Science in Health Laboratory Science
TUMA/KCMUCo/BScHLSc.2016/2017/TZ/0439,TUMA/KCMUCo/BScHLSc/2016/2017/0731,BERNADETHA,MGIMBA,STEPHEN,Bachelor of Science in Health Laboratory Science
TUMA/KCMUCo/BScHLSc.2016/2017/TZ/0445,TUMA/KCMUCo/BScHLSc/2016/2017/0732,DAMIAN,JOB,KAHAMBA,Bachelor of Science in Health Laboratory Science
TUMA/KCMUCo/BScHLSc.2016/2017/TZ/0501,TUMA/KCMUCo/BScHLSc/2016/2017/0774,HENRY,LUCAS,MLAY,Bachelor of Science in Health Laboratory Science
TUMA/KCMUCo/BScHLSc.2016/2017/TZ/0436,TUMA/KCMUCo/BScHLSc/2016/2017/0733,MARTIN,LUTHER,KENTE,Bachelor of Science in Health Laboratory Science
TUMA/KCMUCo/BScHLSc.2016/2017/TZ/0447,TUMA/KCMUCo/BScHLSc/2016/2017/0734,HEAVENLIGHT,FREDRICK,NGOMASI,Bachelor of Science in Health Laboratory Science
,,HEAVENLIGHT,FREDRICK,NGOMASI,Bachelor of Science in Health Laboratory Science
TUMA/KCMUCo/BScHLSc.2016/2017/TZ/0438,TUMA/KCMUCo/BScHLSc/2016/2017/0735,MASHAKA,GERVAS,KAJI,Bachelor of Science in Health Laboratory Science
TUMA/KCMUCo/BScHLSc.2016/2017/TZ/0452,TUMA/KCMUCo/BScHLSc/2016/2017/0736,salama,rashid,amour,Bachelor of Science in Health Laboratory Science
,,RIBSON,ELICHILIA,MLAKI,Bachelor of Science in Health Laboratory Science
,,MICHAEL,JOHN,NGOWI,Bachelor of Science in Health Laboratory Science
,,MICHAEL,JOHN,NGOWI,Bachelor of Science in Health Laboratory Science
TUMA/KCMUCo/BScHLSc.2016/2017/TZ/0453,TUMA/KCMUCo/BScHLSc/2016/2017/0737,FAUSTINE,REMY,MTALO,Bachelor of Science in Health Laboratory Science
,,BROWN,MODESTUS,KAVINDI,Bachelor of Science in Health Laboratory Science
TUMA/KCMUCo/BScHLSc.2016/2017/TZ/0455,TUMA/KCMUCo/BScHLSc/2016/2017/0738,DANIEL,ARTHUR,MWANDISI,Bachelor of Science in Health Laboratory Science
TUMA/KCMUCo/BScHLSc.2016/2017/TZ/0441,TUMA/KCMUCo/BScHLSc/2016/2017/0739,GOTHAD,OSIAH,CHAMBA,Bachelor of Science in Health Laboratory Science
TUMA/KCMUCo/BScHLSc.2016/2017/TZ/0451,TUMA/KCMUCo/BScHLSc/2016/2017/0740,NICKSON,NOEL,MLIGO,Bachelor of Science in Health Laboratory Science
TUMA/KCMUCo/BScHLSc.2016/2017/TZ/0450,TUMA/KCMUCo/BScHLSc/2016/2017/0741,BROWN,MODESTUS,KAVINDI,Bachelor of Science in Health Laboratory Science
,,ISAYA,MWANJALA,SAYOTA,Bachelor of Science in Health Laboratory Science
TUMA/KCMUCo/BScHLSc.2016/2017/TZ/0443,TUMA/KCMUCo/BScHLSc/2016/2017/0742,ISAYA,MWANJALA,SAYOTA,Bachelor of Science in Health Laboratory Science
,,DANIEL,JOSEPH,MASALAGO,Bachelor of Science in Health Laboratory Science
TUMA/KCMUCo/BScHLSc.2016/2017/TZ/0442,TUMA/KCMUCo/BScHLSc/2016/2017/0743,RIBSON,ELICHILIA,MLAKI,Bachelor of Science in Health Laboratory Science
,,DANIEL,JOSEPH,MASALAGO,Bachelor of Science in Health Laboratory Science
TUMA/KCMUCo/BScHLSc.2016/2017/TZ/0471,TUMA/KCMUCo/BScHLSc/2016/2017/0744,MARY,OLUCHO,MAGATI,Bachelor of Science in Health Laboratory Science
TUMA/KCMUCo/BScHLSc.2016/2017/TZ/0448,TUMA/KCMUCo/BScHLSc/2016/2017/0745,NTAKIMAZI,DAUDI,KAKALA,Bachelor of Science in Health Laboratory Science
TUMA/KCMUCo/BScHLSc.2016/2017/TZ/0459,TUMA/KCMUCo/BScHLSc/2016/2017/0746,JUENI,MARIJANI,MROPE,Bachelor of Science in Health Laboratory Science
TUMA/KCMUCo/BScHLSc.2016/2017/TZ/0465,TUMA/KCMUCo/BScHLSc/2016/2017/0747,EUGENIA,JAMES,MMASI,Bachelor of Science in Health Laboratory Science
,,CHACHA,PETER,KERAMBO,Bachelor of Science in Health Laboratory Science
TUMA/KCMUCo/BScHLSc.2016/2017/TZ/0467,TUMA/KCMUCo/BScHLSc/2016/2017/0748,SAYUNI,AYOUB,MUNNA,Bachelor of Science in Health Laboratory Science
TUMA/KCMUCo/BScHLSc.2016/2017/TZ/0460,TUMA/KCMUCo/BScHLSc/2016/2017/0749,EDWARD,THOMAS,MAJOR,Bachelor of Science in Health Laboratory Science
TUMA/KCMUCo/BScHLSc.2016/2017/TZ/0449,TUMA/KCMUCo/BScHLSc/2016/2017/0750,PETTY,JOSEPH,MZUMBWE,Bachelor of Science in Health Laboratory Science
,,PETTY,JOSEPH,MZUMBWE,Bachelor of Science in Health Laboratory Science
TUMA/KCMUCo/BScHLSc.2016/2017/TZ/0456,TUMA/KCMUCo/BScHLSc/2016/2017/0751,SAMWEL,MAGESA,CHRISTOPHER,Bachelor of Science in Health Laboratory Science
TUMA/KCMUCo/BScHLSc.2016/2017/TZ/0502,TUMA/KCMUCo/BScHLSc/2016/2017/0780,GIVEN,JOEL,MWANKILI,Bachelor of Science in Health Laboratory Science
TUMA/KCMUCo/BScHLSc.2016/2017/TZ/0462,TUMA/KCMUCo/BScHLSc/2016/2017/0752,FLORA,FULGENCE,MUHINGA,Bachelor of Science in Health Laboratory Science
TUMA/KCMUCo/BScHLSc.2016/2017/TZ/0475,TUMA/KCMUCo/BScHLSc/2016/2017/0753,VICTORIA,HENRY,MASUE,Bachelor of Science in Health Laboratory Science
,,VICTORIA,HENRY,MASUE,Bachelor of Science in Health Laboratory Science
TUMA/KCMUCo/BScHLSc.2016/2017/TZ/0458,TUMA/KCMUCo/BScHLSc/2016/2017/0754,CHACHA,PETER,KERAMBO,Bachelor of Science in Health Laboratory Science
TUMA/KCMUCo/BScHLSc.2016/2017/TZ/0468,TUMA/KCMUCo/BScHLSc/2016/2017/0755,RAFAEL,VALENTINE,MASSAWE,Bachelor of Science in Health Laboratory Science
TUMA/KCMUCo/BScHLSc.2016/2017/TZ/0469,TUMA/KCMUCo/BScHLSc/2016/2017/0756,IRENE,DANIEL,JEREMIAH,Bachelor of Science in Health Laboratory Science
TUMA/KCMUCo/BScHLSc.2016/2017/TZ/0470,TUMA/KCMUCo/BScHLSc/2016/2017/0757,FELIX,IBRAHIM,MOSHA,Bachelor of Science in Health Laboratory Science
TUMA/KCMUCo/BScHLSc.2016/2017/TZ/0463,TUMA/KCMUCo/BScHLSc/2016/2017/0758,SEURY,GODSON,MMBAGA,Bachelor of Science in Health Laboratory Science
TUMA/KCMUCo/BScHLSc.2016/2017/TZ/0474,TUMA/KCMUCo/BScHLSc/2016/2017/0759,PETER,MAGAGA,KUCHIBA,Bachelor of Science in Health Laboratory Science
,,HOSIANA,PHILEMON,SOMI,Bachelor of Science in Health Laboratory Science
,,HOSIANA,PHILEMON,SOMI,Bachelor of Science in Health Laboratory Science
TUMA/KCMUCo/BScHLSc.2016/2017/TZ/0464,TUMA/KCMUCo/BScHLSc/2016/2017/0760,frank,ferdinand,ndunguru,Bachelor of Science in Health Laboratory Science
,,NTUGWA,NTELEZU,MADUHU,Bachelor of Science in Health Laboratory Science
TUMA/KCMUCo/BScHLSc.2016/2017/TZ/0472,TUMA/KCMUCo/BScHLSc/2016/2017/0761,INNOCENT,JACKSON,SANGA,Bachelor of Science in Health Laboratory Science
TUMA/KCMUCO/BSC.LAB/0398,,FADHILI,NUHU,NYALUSI,Bachelor of Science in Health Laboratory Science
TUMA/KCMUCo/BSc.HLCS/0412,,EDWIN,CHRISTIAN,CHAVALA,Bachelor of Science in Health Laboratory Science
TUMA/KCMUCo/BScHLSc.2016/2017/TZ/0487,TUMA/KCMUCo/BScHLSc/2016/2017/0762,KHAMIS,HAMAD,KYAABI,Bachelor of Science in Health Laboratory Science
TUMA/KCMUCo/BScHLSc.2016/2017/TZ/0477,TUMA/KCMUCo/BScHLSc/2016/2017/0763,WENCESLAUS,HAMIS,SHIJA,Bachelor of Science in Health Laboratory Science
TUMA/KCMUCo/BScHLSc.2016/2017/TZ/0479,TUMA/KCMUCo/BScHLSc/2016/2017/0764,MARY,JOHN,KIMARIO,Bachelor of Science in Health Laboratory Science
TUMA/KCMUCo/BScHLSc.2016/2017/TZ/0483,TUMA/KCMUCo/BScHLSc/2016/2017/0765,ALFANI,ALLENI,ALFANI,Bachelor of Science in Health Laboratory Science
TUMA/KCMUCo/BScHLSc.2016/2017/TZ/0481,TUMA/KCMUCo/BScHLSc/2016/2017/0766,HELLEN,HONEST,NDANU,Bachelor of Science in Health Laboratory Science
TUMA/KCMUCo/BScHLSc.2016/2017/TZ/0482,TUMA/KCMUCo/BScHLSc/2016/2017/0767,JASMIN,GODFREY,MHANGA,Bachelor of Science in Health Laboratory Science
TUMA/KCMUCo/BScHLSc.2016/2017/TZ/0485,TUMA/KCMUCo/BScHLSc/2016/2017/0768,ELIUD,FESTO,SHIJA,Bachelor of Science in Health Laboratory Science
TUMA/KCMUCo/BScHLSc.2016/2017/TZ/0484,TUMA/KCMUCo/BScHLSc/2016/2017/0769,Ditrick,Fedrick,Kihombo,Bachelor of Science in Health Laboratory Science
TUMA/KCMUCo/BScHLSc.2016/2017/TZ/0486,TUMA/KCMUCo/BScHLSc/2016/2017/0770,EMMANUEL,JOSEPH,AWE,Bachelor of Science in Health Laboratory Science
