1025.registrationNumber,1025.examinationNumber,1025.disability,1025.physicalAddress,1022.firstname,1022.middlename,1022.lastname,1015.sexName,1016.maritalName,1018.jobName,1010.courseName,1010.courseCode,1005.countryName,1005.abbreviation
TUMA/KCMUCo/BScHLSc.2013/2014/TZ/0270,,,Kcmc madukan,Cecilia,Sundi,Anthony,Female,Single,Student,Bachelor of Science in Health Laboratory Science,BScHLSc,Tanzania,TZ
TUMA/KCMUCo/BScHLSc.2013/2014/TZ/0266,TUMA/KCMUCo/BScHLSc/2016/2017/0710,,Mawenzi Hospital Moshi,Rehema,Alpha,Tenga,Female,Single,Student,Bachelor of Science in Health Laboratory Science,BScHLSc,Tanzania,TZ
TUMA/KCMUCo/BScHLSc.2013/2014/TZ/0261,TUMA/KCMUCo/BScHLSc/2015/2016/0651,,IMALILO P.O.BOX790 NJOMBE,YUNI,TEOPHILO,MBWILO,Female,Single,Student,Bachelor of Science in Health Laboratory Science,BScHLSc,Tanzania,TZ
TUMA/KCMUCo/BScHLSc.2013/2014/TZ/0257,TUMA/KCMUCo/BScHLSc/2015/2016/0659,,P O BOX 2240 MOSHI TANZANIA,SALEH,ALI,SALEH,Male,Single,Student,Bachelor of Science in Health Laboratory Science,BScHLSc,Tanzania,TZ
TUMA/KCMUCo/BScHLSc.2013/2014/TZ/0255,,,IRINGA,MOHAMED,ATHUMAN,SODANGU,Male,Single,Student,Bachelor of Science in Health Laboratory Science,BScHLSc,Tanzania,TZ
TUMA/KCMUCo/BScHLSc.2013/2014/TZ/0269,TUMA/KCMUCo/BScHLSc/2015/2016/0613,,MWANZA,MUSA,MNADA,GESURA,Male,Single,Student,Bachelor of Science in Health Laboratory Science,BScHLSc,Tanzania,TZ
TUMA/KCMUCo/BScHLSc.2013/2014/TZ/0258,TUMA/KCMUCo/BScHLSc/2015/2016/0619,,Majengo,Wedi,Aron,Mndeme,Female,Single,Student,Bachelor of Science in Health Laboratory Science,BScHLSc,Tanzania,TZ
TUMA/KCMUCo/BScHLSc.2013/2014/TZ/0259,TUMA/KCMUCo/BScHLSc/2015/2016/0567,,KARAKANA,HAJIRA,IDDI,ESYA,Female,Single,Student,Bachelor of Science in Health Laboratory Science,BScHLSc,Tanzania,TZ
TUMA/KCMUCo/BScHLSc.2013/2014/TZ/0263,,,P.O BOX 2222,NDEALILIA,SENYAEL,SWAI,Female,Married,Student,Bachelor of Science in Health Laboratory Science,BScHLSc,Tanzania,TZ
TUMA/KCMUCo/BScHLSc.2013/2014/TZ/0264,TUMA/KCMUCo/BScHLSc/2015/2016/0673,,Singida,Regina,Mohamed,Linus,Female,Single,Student,Bachelor of Science in Health Laboratory Science,BScHLSc,Tanzania,TZ
TUMA/KCMUCo/BScHLSc.2013/2014/TZ/0260,TUMA/KCMUCo/BScHLSc/2016/2017/0709,,Moshy,Dorothy,Macmillan,Moshy,Female,Single,Student,Bachelor of Science in Health Laboratory Science,BScHLSc,Tanzania,TZ
TUMA/KCMUCo/BScHLSc.2013/2014/TZ/0262,TUMA/KCMUCo/BScHLSc/2016/2017/0707,,KIBOSHO,ARISTIDIS,BALTAZARI,kinyaiya,Female,Single,Student,Bachelor of Science in Health Laboratory Science,BScHLSc,Tanzania,TZ
TUMA/KCMUCo/BScHLSc.2013/2014/TZ/0265,TUMA/KCMUCo/BScHLSc/2015/2016/0605,,KCMC MOSHI,ALEX,ALEX,MBAWALA,Male,Single,Student,Bachelor of Science in Health Laboratory Science,BScHLSc,Tanzania,TZ
TUMA/KCMUCo/BScHLSc.2013/2014/TZ/0267,TUMA/KCMUCo/BScHLSc/2015/2016/0646,,MOSHI,NEEMA,WILLIUM,MREMA,Female,Single,Student,Bachelor of Science in Health Laboratory Science,BScHLSc,Tanzania,TZ
TUMA/KCMUCo/BScHLSc.2013/2014/TZ/0268,TUMA/KCMUCo/BScHLSc/2015/2016/0615,NO,MBEYA,RAPHAEL,CHRISTOPHER,MKINGA,Male,Married,Student,Bachelor of Science in Health Laboratory Science,BScHLSc,Tanzania,TZ
TUMA/KCMUCo/BScHLSc.2013/2014/TZ/0272,TUMA/KCMUCo/BScHLSc/2015/2016/0637,,P O BOX 1532,GODSON,JOSEPH,NGOWI,Male,Single,Student,Bachelor of Science in Health Laboratory Science,BScHLSc,Tanzania,TZ
TUMA/KCMUCo/BScHLSc.2013/2014/TZ/0276,TUMA/KCMUCo/BScHLSc/2015/2016/0612,,P.O.BOX2240 MOSHI Tanzania,HILOLIMS,EMANUERY,MLELWA,Male,Single,Student,Bachelor of Science in Health Laboratory Science,BScHLSc,Tanzania,TZ
TUMA/KCMUCo/BScHLSc.2013/2014/TZ/0271,TUMA/KCMUCo/BScHLSc/2015/2016/0607,,Shinyanga (m),SAMWEL,EDWARD,KAHEMA,Male,Single,Student,Bachelor of Science in Health Laboratory Science,BScHLSc,Tanzania,TZ
TUMA/KCMUCo/BScHLSc.2013/2014/TZ/0277,TUMA/KCMUCo/BScHLSc/2016/2017/0701,,BOX 64 BUKOBA,EUSTADIUS,KAMUGISHA,FELICIAN,Male,Single,Student,Bachelor of Science in Health Laboratory Science,BScHLSc,Tanzania,TZ
TUMA/KCMUCo/BScHLSc.2013/2014/TZ/0273,TUMA/KCMUCo/BScHLSc/2015/2016/0641,,KASULU,GILBERT,JOSEPHAT,BETETSE,Male,Single,Student,Bachelor of Science in Health Laboratory Science,BScHLSc,Tanzania,TZ
TUMA/KCMUCo/BScHLSc.2013/2014/TZ/0284,,,NZEGA,Eizabeth,Michael,Temu,Female,Single,Student,Bachelor of Science in Health Laboratory Science,BScHLSc,Tanzania,TZ
TUMA/KCMUCo/BScHLSc.2013/2014/TZ/0274,TUMA/KCMUCo/BScHLSc/2016/2017/0702,,KIBAIGWA,OCTAVIAN,ARON,NGODA,Male,Single,Student,Bachelor of Science in Health Laboratory Science,BScHLSc,Tanzania,TZ
TUMA/KCMUCo/BScHLSc.2013/2014/TZ/0275,TUMA/KCMUCo/BScHLSc/2015/2016/0698,,MOSHI,PILLY,SHABANI,MACHIVYA,Female,Single,Student,Bachelor of Science in Health Laboratory Science,BScHLSc,Tanzania,TZ
TUMA/KCMUCo/BScHLSc.2013/2014/TZ/0283,TUMA/KCMUCo/BScHLSc/2015/2016/0611,,MBEYA,RUKIA,AMBAKISYE,SIMON,Female,Single,Student,Bachelor of Science in Health Laboratory Science,BScHLSc,Tanzania,TZ
TUMA/KCMUCo/BScHLSc.2013/2014/KE/0279,TUMA/KCMUCo/BScHLSc/2015/2016/0657,,KCMC KARIWA,CYNTHIA,SIVA,JOEL,Female,Married,Student,Bachelor of Science in Health Laboratory Science,BScHLSc,Kenya,KE
TUMA/KCMUCo/BScHLSc.2013/2014/TZ/0278,TUMA/KCMUCo/BScHLSc/2015/2016/0569,,KITANDU,SEGOLENA,DONALD,CHISUSE,Female,Single,Student,Bachelor of Science in Health Laboratory Science,BScHLSc,Tanzania,TZ
TUMA/KCMUCo/BScHLSc.2013/2014/TZ/0280,TUMA/KCMUCo/BScHLSc/2015/2016/0640,,P.O.BOX MWANZA,CHOGERO,EDWIN,CHECHE,Male,Single,Student,Bachelor of Science in Health Laboratory Science,BScHLSc,Tanzania,TZ
TUMA/KCMUCo/BScHLSc.2013/2014/TZ/0281,TUMA/KCMUCo/BScHLSc/2016/2017/0705,,Karagwe  Kagera,jackson,peterclaver,mushumbusi,Male,Single,Student,Bachelor of Science in Health Laboratory Science,BScHLSc,Tanzania,TZ
TUMA/KCMUCo/BScHLSc.2013/2014/TZ/0282,TUMA/KCMUCo/BScHLSc/2015/2016/0624,,P.O.BOX 15314,HAWA,HUSSEIN,TURRA,Female,Single,Student,Bachelor of Science in Health Laboratory Science,BScHLSc,Tanzania,TZ
TUMA/KCMUCo/BScHLSc.2013/2014/TZ/0291,TUMA/KCMUCo/BScHLSc/2015/2016/0694,,mbeya,ESUVAT,ABEL,MOSES,Female,Single,Student,Bachelor of Science in Health Laboratory Science,BScHLSc,Tanzania,TZ
TUMA/KCMUCo/BScHLSc.2013/2014/TZ/0286,TUMA/KCMUCo/BScHLSc/2015/2016/0617,,NZEGA,GOODLUCK,ELIAMINI,MBWAMBO,Male,Single,Student,Bachelor of Science in Health Laboratory Science,BScHLSc,Tanzania,TZ
TUMA/KCMUCo/BScHLSc.2013/2014/TZ/0285,TUMA/KCMUCo/BScHLSc/2015/2016/0638,,166 KARATU ARUSHA,RICHARD,ALEXANDA,CLEMENT,Male,Single,Student,Bachelor of Science in Health Laboratory Science,BScHLSc,Tanzania,TZ
TUMA/KCMUCo/BScHLSc.2013/2014/TZ/0287,TUMA/KCMUCo/BScHLSc/2015/2016/0621,,0753872535,JONATHAN,JONATHAN,YONA,Male,Single,Student,Bachelor of Science in Health Laboratory Science,BScHLSc,Tanzania,TZ
TUMA/KCMUCo/BScHLSc.2013/2014/TZ/0293,TUMA/KCMUCo/BScHLSc/2015/2016/0647,,ARUSHA,ELIZABETH,EDWARD,MGHASE,Female,Single,Student,Bachelor of Science in Health Laboratory Science,BScHLSc,Tanzania,TZ
TUMA/KCMUCo/BScHLSc.2013/2014/TZ/0290,TUMA/KCMUCo/BScHLSc/2015/2016/0628,,Dar es salaam,BEATRICE,NAZAR,TINGO,Female,Single,Student,Bachelor of Science in Health Laboratory Science,BScHLSc,Tanzania,TZ
TUMA/KCMUCo/BScHLSc.2013/2014/TZ/0288,TUMA/KCMUCo/BScHLSc/2015/2016/0629,,MBEYA,MARIAM,CHARLES,MONAH,Female,Single,Student,Bachelor of Science in Health Laboratory Science,BScHLSc,Tanzania,TZ
TUMA/KCMUCo/BScHLSc.2013/2014/TZ/0289,TUMA/KCMUCo/BScHLSc/2015/2016/0576,,0755118796,tumaini,julius,ngowi,Male,Single,Student,Bachelor of Science in Health Laboratory Science,BScHLSc,Tanzania,TZ
TUMA/KCMUCo/BScHLSc.2013/2014/TZ/0292,TUMA/KCMUCo/BScHLSc/2015/2016/0618,,BUKOBA,Ansibelt,Mushumbusi,Archard,Male,Single,Student,Bachelor of Science in Health Laboratory Science,BScHLSc,Tanzania,TZ
TUMA/KCMUCo/BScHLSc.2013/2014/TZ/0294,TUMA/KCMUCo/BScHLSc/2015/2016/0568,,+255656056562,KURUTHUM,GEORGE,MWANSEMBO,Female,Single,Student,Bachelor of Science in Health Laboratory Science,BScHLSc,Tanzania,TZ
TUMA/KCMUCo/BScHLSc.2013/2014/TZ/0295,TUMA/KCMUCo/BScHLSc/2015/2016/0679,,194 sengerema,RENARD,CHARLES,MLYAKADO,Male,Single,Student,Bachelor of Science in Health Laboratory Science,BScHLSc,Tanzania,TZ
TUMA/KCMUCo/BScHLSc.2013/2014/TZ/0297,TUMA/KCMUCo/BScHLSc/2016/2017/0708,,longuo A,monica,vincent,chuwa,Female,Married,Student,Bachelor of Science in Health Laboratory Science,BScHLSc,Tanzania,TZ
TUMA/KCMUCo/BScHLSc.2013/2014/TZ/0296,TUMA/KCMUCo/BScHLSc/2016/2017/0703,,MWANGA,RUTH,DANIEL,MCHOMVU,Female,Single,Student,Bachelor of Science in Health Laboratory Science,BScHLSc,Tanzania,TZ
TUMA/KCMUCo/BScHLSc.2013/2014/TZ/0298,TUMA/KCMUCo/BScHLSc/2016/2017/0704,,bukombe geita,andrew,issamulah,charles,Male,Single,Student,Bachelor of Science in Health Laboratory Science,BScHLSc,Tanzania,TZ
TUMA/KCMUCo/BScHLSc.2014/2015/TZ/0299,TUMA/KCMUCo/BScHLSc/2015/2016/0648,,Uru kaskazini,Gema,Sirili,Kiwale,Female,Single,Student,Bachelor of Science in Health Laboratory Science,BScHLSc,Tanzania,TZ
TUMA/KCMUCo/BScHLSc.2014/2015/TZ/0301,TUMA/KCMUCo/BScHLSc/2015/2016/0632,,452 TANGA,EMMANUEL,SAMWEL,MWITA,Male,Single,Student,Bachelor of Science in Health Laboratory Science,BScHLSc,Tanzania,TZ
TUMA/KCMUCo/BScHLSc.2014/2015/TZ/0300,TUMA/KCMUCo/BScHLSc/2015/2016/0655,,MWANZA,FROLA,SILAS,KHABELE,Female,Single,Student,Bachelor of Science in Health Laboratory Science,BScHLSc,Tanzania,TZ
TUMA/KCMUCo/BScHLSc.2014/2015/TZ/0303,TUMA/KCMUCo/BScHLSc/2015/2016/0616,,Mwanza,MESHACK,PETRO,LEVI,Male,Single,Student,Bachelor of Science in Health Laboratory Science,BScHLSc,Tanzania,TZ
TUMA/KCMUCo/BScHLSc.2014/2015/TZ/0318,TUMA/KCMUCo/BScHLSc/2015/2016/0680,,Dodoma,EMMY,ADRIAN,TEMBA,Female,Single,Student,Bachelor of Science in Health Laboratory Science,BScHLSc,Tanzania,TZ
TUMA/KCMUCo/BScHLSc.2014/2015/TZ/0302,TUMA/KCMUCo/BScHLSc/2015/2016/0562,,Box 243 Mkuu Rombo,Anastazia,Massawe,Bruno,Female,Single,Student,Bachelor of Science in Health Laboratory Science,BScHLSc,Tanzania,TZ
TUMA/KCMUCo/BScHLSc.2014/2015/TZ/0328,TUMA/KCMUCo/BScHLSc/2015/2016/0696,,Arusha,Noela,Elly,John,Female,Single,Student,Bachelor of Science in Health Laboratory Science,BScHLSc,Tanzania,TZ
TUMA/KCMUCo/BScHLSc.2014/2015/TZ/0304,TUMA/KCMUCo/BScHLSc/2015/2016/0631,,MIISUNGWI,Benedicto,Shimula,Nyalika,Male,Single,Student,Bachelor of Science in Health Laboratory Science,BScHLSc,Tanzania,TZ
TUMA/KCMUCo/BScHLSc.2014/2015/TZ/0306,TUMA/KCMUCo/BScHLSc/2015/2016/0652,,P.O BOX  44 MEATU,KASHINJE,BATRIDA,MWIGULU,Female,Single,Student,Bachelor of Science in Health Laboratory Science,BScHLSc,Tanzania,TZ
TUMA/KCMUCo/BScHLSc.2014/2015/TZ/0305,TUMA/KCMUCo/BScHLSc/2015/2016/0644,,SINGIDA,TEDDY,FANUEL,MLUMBA,Female,Single,Student,Bachelor of Science in Health Laboratory Science,BScHLSc,Tanzania,TZ
TUMA/KCMUCo/BScHLSc.2014/2015/TZ/0307,TUMA/KCMUCo/BScHLSc/2015/2016/0653,,KIHANGA -IRINGA,JOSELINA,BEATUS,MFUGALE,Female,Single,Student,Bachelor of Science in Health Laboratory Science,BScHLSc,Tanzania,TZ
TUMA/KCMUCo/BScHLSc.2014/2015/TZ/0308,TUMA/KCMUCo/BScHLSc/2015/2016/0674,,10559,Khalid,Ramadhani,Ausi,Male,Single,Student,Bachelor of Science in Health Laboratory Science,BScHLSc,Tanzania,TZ
TUMA/KCMUCo/BScHLSc.2014/2015/TZ/0309,TUMA/KCMUCo/BScHLSc/2015/2016/0683,,PO BOX 1717 DSM,JUDICA,SHIFWAYANDUMI,MMARI,Male,Single,Student,Bachelor of Science in Health Laboratory Science,BScHLSc,Tanzania,TZ
TUMA/KCMUCo/BScHLSc.2014/2015/TZ/0310,TUMA/KCMUCo/BScHLSc/2015/2016/0678,,MBEYA,JACLEAN,CLIFFORD,MWANJOKA,Female,Single,Student,Bachelor of Science in Health Laboratory Science,BScHLSc,Tanzania,TZ
TUMA/KCMUCo/BScHLSc.2014/2015/TZ/0314,TUMA/KCMUCo/BScHLSc/2015/2016/0560,,PO BOX 1955 MOSHI,lusungu,laurent,mhenzi,Male,Single,Student,Bachelor of Science in Health Laboratory Science,BScHLSc,Tanzania,TZ
TUMA/KCMUCo/BScHLSc.2014/2015/TZ/0311,TUMA/KCMUCo/BScHLSc/2015/2016/0633,,996MBEYA,Fathiya,Abdi,Hussein,Female,Single,Student,Bachelor of Science in Health Laboratory Science,BScHLSc,Tanzania,TZ
TUMA/KCMUCo/BScHLSc.2014/2015/TZ/0312,TUMA/KCMUCo/BScHLSc/2015/2016/0643,,MUSOMA,NEEMA,NAP,FARAJA,Female,Single,Student,Bachelor of Science in Health Laboratory Science,BScHLSc,Tanzania,TZ
TUMA/KCMUCo/BScHLSc.2014/2015/TZ/0332,,,16158,goodlove,timotheo,mwakalobe,Male,Single,Student,Bachelor of Science in Health Laboratory Science,BScHLSc,Tanzania,TZ
TUMA/KCMUCo/BScHLSc.2014/2015/TZ/0313,TUMA/KCMUCo/BScHLSc/2015/2016/0654,,po box 590 moshi (urban),megan,fredrick,molla,Female,Single,Student,Bachelor of Science in Health Laboratory Science,BScHLSc,Tanzania,TZ
TUMA/KCMUCo/BScHLSc.2014/2015/TZ/0330,TUMA/KCMUCo/BScHLSc/2015/2016/0572,,MBEYA,ELLY,DAUDI,AMBILIKILE,Male,Single,Student,Bachelor of Science in Health Laboratory Science,BScHLSc,Tanzania,TZ
TUMA/KCMUCo/BScHLSc.2014/2015/TZ/0316,TUMA/KCMUCo/BScHLSc/2015/2016/0565,,Box 375-Mkuu Rombo,NOBERT,TARIMO,EFREMU,Male,Single,Student,Bachelor of Science in Health Laboratory Science,BScHLSc,Tanzania,TZ
TUMA/KCMUCo/BScHLSc.2014/2015/TZ/0315,TUMA/KCMUCo/BScHLSc/2015/2016/0634,,MOSHI,SOPHIA,HASSAN,SAIDI,Female,Single,Student,Bachelor of Science in Health Laboratory Science,BScHLSc,Tanzania,TZ
TUMA/KCMUCo/BScHLSc.2014/2015/TZ/0317,TUMA/KCMUCo/BScHLSc/2015/2016/0609,,NJOMBE,JANE,BENJAMINI,DANDA,Female,Single,Student,Bachelor of Science in Health Laboratory Science,BScHLSc,Tanzania,TZ
TUMA/KCMUCo/BScHLSc.2014/2015/TZ/0321,TUMA/KCMUCo/BScHLSc/2015/2016/0561,,P.O.Box 156 KYELA,MOLOLO,NOAH,MWANJALA,Male,Single,Student,Bachelor of Science in Health Laboratory Science,BScHLSc,Tanzania,TZ
TUMA/KCMUCo/BScHLSc.2014/2015/TZ/0319,TUMA/KCMUCo/BScHLSc/2015/2016/0555,,Box 1333 mwanza,ATHANAS,CHRISTOPHER,LUNYESHA,Male,Single,Student,Bachelor of Science in Health Laboratory Science,BScHLSc,Tanzania,TZ
TUMA/KCMUCo/BScHLSc.2014/2015/TZ/0320,TUMA/KCMUCo/BScHLSc/2015/2016/0573,,Box 1286 Arusha,RHODA,LAWRANCE,MOLLEL,Female,Single,Student,Bachelor of Science in Health Laboratory Science,BScHLSc,Tanzania,TZ
TUMA/KCMUCo/BScHLSc.2014/2015/TZ/0322,TUMA/KCMUCo/BScHLSc/2015/2016/0570,,mbeya,shangwe,lusekelo,mahena,Female,Single,Student,Bachelor of Science in Health Laboratory Science,BScHLSc,Tanzania,TZ
TUMA/KCMUCo/BScHLSc.2014/2015/TZ/0325,TUMA/KCMUCo/BScHLSc/2015/2016/0691,,P.O.BOX 57 Hai,ZAHIRI,RICHARD,MUNISI,Male,Single,Student,Bachelor of Science in Health Laboratory Science,BScHLSc,Tanzania,TZ
TUMA/KCMUCo/BScHLSc.2014/2015/TZ/0323,TUMA/KCMUCo/BScHLSc/2015/2016/0559,,PO BOX 123 TARAKEA,SARA,TESHA,RICHARD,Female,Single,Student,Bachelor of Science in Health Laboratory Science,BScHLSc,Tanzania,TZ
TUMA/KCMUCo/BScHLSc.2014/2015/TZ/0324,TUMA/KCMUCo/BScHLSc/2015/2016/0603,,PO BOX 11945 ARUSHA,ALFRED,MESHUKO,LOISHIYE,Male,Single,Student,Bachelor of Science in Health Laboratory Science,BScHLSc,Tanzania,TZ
TUMA/KCMUCo/BScHLSc.2014/2015/TZ/0326,TUMA/KCMUCo/BScHLSc/2015/2016/0688,,162 same,petro,julius,mnzava,Male,Single,Student,Bachelor of Science in Health Laboratory Science,BScHLSc,Tanzania,TZ
TUMA/KCMUCo/BScHLSc.2014/2015/TZ/0327,TUMA/KCMUCo/BScHLSc/2015/2016/0656,,Moshi,SILVESTERA,NICHOLAUS,NGOWI,Female,Single,Student,Bachelor of Science in Health Laboratory Science,BScHLSc,Tanzania,TZ
TUMA/KCMUCo/BScHLSc.2014/2015/TZ/0333,TUMA/KCMUCo/BScHLSc/2015/2016/0689,,mwanza,NGOLLO,SIMON,MISALABA,Female,Single,Student,Bachelor of Science in Health Laboratory Science,BScHLSc,Tanzania,TZ
TUMA/KCMUCo/BScHLSc.2014/2015/TZ/0329,TUMA/KCMUCo/BScHLSc/2015/2016/0662,,TANGA,NADHRA,HANEIN,ABDALLAH,Female,Single,Student,Bachelor of Science in Health Laboratory Science,BScHLSc,Tanzania,TZ
TUMA/KCMUCo/BScHLSc.2014/2015/TZ/0334,TUMA/KCMUCo/BScHLSc/2015/2016/0660,,BUNAZI,DINA,GERALD,JOSEPH,Female,Single,Student,Bachelor of Science in Health Laboratory Science,BScHLSc,Tanzania,TZ
TUMA/KCMUCo/BScHLSc.2014/2015/TZ/0331,TUMA/KCMUCo/BScHLSc/2015/2016/0543,,OLDMOSHI,JOSEPH,ELIMRINGI,MSHIU,Male,Single,Student,Bachelor of Science in Health Laboratory Science,BScHLSc,Tanzania,TZ
TUMA/KCMUCo/BScHLSc.2014/2015/TZ/0335,TUMA/KCMUCo/BScHLSc/2015/2016/0571,,PO BOX 1571 Singida,ALJAWADI,OMARI,KIDUBA,Male,Single,Student,Bachelor of Science in Health Laboratory Science,BScHLSc,Tanzania,TZ
TUMA/KCMUCo/BScHLSc.2014/2015/TZ/0336,TUMA/KCMUCo/BScHLSc/2015/2016/0635,,GALIJEMBE  MBEYA,Neema,Emily,Shabalenga,Female,Single,Student,Bachelor of Science in Health Laboratory Science,BScHLSc,Tanzania,TZ
TUMA/KCMUCo/BScHLSc.2014/2015/TZ/0338,TUMA/KCMUCo/BScHLSc/2015/2016/0602,,ARUSHA,thadeus,simon,mollel,Male,Single,Student,Bachelor of Science in Health Laboratory Science,BScHLSc,Tanzania,TZ
TUMA/KCMUCo/BScHLSc.2014/2015/TZ/0337,TUMA/KCMUCo/BScHLSc/2015/2016/0610,,MANYONI,holyness,philemon,samson,Female,Single,Student,Bachelor of Science in Health Laboratory Science,BScHLSc,Tanzania,TZ
TUMA/KCMUCo/BScHLSc.2014/2015/TZ/0339,TUMA/KCMUCo/BScHLSc/2015/2016/0544,,MKUU-ROMBO,DONATH,MKENDA,VALERIAN,Male,Single,Student,Bachelor of Science in Health Laboratory Science,BScHLSc,Tanzania,TZ
TUMA/KCMUCo/BScHLSc.2014/2015/TZ/0340,TUMA/KCMUCo/BScHLSc/2015/2016/0566,,P.O.BOX 1232 BUKOBA,EDASTELLA,AMANYA,WILSON,Female,Single,Student,Bachelor of Science in Health Laboratory Science,BScHLSc,Tanzania,TZ
TUMA/KCMUCo/BScHLSc.2014/2015/TZ/0341,TUMA/KCMUCo/BScHLSc/2016/2017/0781,,moshi,JOACHIM,ELIBARIKI,MOSHA,Male,Single,Student,Bachelor of Science in Health Laboratory Science,BScHLSc,Tanzania,TZ
TUMA/KCMUCo/BScHLSc.2014/2015/TZ/0342,TUMA/KCMUCo/BScHLSc/2015/2016/0557,,loliondo,samwel,saringe,mollel,Male,Single,Student,Bachelor of Science in Health Laboratory Science,BScHLSc,Tanzania,TZ
TUMA/KCMUCo/BScHLSc.2014/2015/TZ/0343,TUMA/KCMUCo/BScHLSc/2015/2016/0700,,16 TARIME MARA,NEEMA,MAGETTA,OTAIGO,Female,Single,Student,Bachelor of Science in Health Laboratory Science,BScHLSc,Tanzania,TZ
TUMA/KCMUCo/BScHLSc.2014/2015/TZ/0344,TUMA/KCMUCo/BScHLSc/2015/2016/0693,,mwanza,dickson,dagobert,kagirwa,Male,Single,Student,Bachelor of Science in Health Laboratory Science,BScHLSc,Tanzania,TZ
TUMA/KCMUCo/BScHLSc.2014/2015/TZ/0345,TUMA/KCMUCo/BScHLSc/2016/2017/0711,,TANGA,MARY,JOHN,MSUMARI,Female,Single,Student,Bachelor of Science in Health Laboratory Science,BScHLSc,Tanzania,TZ
TUMA/KCMUCo/BScHLSc.2014/2015/TZ/0346,TUMA/KCMUCo/BScHLSc/2015/2016/0695,,ARUSHA,GLORY,BRAYSON,LEMA,Female,Single,Student,Bachelor of Science in Health Laboratory Science,BScHLSc,Tanzania,TZ
TUMA/KCMUCo/BScHLSc.2014/2015/TZ/0347,TUMA/KCMUCo/BScHLSc/2015/2016/0684,,Arusha,Rose,Alphonce,Magambo,Female,Single,Student,Bachelor of Science in Health Laboratory Science,BScHLSc,Tanzania,TZ
TUMA/KCMUCo/BScHLSc.2014/2015/TZ/0348,TUMA/KCMUCo/BScHLSc/2015/2016/0608,,same,jonass,ismail,james,Male,Single,Student,Bachelor of Science in Health Laboratory Science,BScHLSc,Tanzania,TZ
TUMA/KCMUCO/PHY/2011/TZ/0091,,,Moshi,JULIANA,BONIFACE,PANGA,Female,Single,System Administrator,Bachelor of Science in Health Laboratory Science,BScHLSc,Tanzania,TZ
TUMA/KCMUCo/BScHLS.2012/13/TANZANIA/210,,,MARERA-SINGIDA,JEREMIA,JACKSON,PYUZA,Male,Single,System Administrator,Bachelor of Science in Health Laboratory Science,BScHLSc,Tanzania,TZ
TUMA/KCMUCO/BScHLSc.2012/2013 TZ/0230,,,min length=3 max length=25,FRED,FRANCIS,NGILIULE,Male,Single,System Administrator,Bachelor of Science in Health Laboratory Science,BScHLSc,Tanzania,TZ
TUMA/KCMUCo/BScHLSc/2012/13/TZ/0245,,,Dar es Salaam,idefonce,christian,mkingule,Male,Single,System Administrator,Bachelor of Science in Health Laboratory Science,BScHLSc,Tanzania,TZ
TUMA/KCMUCo/BScHLSc/2012/13/TZ/0244,,,NDANDA,TASILO,TASILO,KAMENYA,Male,Single,System Administrator,Bachelor of Science in Health Laboratory Science,BScHLSc,Tanzania,TZ
tUMA/KCMUCo/BScHLSc.2012/2013/TZ.0219,,,330moshi,magdalena,joseph,massawe,Female,Married,System Administrator,Bachelor of Science in Health Laboratory Science,BScHLSc,Tanzania,TZ
TUMA/KCMUCo/BSCHLSC.2012/2013/TZ/0233,,,MOSHI,DAUD,CHRISTIAN,MASWAGA,Male,Single,System Administrator,Bachelor of Science in Health Laboratory Science,BScHLSc,Tanzania,TZ
TUMA/KCMUCO/BSc.HLSc.2012/2013/TZ/0221,,,DODOMA,YULITHA,BARNABAS,JOSEPH,Female,Married,System Administrator,Bachelor of Science in Health Laboratory Science,BScHLSc,Tanzania,TZ
TUMA/KCMUCO/BscHLS.2012/2013/TANZANIA/0240,,,TABATA ILALA DAREESALAAM,ANIU,ROBERT,MLENGE,Male,Single,System Administrator,Bachelor of Science in Health Laboratory Science,BScHLSc,Tanzania,TZ
TUMA/KCMUCO/BscHLS.2012/2013/TANZANIA/0252,,,MASAMA HAI KILIMANJARO,MOSES,RABISAMEHE,MUNUO,Male,Single,System Administrator,Bachelor of Science in Health Laboratory Science,BScHLSc,Tanzania,TZ
TUMA/KCMUCO/BscHLS.2012/2013/TANZANIA/0220,TUMA/KCMUCo/BScHLSc/2015/2016/0682,,KARATU ARUSHA,STEPHEN,SELLA,TARMO,Male,Married,System Administrator,Bachelor of Science in Health Laboratory Science,BScHLSc,Tanzania,TZ
TUMA/KCMUCO/BscHLS.2012/2013/TANZANIA/0251,,,TANGA,DON,DOLCETTO,NGILISHO,Male,Single,System Administrator,Bachelor of Science in Health Laboratory Science,BScHLSc,Tanzania,TZ
TUMA/KCMUCO/BScHLSc/2012/2013/TZ/0213,,,Nyamongo,RYOBA,MWITA,KEBACHO,Male,Single,System Administrator,Bachelor of Science in Health Laboratory Science,BScHLSc,Tanzania,TZ
TUMA/KCMUCO/BscHLS.2012/2013/TZ/0238,,,LUGARAWA HOSPITAL,JUMANNE,PETRO,LUOGA,Male,Married,System Administrator,Bachelor of Science in Health Laboratory Science,BScHLSc,Tanzania,TZ
TUMA/KCMUCO/BscHLS.2012/2013/TZ/0241,,,DARESALAAM,ELISIFA,MANGU,MUNA,Male,Married,System Administrator,Bachelor of Science in Health Laboratory Science,BScHLSc,Tanzania,TZ
TUMA/KCMUCo/BScHLSc/2012/2013/TZ/0246,,NONE,20 MISUNGWI,PHILIP,MILENGANILO,LUTANDULA,Male,Single,System Administrator,Bachelor of Science in Health Laboratory Science,BScHLSc,Tanzania,TZ
TUMA/KCMUCO/BScHLSc/2012/2013/TZ/0243,,,ARUSHA,HAPPYNESS,HURDSON,TEMU,Female,Married,System Administrator,Bachelor of Science in Health Laboratory Science,BScHLSc,Tanzania,TZ
TUMA/KCMUCO/BHLSC2012/2013/TZ/0247,,,Missenyi-Kagera,DOMINIC,BARNABAS,NTIKAREJO,Male,Married,System Administrator,Bachelor of Science in Health Laboratory Science,BScHLSc,Tanzania,TZ
TUMA/KCMUCO/BSHLSc/2012/2013/TZ/0237,,,KARATU,SELINA,LOHAY,HOMBO,Female,Married,System Administrator,Bachelor of Science in Health Laboratory Science,BScHLSc,Tanzania,TZ
TUMA/KCMUCO/BSc.LAB/2012/2013/TZ/0243,,,KAGERA,INNOCENT,TITUS,KAMWAMWA,Male,Single,System Administrator,Bachelor of Science in Health Laboratory Science,BScHLSc,Tanzania,TZ
TUMA/KCMUCo/BScHLS/2012/13/TZ/0214,,,KINONDONI DAR-ES-SALAAM,AKILI,MWAKABHANA,MAWAZO,Male,Single,System Administrator,Bachelor of Science in Health Laboratory Science,BScHLSc,Tanzania,TZ
TUMA/KCMUCo/LAB/2011/2012/TZ/0265,,,KILIMANJARO,SARAPIA,PAUL,MALLYA,Female,Single,System Administrator,Bachelor of Science in Health Laboratory Science,BScHLSc,Tanzania,TZ
Tuma/kcmuco/bsc hlsc/2012/2013/TZ/0269,,,Tanga,victor,vincent,mosha,Male,Single,System Administrator,Bachelor of Science in Health Laboratory Science,BScHLSc,Tanzania,TZ
TUMA/KCMUCO/BSc.HLS/2012/2013/TZ/0233,,,YOMBO VITUKA DAR ES SALAAM,ELIZABETH,AUGUSTINE,KASAGAMA,Female,Single,System Administrator,Bachelor of Science in Health Laboratory Science,BScHLSc,Tanzania,TZ
TUMA/KCMUCo/BSc.LAB/2012/2013/TZ/0232,,KILIMANJARO,KILIMANJARO,ZUHURA,DHAHIRI,KIVAJU,Female,Married,System Administrator,Bachelor of Science in Health Laboratory Science,BScHLSc,Tanzania,TZ
TUMA/KCMUCo/BScHLS/2012/2013/TZ/0211,,,mbeya,EXAVERY,LULAMSO,MHANZE,Male,Married,System Administrator,Bachelor of Science in Health Laboratory Science,BScHLSc,Tanzania,TZ
TUMA/KCMUCo/BSCHLS2012/2013/TZ/0217,,,MAFINGA HOSPITAL IRINGA,SALVERIUS,BLASHID,MWALONGO,Male,Single,System Administrator,Bachelor of Science in Health Laboratory Science,BScHLSc,Tanzania,TZ
TUMA/KCMUCo/BScHLSc/2012/2013/TZ/0208,,,KILOSA,CALISTUS,FRANCE,NZOTA,Male,Single,System Administrator,Bachelor of Science in Health Laboratory Science,BScHLSc,Tanzania,TZ
TUMA/KCMUCO/BSCHLS/2012/13/TZ/0227,,,Bugando,OMARY,JUMA,KAPANDE,Male,Married,System Administrator,Bachelor of Science in Health Laboratory Science,BScHLSc,Tanzania,TZ
TUMA/KCMUCo/BScHLSc/2012/2013/TZ/0212,,,KILOSA,ERNEST,OBEDI,NTYAKUNZE,Male,Married,System Administrator,Bachelor of Science in Health Laboratory Science,BScHLSc,Tanzania,TZ
TUMA/KCMUCO/BScHLSc/2012/2013/TZ/0228,,,MOSHI,ROSE,ZACHARIA,RYOBA,Female,Married,System Administrator,Bachelor of Science in Health Laboratory Science,BScHLSc,Tanzania,TZ
TUMA/KCMUCO/BScHLSc2012/2013/TZ/0231,,,Ushirika,Aniseth,Eliezer,Malenga,Male,Married,System Administrator,Bachelor of Science in Health Laboratory Science,BScHLSc,Tanzania,TZ
TUMA/KCMUCo/BSHL/2012/2013/TZ/0225,,,Mtwara,Sarah,Gabriel,Mwakyoma,Female,Single,System Administrator,Bachelor of Science in Health Laboratory Science,BScHLSc,Tanzania,TZ
TUMA/KCMUCO/BScHLSc/2012/2013/Tz/0234,,,Tanga,Yusuph,Vincent,Mgaya,Male,Single,System Administrator,Bachelor of Science in Health Laboratory Science,BScHLSc,Tanzania,TZ
TUMA/KCMUCO/BScHLSc/2012/2013/TZ/0215,,,MWANZA,ESTHER,REUBEN,BUGUMBA,Female,Married,System Administrator,Bachelor of Science in Health Laboratory Science,BScHLSc,Tanzania,TZ
TU/KCMUCO/BScHLS/2012/13/TZ/0222,,,P.O BOX 2184 MWANZA,MASUMBUKO,ERNEST,SAGENGE,Male,Single,System Administrator,Bachelor of Science in Health Laboratory Science,BScHLSc,Tanzania,TZ
TUMA/KCMUCO/BScHLSc/2012/2013/TZ/0223,,,MWANZA,JOHN,GABRIELY,DAFFY,Male,Married,System Administrator,Bachelor of Science in Health Laboratory Science,BScHLSc,Tanzania,TZ
TUMA/KCMUCO/BHLS/2012/2013/TZ/0239,,,KILOSA,GODFREY,GERVAS,LWANGILIZA,Male,Married,System Administrator,Bachelor of Science in Health Laboratory Science,BScHLSc,Tanzania,TZ
TU/KCMUCO/BSCHLS/2012/2013/TZ/0249,,,P.O BOX 490 GEITA,IBRAHIM,JAMES,KANYATA,Male,Single,System Administrator,Bachelor of Science in Health Laboratory Science,BScHLSc,Tanzania,TZ
tUMA/KCMUCo/BScHLSc.2012/2013/TZ/0250,,,BUGAGA-KASULU,ntakilumo,kalulu,Bihendwa,Male,Single,System Administrator,Bachelor of Science in Health Laboratory Science,BScHLSc,Tanzania,TZ
TUMA/KCMUCO/BscHLSc.2012/2013/TZ/0235,,,Moshi,Nirav,Sudhir,Parmar,Male,Single,System Administrator,Bachelor of Science in Health Laboratory Science,BScHLSc,Tanzania,TZ
TUMA/KCMUCo/BscHLS/2012/2013/TZ/0236,,,MALINDI,SALEH,SHENI,MAKAME,Male,Married,System Administrator,Bachelor of Science in Health Laboratory Science,BScHLSc,Tanzania,TZ
TUMA/KCMUCO/BSCHLS/2012/2013/TZ/0216,,,MBEYA,Benedict,hugo,haule,Male,Single,System Administrator,Bachelor of Science in Health Laboratory Science,BScHLSc,Tanzania,TZ
TUMA/KCMUCo/BScHLSc.2015/2016/TZ/0349,TUMA/KCMUCo/BScHLSc/2015/2016/0547,,MOSHI,AZIZI,HUSSEIN,ITUKA,Male,Single,Student,Bachelor of Science in Health Laboratory Science,BScHLSc,Tanzania,TZ
TUMA/KCMUCo/BScHLSc.2015/2016/TZ/0352,TUMA/KCMUCo/BScHLSc/2015/2016/0671,,MOSHI,JULIANA,BONIFACE,PANGA,Female,Single,Student,Bachelor of Science in Health Laboratory Science,BScHLSc,Tanzania,TZ
TUMA/KCMUCo/BScHLSc.2015/2016/TZ/0350,TUMA/KCMUCo/BScHLSc/2015/2016/0597,,DAR ES SALAAM,ILYAS,ABDUL,MASOUD,Male,Single,Student,Bachelor of Science in Health Laboratory Science,BScHLSc,Tanzania,TZ
TUMA/KCMUCo/BScHLSc.2015/2016/TZ/0351,TUMA/KCMUCo/BScHLSc/2015/2016/0649,,DAR_ES_SALAAM,GIANSIA,ROWEL,MARIKI,Female,Single,Student,Bachelor of Science in Health Laboratory Science,BScHLSc,Tanzania,TZ
TUMA/KCMUCo/BScHLSc.2015/2016/TZ/0353,TUMA/KCMUCo/BScHLSc/2015/2016/0548,,KASULU,AUDAX,ALPHONCE,TANDITSE,Male,Single,Student,Bachelor of Science in Health Laboratory Science,BScHLSc,Tanzania,TZ
TUMA/KCMUCo/BScHLSc.2015/2016/TZ/0355,TUMA/KCMUCo/BScHLSc/2015/2016/0627,,KIMARA  DAR ES SALAAM,IBRAHIMU,HALIFA,SANDA,Male,Single,Student,Bachelor of Science in Health Laboratory Science,BScHLSc,Tanzania,TZ
TUMA/KCMUCo/BScHLSc.2015/2016/TZ/0356,TUMA/KCMUCo/BScHLSc/2015/2016/0578,,kiboriloni,PATRICK,GEORGE,CHUWA,Male,Single,Student,Bachelor of Science in Health Laboratory Science,BScHLSc,Tanzania,TZ
TUMA/KCMUCo/BScHLSc.2015/2016/TZ/0359,TUMA/KCMUCo/BScHLSc/2015/2016/0606,,Arusha,Bethsheba,Elibariki,Pallangyo,Female,Single,Student,Bachelor of Science in Health Laboratory Science,BScHLSc,Tanzania,TZ
TUMA/KCMUCo/BScHLSc.2015/2016/TZ/0354,TUMA/KCMUCo/BScHLSc/2015/2016/0626,,STREET NO.7,NUSAIBA,FUAD,BARAHIYAN,Female,Single,Student,Bachelor of Science in Health Laboratory Science,BScHLSc,Tanzania,TZ
TUMA/KCMUCo/BScHLSc.2015/2016/TZ/0374,TUMA/KCMUCo/BScHLSc/2015/2016/0590,,SONGEA-RUVUMA,EGNO,NALZIS,NDUNGURU,Male,Single,Student,Bachelor of Science in Health Laboratory Science,BScHLSc,Tanzania,TZ
TUMA/KCMUCo/BScHLSc.2015/2016/TZ/0402,TUMA/KCMUCo/BScHLSc/2015/2016/0685,,Dar-Es -Salaam,Anneth,Joel,Kimaro,Female,Single,Student,Bachelor of Science in Health Laboratory Science,BScHLSc,Tanzania,TZ
TUMA/KCMUCo/BScHLSc.2015/2016/TZ/0358,TUMA/KCMUCo/BScHLSc/2015/2016/0639,NO,MOSHI,ALAWI,SULEIMAN,SAID,Male,Single,Student,Bachelor of Science in Health Laboratory Science,BScHLSc,Tanzania,TZ
TUMA/KCMUCo/BScHLSc.2015/2016/TZ/0357,TUMA/KCMUCo/BScHLSc/2015/2016/0636,,1348 MUSOMA,MARK,GODGAVE,CHAGULLA,Male,Single,Student,Bachelor of Science in Health Laboratory Science,BScHLSc,Tanzania,TZ
TUMA/KCMUCo/BScHLSc.2015/2016/TZ/0361,TUMA/KCMUCo/BScHLSc/2015/2016/0620,,MOSHI,DAVID,JAMES,SANG'UDI,Male,Single,Student,Bachelor of Science in Health Laboratory Science,BScHLSc,Tanzania,TZ
TUMA/KCMUCo/BScHLSc.2015/2016/TZ/0398,TUMA/KCMUCo/BScHLSc/2015/2016/0614,,MOSHI,fadhili,nuhu,nyalusi,Male,Single,Student,Bachelor of Science in Health Laboratory Science,BScHLSc,Tanzania,TZ
TUMA/KCMUCo/BScHLSc.2015/2016/TZ/0362,TUMA/KCMUCo/BScHLSc/2015/2016/0604,,Dar es Salaam,Ikran,Hussein,Ahmed,Female,Single,Student,Bachelor of Science in Health Laboratory Science,BScHLSc,Tanzania,TZ
TUMA/KCMUCo/BScHLSc.2015/2016/TZ/0360,TUMA/KCMUCo/BScHLSc/2015/2016/0690,,MOSHI,SALVATORY,ALOYCE,SAMBOTI,Male,Single,Student,Bachelor of Science in Health Laboratory Science,BScHLSc,Tanzania,TZ
TUMA/KCMUCo/BScHLSc.2015/2016/TZ/0368,TUMA/KCMUCo/BScHLSc/2015/2016/0650,,Bukombe,JOSEPH,EDWARD,JOSEPH,Male,Single,Student,Bachelor of Science in Health Laboratory Science,BScHLSc,Tanzania,TZ
TUMA/KCMUCo/BScHLSc.2015/2016/TZ/0393,TUMA/KCMUCo/BScHLSc/2015/2016/0625,,4567,yasmin,zulu,sadik,Female,Single,Student,Bachelor of Science in Health Laboratory Science,BScHLSc,Tanzania,TZ
TUMA/KCMUCo/BScHLSc.2015/2016/TZ/0364,TUMA/KCMUCo/BScHLSc/2015/2016/0588,,MBALIZI-MBEYA,JENADY,GERODY,NGOGO,Male,Single,Student,Bachelor of Science in Health Laboratory Science,BScHLSc,Tanzania,TZ
TUMA/KCMUCo/BScHLSc.2015/2016/TZ/0363,TUMA/KCMUCo/BScHLSc/2015/2016/0623,,TARAKEA,Abdon,Tarimo,Julius,Male,Single,Student,Bachelor of Science in Health Laboratory Science,BScHLSc,Tanzania,TZ
TUMA/KCMUCo/BScHLSc.2015/2016/TZ/0367,TUMA/KCMUCo/BScHLSc/2015/2016/0583,,Moshi,HUGO,PETER,MUSHI,Male,Single,Student,Bachelor of Science in Health Laboratory Science,BScHLSc,Tanzania,TZ
TUMA/KCMUCo/BScHLSc.2015/2016/TZ/0366,TUMA/KCMUCo/BScHLSc/2015/2016/0580,,moshi,faith,allan,mosi,Female,Single,Student,Bachelor of Science in Health Laboratory Science,BScHLSc,Tanzania,TZ
TUMA/KCMUCo/BScHLSc.2015/2016/TZ/0365,TUMA/KCMUCo/BScHLSc/2015/2016/0658,,Dar es salaam,Hilda,Galda,Francis,Female,Single,Student,Bachelor of Science in Health Laboratory Science,BScHLSc,Tanzania,TZ
TUMA/KCMUCo/BScHLSc.2015/2016/TZ/0380,TUMA/KCMUCo/BScHLSc/2015/2016/0665,,moshi,Evarest,Ernest,Musei,Male,Single,Student,Bachelor of Science in Health Laboratory Science,BScHLSc,Tanzania,TZ
TUMA/KCMUCo/BScHLSc.2015/2016/TZ/0369,TUMA/KCMUCo/BScHLSc/2015/2016/0642,,MOSHI,Elizabeth,Mayala,Richard,Female,Single,Student,Bachelor of Science in Health Laboratory Science,BScHLSc,Tanzania,TZ
TUMA/KCMUCo/BScHLSc.2015/2016/TZ/0370,TUMA/KCMUCo/BScHLSc/2015/2016/0591,,MOSHI,SARAH,LEONCE,RUBAGUMYA,Female,Single,Student,Bachelor of Science in Health Laboratory Science,BScHLSc,Tanzania,TZ
TUMA/KCMUCo/BScHLSc.2015/2016/TZ/0371,TUMA/KCMUCo/BScHLSc/2015/2016/0697,,DAR ES SALAAM,NEEMA,ALLY,BENDERA,Female,Single,Student,Bachelor of Science in Health Laboratory Science,BScHLSc,Tanzania,TZ
TUMA/KCMUCo/BScHLSc.2015/2016/TZ/0372,TUMA/KCMUCo/BScHLSc/2015/2016/0582,,MOSHI,EDWIN,JAMES,MATEE,Male,Single,Student,Bachelor of Science in Health Laboratory Science,BScHLSc,Tanzania,TZ
TUMA/KCMUCo/BScHLSc.2015/2016/TZ/0373,TUMA/KCMUCo/BScHLSc/2015/2016/0595,,p.o.box 20misungwi mwanza,sophia,kitasowa,bukula,Female,Single,Student,Bachelor of Science in Health Laboratory Science,BScHLSc,Tanzania,TZ
TUMA/KCMUCo/BScHLSc.2015/2016/TZ/0375,TUMA/KCMUCo/BScHLSc/2015/2016/0670,,Turiani,GERALD,JONATHAN,ZAKAYO,Male,Single,Student,Bachelor of Science in Health Laboratory Science,BScHLSc,Tanzania,TZ
TUMA/KCMUCo/BScHLSc.2015/2016/TZ/0379,TUMA/KCMUCo/BScHLSc/2015/2016/0592,,Dar es salaam,MBARAKA,ABEID,ABDALLAH,Male,Single,Student,Bachelor of Science in Health Laboratory Science,BScHLSc,Tanzania,TZ
TUMA/KCMUCo/BScHLSc.2015/2016/TZ/0376,TUMA/KCMUCo/BScHLSc/2015/2016/0594,,MBEYA,caroline,sonni,mwaselela,Female,Single,Student,Bachelor of Science in Health Laboratory Science,BScHLSc,Tanzania,TZ
TUMA/KCMUCo/BScHLSc.2015/2016/TZ/0377,TUMA/KCMUCo/BScHLSc/2015/2016/0669,,1278,MAULID,NASS0R0,MAGANGA,Male,Single,Student,Bachelor of Science in Health Laboratory Science,BScHLSc,Tanzania,TZ
TUMA/KCMUCo/BScHLSc.2015/2016/TZ/0378,TUMA/KCMUCo/BScHLSc/2015/2016/0598,,Mbeya,Joel,Jackson,Nikupala,Male,Single,Student,Bachelor of Science in Health Laboratory Science,BScHLSc,Tanzania,TZ
TUMA/KCMUCo/BScHLSc.2015/2016/TZ/0383,TUMA/KCMUCo/BScHLSc/2015/2016/0574,,B0MA,SALAMA,SALEHE,KINGWAHI,Female,Single,Student,Bachelor of Science in Health Laboratory Science,BScHLSc,Tanzania,TZ
TUMA/KCMUCo/BScHLSc.2015/2016/TZ/0381,TUMA/KCMUCo/BScHLSc/2015/2016/0593,,p.o Box 98 Monduli,furaha,loomu,mollel,Female,Single,Student,Bachelor of Science in Health Laboratory Science,BScHLSc,Tanzania,TZ
TUMA/KCMUCo/BScHLSc.2015/2016/TZ/0382,TUMA/KCMUCo/BScHLSc/2015/2016/0581,,moshi,medard,mganyizi,joseph,Male,Single,Student,Bachelor of Science in Health Laboratory Science,BScHLSc,Tanzania,TZ
TUMA/KCMUCo/BScHLSc.2015/2016/TZ/0384,TUMA/KCMUCo/BScHLSc/2015/2016/0585,,moshi vijijini,Ebenezer,Lazaro,Mmari,Male,Single,Student,Bachelor of Science in Health Laboratory Science,BScHLSc,Tanzania,TZ
TUMA/KCMUCo/BScHLSc.2015/2016/TZ/0385,TUMA/KCMUCo/BScHLSc/2015/2016/0692,,1220 moshi,edwiga,paul,assenga,Female,Single,Student,Bachelor of Science in Health Laboratory Science,BScHLSc,Tanzania,TZ
TUMA/KCMUCo/BScHLSc.2015/2016/TZ/0391,TUMA/KCMUCo/BScHLSc/2015/2016/0645,,1583,JESCA,WINGIA,UISSO,Female,Single,Student,Bachelor of Science in Health Laboratory Science,BScHLSc,Tanzania,TZ
TUMA/KCMUCo/BScHLSc.2015/2016/TZ/0386,TUMA/KCMUCo/BScHLSc/2015/2016/0558,,P.O.BOX 242 KATESH,EZEKIEL,EMANUEL,WAHHAY,Male,Single,Student,Bachelor of Science in Health Laboratory Science,BScHLSc,Tanzania,TZ
TUMA/KCMUCo/BScHLSc.2015/2016/TZ/0388,TUMA/KCMUCo/BScHLSc/2015/2016/0553,,11 TABORA,SEVERINE,MERCHIORY,MLUNGWANA,Male,Single,Student,Bachelor of Science in Health Laboratory Science,BScHLSc,Tanzania,TZ
TUMA/KCMUCo/BScHLSc.2015/2016/TZ/0390,TUMA/KCMUCo/BScHLSc/2015/2016/0549,,nzega,wilson,marco,hape,Male,Single,Student,Bachelor of Science in Health Laboratory Science,BScHLSc,Tanzania,TZ
TUMA/KCMUCo/BScHLSc.2015/2016/TZ/0389,TUMA/KCMUCo/BScHLSc/2015/2016/0663,,MOSHI,GOODLUCK,GAMALIEL,NDOSSY,Male,Single,Student,Bachelor of Science in Health Laboratory Science,BScHLSc,Tanzania,TZ
TUMA/KCMUCo/BScHLSc.2016/2017/TZ/0497,TUMA/KCMUCo/BScHLSc/2016/2017/0714,,P.0.BOX 34 ILEMBULA,ABEL,LUCAS,LIHWEULI,Male,Single,Student,Bachelor of Science in Health Laboratory Science,BScHLSc,Tanzania,TZ
TUMA/KCMUCo/BScHLSc.2015/2016/TZ/0392,TUMA/KCMUCo/BScHLSc/2015/2016/0551,,KIBAHA PWANI,SHUKURU,JOSEPH,KIMARO,Male,Married,Student,Bachelor of Science in Health Laboratory Science,BScHLSc,Tanzania,TZ
TUMA/KCMUCo/BScHLSc.2015/2016/TZ/0395,TUMA/KCMUCo/BScHLSc/2015/2016/0554,,p.o.box 1907moshi,PETER,RAPHAEL,MASSAWE,Male,Single,Student,Bachelor of Science in Health Laboratory Science,BScHLSc,Tanzania,TZ
TUMA/KCMUCo/BScHLSc.2015/2016/TZ/0394,TUMA/KCMUCo/BScHLSc/2015/2016/0687,,659 MOSHI,KAREN,MANASA,URASA,Female,Single,Student,Bachelor of Science in Health Laboratory Science,BScHLSc,Tanzania,TZ
TUMA/KCMUCo/BScHLSc.2016/2017/TZ/0499,TUMA/KCMUCo/BScHLSc/2016/2017/0772,,75 TUKUYU,CHRISTOPHER,ISRAEL,MWIHOMEKE,Male,Single,Student,Bachelor of Science in Health Laboratory Science,BScHLSc,Tanzania,TZ
TUMA/KCMUCo/BScHLSc.2015/2016/TZ/0396,TUMA/KCMUCo/BScHLSc/2015/2016/0545,,Moshi shanti town,PETER,GEORGE,GONDWE,Male,Single,Student,Bachelor of Science in Health Laboratory Science,BScHLSc,Tanzania,TZ
TUMA/KCMUCo/BScHLSc.2015/2016/TZ/0397,TUMA/KCMUCo/BScHLSc/2015/2016/0599,,KIOMBOI-SINGIDA,EDAGRACE,PETER,ADAM,Female,Single,Student,Bachelor of Science in Health Laboratory Science,BScHLSc,Tanzania,TZ
TUMA/KCMUCo/BScHLSc.2015/2016/TZ/0399,TUMA/KCMUCo/BScHLSc/2015/2016/0686,,168 monduli,lengai,samwel,saruni,Male,Single,Student,Bachelor of Science in Health Laboratory Science,BScHLSc,Tanzania,TZ
TUMA/KCMUCo/BScHLSc.2015/2016/TZ/0400,TUMA/KCMUCo/BScHLSc/2015/2016/0630,,P O BOX 11 Malinyi,Yona,Amos,Ndangalasi,Male,Single,Student,Bachelor of Science in Health Laboratory Science,BScHLSc,Tanzania,TZ
TUMA/KCMUCo/BScHLSc.2015/2016/TZ/0401,TUMA/KCMUCo/BScHLSc/2015/2016/0586,,Mara Tanzania,mamba,mwita,mohamed,Male,Single,Student,Bachelor of Science in Health Laboratory Science,BScHLSc,Tanzania,TZ
TUMA/KCMUCo/BScHLSc.2015/2016/TZ/0403,TUMA/KCMUCo/BScHLSc/2015/2016/0589,,kahama,ANDREW,ROBINSON,ANDREA,Male,Single,Student,Bachelor of Science in Health Laboratory Science,BScHLSc,Tanzania,TZ
TUMA/KCMUCo/BScHLSc.2015/2016/TZ/0404,TUMA/KCMUCo/BScHLSc/2015/2016/0666,,ngorongoro,saitoti,timoth,saetwa,Male,Single,Student,Bachelor of Science in Health Laboratory Science,BScHLSc,Tanzania,TZ
TUMA/KCMUCo/BScHLSc.2016/2017/TZ/0505,TUMA/KCMUCo/BScHLSc/2016/2017/0777,,P.O BOX 62,SEPHANIA,WILIAD,MBILINYI,Male,Single,Student,Bachelor of Science in Health Laboratory Science,BScHLSc,Tanzania,TZ
TUMA/KCMUCo/BScHLSc.2015/2016/TZ/0406,TUMA/KCMUCo/BScHLSc/2015/2016/0584,,MOSHI,ALFRED,CHACHA,CHARLES,Male,Married,Student,Bachelor of Science in Health Laboratory Science,BScHLSc,Tanzania,TZ
TUMA/KCMUCo/BScHLSc.2015/2016/TZ/0405,TUMA/KCMUCo/BScHLSc/2015/2016/0681,,MOSHI,PETER,JOHN,MSAKI,Male,Single,Student,Bachelor of Science in Health Laboratory Science,BScHLSc,Tanzania,TZ
TUMA/KCMUCo/BScHLSc.2015/2016/TZ/0407,TUMA/KCMUCo/BScHLSc/2015/2016/0601,,SIMIYU,RODA,MAKALWE,MWANISI,Female,Single,Student,Bachelor of Science in Health Laboratory Science,BScHLSc,Tanzania,TZ
TUMA/KCMUCo/BScHLSc.2015/2016/TZ/0413,TUMA/KCMUCo/BScHLSc/2015/2016/0676,,mkwajuni-mbeya,thadeo,philipo,kayanda,Male,Single,Student,Bachelor of Science in Health Laboratory Science,BScHLSc,Tanzania,TZ
TUMA/KCMUCo/BScHLSc.2015/2016/TZ/0408,TUMA/KCMUCo/BScHLSc/2015/2016/0546,,SONI,BARAKA,GIDEON,NGOTONYINGI,Male,Single,Student,Bachelor of Science in Health Laboratory Science,BScHLSc,Tanzania,TZ
TUMA/KCMUCo/BScHLSc.2015/2016/TZ/0409,TUMA/KCMUCo/BScHLSc/2015/2016/0563,,MTWARA,HAMZA,HAMISI,MAWAZO,Male,Single,Student,Bachelor of Science in Health Laboratory Science,BScHLSc,Tanzania,TZ
TUMA/KCMUCo/BScHLSc.2015/2016/TZ/0410,TUMA/KCMUCo/BScHLSc/2015/2016/0672,,DAR ES SALAAM,HEMED,NASSORO,HEMED,Male,Single,Student,Bachelor of Science in Health Laboratory Science,BScHLSc,Tanzania,TZ
TUMA/KCMUCo/BScHLSc.2016/2017/TZ/0504,TUMA/KCMUCo/BScHLSc/2016/2017/0776,,P.O.BOX 3015,MAGWEIGA,MAGIGE,MWITA,Male,Single,Student,Bachelor of Science in Health Laboratory Science,BScHLSc,Tanzania,TZ
TUMA/KCMUCo/BScHLSc.2015/2016/TZ/0411,TUMA/KCMUCo/BScHLSc/2015/2016/0668,,2011 MOSHI,KARLSON,ROWLAND,MTOROBO,Male,Single,Student,Bachelor of Science in Health Laboratory Science,BScHLSc,Tanzania,TZ
TUMA/KCMUCo/BScHLSc.2015/2016/TZ/0415,TUMA/KCMUCo/BScHLSc/2015/2016/0550,,KILIMANJARO,BONIFACE,PAUL,MOLLEL,Male,Single,Student,Bachelor of Science in Health Laboratory Science,BScHLSc,Tanzania,TZ
TUMA/KCMUCo/BScHLSc.2015/2016/TZ/0414,TUMA/KCMUCo/BScHLSc/2015/2016/0552,NONE,P.O BOX 980 DODOMA,CLEMENT,JOSEPH,MBOJE,Male,Single,Student,Bachelor of Science in Health Laboratory Science,BScHLSc,Tanzania,TZ
TUMA/KCMUCo/BScHLSc.2015/2016/TZ/0416,TUMA/KCMUCo/BScHLSc/2015/2016/0575,,KIBAONI CHUNYA MBEYA,MICHAEL,ULIMBU,CLEMENCE,Male,Single,Student,Bachelor of Science in Health Laboratory Science,BScHLSc,Tanzania,TZ
TUMA/KCMUCo/BScHLSc.2015/2016/TZ/0412,TUMA/KCMUCo/BScHLSc/2015/2016/0667,,dar-es-laam,EDWIN,CHRISTIAN,CHVALA,Male,Single,Student,Bachelor of Science in Health Laboratory Science,BScHLSc,Tanzania,TZ
TUMA/KCMUCo/BScHLSc.2015/2016/TZ/0417,TUMA/KCMUCo/BScHLSc/2016/2017/0706,,MBEYA TANZANIA,KELLY,ISSA,KAZINYINGI,Male,Single,Student,Bachelor of Science in Health Laboratory Science,BScHLSc,Tanzania,TZ
TUMA/KCMUCo/BScHLSc.2015/2016/TZ/0418,TUMA/KCMUCo/BScHLSc/2015/2016/0600,,PO BOX 398,BARAKA,SOLOMON,MSOMBA,Male,Single,Student,Bachelor of Science in Health Laboratory Science,BScHLSc,Tanzania,TZ
TUMA/KCMUCo/BScHLSc.2016/2017/TZ/0506,TUMA/KCMUCo/BScHLSc/2016/2017/0778,,569 IRINGA,KELVIN,SIFAIDA,CHAULA,Male,Single,Student,Bachelor of Science in Health Laboratory Science,BScHLSc,Tanzania,TZ
TUMA/KCMUCo/BScHLSc.2015/2016/TZ/0419,TUMA/KCMUCo/BScHLSc/2015/2016/0677,,NYASAKA MWANZA,GEOFREY,HERYCO,MUGANYIZI,Male,Single,Student,Bachelor of Science in Health Laboratory Science,BScHLSc,Tanzania,TZ
TUMA/KCMUCo/BScHLSc.2016/2017/TZ/0507,TUMA/KCMUCo/BScHLSc/2016/2017/0779,,mbeya,layson,peter,mwakipesile,Male,Single,Student,Bachelor of Science in Health Laboratory Science,BScHLSc,Tanzania,TZ
TUMA/KCMUCo/BScHLSc.2016/2017/TZ/0500,TUMA/KCMUCo/BScHLSc/2016/2017/0773,,ARUSHA TOWN,DAUDI,SAILEPU,SIRIA,Male,Single,Student,Bachelor of Science in Health Laboratory Science,BScHLSc,Tanzania,TZ
TUMA/KCMUCo/BScHLSc.2015/2016/TZ/0424,TUMA/KCMUCo/BScHLSc/2015/2016/0596,,KAGERA,MUJUNI,JOSEPHAT,MAGAMBO,Male,Single,Student,Bachelor of Science in Health Laboratory Science,BScHLSc,Tanzania,TZ
TUMA/KCMUCo/BScHLSc.2015/2016/TZ/0420,TUMA/KCMUCo/BScHLSc/2015/2016/0587,,P.O.Box 2 maramba Tanga,Charles,Michael,Msuya,Male,Single,Student,Bachelor of Science in Health Laboratory Science,BScHLSc,Tanzania,TZ
TUMA/KCMUCo/BScHLSc.2015/2016/TZ/0422,TUMA/KCMUCo/BScHLSc/2015/2016/0622,,LUSHOTO,GRAYSON,ALOYCE,SHEMALAMBA,Male,Single,Student,Bachelor of Science in Health Laboratory Science,BScHLSc,Tanzania,TZ
TUMA/KCMUCo/BScHLSc.2016/2017/TZ/0498,TUMA/KCMUCo/BScHLSc/2016/2017/0771,,Dar es salaam,BUNANE,SWEKE,KADINGU,Male,Single,Student,Bachelor of Science in Health Laboratory Science,BScHLSc,Tanzania,TZ
TUMA/KCMUCo/BScHLSc.2015/2016/TZ/0421,TUMA/KCMUCo/BScHLSc/2015/2016/0577,,MBEYA,FARAJA,ABEL,WIMBI,Female,Single,Student,Bachelor of Science in Health Laboratory Science,BScHLSc,Tanzania,TZ
TUMA/KCMUCo/BScHLSc.2015/2016/TZ/0429,TUMA/KCMUCo/BScHLSc/2015/2016/0579,,shinyanga,NEEMA,PETER,SHINDIKA,Female,Single,Student,Bachelor of Science in Health Laboratory Science,BScHLSc,Tanzania,TZ
TUMA/KCMUCo/BScHLSc.2015/2016/TZ/0423,TUMA/KCMUCo/BScHLSc/2015/2016/0564,,Po box 2649 arusha,PATRICK,LUCAS,MABULA,Male,Single,Student,Bachelor of Science in Health Laboratory Science,BScHLSc,Tanzania,TZ
TUMA/KCMUCo/BScHLSc.2015/2016/TZ/0425,TUMA/KCMUCo/BScHLSc/2015/2016/0664,,P.O.BOX 878 NJOMBE,KELVIN,JORDAN,FWALO,Male,Single,Student,Bachelor of Science in Health Laboratory Science,BScHLSc,Tanzania,TZ
TUMA/KCMUCo/BScHLSc.2015/2016/TZ/0427,TUMA/KCMUCo/BScHLSc/2015/2016/0556,,gairo-morogoro,DAVID,ROBERT,KUSEKWA,Male,Single,Student,Bachelor of Science in Health Laboratory Science,BScHLSc,Tanzania,TZ
TUMA/KCMUCo/BScHLSc.2015/2016/TZ/0426,TUMA/KCMUCo/BScHLSc/2015/2016/0675,,iringa,DEOGRACIOUS,VENANCE,MPOTWA,Male,Single,Student,Bachelor of Science in Health Laboratory Science,BScHLSc,Tanzania,TZ
TUMA/KCMUCo/BScHLSc.2016/2017/TZ/0503,TUMA/KCMUCo/BScHLSc/2016/2017/0775,,P.O BOX 1425 MOSHI,gilbert,godfrey,waria,Male,Single,Student,Bachelor of Science in Health Laboratory Science,BScHLSc,Tanzania,TZ
TUMA/KCMUCo/BScHLSc.2015/2016/TZ/0428,TUMA/KCMUCo/BScHLSc/2015/2016/0661,,RUVUMA,NG'UMBE,LUBABA,MTEMBA,Male,Single,Student,Bachelor of Science in Health Laboratory Science,BScHLSc,Tanzania,TZ
TUMA/KCMUCo/BScHLSc.2015/2016/TZ/0430,TUMA/KCMUCo/BScHLSc/2015/2016/0699,,125-HIMO,EUNICE,JULIUS,KISANGA,Female,Single,Student,Bachelor of Science in Health Laboratory Science,BScHLSc,Tanzania,TZ
,,,Bermondsey Road  UK,Example,Test,Student,Male,Married,Student,Bachelor of Science in Health Laboratory Science,BScHLSc,South Africa,ZA
TUMA/KCMUCo/BScHLSc.2016/2017/TZ/0431,TUMA/KCMUCo/BScHLSc/2016/2017/0715,,TANGA,MAGRETH,ASSONS,MLEMBA,Female,Single,Student,Bachelor of Science in Health Laboratory Science,BScHLSc,Tanzania,TZ
TUMA/KCMUCo/BScHLSc.2016/2017/TZ/0437,TUMA/KCMUCo/BScHLSc/2016/2017/0716,NONE,P.O.BOX13028,VIVIAN,MESHACK,LAIZER,Female,Single,Student,Bachelor of Science in Health Laboratory Science,BScHLSc,Tanzania,TZ
TUMA/KCMUCo/BScHLSc.2016/2017/TZ/0433,TUMA/KCMUCo/BScHLSc/2016/2017/0717,NONE,MWANZA 1609,MICHAEL,JOHN,NGOWI,Male,Single,Student,Bachelor of Science in Health Laboratory Science,BScHLSc,Tanzania,TZ
,,NONE,BOMA,LETICIA,GOODLUCK,LAIZER,Female,Single,Student,Bachelor of Science in Health Laboratory Science,BScHLSc,Tanzania,TZ
TUMA/KCMUCo/BScHLSc.2016/2017/TZ/0432,TUMA/KCMUCo/BScHLSc/2016/2017/0718,NO,MWIKA MSAE,ELIMRINGI,HANNINGTON,NGAO,Male,Single,Student,Bachelor of Science in Health Laboratory Science,BScHLSc,Tanzania,TZ
TUMA/KCMUCo/BScHLSc.2016/2017/TZ/0480,TUMA/KCMUCo/BScHLSc/2016/2017/0719,NO,DAR-ES-SALAAM,JESCA,DEOGRATIAS,WILIAM,Female,Single,Student,Bachelor of Science in Health Laboratory Science,BScHLSc,Tanzania,TZ
,,NONE,,JOSEPH,JOHN,OBONYO,Male,Single,Student,Bachelor of Science in Health Laboratory Science,BScHLSc,Tanzania,TZ
TUMA/KCMUCo/BScHLSc.2016/2017/TZ/0461,TUMA/KCMUCo/BScHLSc/2016/2017/0721,NONE,SHIRATI,JOSEPH,JOHN,OBONYO,Male,Single,Student,Bachelor of Science in Health Laboratory Science,BScHLSc,Tanzania,TZ
TUMA/KCMUCo/BScHLSc.2016/2017/TZ/0444,TUMA/KCMUCo/BScHLSc/2016/2017/0722,NONE,DARESSALAAM,LAURENT,ALPHONCE,KURWA,Male,Single,Student,Bachelor of Science in Health Laboratory Science,BScHLSc,Tanzania,TZ
TUMA/KCMUCo/BScHLSc.2016/2017/TZ/0496,TUMA/KCMUCo/BScHLSc/2016/2017/0713,,MWANZA,FAUSTA,LUKUNDO,NSHUSHI,Female,Single,Student,Bachelor of Science in Health Laboratory Science,BScHLSc,Tanzania,TZ
,,NIL,MBEYA,MVINJE,ZACHARIA,JAMSON,Male,Single,Student,Bachelor of Science in Health Laboratory Science,BScHLSc,Tanzania,TZ
TUMA/KCMUCo/BScHLSc.2016/2017/TZ/0454,TUMA/KCMUCo/BScHLSc/2016/2017/0723,NONE,MOSHI,GABRIEL,EZROM,SHOO,Male,Single,Student,Bachelor of Science in Health Laboratory Science,BScHLSc,Tanzania,TZ
,,NONE,,WITNESS,PAUL,GAILANGA,Female,Married,Student,Bachelor of Science in Health Laboratory Science,BScHLSc,,
TUMA/KCMUCo/BScHLSc.2016/2017/TZ/0457,TUMA/KCMUCo/BScHLSc/2016/2017/0724,NONE,MOSHI,ELIZABETH,ALFRED,JOHN,Female,Single,Student,Bachelor of Science in Health Laboratory Science,BScHLSc,Tanzania,TZ
TUMA/KCMUCo/BScHLSc.2016/2017/TZ/0476,TUMA/KCMUCo/BScHLSc/2016/2017/0725,none,MAGU-MWANZA,PASTORY,MAHAHILA,NDIMI,Male,Single,Student,Bachelor of Science in Health Laboratory Science,BScHLSc,Tanzania,TZ
,,NONE,MOSHI,BERNADIN,AMATI,MASSAWE,Male,Single,Student,Bachelor of Science in Health Laboratory Science,BScHLSc,Tanzania,TZ
TUMA/KCMUCo/BScHLSc.2016/2017/TZ/0435,TUMA/KCMUCo/BScHLSc/2016/2017/0726,NONE,PO BOX HIMO,IBRAHIM,IRENEUS,MAUKI,Male,Single,Student,Bachelor of Science in Health Laboratory Science,BScHLSc,Tanzania,TZ
TUMA/KCMUCo/BScHLSc.2016/2017/TZ/0440,TUMA/KCMUCo/BScHLSc/2016/2017/0727,NONE,P.O.BOX 30041 TUMBI KIBAHA,WITNESS,PAUL,GAILANGA,Female,Married,Student,Bachelor of Science in Health Laboratory Science,BScHLSc,Tanzania,TZ
TUMA/KCMUCo/BScHLSc.2016/2017/TZ/0478,TUMA/KCMUCo/BScHLSc/2016/2017/0728,NONE,ARUSHA,JOSEPH,DANIEL,OLOMI,Male,Married,Student,Bachelor of Science in Health Laboratory Science,BScHLSc,Tanzania,TZ
,,NONE,,GABRIEL,EZROM,SHOO,Male,Single,Student,Bachelor of Science in Health Laboratory Science,BScHLSc,Tanzania,TZ
TUMA/KCMUCo/BScHLSc.2016/2017/TZ/0446,TUMA/KCMUCo/BScHLSc/2016/2017/0729,NONE,P.O.BOX 2039 DODOMA,DOREEN,MTAJE,MGAYO,Female,Single,Student,Bachelor of Science in Health Laboratory Science,BScHLSc,Tanzania,TZ
TUMA/KCMUCo/BScHLSc.2016/2017/TZ/0466,TUMA/KCMUCo/BScHLSc/2016/2017/0730,NONE,MOSHI,JASPER,KEFA,KIMAMBO,Male,Married,Student,Bachelor of Science in Health Laboratory Science,BScHLSc,Tanzania,TZ
TUMA/KCMUCo/BScHLSc.2016/2017/TZ/0439,TUMA/KCMUCo/BScHLSc/2016/2017/0731,NONE,MBEYA KYELA,BERNADETHA,MGIMBA,STEPHEN,Female,Single,Student,Bachelor of Science in Health Laboratory Science,BScHLSc,Tanzania,TZ
TUMA/KCMUCo/BScHLSc.2016/2017/TZ/0445,TUMA/KCMUCo/BScHLSc/2016/2017/0732,NONE,MWANZA,DAMIAN,JOB,KAHAMBA,Male,Single,Student,Bachelor of Science in Health Laboratory Science,BScHLSc,Tanzania,TZ
TUMA/KCMUCo/BScHLSc.2016/2017/TZ/0501,TUMA/KCMUCo/BScHLSc/2016/2017/0774,NONE,NGORONGORO,HENRY,LUCAS,MLAY,Male,Single,Student,Bachelor of Science in Health Laboratory Science,BScHLSc,Tanzania,TZ
TUMA/KCMUCo/BScHLSc.2016/2017/TZ/0436,TUMA/KCMUCo/BScHLSc/2016/2017/0733,NONE,DAR ES SALAM,MARTIN,LUTHER,KENTE,Male,Single,Student,Bachelor of Science in Health Laboratory Science,BScHLSc,Tanzania,TZ
TUMA/KCMUCo/BScHLSc.2016/2017/TZ/0447,TUMA/KCMUCo/BScHLSc/2016/2017/0734,NONE,SINGIDA,HEAVENLIGHT,FREDRICK,NGOMASI,Female,Single,Student,Bachelor of Science in Health Laboratory Science,BScHLSc,Tanzania,TZ
,,NONE,,HEAVENLIGHT,FREDRICK,NGOMASI,Female,Single,Student,Bachelor of Science in Health Laboratory Science,BScHLSc,Tanzania,TZ
TUMA/KCMUCo/BScHLSc.2016/2017/TZ/0438,TUMA/KCMUCo/BScHLSc/2016/2017/0735,NONE,RUBYA-BUKOBA,MASHAKA,GERVAS,KAJI,Male,Married,Student,Bachelor of Science in Health Laboratory Science,BScHLSc,Tanzania,TZ
TUMA/KCMUCo/BScHLSc.2016/2017/TZ/0452,TUMA/KCMUCo/BScHLSc/2016/2017/0736,NONE,MOSHI,salama,rashid,amour,Female,Single,Student,Bachelor of Science in Health Laboratory Science,BScHLSc,Tanzania,TZ
,,NONE,,RIBSON,ELICHILIA,MLAKI,Male,Single,Student,Bachelor of Science in Health Laboratory Science,BScHLSc,,
,,NONE,,MICHAEL,JOHN,NGOWI,Male,Single,Student,Bachelor of Science in Health Laboratory Science,BScHLSc,,
,,NONE,P.O.BOX 1609,MICHAEL,JOHN,NGOWI,Male,Single,Student,Bachelor of Science in Health Laboratory Science,BScHLSc,Tanzania,TZ
TUMA/KCMUCo/BScHLSc.2016/2017/TZ/0453,TUMA/KCMUCo/BScHLSc/2016/2017/0737,NONE,MOSHI,FAUSTINE,REMY,MTALO,Male,Single,Student,Bachelor of Science in Health Laboratory Science,BScHLSc,Tanzania,TZ
,,NONE,,BROWN,MODESTUS,KAVINDI,Male,Single,Student,Bachelor of Science in Health Laboratory Science,BScHLSc,,
TUMA/KCMUCo/BScHLSc.2016/2017/TZ/0455,TUMA/KCMUCo/BScHLSc/2016/2017/0738,NONE,P.O BOX 50 SONGEA RUVUMA,DANIEL,ARTHUR,MWANDISI,Male,Single,Student,Bachelor of Science in Health Laboratory Science,BScHLSc,Tanzania,TZ
TUMA/KCMUCo/BScHLSc.2016/2017/TZ/0441,TUMA/KCMUCo/BScHLSc/2016/2017/0739,EYES,gothadchamba@gmail.com,GOTHAD,OSIAH,CHAMBA,Male,Single,Student,Bachelor of Science in Health Laboratory Science,BScHLSc,Tanzania,TZ
TUMA/KCMUCo/BScHLSc.2016/2017/TZ/0451,TUMA/KCMUCo/BScHLSc/2016/2017/0740,NONE,P.O BOX 68 MAFINGA,NICKSON,NOEL,MLIGO,Male,Single,Student,Bachelor of Science in Health Laboratory Science,BScHLSc,Tanzania,TZ
TUMA/KCMUCo/BScHLSc.2016/2017/TZ/0450,TUMA/KCMUCo/BScHLSc/2016/2017/0741,NONE,IRINGA,BROWN,MODESTUS,KAVINDI,Male,Single,Student,Bachelor of Science in Health Laboratory Science,BScHLSc,Tanzania,TZ
,,NONE,P.O.BOX 2240 MOSHI,ISAYA,MWANJALA,SAYOTA,Male,Single,Student,Bachelor of Science in Health Laboratory Science,BScHLSc,Tanzania,TZ
TUMA/KCMUCo/BScHLSc.2016/2017/TZ/0443,TUMA/KCMUCo/BScHLSc/2016/2017/0742,NONE,SUMBAWANGA,ISAYA,MWANJALA,SAYOTA,Male,Single,Student,Bachelor of Science in Health Laboratory Science,BScHLSc,Tanzania,TZ
,,NO,SHINYANGA,DANIEL,JOSEPH,MASALAGO,Male,Unmarried Partner,Student,Bachelor of Science in Health Laboratory Science,BScHLSc,Tanzania,TZ
TUMA/KCMUCo/BScHLSc.2016/2017/TZ/0442,TUMA/KCMUCo/BScHLSc/2016/2017/0743,,P.O.BOX 29 MWIKA,RIBSON,ELICHILIA,MLAKI,Male,Single,Student,Bachelor of Science in Health Laboratory Science,BScHLSc,Tanzania,TZ
,,NONE,SHINYANGA,DANIEL,JOSEPH,MASALAGO,Male,Single,Student,Bachelor of Science in Health Laboratory Science,BScHLSc,Tanzania,TZ
TUMA/KCMUCo/BScHLSc.2016/2017/TZ/0471,TUMA/KCMUCo/BScHLSc/2016/2017/0744,NONE,BUNDA,MARY,OLUCHO,MAGATI,Female,Single,Student,Bachelor of Science in Health Laboratory Science,BScHLSc,Tanzania,TZ
TUMA/KCMUCo/BScHLSc.2016/2017/TZ/0448,TUMA/KCMUCo/BScHLSc/2016/2017/0745,NONE,P.O.BOX 27 KALIUA TABORA,NTAKIMAZI,DAUDI,KAKALA,Male,Single,Student,Bachelor of Science in Health Laboratory Science,BScHLSc,Tanzania,TZ
TUMA/KCMUCo/BScHLSc.2016/2017/TZ/0459,TUMA/KCMUCo/BScHLSc/2016/2017/0746,NONE,SONGEA,JUENI,MARIJANI,MROPE,Male,Single,Student,Bachelor of Science in Health Laboratory Science,BScHLSc,Tanzania,TZ
TUMA/KCMUCo/BScHLSc.2016/2017/TZ/0465,TUMA/KCMUCo/BScHLSc/2016/2017/0747,,MOSHI,EUGENIA,JAMES,MMASI,Female,Single,Student,Bachelor of Science in Health Laboratory Science,BScHLSc,Tanzania,TZ
,,NONE,NYAMAGANA MWANZA,CHACHA,PETER,KERAMBO,Male,Single,Student,Bachelor of Science in Health Laboratory Science,BScHLSc,Tanzania,TZ
TUMA/KCMUCo/BScHLSc.2016/2017/TZ/0467,TUMA/KCMUCo/BScHLSc/2016/2017/0748,NONE,ARUSHA,SAYUNI,AYOUB,MUNNA,Female,Single,Student,Bachelor of Science in Health Laboratory Science,BScHLSc,Tanzania,TZ
TUMA/KCMUCo/BScHLSc.2016/2017/TZ/0460,TUMA/KCMUCo/BScHLSc/2016/2017/0749,NON,MOSHI KCMC,EDWARD,THOMAS,MAJOR,Male,Single,Student,Bachelor of Science in Health Laboratory Science,BScHLSc,Tanzania,TZ
TUMA/KCMUCo/BScHLSc.2016/2017/TZ/0449,TUMA/KCMUCo/BScHLSc/2016/2017/0750,NONE,MBEYA,PETTY,JOSEPH,MZUMBWE,Female,Single,Student,Bachelor of Science in Health Laboratory Science,BScHLSc,Tanzania,TZ
,,NONE,,PETTY,JOSEPH,MZUMBWE,Female,Single,Student,Bachelor of Science in Health Laboratory Science,BScHLSc,,
TUMA/KCMUCo/BScHLSc.2016/2017/TZ/0456,TUMA/KCMUCo/BScHLSc/2016/2017/0751,NIL,RORYA,SAMWEL,MAGESA,CHRISTOPHER,Male,Single,Student,Bachelor of Science in Health Laboratory Science,BScHLSc,Tanzania,TZ
TUMA/KCMUCo/BScHLSc.2016/2017/TZ/0502,TUMA/KCMUCo/BScHLSc/2016/2017/0780,non,KYELA MBEYA,GIVEN,JOEL,MWANKILI,Male,Single,Student,Bachelor of Science in Health Laboratory Science,BScHLSc,Tanzania,TZ
TUMA/KCMUCo/BScHLSc.2016/2017/TZ/0462,TUMA/KCMUCo/BScHLSc/2016/2017/0752,NONE,MOSHI,FLORA,FULGENCE,MUHINGA,Female,Single,Student,Bachelor of Science in Health Laboratory Science,BScHLSc,Tanzania,TZ
TUMA/KCMUCo/BScHLSc.2016/2017/TZ/0475,TUMA/KCMUCo/BScHLSc/2016/2017/0753,NONE,KCMC,VICTORIA,HENRY,MASUE,Female,Single,Student,Bachelor of Science in Health Laboratory Science,BScHLSc,Tanzania,TZ
,,NONE,,VICTORIA,HENRY,MASUE,Female,Single,Student,Bachelor of Science in Health Laboratory Science,BScHLSc,Tanzania,TZ
TUMA/KCMUCo/BScHLSc.2016/2017/TZ/0458,TUMA/KCMUCo/BScHLSc/2016/2017/0754,NILL,MWANZA,CHACHA,PETER,KERAMBO,Male,Single,Student,Bachelor of Science in Health Laboratory Science,BScHLSc,Tanzania,TZ
TUMA/KCMUCo/BScHLSc.2016/2017/TZ/0468,TUMA/KCMUCo/BScHLSc/2016/2017/0755,NONE,MOSHI,RAFAEL,VALENTINE,MASSAWE,Male,Single,Student,Bachelor of Science in Health Laboratory Science,BScHLSc,Tanzania,TZ
TUMA/KCMUCo/BScHLSc.2016/2017/TZ/0469,TUMA/KCMUCo/BScHLSc/2016/2017/0756,NONE,ARUSHA,IRENE,DANIEL,JEREMIAH,Female,Single,Student,Bachelor of Science in Health Laboratory Science,BScHLSc,Tanzania,TZ
TUMA/KCMUCo/BScHLSc.2016/2017/TZ/0470,TUMA/KCMUCo/BScHLSc/2016/2017/0757,NONE,HAI,FELIX,IBRAHIM,MOSHA,Male,Married,Student,Bachelor of Science in Health Laboratory Science,BScHLSc,Tanzania,TZ
TUMA/KCMUCo/BScHLSc.2016/2017/TZ/0463,TUMA/KCMUCo/BScHLSc/2016/2017/0758,,MOSHI,SEURY,GODSON,MMBAGA,Male,Single,Student,Bachelor of Science in Health Laboratory Science,BScHLSc,Tanzania,TZ
TUMA/KCMUCo/BScHLSc.2016/2017/TZ/0474,TUMA/KCMUCo/BScHLSc/2016/2017/0759,,NYANG'HWALE GEITA,PETER,MAGAGA,KUCHIBA,Male,Married,Student,Bachelor of Science in Health Laboratory Science,BScHLSc,Tanzania,TZ
,,NONE,,HOSIANA,PHILEMON,SOMI,Female,Single,Student,Bachelor of Science in Health Laboratory Science,BScHLSc,,
,,NONE,P.O. BOX 21,HOSIANA,PHILEMON,SOMI,Female,Single,Student,Bachelor of Science in Health Laboratory Science,BScHLSc,Tanzania,TZ
TUMA/KCMUCo/BScHLSc.2016/2017/TZ/0464,TUMA/KCMUCo/BScHLSc/2016/2017/0760,none,NDANDA MASASI,frank,ferdinand,ndunguru,Male,Single,Student,Bachelor of Science in Health Laboratory Science,BScHLSc,Tanzania,TZ
,,NONE,P.O BOX 113 SHINYANGA,NTUGWA,NTELEZU,MADUHU,Male,Single,Student,Bachelor of Science in Health Laboratory Science,BScHLSc,Tanzania,TZ
TUMA/KCMUCo/BScHLSc.2016/2017/TZ/0472,TUMA/KCMUCo/BScHLSc/2016/2017/0761,NONE,MBEYA,INNOCENT,JACKSON,SANGA,Male,Single,Student,Bachelor of Science in Health Laboratory Science,BScHLSc,Tanzania,TZ
TUMA/KCMUCO/BSC.LAB/0398,,NONE,MAKAMBAKO,FADHILI,NUHU,NYALUSI,Male,Single,Student,Bachelor of Science in Health Laboratory Science,BScHLSc,Tanzania,TZ
TUMA/KCMUCo/BSc.HLCS/0412,,NONE,DAR-ES-SALAAM,EDWIN,CHRISTIAN,CHAVALA,Male,Single,Student,Bachelor of Science in Health Laboratory Science,BScHLSc,Tanzania,TZ
TUMA/KCMUCo/BScHLSc.2016/2017/TZ/0487,TUMA/KCMUCo/BScHLSc/2016/2017/0762,none,HANDENI,KHAMIS,HAMAD,KYAABI,Male,Single,Student,Bachelor of Science in Health Laboratory Science,BScHLSc,Tanzania,TZ
TUMA/KCMUCo/BScHLSc.2016/2017/TZ/0477,TUMA/KCMUCo/BScHLSc/2016/2017/0763,NONE,DAR ES SALAAM,WENCESLAUS,HAMIS,SHIJA,Male,Single,Student,Bachelor of Science in Health Laboratory Science,BScHLSc,Tanzania,TZ
TUMA/KCMUCo/BScHLSc.2016/2017/TZ/0479,TUMA/KCMUCo/BScHLSc/2016/2017/0764,,TARAKEA,MARY,JOHN,KIMARIO,Female,Single,Student,Bachelor of Science in Health Laboratory Science,BScHLSc,Tanzania,TZ
TUMA/KCMUCo/BScHLSc.2016/2017/TZ/0483,TUMA/KCMUCo/BScHLSc/2016/2017/0765,NONE,MWANGA,ALFANI,ALLENI,ALFANI,Male,Single,Student,Bachelor of Science in Health Laboratory Science,BScHLSc,Tanzania,TZ
TUMA/KCMUCo/BScHLSc.2016/2017/TZ/0481,TUMA/KCMUCo/BScHLSc/2016/2017/0766,NONE,KAMBI YA CHUPA,HELLEN,HONEST,NDANU,Female,Single,Student,Bachelor of Science in Health Laboratory Science,BScHLSc,Tanzania,TZ
TUMA/KCMUCo/BScHLSc.2016/2017/TZ/0482,TUMA/KCMUCo/BScHLSc/2016/2017/0767,NONE,P.O.BOX 661 NJOMBE,JASMIN,GODFREY,MHANGA,Female,Single,Student,Bachelor of Science in Health Laboratory Science,BScHLSc,Tanzania,TZ
TUMA/KCMUCo/BScHLSc.2016/2017/TZ/0485,TUMA/KCMUCo/BScHLSc/2016/2017/0768,NONE,MOSHI,ELIUD,FESTO,SHIJA,Male,Single,Student,Bachelor of Science in Health Laboratory Science,BScHLSc,Tanzania,TZ
TUMA/KCMUCo/BScHLSc.2016/2017/TZ/0484,TUMA/KCMUCo/BScHLSc/2016/2017/0769,NONE,MANGA VILLAGE,Ditrick,Fedrick,Kihombo,Male,Unmarried Partner,Student,Bachelor of Science in Health Laboratory Science,BScHLSc,Tanzania,TZ
TUMA/KCMUCo/BScHLSc.2016/2017/TZ/0486,TUMA/KCMUCo/BScHLSc/2016/2017/0770,NIL,MBULU,EMMANUEL,JOSEPH,AWE,Male,Married,Student,Bachelor of Science in Health Laboratory Science,BScHLSc,Tanzania,TZ
