@-header,instruction_!_ Please DO NOT CHANGE THE STRUCTURE OF THIS FILE,,,,,
@-header,compilationTime_!_ 2018:05:10:08:30:39,,,,,
@-header,columnCount_!_ 7,,,,,
@-header,maximumScore_!_ 100,,,,,
@-header,fileType_!_ results,,,,,
@-header,fileTypeCode_!_ a68816c37b60d1e016b21809447de93c,,,,,
@-header,courseId_!_ 6,,,,,
@-header,courseName_!_ Bachelor of Science in Nursing (Pre-Service),,,,,
@-header,year_!_ 4,,,,,
@-header,semester_!_ 1,,,,,
@-header,batchId_!_ 6,,,,,
@-header,batchName_!_ 2014/2015,,,,,
@-header,flags_!_ 0,,,,,
,,,,,,
,,,,,,973
Ref,GPA,Reg Number,Flags,Details,res,Community Health Nursing
781,,TUMA/KCMUCo/BSC.N/2015/2016/0628,65,,,
765,,TUMA/KCMUCo/BSC.N/2015/2016/0659,65,,,
876,,TUMA/KCMUCo/BSC.N/2015/2016/0661,65,,,
708,,TUMA/KCMUCo/BSC.N/2015/2016/0669,65,,,
894,,TUMA/KCMUCo/BSC.N/2015/2016/0673,65,,,
923,,TUMA/KCMUCo/BSC.N/2015/2016/0681,9,,,
861,,TUMA/KCMUCo/BSC.N/2015/2016/0682,9,,,
911,,TUMA/KCMUCo/BSC.N/2015/2016/0688,65,,,
879,,TUMA/KCMUCo/BSC.N/2015/2016/0689,65,,,
855,,TUMA/KCMUCo/BSC.N/2015/2016/0691,65,,,
864,,TUMA/KCMUCo/BSC.N/2015/2016/0693,65,,,
936,,TUMA/KCMUCo/BSC.N/2015/2016/0697,9,,,
743,,TUMA/KCMUCo/BSC.N/2015/2016/0698,9,,,
862,,TUMA/KCMUCo/BSC.N/2015/2016/0719,65,,,
845,,TUMA/KCMUCo/BSC.N/2015/2016/0721,9,,,
927,,TUMA/KCMUCo/BSC.N/2015/2016/0723,9,,,
735,,TUMA/KCMUCo/BSC.N/2015/2016/0724,9,,,
799,,TUMA/KCMUCo/BSC.N/2015/2016/0727,65,,,
948,,TUMA/KCMUCo/BSC.N/2015/2016/0736,65,,,
726,,TUMA/KCMUCo/BSC.N/2015/2016/0746,65,,,
875,,TUMA/KCMUCo/BSC.N/2015/2016/0748,65,,,
737,,TUMA/KCMUCo/BSC.N/2015/2016/0749,65,,,
842,,TUMA/KCMUCo/BSC.N/2015/2016/0750,9,,,
884,,TUMA/KCMUCo/BSC.N/2015/2016/0753,9,,,
915,,TUMA/KCMUCo/BSC.N/2015/2016/0755,9,,,
847,,TUMA/KCMUCo/BSC.N/2015/2016/0756,9,,,
899,,TUMA/KCMUCo/BSC.N/2015/2016/0757,65,,,
890,,TUMA/KCMUCo/BSC.N/2015/2016/0759,9,,,
715,,TUMA/KCMUCo/BSC.N/2015/2016/0760,65,,,
886,,TUMA/KCMUCo/BSC.N/2015/2016/0761,65,,,
764,,TUMA/KCMUCo/BSC.N/2015/2016/0768,9,,,
758,,TUMA/KCMUCo/BSC.N/2015/2016/0771,9,,,
818,,TUMA/KCMUCo/BSC.N/2015/2016/0786,65,,,
893,,TUMA/KCMUCo/BSC.N/2015/2016/0789,9,,,
778,,TUMA/KCMUCo/BSC.N/2015/2016/0791,65,,,
859,,TUMA/KCMUCo/BSC.N/2015/2016/0801,9,,,
901,,TUMA/KCMUCo/BSC.N/2015/2016/0802,9,,,
940,,TUMA/KCMUCo/BSC.N/2015/2016/0804,9,,,
892,,TUMA/KCMUCo/BSC.N/2015/2016/0805,65,,,
912,,TUMA/KCMUCo/BSC.N/2015/2016/0813,65,,,
909,,TUMA/KCMUCo/BSC.N/2015/2016/0819,65,,,
733,,TUMA/KCMUCo/BSC.N/2015/2016/0822,9,,,
863,,TUMA/KCMUCo/BSC.N/2016/2017/0826,9,,,
922,,TUMA/KCMUCo/BSC.N/2016/2017/0827,9,,,
798,,TUMA/KCMUCo/BSC.N/2016/2017/0828,65,,,
