1010.subjectName,1010.subjectCode,1010.lectureHours,1010.lectureUnits
Data collection,,0,0
SURVELLANCE,0,0,0
Anatomy,1,0,0
Communication and Computer Application skills,10,0,0
RESEARCH METHODOLOGY,104,0,0
ADVANCED MEDICAL BACTERIOLOGY,1108,0,0
Clinical Pharmacology,12,1,0
Microbiology/Immunology,13,0,0
Parasitology/Entomology,21,0,0
Linear regression,ABM 121,0,0
Logistic regression,ABM 122,0,0
R- Statistical Package,ABM 123,0,0
Survey Methods,ABM 124,0,0
Likelihood Theory,ABM 125,0,0
Introduction to survival analysis (Poisson regression),ABM 126,0,0
Advanced Survival analysis,ABM 231,0,0
Multi-level models,ABM 232,0,0
Advanced strategies of analysis,ABM 233,0,0
Principal Components of Analysis,ABM 234,0,0
Analysis of Longitudinal Data,ABM 235,0,0
LINEAR REGRESSION,ABM121,0,0
LOGISTIC REGRESSION,ABM122,0,0
SURVEY METHODS,ABM124,0,0
LIKELIHOOD THEORY,ABM125,0,0
INTRO TO SURVIVAL ANALYSIS (POISSON REGRESSION),ABM126,0,0
ADVANCED SURVIVAL ANALYSIS,ABM231,40,8
MULTI-LEVEL MODELS,ABM232,0,0
ADVANCED STUDY DESIGNS 2,ABM236,0,0
Advanced Study Designs,AEM 111,0,0
Surveillance,AEM 112,0,0
Epidemiology of Communicable Disease,AEM 113,0,0
Epidemiology of Non-Communicable Disease,AEM 114,0,0
Screening and Diagnostics,AEM 115,0,0
Bio-ethics and GCP,AEM 121,0,0
Monitoring and Evaluation of Health Projects,AEM 122,0,0
ADVANCED STUDY DESIGNS,AEM111,0,0
EPIDEMIOLOGY OF COMMUNICABLE DISEASE,AEM113,0,0
EPIDEMIOLOGY OF NON COMMUNICABLE DISEASE,AEM114,0,0
SCREENING AND DIAGNOSTICS,AEM115,0,0
BIO-ETHICS AND GCP,AEM121,0,0
APPLIED ANATOMY LAB TECHNOLOGY,ALT501,0,0
Anatomy,ANA 104,0,0
Anatomy,ANA 111,0,0
Anatomy,ANA 114,0,0
Anatomy and physiology – II,ANP 100-II,0,0
Anatomy and physiology – III,ANP 200-III,0,0
Anatomy and physiology – IV,ANP 200-IV,0,0
Anatomy and Physiology 1,ANP100-1,0,0
Advanced Nursing Sciences,ANS 204,0,0
Nursing Sciences and Entrepreneurship,ANS 304,0,0
Advanced Nursing Sciences,ANS 314,0,0
Advanced Nursing Sciences,ANS 324,0,0
,AP 100-2,0,0
Applied Biochemistry,BAB122,0,0
Applied Chemistry,BAC112,0,0
Advanced Contact Lenses,BACL362,0,0
Anterior Eye Diseases,BAE353,0,0
Advanced Low Vision& Gerontology,BALV367,0,0
Applied Mathematics,BAM115,0,0
Basic Pathology,BAP 202,0,0
Applied Physics,BAP121,0,0
Basic Contact Lenses,BBC352,0,0
Binocular Vision Anomalies and Therapy,BBV363,0,0
Clinical case Analysis,BCA471,0,0
Contact Lens Practice,BCLP284,0,0
Clinical Medicine for optometry,BCM473,0,0
Clinical Optometry Procedure,BCO232,0,0
Clinical Optometry Procedure II,BCO361,0,0
Clinical Optometry practice,BCO481,0,0
Computers Science,BCS116,0,0
Dispensing Optics I,BDO124,0,0
Dispensing Optics II,BDO236,0,0
Dispensing Optical practice,BDP485,0,0
Development Studies,BDS118,0,0
Epidemiology and Biostatistics,BEB246,0,0
Basic eye care Clinics,BEC242,0,0
Ethics and professionalism,BET125,0,0
Foundation of Faith,BFF119,0,0
General Anatomy I,BGA111,0,0
General Anatomy II,BGA126,0,0
General Physiology I,BGP113,0,0
General Physiology II,BGP127,0,0
General Pharmacology,BGP233,0,0
Intermediate Eye Care Clinics,BIE351,0,0
Biomechanics – I,BIM 100-I,0,0
Biomechanics – II,BIM 200-II,0,0
Biomechanics III,BIM 200-III,0,0
Biomechanics – IV,BIM 300-IV,0,0
Biomechanics – VI,BIM 400-VI,0,0
Biomechanics – V,BIM300-V,0,0
Biochemistry,BIN 104,0,0
Biochemistry,BIN 114,0,0
Biotechnology,BIO 101,0,0
Basic Chemistry and Biochemistry,BIO 112,0,0
Molecular  Biology,BIO 301,0,0
Introduction to Optometry I,BIO117,0,0
Introduction to Optometry II,BIO129,0,0
Biochemistry,Bio201,0,0
Biochemistry,BIOC 101,0,0
Medical Biostatistics,BIS 114,0,0
Biostatics,BIS 301,0,0
Low vision clinical practice,BLP483,0,0
Low Vision & Rehabilitation,BLV243,0,0
Microbiology& immunology,BMB114,0,0
Ocular Anatomy and Physiology I,BOA235,0,0
Ocular Anatomy and Physiology II,BOA247,0,0
Ocular Diseases,BOD231,0,0
Occupational & Environmental Optometry,BOE366,0,0
Ocular Motility and Binocular Vision,BOM355,0,0
Ophthalmic Optics I,BOO234,0,0
Ophthalmic Optics II,BOO245,0,0
General & Ocular Pharmacology,BOP356,0,0
Optometric research Project,BOR475,0,0
Basic Pathology,BP201,0,0
Paediatric Optometry,BPA472,24,0
Primary Eye Care,BPE368,0,0
Physical & Geometric Optics,BPG123,0,0
Basic Pharmacology,BPH 201,0,0
Public Health & Community Optometry,BPH244,0,0
Practice Management and Jurisprudence,BPM474,0,0
Posterior &Neurological eye diseases,BPNE364,0,0
Physiological Optics,BPO241,0,0
Paed .Optom clinical practice,BPP482,0,0
Psychology,BPS128,0,0
Basic Pathology,BPT 201,0,0
Research Methodology and Project design,BRM365,0,0
Blood Transfussion,BT 102,0,0
Blood Transfusion,BTR 101,0,0
Blood Transfusion,BTR 202,0,0
Blood Transfusion,BTR 2321,0,0
Blood Transfusion,BTR 2421,0,0
Blood Transfusion,BTR 3621,0,0
Blood Transfussion Science,BTS 201,0,0
Visual Perception and Neurophysiology,BVP354,0,0
Clinical Biochemistry,CBC 120,1,1
Clinical Biochemistry,CBC 210,1,1
Clinical Biochemistry,CBC 220,1,1
ADVANCED CELL STRUCTURE & CELL BIOLOGY,CBM501,0,0
Clinical Chemistry,CC 201,0,0
Clinical Chemistry,CC 202,0,0
Clinical Chemistry,CC 301,0,0
Clinical Chemistry,CC 302,0,0
Basic Chemistry,CEM 100,0,0
Clinical Chemistry,CHE 125,0,0
Clinical Chemistry,CHE 2325,0,0
Clinical Chemistry,CHE 2425,0,0
Clinical Biochemistry,CHE 3525,0,0
Clinical Biochemistry,CHE 3625,0,0
Community  Health Nursing,CHN 204,0,0
Community Nursing,CHN 304,0,0
Computer skills and information technology,CIT 115,0,0
ADVANCED CELL STRUCTURE & CELL BIOLOGY,CMB501,0,0
Community Health,COH 201,0,0
Community Health,COH 401,0,0
Communication Skills,COM 129,0,0
Computer Science,COS 200,0,0
Computer Science  – I,COS 200-I,0,0
ICT & COMPUTER SKILLS,CR601,0,0
BASIC MICROBIOLOGY,CR605,0,0
Bioethics & Data Management,CR606,0,0
MOLECULAR BIOLOGY,CR607,0,0
MOLECULAR BIOLOGY TECHNIQUES,CR608,0,0
CELLULAR & MOLECULAR IMMUNOLOGY,CR609,0,0
APPLIED IMMUNOLOGY,CR610,0,0
CLINICAL RESEARCH MANAGEMENT & ADMINISTRATION,CR611,0,0
HEALTH INFORMATION SYSTEMS & HEALTH SYSTEMS RES.,CR612,0,0
TECHNIQUES IN IMMUNOLOGY,CR613,0,0
CLINICAL PHARMACOLOGY,CR614,0,0
COMMUNICABLE & NON COMMUNICABLE DISEASES,CR615,0,0
Field Attachment,CR616,1,1
TECHNIQUES IN MEDICAL MICROBIOLOGY,CR617,0,0
Communication Skills,CS 100,0,0
Introduction to Stata,CSM 111,0,0
Data collection MS Access,CSM112,0,0
Communication Skills,CSN 104,0,0
Course Work,CW102,60,6
Clinical Workshop Management,CWM 400,0,0
Dermatology,DER 401,0,0
Dissertation,DIS 116,1,1
Dissertation,DIS618,0,0
FIELD WORK (6 WEEKS),DOC  4210,0,0
PHYSICAL DYSFUNCTION,DOC 3028,0,0
FIELD WORK,DOC 3029,0,0
CLINICAL SCIENCE PSYCHIATRIC,DOC 32052,0,0
PHYSICAL DYSFUNCTION,DOC 3207,0,0
FIELD WORK (6 WEEKS),DOC 4210,0,0
COMMUNITY,DOC 4212,0,0
ADMINISTRATION &MANAGEMENT,DOC 5318,0,0
FIELD WORK (6 WEEKS),DOC-4210,0,0
Anatomy,DOC1101,0,0
Physiology,DOC1102,0,0
Sociology,DOC1103,0,0
Psychology,DOC1104,0,0
Clinical Science,DOC1105,0,0
Practical Media,DOC1106,0,0
Primary Health Care,DOC1107,0,0
Foundation Ot Practice,DOC1109,0,0
Field Visits (I/2 Day),DOC1110,0,0
Anatomy,DOC2101,0,0
Physiology,DOC2102,0,0
Clinical Science Pediatric Conditions,DOC21051,0,0
Practical Media,DOC2106,0,0
Foundation Of Ot Practice,DOC2109,0,0
Fieldwork (Observation),DOC2110,0,0
Adapting &Adaptive Equipment,DOC2111,0,0
Community,DOC2112,0,0
Ot App. Physical Dysfunction,DOC2113,0,0
Ot Aplied To Pediatrics,DOC2114,0,0
Clinical Science Pediatric Conditions,DOC32052,0,0
Clinical Science Mental Health Conditions,DOC32053,0,0
Practical Media,DOC3206,0,0
Foundation Of Ot Practice,DOC3209,0,0
Fieldwork,DOC3210,0,0
Community,DOC3212,0,0
Ot Aplied To Pediatrics,DOC3214,0,0
RESEARCH,DOC42017,0,0
Practical Media,DOC4206,0,0
Fieldwork (6 Weeks),DOC4210,0,0
Ot Applied To Physical Dysfunction,DOC4213,0,0
Ot Aplied To Pediatrics,DOC4214,0,0
Ot Aplied To Mental Health,DOC4215,0,0
Kinesiology,DOC4216,0,0
Researc H,DOC4217,0,0
Ot App. Physical Dysfunction,DOC5313,0,0
Ot Aplied To Mental Health,DOC5314,0,0
Ot Aplied To Pediatrics,DOC5315,0,0
Reaserch,DOC5317,0,0
Fieldwork,DOC63101,0,0
Fieldwork Elective,DOC63102,0,0
Ot App. Physical Dysfunction,DOC6313,0,0
Ot Aplied To Pediatrics,DOC6314,0,0
Ot Aplied To Mental Health,DOC6315,0,0
Research,DOC6316,0,0
Administration & Management,DOC6318,0,0
Development Studies,DS 100,0,0
Development Studies,DSN 204,0,0
Development Studies,DST 201,0,0
External clinical attachment,ECA300,0,0
Entrepreneurship,EHP 317,0,0
Electro-technology – I,ELT 300-I,0,0
Electro-Technology – II,ELT 300-II,0,0
EDUCATION METHODS AND EVALUATION,EM500,0,0
Engineering Design 1,END 100-1,0,0
Engineering design – II,END 100-II,0,0
Ear Nose and Throat,ENT 401,0,0
Epidemiology and Biostatistics,EPB204,0,0
Epidemiology and Biostatistics,EPIBIO 201,0,0
Epidemiology and Biostatistics,EPIBIO 301,0,0
Biostastics,FBIO 1103,40,4
Introduction to Global Health,FCM 101,0,0
Biostatistics,FCM 102,0,0
Epidemiology,FCM 103,0,0
Research Methodology,FCM 104,0,0
Research management and leadership,FCM 105,0,0
Teaching Methodology,FCM 106,0,0
Introduction to global health,FCM 111,0,0
Biostatistics,FCM 112,0,0
Epidemiology,FCM 113,0,0
Research Methodology,FCM 114,0,0
Research management and leadership,FCM 115,0,0
Teaching Methodology,FCM 116,0,0
INTRODUCTION TO GLOBAL HEALTH,FCM101,0,0
BIOSTATISTICS,FCM102,0,0
EPIDEMIOLOGY,FCM103,0,0
RESEARCH METHODOLOGY,FCM104,0,0
RESEARCH MANAGEMENT AND LEADERSHIP,FCM105,0,0
TEACHING METHODOLOGY,FCM106,0,0
Foundation of  Faith,FOF 100,0,0
Foundation of Faith,FOF 201,0,0
Foundation of Faith,FOF 204,0,0
Foundation of faith,FOF 2428,0,0
Foundation of Faith,FOF 300,0,0
Field Practice,FP 301,0,0
General Surgery,GES 301,0,0
General Surgery,GSR 300,0,0
Haematology,HAE 201,0,0
Haematology,HAE 301,0,0
Haematology and Transfusion Science,HAEM  302,0,0
Haematology and Transfusion Science,HAEM 101,0,0
Haematology and Transfusion Science,HAEM 202,0,0
Haematology and Entomolog,HAEM 31,0,0
Haematology and Transfusion Science,HAM 201,0,0
HUMAN DEVELOPMENT & GENETICS,HDG601,0,0
Haematology,HEM 122,0,0
Haematology,HEM 2322,0,0
Haematology,HEM 2422,0,0
Haematology,HEM 3522,0,0
Haematology,HEM 3622,0,0
SYSTEMIC HUMAN EMBRYOLOGY,HES501,0,0
SYSTEMIC HUMAN HISTOLOGY,HHS501,0,0
Histopathology and Morbid anatomy,HIS 124,0,0
Histopathology/Morbid Anatomy,HIS 2324,0,0
Histopathology/Morbid Anatomy,HIS 2424,0,0
Histopathology/Morbid Anatomy,HIS 3524,0,0
Histopathology and Morbid Anatomy,HIS 3624,0,0
Histotechnology,HIST 101,0,0
Histotechnology,HIST 201,0,0
Histotechnology,HIST 202,0,0
Histotechnology,HIST 301,0,0
Histotechnology,HIST 302,0,0
Health Economics and Health Care Financing,HSM 102,0,0
Leadership in Public Health Programs,HSM 103,0,0
Law in Public Health and Bioethics,HSM 104,0,0
Refugee Health and Disaster Management (Optional),HSM 106,0,0
Health System and Health Policy,HSM 112,0,0
Monitoring and Evaluation of Health Projects,HSM 113,0,0
Law  Ethics & Public Health,HSM 114,0,0
HEALTH ECONOMICS & HEALTH CARE FINANCING,HSM102,0,0
LAW IN PUBLIC HEALTH & BIOETHICS,HSM103,0,0
MONITORING & EVALUATION,HSM105,0,0
MICROSCOPY & HISTOTECHNOLOGY,HTC601,0,0
Internal clinical attachment,ICA 400,0,0
Immunology and immunodiagnostics,IDT 120,0,0
Immunology,IM201,0,0
Immunology,IMM 202,0,0
Internal Medicine,INM 301,0,0
Instrumentation,IST 116,0,0
Computer Applications,IT 101,0,0
Anesthesia,K8AN    4729,0,0
Anatomy,K8ANA1101,0,0
Biochemistry,K8BC1102,0,0
Behavioral Sciences,K8BS2315,0,0
Community Health /Epidemiology,K8CE2311,0,0
Community Health /Ep,K8CE2418,0,0
Clinical Laboratory,K8CL  3627,0,0
Clinical Laboratory,K8CL 3627,0,0
Community Medicine,K8CM1104,0,0
Clinical Practical Skills Training,K8CP3521,0,0
Dental,K8DE   3625,0,0
Community Medicine,K8DM   4835,0,0
Emergency Medicine  1,K8EM  5942,0,0
Health Promotion /Psychology,K8HP   3624,0,0
Infectious Disease  IMCI,K8ID     362,0,0
Internal  Medicine,K8IM 51043,0,0
Internal  Medicine,K8IM 5937,0,0
Microbiology,K8MI2419,0,0
Microbiology /Nursing,K8MN2312,0,0
Obs/Gyn 2,K8OB   51046,0,0
Obs/Gyn 1,K8OB   5941,0,0
Ophthalmology,K8OP 3628,0,0
Orthopedic,K8OR   4730,0,0
Parasitology,K8PA2309,0,0
Parasitology,K8PA2416,0,0
Psychiatry,K8PC   4734,0,0
Pediatrics 2,K8PE    5104,0,0
Pediatrics 1,K8PE    5939,0,0
Physiology,K8PH1103,0,0
Pharmacology,K8PM2314,0,0
Pharmacology,K8PM2420,0,0
Peripheral Hospital,K8PR3522,0,0
Psychology,K8PS 1106,0,0
Pathology,K8PT2310,0,0
Pathology,K8PT2417,0,0
Radiology,K8RA  3626,0,0
Research,K8RE      48,0,0
Skin and STD,K8SS    4732,0,0
Surgery 1,K8SU    5940,0,0
Surgery 2,K8SU 51045,0,0
Urology,K8UR   4731,0,0
Anatomy,KBAN 1102,0,0
Anatomy,KBAN 1202,0,0
Anatomy Level 1,KBAN1102,0,0
Biochemistry,KBBC 1101,0,0
Biochemistry,KBBC 1201,0,0
Biochemistry Level 1,KBBC1106,0,0
Behavioural Science,KBBS1101,0,0
Psychology,KBBS1101-1,0,0
Clinical reasoning,KBBS1201,0,0
Communication and Computer Application skills,KBCC 1107,0,0
Community Health Nursing,KBCH 3222,0,0
Community Health Nursing,KBCH 4122,0,0
Community Health Nursing,KBCH 4222,0,0
Clinical Pharmacology,KBCP 1104,0,0
Clinical Pharmacology,KBCP 1204,0,0
Clinical Practice  level 1,KBCP2106,0,0
Clinical Science Level 1,KBCS1107,0,0
Development Studies,KBDS 2108,0,0
Development Studies,KBDS 2208,0,0
DEVELOPMENT STUDIES,KBDS201,0,0
Epi-Bio,KBEB3120,0,0
Emergency Medicine 2,KBEM  51042,0,0
Palliative Care,KBEP 3220,0,0
Nursing and first Aid,KBFI1109,0,0
Foundation of  Faith,KBFOF 301,0,0
General Surgery,KBGN 2105,0,0
Human Growth and Development,KBHG 2112,0,0
Physiotherapy in Internal Medicine  theory,KBIM 4101,0,0
Physiotherapy in Internal Medicine (Clinical Practical),KBIM 4103,0,0
Physiotherapy in Internal Medicine  theory,KBIM 4201,0,0
Physiotherapy in Internal Medicine theory,KBIM 4202,0,0
Physiotherapy in Internal Medicine  theory,KBIM 4203,0,0
Physiotherapy in Internal Medicine(Clinical Pr),KBIM4203,0,0
Foundation of Faith,KBLM 2111,0,0
Leadership and Management,KBLM 2113,0,0
Leadership and Management,KBLM 2213,0,0
Mental Health and Psychiatric Nursing,KBMB 4223,0,0
Midwifery,KBMD 3221,0,0
Midwifery,KBMD 4121,0,0
Midwifery,KBMD 4221,0,0
Mental Health and Psychiatric Nursing,KBMH 4123,0,0
Microbiology/Immunology,KBMI 1105,0,0
Microbiology/Immunology,KBMI 1205,0,0
Microbiology & Immunology,KBMI105,0,0
Microbiology and Immunology,KBMI1105,0,0
Microbiology and Immunology,KBMI1105,0,0
Microbiology & Immunology,KBMI1205,0,0
Microbiology and Immunology,KBMI205,0,0
Nursing Practical,KBMP3119,1,1
Midwifery Practical,KBMP4124,0,0
Midwifery Practical,KBMP4224,0,0
Medical and Surgical Nursing,KBMS 2214,0,0
Medical and Surgical Nursing,KBMS 3114,0,0
Nursing Education,KBNE 3116,0,0
Nursing Informatics,KBNI 3219,0,0
Nursing Informatics,KBNI 3220,0,0
Nutrition,KBNT 3115,0,0
Physiotherapy in Orthopaedics  (Clinical Pr),KBOT  406,0,0
Physiotherapy in Orthopaedics  theory,KBOT 404,0,0
Physiotherapy in Orthopaedics  theory,KBOT 405,0,0
Physiotherapy in Orthopaedics  theory,KBOT 406,0,0
Physiotherapy in Orthopaedics  theory,KBOT 407,0,0
Physiotherapy in General Surgery  (Clinical Pr),KBOT405,0,0
Physiotherapy in Orthopaedics  (Clinical Practical),KBOT4105,0,0
Pediatric Nursing,KBPD 3117,0,0
Physiotherapy in Paediatrics threory,KBPD 4102,0,0
Physiotherapy in Paediatrics threory,KBPD 4201,0,0
Physiotherapy in Paediatrics (theory),KBPD 4202,0,0
Physiotherapy in Paediatrics threory,KBPD 4203,0,0
Physiotherapy in Paediatrics Clinical Pr),KBPD4 302,0,0
Physiotherapy in Paediatrics (Clinical Practice),KBPD4102,0,0
Physiotherapy in Paediatrics (Clinical Practice),KBPD4202,0,0
Parasitology/Entomology,KBPE 1106,0,0
Parasitology/Entomology,KBPE 1206,0,0
Parasitology & Entomology,KBPE1104,0,0
Physical Education level 1,KBPE1108,0,0
Physiology,KBPH 1103,11,11
Physiology,KBPH 1203,0,0
Physiology Level 1,KBPH1103,0,0
Principles of Nursing,KBPN 2109,0,0
Principles of Nursing,KBPN 2209,0,0
Public Health,KBPU1213,0,0
research Methodology,KBRM 3118,0,0
Research Methodology,KBRM 3218,0,0
Research Methodology Level 3,KBRM4101,0,0
Research Project,KBRP4201,0,0
Physiotherapy in General Surgery  theory,KBSG 4104,0,0
Physiotherapy in General Surgery  theory,KBSG 4201,0,0
Physiotherapy in General Surgery  theory,KBSG 4202,0,0
Physiotherapy in General Surgery (Practical),KBSG4104,0,0
Physiotherapy in General Surgery  theory,KBSG4204,0,0
Behavioral Sciences,KBSP 2110,0,0
ADVANCED MIDWIFERY SCIENCE,KMAM 2112,150,15
ADVANCED NEONATAL SCIENCE,KMAN 2113,120,12
ADVANCED PRACTICE IN MIDWIFERY,KMAP 1210,180,18
BIOETHICS,KMBE 1104,60,6
BIOSTATISTICS,KMBS 1102,60,6
CULTURAL LEGAL AND POLITICAL PERSPECTIVES OF MAT,KMCL 1107,90,9
COMMUNITY MIDWIFERY,KMCM 2215,150,15
DISSERTATION,KMDI 2216,300,30
EDUCATIONAL APROACHES,KMEA 1106,60,6
EPIDEMIOLOGY,KMEP 1101,60,6
HEALTH  POLICY AND PLANNING,KMHP 1209,60,6
INTEGRATED ADVANCED MIDWIFERY PRACTICUM,KMIM 2114,210,21
LEADERSHIP AND MANAGEMENT,KMLM 1105,60,6
Nutrition,KMNT 3115,0,0
REPRODUCTIVE HEALTH HIV AND AIDS,KMRH 1211,90,9
Research Methodology,KMRM 1103,60,6
RESEARCH METHODS AND BIOSTATISTICS,KMRS 1208,90,9
Lab Animal Sciences,LA 100,0,0
Laboratory Animal Science,LAS 101,0,0
Laboratory Animal Science,LAS 202,0,0
Leadership & Management,LEM 204,0,0
Leadership & Management,LEM 304,0,0
Laboratory molecular diagnostics,LMD 227,0,0
Lab Management- biosafety  ethic  instrumentation etc.,LMS 100,0,0
Laboratory practice and Safety,LPS 110,0,0
Lab Quality System,LQS0301,1,1
Health Laboratory Management,MAN 3519,0,0
Health Laboratory Management,MAN 3619,0,0
MAT 1,MAT 1,40,4
MAT 10,MAT 10,1,1
MAT 11,MAT 11,1,1
MAT 12,MAT 12,1,1
MAT 2,MAT 2,117,12
Mathematics,MAT 200,0,0
MAT 3,MAT 3,1,1
MAT 4,MAT 4,1,1
MAT 5,MAT 5,1,1
MAT 6,MAT 6,1,1
MAT 7,MAT 7,1,1
MAT 8,MAT 8,1,1
MAT 9,MAT 9,1,1
MICROBIOLOGY & BIOTECHNOLOGY,MBT601,0,0
ANATOMY,MD1101,0,0
PATHOLOGY,MD1102,0,0
PHYSIOLOGY,MD1103,0,0
CLINICAL PHARMACOLOGY,MD1104,0,0
IMMUNOLOGY & GENETICS,MD1105,0,0
ANATOMY OF THE SKIN AND ITS APPENDAGES,MDV1001,0,0
PHYSIOLOGY OF SKIN AND ITS APPENDAGES,MDV1002,0,0
NEUROPHYSIOLOGY OF PERIPHERAL NERVES,MDV1003,0,0
IMMUNOLOGY OF SKIN,MDV1004,0,0
DRUGS & OTHER DERMATOLOGICAL THERAPIES,MDV1005,0,0
ECZEMA,MDV1006,0,0
PSORIASIS,MDV1007,0,0
INFECTION AND INFESTATIONS,MDV1008,0,0
MOLECULAR EMBRYOLOGY & TISSUE CULTURE,ME601,0,0
Mechanics,MEC-100,0,0
Microbiology,MIB,0,0
Microbiology,MIB 202,0,0
Microbiology and Immunology,MIC 101,0,0
Microbiology,MIC 123,0,0
Microbiology and Immunology,MIC 201,0,0
Microbiology and Immunology,MIC 202,0,0
Microbiology,MIC 2323,0,0
Microbiology,MIC 2423,0,0
Microbiology & Immunology,MIC 301,0,0
Microbiology and Immunology,MIC 302,0,0
Microbiology,MIC 3523,0,0
Microbiology,MIC 3623,0,0
SYSTEMATIC MEDICAL BACTERIOLOGY,MIM107,0,0
Advanced Medical Bacteriology,MIM108,0,0
INTRODUCTION TO MMIM,MIM1101,0,0
CELLULAR & MOL. IMMUNOLOGY,MIM1102,0,0
IMMUNOGENETICS,MIM1103,0,0
BASICS OF GCLP,MIM1104,0,0
TECHNIQUES IN IMMUNOLOGY,MIM1105,0,0
MICROBIAL GENETIC,MIM1106,0,0
SYSTEMATIC MEDICAL BACTERIOLOGY,MIM1107,0,0
ADVANCED MEDICAL BACTERIOLOGY,MIM1108,0,0
PARASITES & PARASITIC INFECTIONS,MIM1109,0,0
ADVANCED MEDICAL VIROLOGY,MIM1110,0,0
ADVANCED MEDICAL MYCOLOGY,MIM1111,0,0
TECHNIQUES IN MEDICAL MICROBIOLOGY,MIM1112,0,0
MOLECULAR BIOLOGY,MIM1113,0,0
MOLECULAR BIOLOGY TECHNIQUES,MIM1114,0,0
PROPOSAL WRITING,MIM1117,0,0
DISSERTATION,MIM1118,0,0
Microbiology,MIN 104,0,0
Molecular Biology,MOL 118,0,0
Medical Parasitology and Entomology,MPE 310,1,1
Medical Parasitology and Entomology,MPE 320,1,1
Nursing Education,NED 304,0,0
BRAIN ANATOMY & FUNCTIONAL NEUROSCIENCE,NS501,0,0
Nursing Skills,NSK 201,0,0
Obstetrics and Gynaecology,OBGY,0,0
Obstetrics and Gynaecology,OBGY 301,0,0
OCULAR SEMEOLOGY,OPH0001,0,0
PREVENTIVE OPHTHALMIC MEDICINE,OPH0002,0,0
REHABILITATIVE OPHTHALMIC MEDICINE,OPH0003,0,0
EVIDENCE BASED MEDICINE,OPH0004,0,0
LOW VISION THERAPY,OPH0302,0,0
UVEITIS,OPH0901,0,0
GLAUCOMA,OPH1003,0,0
GLAUCOMA,OPH1010,0,0
GLAUCOMA,OPH1020,0,0
CATARACT,OPH1101,0,0
RETINA,OPH1201,0,0
RETINA,OPH1202,0,0
RETINA,OPH1203,0,0
OCULAR ANATOMY  PHYSIOLOGY AND BIOCHEMISTRY,OPH2001,0,0
OCULAR MICROBIOLOGY  PHARMACOLOGY & GENETICS,OPH2002,0,0
OCULAR EPIDEMIOLOGY,OPH2007,0,0
OPTICS AND REFRACTION,OPH3001,0,0
OCULAR PATHOLOGY,OPH4001,0,0
OCULAR TRAUMA,OPH4002,0,0
OCULAR HISTOPATHOLOGY,OPH4003,0,0
OCULAR ONCOLOGY,OPH4004,0,0
NEURO-OPHTHALMOLOGY,OPH5001,0,0
NEURO-OPHTHALMOLOGY,OPH5002,0,0
NEURO-OPHTHALMOLOGY,OPH5003,0,0
STRABISMUS,OPH6001,0,0
PAEDIATRIC OPHTHALMOLOGY,OPH6002,0,0
PAEDIATRIC OPHTHALMOLOGY,OPH6003,0,0
STRABISMUS,OPH6004,0,0
LEADERSHIP AND MANAGEMENT,OPH6005,0,0
ORBIT,OPH7001,0,0
EYELID DISORDERS,OPH7002,0,0
LACHRYMAL SYSTEM DISORDERS,OPH7003,0,0
ORBIT,OPH7004,0,0
RESEARCH PROPOSAL,OPH800,0,0
CORNEA AND EXTERNAL DISEASES,OPH8001,0,0
CORNEA AND EXTERNAL DISEASES,OPH8002,0,0
UVEITIS,OPH9002,0,0
Orthotic science practical – II,OSP 100-II,0,0
Orthotc Science practical – I,OSP 200-I,0,0
Orthotics Science Practical – III,OSP 200-III,0,0
Orthotic Science Practical 1,OSP100-1,0,0
Orthotic Science Theory 1,OST 100-1,0,0
Orthotic Science theory – II,OST 100-II,0,0
OrthotiS Science theory–III,OST 200-I,0,0
Orthotic Science Theory – III,OST 200-III,0,0
Parasitology,PAR 104,0,0
Parasitology,PAR 126,0,0
Parasitology,PAR 2326,0,0
Parasitology,PAR 2426,0,0
Parasitology,PAR 3526,0,0
Parasitology,PAR 3626,0,0
Parasitology and Entomology,PARA 101,0,0
Parasistology and Entomology,PARA 201,0,0
Paraitologyand Entomology,PARA 202,0,0
Parasitology and Entomology,PARA 301,0,0
Parasitology and Entomology,PARA 302,0,0
Pathology – I,PAT 200-I,0,0
Pathology – II,PAT 300-II,0,0
Paediatrics and Childhealth,PCH 300,0,0
Paediatrics and Child Health,PCH 301,0,0
IMMUNOLOGY & MICROBIOLOGY,PE701,0,0
MOLECULAR BIOLOGY,PE702,0,0
ENVIRONMENTAL HEALTH,PE703,0,0
INTRODUCTION TO PARASITOLOGY & ENTOMOLOGY,PE706,0,0
PARASITE VECTOR INTERACTIONS,PE707,0,0
BLOOD PROTOZOA,PE708,0,0
NON BLOOD PROTOZOA,PE709,0,0
CESTODES,PE710,0,0
TREMATODES,PE711,0,0
NEMATODES,PE712,0,0
EXTERNAL MORPHOLOGY,PE713,0,0
INTERNAL MORPHOLOGY,PE714,0,0
INSECT PHYSIOLOGY,PE715,0,0
DIPTERANS,PE716,0,0
NON DIPTERANS/ECTOPARASITES,PE717,0,0
FIELD & LABORATORY TECHNIQUES,PE718,0,0
Parasitology and Entomology,PENT 201,0,0
Physiology,PH 104,0,0
Sociology of Health and Illness,PHD 106,0,0
Sexual and Reproductive Health,PHD 107,0,0
Communicable Disease Control,PHD 108,0,0
Epidemiology of Non-communicable Diseases,PHD 109,0,0
Health Promotion,PHD 110,0,0
Surveillance,PHD 111,0,0
Environmental Health,PHD 115,0,0
SOCIOLOGY OF HEALTH AND ILLNESS,PHD101,0,0
SEXUAL & REPRODUCTIVE HEALTH,PHD102,0,0
COMMUNICABLE DISEASE,PHD103,0,0
ENVIRONMENTAL HEALTH,PHD105,0,0
HEALTH PROMOTION,PHD106,0,0
SURVEILLANCE,PHD107,0,0
NON COMMUNICABLE DISEASE,PHD108,0,0
HEALTH ECONOMIC & HEALTH CARE FINANCING,PHD109,0,0
Pharmacology,PHR 104,0,0
Pharmacology,PHR 114,0,0
Basic Physics,PHY 100,0,0
Human Physiology & Body fluids,PHY 113,0,0
Parasitology,Phy0001,0,0
Prosthetics and Orthotics Science Practical,POSP 400,0,0
Prosthetic and Orthotic Science Theory,POST 400,0,0
Physical Education Level 1,PP 101,0,0
Physical Education Level 2,PP 201,0,0
Kinesiology & Biomechanics,PP 202,0,0
Medical Exercise Therapy level 1,PP 203,0,0
Clinical Practice,PP 301,0,0
Clinical Practice,PP 302,0,0
Clinical Practice Level 1,PP 304,0,0
Clinical Practice Level 2,PP 404,0,0
Field work Placement,PP 505,0,0
Clinical Practice Level 3,PP 604,0,0
Research Project,PP 606,0,0
Basic Parasitology & Entomology,PP101,0,0
Biochemistry Level 1,PP103,0,0
Physical Education Level 1,PP104,0,0
Kinesiology & Biomechanics,PP105,0,0
Physical Education Level 2,PP106,0,0
Clinical reasoning,PP107,0,0
PP108	Public Health/Community Health,PP108,0,0
Manual Therapy,PP321,0,0
Soft Tissue Manipulation,PP322,0,0
Field Work (Community),PP405,0,0
Information Technology,PP506,0,0
Musculoskeletal Conditions Level 2,PP517,0,0
Adult Neurological conditions Level 2,PP518,0,0
Cardio respiratory conditions Level 2,PP519,0,0
Advanced Musculoskeletal Physiotherapy Level 1,PP617,0,0
Advanced  Neurological Physiotherapy Level 1,PP618,0,0
Advanced Cardiorespiratory Physiotherapy Level 1,PP619,0,0
Advanced Paediatric Physiotherapy Level 1,PP620,0,0
Field Placement,PP705,0,0
Medical,PP804-2,0,0
General Surgery,PP804-3,0,0
Orthopedic,PP804-4,0,0
PP804-I	 Pediatrics,PP804-I,0,0
Research Project,PP806,0,0
Project formulation/wite up,PRO 300,0,0
Project Report write-up,PRO 301,0,0
Field Placements,PRO 302,0,0
Practical sessions/Laboratory rotation,PSLR 301,0,0
Clinical Laboratory rotation,PSLR 302,0,0
Psychology,PSN 204,0,0
Prosthetic Science Practical - II,PSP 300-II,0,0
Prosthetic Science practical - III,PSP300-III,0,0
Prosthetic Science theory – II,PST 300-II,0,0
Sociology & anthropology,PT 102,0,0
Ethics,PT 103,0,0
Communication & study skills,PT 104,0,0
Anatomy Level 1,PT 105,0,0
Physiology Level 1,PT 106,0,0
Basic Parasitology & Entomology Level 1,PT 107,0,0
Microbiology & Immunology Level 1,PT 108,0,0
Biochemistry Level 1,PT 109,0,0
Clinical Science Level 1,PT 110,0,0
Nursing and first Aid,PT 111,0,0
Anatomy Level 2,PT 205,0,0
Physiology Level 2,PT 206,0,0
Basic Parasitology & Entomology Level 2,PT 207,0,0
Microbiology & Immunology Level 2,PT 208,0,0
Biochemistry Level 2,PT 209,0,0
Clinical Science Level 2,PT 210,0,0
Clinical reasoning,PT 212,0,0
Physical Assessment,PT 213,0,0
Pharmacology,PT 214,0,0
Public Health/Community Health,PT 215,0,0
DEVELOPMENT STUDIES,PT 301,0,0
General Surgery,PT 316,0,0
Musculoskeletal condition Level 1,PT 317,0,0
Adult Neurological conditions,PT 318,0,0
Cardio respiratory conditions,PT 319,0,0
Pediatric conditions,PT 320,0,0
Manual Therapy,PT 321,0,0
Soft Tissue Manipulation,PT 322,0,0
Electrotherapy & Thermotherapy,PT 324,0,0
Ergonomics,PT 325,0,0
Radiology,PT 326,0,0
DEVELOPMENT STUDIES,PT 401,0,0
Musculoskeletal condition Level 2,PT 417,0,0
Adult Neurological conditions,PT 418,0,0
Cardio respiratory conditions,PT 419,0,0
Pediatric conditions,PT 420,0,0
Psychiatry,PT 427,0,0
Pain management,PT 428,0,0
Research Methods Level 1,PT 429,0,0
Advanced Musculoskeletal Physiotherapy,PT 517,0,0
Advanced Neurological Physiotherapy,PT 518,0,0
Advanced Cardio respiratory conditions,PT 519,0,0
Advanced Pediatric conditions,PT 520,0,0
Research Methods Level 2,PT 529,0,0
Obstetrics and Gynecology,PT 530,0,0
Urology,PT 531,0,0
Elderly Care,PT 532,0,0
Orthopedic Technology and Rehabilitation,PT 533,0,0
Administration & Management,PT 534,0,0
Statistics,PT 635,0,0
PT101	Psychology,PT101,0,0
Sociology & anthropology,PT102,0,0
Ethics,PT103,0,0
Communication & study skills,PT104,0,0
Anatomy Level 1,PT105,0,0
Physiology Level 1,PT106,0,0
Clinical Science Level 1,PT107,0,0
Nursing and first Aid,PT108,0,0
Anatomy Level 2,PT109,0,0
Physiology Level 2,PT110,0,0
Medical Exercise Therapy level 1,PT111,0,0
Medical Exercise Therapy level 1,PT111,0,0
Basic Parasitology & Entomology,PT112,0,0
Immunology,PT113,0,0
Biochemistry Level 2,PT114,0,0
Clinical Science Level 2,PT115,0,0
Physical Assessment,PT116,0,0
Pharmacology,PT117,0,0
Electrotherapy & Thermotherapy Level 1,PT324,0,0
Ergonomics,PT325,0,0
Musculoskeletal Conditions Level 1,PT417,0,0
Adult Neurological conditions Level 1,PT418,0,0
Cardio respiratory Conditions Level 1,PT419,0,0
Paediatric Conditions Level 1,PT420,0,0
radiology,PT426,0,0
Pediatric conditions,PT520,0,0
Research Methodology,PT521,0,0
Psychiatry,PT527,0,0
Pain management,PT528,0,0
Research Methodology Level 2,PT629,0,0
Obstetrics and Gynaecology,PT630,0,0
Urology,PT631,0,0
Elderly Care,PT732,0,0
Orthopaedic technology and Rehabilitation,PT733,0,0
Administration and Management,PT734,0,0
General Statistics,PT735,0,0
Quality Systems,QS 100,0,0
Research Report,REM 302,0,0
Research Report,REM 304,0,0
Research Methodology,REM 330,0,0
Research Report,RER 300,0,0
Research  Proposal development,RES 201,0,0
Research  Data collection,RES 202,0,0
Research  Data analysis,RES 203,0,0
Research  Reporting,RES 204,0,0
Bioatatistics and Research Methodology,RES 300,0,0
DISSERTATION,RES107,0,0
DISSERTATION,RES602,0,0
DISSERTATION,RES713,0,0
Research Methodology – I,RMD 300-I,0,0
Research methodology – II,RMD300-II,0,0
Research Project - proposal development,RPD 121,0,0
RESEARCH PROJECT PROPOSAL,RPD121,0,0
RPJ 400-I	Research Project,RPJ 400-I,0,0
Research Project II,RPJ 400-II,0,0
Research Project Proposal,RPP 400,0,0
Research Project : data analysis and report writing,RRW 231,0,0
Manuscript writing,RRW 232,0,0
DISSERTATION,RRW231,0,0
Research Methodology,RSM 204,0,0
Research Methodology,RSM 304,0,0
Research Report,RSM304,0,0
Research Methodology,RSM401,0,0
FUNCTIONAL HUMAN ANATOMY,SA502,0,0
Attachment to a research institute,SFP 231,0,0
Sociology & Anthropology,SOC 204,0,0
Sociology,SOS 201,0,0
Statistics,STS 200,0,0
Leadership in Public Health Programs,TCL 111,0,0
Technology – II,TEC 100-II,0,0
Technology 1,TEC-100-1,0,0
Viva Voce,VC101,10,1
Written Dissertation,WD101,10,1
Written,WT110,180,18
