@-header,instruction_!_ Please DO NOT CHANGE THE STRUCTURE OF THIS FILE,,,,,,
@-header,compilationTime_!_ 2018:04:13:08:28:12,,,,,,
@-header,columnCount_!_ 8,,,,,,
@-header,maximumScore_!_ 100,,,,,,
@-header,fileType_!_ results,,,,,,
@-header,fileTypeCode_!_ a68816c37b60d1e016b21809447de93c,,,,,,
@-header,courseId_!_ 39,,,,,,
@-header,courseName_!_ Bachelor of Science in Nursing (In-Service),,,,,,
@-header,year_!_ 3,,,,,,
@-header,semester_!_ 1,,,,,,
@-header,batchId_!_ 7,,,,,,
@-header,batchName_!_ 2015/2016,,,,,,
@-header,flags_!_ 0,,,,,,
,,,,,,,
,,,,,,568,100
Ref,GPA,Reg Number,Flags,Details,res,Advanced Nursing Sciences,Nursing Education
3201,,TUMA/KCMUCo/BSC.N/2015/2016/0595,9,,,,
3515,,TUMA/KCMUCo/BSC.N/2015/2016/0600,9,,,,
4056,,TUMA/KCMUCo/BSC.N/2015/2016/0601,9,,,,
2826,,TUMA/KCMUCo/BSC.N/2015/2016/0602,9,,,,
3031,,TUMA/KCMUCo/BSC.N/2015/2016/0603,9,,,,
2808,,TUMA/KCMUCo/BSC.N/2015/2016/0604,9,,,,
2800,,TUMA/KCMUCo/BSC.N/2015/2016/0605,9,,,,
3418,,TUMA/KCMUCo/BSC.N/2015/2016/0606,9,,,,
2890,,TUMA/KCMUCo/BSC.N/2015/2016/0607,9,,,,
3183,,TUMA/KCMUCo/BSC.N/2015/2016/0612,9,,,,
3012,,TUMA/KCMUCo/BSC.N/2015/2016/0615,65,,,,
3357,,TUMA/KCMUCo/BSC.N/2015/2016/0616,9,,,,
4059,,TUMA/KCMUCo/BSC.N/2015/2016/0617,65,,,,
3511,,TUMA/KCMUCo/BSC.N/2015/2016/0619,9,,,,
3218,,TUMA/KCMUCo/BSC.N/2015/2016/0623,65,,,,
3410,,TUMA/KCMUCo/BSC.N/2015/2016/0632,65,,,,
3356,,TUMA/KCMUCo/BSC.N/2015/2016/0634,9,,,,
2846,,TUMA/KCMUCo/BSC.N/2015/2016/0640,9,,,,
3365,,TUMA/KCMUCo/BSC.N/2015/2016/0642,9,,,,
3925,,TUMA/KCMUCo/BSC.N/2015/2016/0648,65,,,,
3153,,TUMA/KCMUCo/BSC.N/2015/2016/0652,9,,,,
2828,,TUMA/KCMUCo/BSC.N/2015/2016/0662,65,,,,
2911,,TUMA/KCMUCo/BSC.N/2015/2016/0668,9,,,,
3246,,TUMA/KCMUCo/BSC.N/2015/2016/0670,9,,,,
2801,,TUMA/KCMUCo/BSC.N/2015/2016/0679,65,,,,
3335,,TUMA/KCMUCo/BSC.N/2015/2016/0683,65,,,,
2836,,TUMA/KCMUCo/BSC.N/2015/2016/0685,65,,,,
2958,,TUMA/KCMUCo/BSC.N/2015/2016/0686,9,,,,
3445,,TUMA/KCMUCo/BSC.N/2015/2016/0692,65,,,,
3102,,TUMA/KCMUCo/BSC.N/2015/2016/0703,65,,,,
3337,,TUMA/KCMUCo/BSC.N/2015/2016/0704,65,,,,
3613,,TUMA/KCMUCo/BSC.N/2015/2016/0705,9,,,,
895,,TUMA/KCMUCo/BSC.N/2015/2016/0726,69,,,,
3432,,TUMA/KCMUCo/BSC.N/2015/2016/0742,9,,,,
924,,TUMA/KCMUCo/BSC.N/2015/2016/0764,13,,,,
3207,,TUMA/KCMUCo/BSC.N/2015/2016/0781,65,,,,
3244,,TUMA/KCMUCo/BSC.N/2015/2016/0783,9,,,,
3096,,TUMA/KCMUCo/BSC.N/2015/2016/0784,65,,,,
3343,,TUMA/KCMUCo/BSC.N/2015/2016/0788,9,,,,
3537,,TUMA/KCMUCo/BSC.N/2015/2016/0809,9,,,,
