@-header,instruction_!_ Please DO NOT CHANGE THE STRUCTURE OF THIS FILE,,,,,
@-header,compilationTime_!_ 2018:05:25:15:44:09,,,,,
@-header,columnCount_!_ 7,,,,,
@-header,maximumScore_!_ 100,,,,,
@-header,fileType_!_ results,,,,,
@-header,fileTypeCode_!_ a68816c37b60d1e016b21809447de93c,,,,,
@-header,courseId_!_ 39,,,,,
@-header,courseName_!_ Bachelor of Science in Nursing (In-Service),,,,,
@-header,year_!_ 2,,,,,
@-header,semester_!_ 1,,,,,
@-header,batchId_!_ 8,,,,,
@-header,batchName_!_ 2016/2017,,,,,
@-header,flags_!_ 0,,,,,
,,,,,,
,,,,,,1029
Ref,GPA,Reg Number,Flags,Details,res,Epidemiology and Biostatistics
3218,,TUMA/KCMUCo/BSC.N/2015/2016/0623,13,,,
5115,,TUMA/KCMUCo/BSC.N/2016/2017/0846,9,,,
5197,,TUMA/KCMUCo/BSC.N/2016/2017/0848,9,,,
5198,,TUMA/KCMUCo/BSC.N/2016/2017/0849,65,,,
5257,,TUMA/KCMUCo/BSC.N/2016/2017/0855,65,,,
5316,,TUMA/KCMUCo/BSC.N/2016/2017/0858,9,,,
5508,,TUMA/KCMUCo/BSC.N/2016/2017/0862,65,,,
5545,,TUMA/KCMUCo/BSC.N/2016/2017/0865,9,,,
5555,,TUMA/KCMUCo/BSC.N/2016/2017/0866,65,,,
5556,,TUMA/KCMUCo/BSC.N/2016/2017/0867,65,,,
5797,,TUMA/KCMUCo/BSC.N/2016/2017/0876,9,,,
5920,,TUMA/KCMUCo/BSC.N/2016/2017/0878,9,,,
6097,,TUMA/KCMUCo/BSC.N/2016/2017/0881,65,,,
6132,,TUMA/KCMUCo/BSC.N/2016/2017/0883,65,,,
6415,,TUMA/KCMUCo/BSC.N/2016/2017/0888,65,,,
6617,,TUMA/KCMUCo/BSC.N/2016/2017/0889,9,,,
6759,,TUMA/KCMUCo/BSC.N/2016/2017/0892,9,,,
6863,,TUMA/KCMUCo/BSC.N/2016/2017/0895,9,,,
