@-header,instruction_!_ Please DO NOT CHANGE THE STRUCTURE OF THIS FILE,,,,,
@-header,compilationTime_!_ 2018:05:11:15:24:18,,,,,
@-header,columnCount_!_ 7,,,,,
@-header,maximumScore_!_ 100,,,,,
@-header,fileType_!_ results,,,,,
@-header,fileTypeCode_!_ a68816c37b60d1e016b21809447de93c,,,,,
@-header,courseId_!_ 7,,,,,
@-header,courseName_!_ Diploma in Health Laboratory Sciences,,,,,
@-header,year_!_ 2,,,,,
@-header,semester_!_ 1,,,,,
@-header,batchId_!_ 8,,,,,
@-header,batchName_!_ 2016/2017,,,,,
@-header,flags_!_ 0,,,,,
,,,,,,
,,,,,,312
Ref,GPA,Reg Number,Flags,Details,res,Parasitology
3362,,TUMA/KCMUCo/DHLSc/2015/2016/0429,69,,,
4715,,TUMA/KCMUCo/DHLSc/2016/2017/0481,65,,,
4736,,TUMA/KCMUCo/DHLSc/2016/2017/0482,9,,,
4741,,TUMA/KCMUCo/DHLSc/2016/2017/0483,65,,,
4744,,TUMA/KCMUCo/DHLSc/2016/2017/0484,9,,,
4746,,TUMA/KCMUCo/DHLSc/2016/2017/0485,9,,,
4747,,TUMA/KCMUCo/DHLSc/2016/2017/0486,9,,,
4753,,TUMA/KCMUCo/DHLSc/2016/2017/0487,9,,,
4758,,TUMA/KCMUCo/DHLSc/2016/2017/0488,65,,,
4761,,TUMA/KCMUCo/DHLSc/2016/2017/0489,9,,,
4766,,TUMA/KCMUCo/DHLSc/2016/2017/0490,9,,,
4770,,TUMA/KCMUCo/DHLSc/2016/2017/0491,9,,,
4774,,TUMA/KCMUCo/DHLSc/2016/2017/0492,65,,,
4781,,TUMA/KCMUCo/DHLSc/2016/2017/0493,65,,,
4783,,TUMA/KCMUCo/DHLSc/2016/2017/0494,65,,,
4792,,TUMA/KCMUCo/DHLSc/2016/2017/0495,9,,,
4795,,TUMA/KCMUCo/DHLSc/2016/2017/0496,9,,,
4799,,TUMA/KCMUCo/DHLSc/2016/2017/0497,65,,,
4804,,TUMA/KCMUCo/DHLSc/2016/2017/0498,65,,,
4819,,TUMA/KCMUCo/DHLSc/2016/2017/0499,65,,,
4821,,TUMA/KCMUCo/DHLSc/2016/2017/0500,9,,,
4827,,TUMA/KCMUCo/DHLSc/2016/2017/0501,65,,,
4830,,TUMA/KCMUCo/DHLSc/2016/2017/0502,65,,,
4831,,TUMA/KCMUCo/DHLSc/2016/2017/0503,65,,,
4843,,TUMA/KCMUCo/DHLSc/2016/2017/0504,9,,,
4846,,TUMA/KCMUCo/DHLSc/2016/2017/0505,65,,,
4851,,TUMA/KCMUCo/DHLSc/2016/2017/0506,65,,,
4867,,TUMA/KCMUCo/DHLSc/2016/2017/0507,65,,,
4912,,TUMA/KCMUCo/DHLSc/2016/2017/0508,9,,,
4913,,TUMA/KCMUCo/DHLSc/2016/2017/0509,9,,,
4916,,TUMA/KCMUCo/DHLSc/2016/2017/0510,9,,,
4923,,TUMA/KCMUCo/DHLSc/2016/2017/0511,9,,,
4940,,TUMA/KCMUCo/DHLSc/2016/2017/0512,9,,,
4952,,TUMA/KCMUCo/DHLSc/2016/2017/0513,9,,,
4965,,TUMA/KCMUCo/DHLSc/2016/2017/0514,65,,,
4966,,TUMA/KCMUCo/DHLSc/2016/2017/0515,9,,,
4973,,TUMA/KCMUCo/DHLSc/2016/2017/0516,65,,,
4994,,TUMA/KCMUCo/DHLSc/2016/2017/0517,65,,,
4998,,TUMA/KCMUCo/DHLSc/2016/2017/0518,65,,,
5016,,TUMA/KCMUCo/DHLSc/2016/2017/0519,65,,,
5019,,TUMA/KCMUCo/DHLSc/2016/2017/0520,65,,,
5048,,TUMA/KCMUCo/DHLSc/2016/2017/0521,65,,,
5050,,TUMA/KCMUCo/DHLSc/2016/2017/0522,9,,,
5069,,TUMA/KCMUCo/DHLSc/2016/2017/0523,65,,,
5085,,TUMA/KCMUCo/DHLSc/2016/2017/0524,9,,,
5105,,TUMA/KCMUCo/DHLSc/2016/2017/0525,9,,,
5134,,TUMA/KCMUCo/DHLSc/2016/2017/0526,9,,,
5150,,TUMA/KCMUCo/DHLSc/2016/2017/0527,65,,,
5156,,TUMA/KCMUCo/DHLSc/2016/2017/0528,65,,,
5179,,TUMA/KCMUCo/DHLSc/2016/2017/0529,9,,,
5183,,TUMA/KCMUCo/DHLSc/2016/2017/0530,65,,,
5192,,TUMA/KCMUCo/DHLSc/2016/2017/0531,9,,,
5269,,TUMA/KCMUCo/DHLSc/2016/2017/0532,9,,,
5285,,TUMA/KCMUCo/DHLSc/2016/2017/0533,9,,,
5296,,TUMA/KCMUCo/DHLSc/2016/2017/0534,9,,,
5311,,TUMA/KCMUCo/DHLSc/2016/2017/0535,65,,,
5332,,TUMA/KCMUCo/DHLSc/2016/2017/0536,9,,,
5375,,TUMA/KCMUCo/DHLSc/2016/2017/0537,65,,,
5487,,TUMA/KCMUCo/DHLSc/2016/2017/0538,65,,,
5576,,TUMA/KCMUCo/DHLSc/2016/2017/0539,65,,,
5584,,TUMA/KCMUCo/DHLSc/2016/2017/0540,65,,,
5712,,TUMA/KCMUCo/DHLSc/2016/2017/0541,65,,,
5729,,TUMA/KCMUCo/DHLSc/2016/2017/0542,9,,,
5734,,TUMA/KCMUCo/DHLSc/2016/2017/0543,65,,,
5762,,TUMA/KCMUCo/DHLSc/2016/2017/0544,9,,,
5793,,TUMA/KCMUCo/DHLSc/2016/2017/0545,9,,,
5798,,TUMA/KCMUCo/DHLSc/2016/2017/0546,9,,,
5902,,TUMA/KCMUCo/DHLSc/2016/2017/0547,65,,,
5932,,TUMA/KCMUCo/DHLSc/2016/2017/0548,65,,,
5983,,TUMA/KCMUCo/DHLSc/2016/2017/0549,9,,,
6060,,TUMA/KCMUCo/DHLSc/2016/2017/0550,9,,,
6116,,TUMA/KCMUCo/DHLSc/2016/2017/0551,9,,,
6184,,TUMA/KCMUCo/DHLSc/2016/2017/0552,65,,,
6204,,TUMA/KCMUCo/DHLSc/2016/2017/0553,65,,,
6218,,TUMA/KCMUCo/DHLSc/2016/2017/0554,65,,,
6244,,TUMA/KCMUCo/DHLSc/2016/2017/0555,65,,,
6315,,TUMA/KCMUCo/DHLSc/2016/2017/0556,65,,,
6348,,TUMA/KCMUCo/DHLSc/2016/2017/0557,65,,,
6358,,TUMA/KCMUCo/DHLSc/2016/2017/0558,65,,,
6496,,TUMA/KCMUCo/DHLSc/2016/2017/0559,65,,,
4826,,TUMA/KCMUCo/DHLSc/2016/2017/0560,9,,,
7893,,TUMA/KCMUCo/DHLSc/2017/2018/0603,13,,,
