,,,,,,,,,,,,,,,,,,,,,,,,,,,
,FIRST NAME,Anatomy,,Physiology,,Primary Health Care,,Practical Media,,Clinical Science,,Psychology,,Adapting A. Equipm,,Community,,Sociology,,OT Foundation,,OT Process,,OT Paediatrics,,Physical Dysfunction,
,,Marks,Credit hrs,Marks,Credit hrs,Marks,Credit hrs,Marks,Credit hrs,Marks,Credit hrs,Marks,Credit hrs,Marks,Credit hrs,Marks,Credit hrs,Marks,Credit hrs,Marks,Credit hrs,Marks,Credit hrs,Marks,Credit hrs,Marks,Credit hrs
1,BAKARI,68,14.4,67,14.4,65,5.4,69,11.4,69,6,61,5.4,64,7.6,60,5,65,5.4,62,2.4,67,3.5,60,5.6,58,4.6
2,FAUSTINE,60,14.4,53,14.4,63,5.4,66,11.4,66,6,59,5.4,63,7.6,61,5,70,5.4,55,2.4,63,3.5,64,5.6,60,4.6
3,FRANK,74,14.4,72,14.4,76,5.4,78,11.4,83,6,77,5.4,88,7.6,77,5,76,5.4,68,2.4,74,3.5,84,5.6,74,4.6
4,PASCAL ,75,14.4,73,14.4,84,5.4,69,11.4,63,6,61,5.4,77,7.6,69,5,71,5.4,63,2.4,69,3.5,72,5.6,58,4.6
