,,YEAR III,,,,,,,,,,,
,,OCCUPATIONAL THERAPY PAEDIATRICS LEARNING DISABILITY AND MENTAL RETARDATION THEORY,,ADMINISTRATION AND MANAGEMENT,,RESEARCH ,,OCCUPATIONAL THERAPY APPLIED TO PHYSICAL DISFUNCTION THEORY,,OCCUPATIONAL THERAPY APPLIED TO PSYCHIATRIC THEORY ,,FIELD WORK ,
,,MARKS,CREDIT HOURS,MARKS,CREDIT HOURS,MARKS,CREDIT HOURS,MARKS,CREDIT HOURS,MARKS,CREDIT HOURS,MARKS,CREDIT HOURS
1,EMMANUEL C. MWAKISOPILE ,71,2.7,66,5,61,20.4,64,4.6,66,5.6,78,7.2
2,MAGRETH J. ALEGO ,62,2.7,75,5,59,20.4,78,4.6,75,5.6,84,7.2
3,NIKUKETA MALABEJA ,57,2.7,62,5,57,20.4,66,4.6,69,5.6,66,7.2
4,SHARON ROSE S. MORIA,59,2.7,68,5,61,20.4,75,4.6,66,5.6,71,7.2
5,IGNACE M. EDMUND,69,2.7,63,5,65,20.4,73,4.6,60,5.6,83,7.2
6,ZAINAB SACHAK,78,2.7,84,5,63,20.4,85,4.6,86,5.6,78,7.2
7,COSMAS CHARLES ,73,2.7,73,5,64,20.4,76,4.6,72,5.6,78,7.2
8,GEORGE C. SHIRIMA,67,2.7,71,5,67,20.4,60,4.6,74,5.6,80,7.2
9,GODFREY S. KIMATHY,64,2.7,67,5,59,20.4,77,4.6,76,5.6,79,7.2
10,JANETH N. MONGI ,63,2.7,66,5,54,20.4,64,4.6,60,5.6,70,7.2
11,BAHATI S HASSANI ,68,2.7,71,5,66,20.4,70,4.6,70,5.6,75,7.2
12,VANESSA WILLIAM DALLARIS ,61,2.7,75,5,67,20.4,56,4.6,72,5.6,84,7.2
