,,YEAR I,,,,,,,,,,,,,,,,,,,,,,,
,,ANATOMY,,PHYSIOLOGY,,PRIMARY HEALTH CARE ,,PRACTICAL MEDIA,,OCCUPATIONAL THERAPY PROCESS,,OCCUPATIONAL THERAPY PAEDIATRICS ,,CLINICAL SCIENCE,,PSYCHOLOGY,,ADAPTING EQUIPMENT,,OCCUPATIONAL THERAPY COMMUNITY ,,SOCIOLOGY ,,OCCUPATIONAL THERAPY FOUNDATION ,
,,MARKS,CREDIT HOURS,MARKS,CREDIT HOURS,MARKS,CREDIT HOURS,MARKS,CREDIT HOURS,MARKS,CREDIT HOURS,MARKS,CREDIT HOURS,MARKS,CREDIT HOURS,MARKS,CREDIT HOURS,MARKS,CREDIT HOURS,MARKS,CREDIT HOURS,MARKS,CREDIT HOURS,MARKS,CREDIT HOURS
1,EMMANUEL C. MWAKISOPILE ,87,14.4,80,14.4,80,5.4,71,11.4,59,3.5,67,5.6,77,6,53,5.4,75,7.6,68,5,78,5.4,64,2.4
2,MAGRETH J. ALEGO ,65,14.4,64,14.4,86,5.4,63,11.4,53,3.5,69,5.6,63,6,70,5.4,69,7.6,68,5,76,5.4,65,2.4
3,NIKUKETA MALABEJA ,69,14.4,55,14.4,80,5.4,58,11.4,50,3.5,60,5.6,75,6,50,5.4,70,7.6,71,5,53,5.4,60,2.4
4,SHARON ROSE S. MORIA,58,14.4,57,14.4,77,5.4,62,11.4,50,3.5,73,5.6,68,6,50,5.4,62,7.6,63,5,73,5.4,55,2.4
5,IGNACE M. EDMUND,65,14.4,61,14.4,82,5.4,68,11.4,50,3.5,76,5.6,67,6,68,5.4,69,7.6,70,5,76,5.4,67,2.4
6,ZAINAB SACHAK,83,14.4,70,14.4,85,5.4,76,11.4,78,3.5,76,5.6,85,6,85,5.4,79,7.6,88,5,91,5.4,87,2.4
7,COSMAS CHARLES ,84,14.4,84,14.4,91,5.4,77,11.4,76,3.5,68,5.6,85,6,87,5.4,75,7.6,72,5,76,5.4,88,2.4
8,GEORGE C. SHIRIMA,78,14.4,82,14.4,87,5.4,77,11.4,68,3.5,74,5.6,81,6,62,5.4,69,7.6,75,5,73,5.4,76,2.4
9,GODFREY S. KIMATHY,69,14.4,71,14.4,84,5.4,75,11.4,75,3.5,76,5.6,71,6,70,5.4,85,7.6,72,5,87,5.4,69,2.4
10,JANETH N. MONGI ,67,14.4,71,14.4,83,5.4,66,11.4,50,3.5,74,5.6,68,6,53,5.4,74,7.6,75,5,60,5.4,57,2.4
11,BAHATI S HASSANI ,67,14.4,67,14.4,85,5.4,69,11.4,61,3.5,60,5.6,71,6,62,5.4,70,7.6,72,5,75,5.4,58,2.4
12,VANESSA WILLIAM DALLARIS ,68,14.4,65,14.4,85,5.4,67,11.4,64,3.5,77,5.6,73,6,58,5.4,63,7.6,76,5,67,5.4,69,2.4
