,,YEAR III,,,,,,,,,,,,,
,,LABARATORY MANAGEMENT & SYSTEM RESEARCH ,,BLOOD TRANSFUSSION,,HISTOLOGY ,,CLINICAL CHEMISTRY ,,PARASITOLOGY ,,HEMATOLOGY,,MICROBIOLOGY ,
,,MARKS,CREDIT HOURS,MARKS,CREDIT HOURS,MARKS,CREDIT HOURS,MARKS,CREDIT HOURS,MARKS,CREDIT HOURS,MARKS,CREDIT HOURS,MARKS,CREDIT HOURS
1,DIANA S. MAYALLA ,66,24,73,7.5,65,7.5,61,7.5,69,7.5,78,7.5,67,7.5
2,DORCAS MASSAWE,71,24,66,7.5,63,7.5,54,7.5,60,7.5,61,7.5,75,7.5
3,MARY T. MWITA ,83,24,74,7.5,72,7.5,63,7.5,71,7.5,77,7.5,76,7.5
4,NERBATH T. SILAU,66,24,67,7.5,69,7.5,66,7.5,75,7.5,67,7.5,65,7.5
5,VICTORIA MASUE ,66,24,82,7.5,70,7.5,60,7.5,68,7.5,71,7.5,66,7.5
6,ADAM  LUVINGA ,59,24,75,7.5,69,7.5,69,7.5,62,7.5,67,7.5,69,7.5
7,CLEMENT K. MAINGU ,62,24,62,7.5,60,7.5,63,7.5,68,7.5,70,7.5,67,7.5
8,ELARD L. MTISHIRE ,65,24,73,7.5,66,7.5,60,7.5,72,7.5,69,7.5,67,7.5
9,ELIAKIM SINDA ,78,24,72,7.5,69,7.5,62,7.5,71,7.5,76,7.5,66,7.5
10,EMMANUEL A. RUBEN ,67,24,72,7.5,67,7.5,62,7.5,76,7.5,64,7.5,70,7.5
11,LUCUS M. PAUL ,67,24,66,7.5,53,7.5,60,7.5,56,7.5,55,7.5,70,7.5
12,LEONARDA P. GABRIEL,69,24,70,7.5,61,7.5,64,7.5,71,7.5,66,7.5,69,7.5
13,EMMANUEL M. SAMKY,73,24,77,7.5,72,7.5,75,7.5,76,7.5,82,7.5,70,7.5
14,HONEST A. MINJA ,76,24,74,7.5,73,7.5,69,7.5,83,7.5,73,7.5,71,7.5
15,HARUNA A. SHEMWETA,78,24,76,7.5,64,7.5,66,7.5,75,7.5,71,7.5,73,7.5
16,MATHEW C. SIMON ,76,24,70,7.5,66,7.5,56,7.5,68,7.5,68,7.5,69,7.5
17,MICHAEL J. MSOFFE,67,24,79,7.5,67,7.5,65,7.5,69,7.5,73,7.5,72,7.5
18,MARIA AMANDUS ,68,24,65,7.5,59,7.5,56,7.5,67,7.5,62,7.5,66,7.5
19,ISMAIL ADAM ,58,24,67,7.5,65,7.5,57,7.5,70,7.5,73,7.5,66,7.5
20,JOHN ALPHONCE ,63,24,63,7.5,64,7.5,59,7.5,66,7.5,65,7.5,69,7.5
21,JONAS I. MATULA ,57,24,61,7.5,59,7.5,55,7.5,57,7.5,60,7.5,62,7.5
22,FRANKLADIUS M. RENATUS ,66,24,70,7.5,61,7.5,64,7.5,61,7.5,65,7.5,68,7.5
23,ESTEROSE I. OLLOTU ,71,24,77,7.5,72,7.5,69,7.5,77,7.5,74,7.5,73,7.5
24,JORDAN DANIEL ,69,24,60,7.5,62,7.5,53,7.5,58,7.5,64,7.5,65,7.5
25,JOSEPH NSHOYA ,70,24,64,7.5,58,7.5,53,7.5,59,7.5,62,7.5,59,7.5
26,HOSIANA J. MO ,69,24,65,7.5,56,7.5,56,7.5,58,7.5,67,7.5,67,7.5
27,ONESMO ELIAHU ,76,24,73,7.5,67,7.5,65,7.5,73,7.5,75,7.5,74,7.5
28,SHAABAN YUSUPH ,76,24,69,7.5,71,7.5,69,7.5,72,7.5,78,7.5,70,7.5
29,EMMANUEL FESTON,70,24,71,7.5,63,7.5,54,7.5,74,7.5,71,7.5,65,7.5
30,CECILIA MWINGIRA ,79,24,74,7.5,68,7.5,66,7.5,67,7.5,70,7.5,65,7.5
31,ERICK MHELELA ,71,24,67,7.5,61,7.5,60,7.5,64,7.5,69,7.5,67,7.5
32,DEOGRATIUS T. GITARDA ,68,24,83,7.5,73,7.5,65,7.5,75,7.5,77,7.5,70,7.5
33,MISANA LUKIUS ,78,24,73,7.5,76,7.5,64,7.5,80,7.5,72,7.5,77,7.5
34,JUMANNE S. LOMAY ,65,24,72,7.5,68,7.5,62,7.5,73,7.5,67,7.5,61,7.5
35,ESTON J. SHAO ,64,24,69,7.5,64,7.5,64,7.5,70,7.5,77,7.5,70,7.5
36,LYIDIA PHILIP NDOTI ,64,24,71,7.5,68,7.5,66,7.5,62,7.5,76,7.5,64,7.5
