Code,Subject Name,Year,Semester
CS 100,Communication Skills,1,1
IT 101,Computer Applications,1,1
CEM 100,Basic Chemistry,1,1
PHY 100,Basic Physics,1,1
LA 100,Lab Animal Sciences,1,1
AP 100-1,Anatomy and Physiology,1,1
AP 100-2,,,
QS 100,Quality Systems,1,1
LMS 100,Lab Management- biosafety!comma! ethic!comma! instrumentation etc.,1,1
MIC 101,Microbiology and Immunology,1,2
BIOC 101,Biochemistry,1,2
HIST 101,Histotechnology,1,2
HAEM 101,Haematology and Transfusion Science,1,2
PARA 101,Parasitology and Entomology,1,2
MIC 201,Microbiology and Immunology,2,1
CC 201,Clinical Chemistry,2,1
HIST 201,Histotechnology,2,1
HAM 201,Haematology and Transfusion Science,2,1
PARA 201,Parasistology and Entomology,2,1
MIC 202,Microbiology and Immunology,2,2
CC 202,Clinical Chemistry,2,2
HIST 202,Histotechnology,2,2
HAEM 202,Haematology and Transfusion Science,2,2
PARA 202,Paraitologyand Entomology,2,2
BIO 301,Molecular  Biology,3,1
RES 300,Bioatatistics and Research Methodology ,3,1
PRO 300,Project formulation/wite up,3,1
MIC 301,Microbiology & Immunology,3,1
CC 301,Clinical Chemistry,3,1
HIST 301,Histotechnology,3,1
HAEM 31,Haematology and Entomolog,3,1
PARA 301,Parasitology and Entomology,3,1
PRO 302,Field Placements,3,1
MIC 302,Microbiology and Immunology,3,2
CC 302,Clinical Chemistry,3,2
HIST 302,Histotechnology,3,2
HAEM  302,Haematology and Transfusion Science,3,2
PARA 302,Parasitology and Entomology,3,2
PRO 301,Project Report write-up,3,2
