CODE,MODULE,Lectures ,Tutorial ,Practical,Total hours,Total Credits,Year,Semester
FCM 111,Introduction to global health,28,12,-,40,4,1,1
FCM 112,Biostatistics,84,36,-,120,12,1,1
FCM 113,Epidemiology ,56,24,,80,8,1,1
FCM 114,Research Methodology ,56,24,-,80,8,1,1
FCM 115,Research management and leadership,28,12,-,40,4,1,1
FCM 116,Teaching Methodology,28,12,-,40,4,1,1
CSM 111,Introduction to Stata ,20,-,10,30,3,1,1
CSM112,Data collection MS Access,20,-,10,30,3,1,1
TCL 111,Leadership in Public Health Programs,28,12,-,40,4,1,1
AEM 111,Advanced Study Designs ,40,20,20,80,8,1,1
AEM 112,Surveillance,28,12,-,40,4,1,1
AEM 113,Epidemiology of Communicable Disease,28,12,-,40,4,1,1
AEM 114,Epidemiology of Non-Communicable Disease,28,12,-,40,4,1,1
AEM 115,Screening and Diagnostics,20,10,10,40,4,1,1
AEM 121,Bio-ethics and GCP,28,12,-,40,4,1,2
AEM 122,Monitoring and Evaluation of Health Projects,28,12,-,40,4,1,2
ABM 121,Linear regression ,40,20,20,80,8,1,2
ABM 122,Logistic regression ,40,20,20,80,8,1,2
ABM 123,R- Statistical Package,40,10,10,60,6,1,2
ABM 124,Survey Methods,20,10,10,40,4,1,2
ABM 125,Likelihood Theory,20,10,10,40,4,1,2
ABM 126,Introduction to survival analysis (Poisson regression),40,20,20,80,8,1,2
RPD 121,Research Project - proposal development,-,-,200,200,20,1,2
SFP 231,Attachment to a research institute,-,-,-,250,25,2,1
ABM 231,Advanced Survival analysis,40,20,20,80,8,2,1
ABM 232,Multi-level models,40,20,20,80,8,2,1
ABM 233,Advanced strategies of analysis,40,20,20,80,8,2,1
ABM 234,Principal Components of Analysis,20,10,10,40,4,2,1
ABM 235,Analysis of Longitudinal Data,40,20,20,80,8,2,1
RRW 231,Research Project : data analysis and report writing,-,100,250,350,35,2,2
RRW 232,Manuscript writing,20,-,20,40,4,2,2
