@-header,flags_!_0,,,,,,,,,,,,,
@-header,studentId_!_3524,,,,,,,,,,,,,
@-header,dateOfBirth_!_1984:3:28:00:00:00,,,,,,,,,,,,,
@-header,sexId_!_2,,,,,,,,,,,,,
@-header,sexName_!_Female,,,,,,,,,,,,,
@-header,profileId_!_1,,,,,,,,,,,,,
@-header,profileName_!_Kilimanjaro Christian Medical University College,,,,,,,,,,,,,
@-header,profileCity_!_Moshi,,,,,,,,,,,,,
@-header,profilePostalAddress_!_P.O Box 2240, Moshi,,,,,,,,,,,,,
@-header,profileWebsite_!_www.kcmuco.ac.tz,,,,,,,,,,,,,
@-header,profileCountryId_!_227,,,,,,,,,,,,,
@-header,profileCountryName_!_Tanzania,,,,,,,,,,,,,
@-header,systemName_!_University Management Information System,,,,,,,,,,,,,
@-header,postalAddress_!_100,,,,,,,,,,,,,
@-header,physicalAddress_!_Tabora,,,,,,,,,,,,,
@-header,countryId_!_227,,,,,,,,,,,,,
@-header,countryName_!_Tanzania,,,,,,,,,,,,,
@-header,registrationNumber_!_TUMA/KCMUCo/MSc.EAB.2015/2016/TZ/041,,,,,,,,,,,,,
@-header,fullname_!_Ola Farid Jahanpour,,,,,,,,,,,,,
@-header,firstname_!_Ola,,,,,,,,,,,,,
@-header,middlename_!_Farid,,,,,,,,,,,,,
@-header,lastname_!_Jahanpour,,,,,,,,,,,,,
@-header,compilationTime_!_2019:04:08:12:06:05,,,,,,,,,,,,,
@-header,fileType_!_transcript,,,,,,,,,,,,,
@-header,courseId_!_13,,,,,,,,,,,,,
@-header,courseCode_!_MSc.EAB,,,,,,,,,,,,,
@-header,courseName_!_Master of Science(MSc) in Epidemiology and Applied Biostatistics,,,,,,,,,,,,,
@-header,duration_!_2,,,,,,,,,,,,,
@-header,levelId_!_17,,,,,,,,,,,,,
@-header,levelName_!_Masters Degree,,,,,,,,,,,,,
@-header,levelCode_!_9,,,,,,,,,,,,,
@-header,departmentId_!_8,,,,,,,,,,,,,
@-header,departmentName_!_Directorate of Postgraduate Studies,,,,,,,,,,,,,
@-header,admissionYearId_!_7,,,,,,,,,,,,,
@-header,admissionYearName_!_2015/2016,,,,,,,,,,,,,
@-header,admissionYearNumber_!_7,,,,,,,,,,,,,
@-header,currentBatchId_!_7,,,,,,,,,,,,,
@-header,currentBatchName_!_2015/2016,,,,,,,,,,,,,
@-header,currentBatchNumber_!_7,,,,,,,,,,,,,
@-header,lastResultsCummulativeSemester_!_4,,,,,,,,,,,,,
@-header,currentCummulativeSemester_!_4,,,,,,,,,,,,,
@-header,allSemestersIncluded_!_1,,,,,,,,,,,,,
@-header,numberOfSemestersPerYear_!_2,,,,,,,,,,,,,
@-header,graduated_!_0,,,,,,,,,,,,,
@-header,grade_0_id_!_8,,,,,,,,,,,,,
@-header,grade_0_name_!_A,,,,,,,,,,,,,
@-header,grade_0_point_!_5,,,,,,,,,,,,,
@-header,grade_0_lowestMarks_!_85,,,,,,,,,,,,,
@-header,grade_0_highestMarks_!_101,,,,,,,,,,,,,
@-header,grade_0_extraInformation_!_Excellent,,,,,,,,,,,,,
@-header,grade_1_id_!_9,,,,,,,,,,,,,
@-header,grade_1_name_!_B+,,,,,,,,,,,,,
@-header,grade_1_point_!_4,,,,,,,,,,,,,
@-header,grade_1_lowestMarks_!_75,,,,,,,,,,,,,
@-header,grade_1_highestMarks_!_85,,,,,,,,,,,,,
@-header,grade_1_extraInformation_!_Very Good,,,,,,,,,,,,,
@-header,grade_2_id_!_10,,,,,,,,,,,,,
@-header,grade_2_name_!_B,,,,,,,,,,,,,
@-header,grade_2_point_!_3,,,,,,,,,,,,,
@-header,grade_2_lowestMarks_!_60,,,,,,,,,,,,,
@-header,grade_2_highestMarks_!_75,,,,,,,,,,,,,
@-header,grade_2_extraInformation_!_Good,,,,,,,,,,,,,
@-header,grade_3_id_!_11,,,,,,,,,,,,,
@-header,grade_3_name_!_C,,,,,,,,,,,,,
@-header,grade_3_point_!_2,,,,,,,,,,,,,
@-header,grade_3_lowestMarks_!_50,,,,,,,,,,,,,
@-header,grade_3_highestMarks_!_60,,,,,,,,,,,,,
@-header,grade_3_extraInformation_!_Pass,,,,,,,,,,,,,
@-header,grade_4_id_!_13,,,,,,,,,,,,,
@-header,grade_4_name_!_I,,,,,,,,,,,,,
@-header,grade_4_point_!_0,,,,,,,,,,,,,
@-header,grade_4_lowestMarks_!_1001,,,,,,,,,,,,,
@-header,grade_4_highestMarks_!_1001,,,,,,,,,,,,,
@-header,grade_4_extraInformation_!_Incomplete,,,,,,,,,,,,,
@-header,grade_5_id_!_27,,,,,,,,,,,,,
@-header,grade_5_name_!_D,,,,,,,,,,,,,
@-header,grade_5_point_!_1,,,,,,,,,,,,,
@-header,grade_5_lowestMarks_!_40,,,,,,,,,,,,,
@-header,grade_5_highestMarks_!_49,,,,,,,,,,,,,
@-header,grade_5_extraInformation_!_Fail/Suppl,,,,,,,,,,,,,
@-header,award_0_id_!_6,,,,,,,,,,,,,
@-header,award_0_name_!_First Class,,,,,,,,,,,,,
@-header,award_0_lowestGPA_!_4.5,,,,,,,,,,,,,
@-header,award_0_highestGPA_!_5.1,,,,,,,,,,,,,
@-header,award_0_extraInformation_!_Excellent,,,,,,,,,,,,,
@-header,award_1_id_!_7,,,,,,,,,,,,,
@-header,award_1_name_!_Upper Second,,,,,,,,,,,,,
@-header,award_1_lowestGPA_!_4.0,,,,,,,,,,,,,
@-header,award_1_highestGPA_!_4.5,,,,,,,,,,,,,
@-header,award_1_extraInformation_!_Very Good,,,,,,,,,,,,,
@-header,award_2_id_!_8,,,,,,,,,,,,,
@-header,award_2_name_!_Lower Second,,,,,,,,,,,,,
@-header,award_2_lowestGPA_!_3.0,,,,,,,,,,,,,
@-header,award_2_highestGPA_!_4.0,,,,,,,,,,,,,
@-header,award_2_extraInformation_!_Good,,,,,,,,,,,,,
@-header,award_3_id_!_19,,,,,,,,,,,,,
@-header,award_3_name_!_No GPA,,,,,,,,,,,,,
@-header,award_3_lowestGPA_!_00,,,,,,,,,,,,,
@-header,award_3_highestGPA_!_1.9,,,,,,,,,,,,,
@-header,award_3_extraInformation_!_,,,,,,,,,,,,,
@-header,award_4_id_!_20,,,,,,,,,,,,,
@-header,award_4_name_!_PASS,,,,,,,,,,,,,
@-header,award_4_lowestGPA_!_2,,,,,,,,,,,,,
@-header,award_4_highestGPA_!_2.9,,,,,,,,,,,,,
@-header,award_4_extraInformation_!_,,,,,,,,,,,,,
@-header,sem_1_awardId_!_7,,,,,,,,,,,,,
@-header,sem_1_awardName_!_Upper Second,,,,,,,,,,,,,
@-header,sem_1_totalUnits_!_56,,,,,,,,,,,,,
@-header,sem_1_totalModulePoints_!_238,,,,,,,,,,,,,
@-header,sem_1_academicYearId_!_7,,,,,,,,,,,,,
@-header,sem_1_academicYear_!_2015/2016,,,,,,,,,,,,,
@-header,sem_1_gpa_!_4.2,,,,,,,,,,,,,
@-header,sem_2_awardId_!_6,,,,,,,,,,,,,
@-header,sem_2_awardName_!_First Class,,,,,,,,,,,,,
@-header,sem_2_totalUnits_!_45,,,,,,,,,,,,,
@-header,sem_2_totalModulePoints_!_207,,,,,,,,,,,,,
@-header,sem_2_academicYearId_!_7,,,,,,,,,,,,,
@-header,sem_2_academicYear_!_2015/2016,,,,,,,,,,,,,
@-header,sem_2_gpa_!_4.6,,,,,,,,,,,,,
@-header,sem_3_awardId_!_6,,,,,,,,,,,,,
@-header,sem_3_awardName_!_First Class,,,,,,,,,,,,,
@-header,sem_3_totalUnits_!_14,,,,,,,,,,,,,
@-header,sem_3_totalModulePoints_!_63,,,,,,,,,,,,,
@-header,sem_3_academicYearId_!_8,,,,,,,,,,,,,
@-header,sem_3_academicYear_!_2016/2017,,,,,,,,,,,,,
@-header,sem_3_gpa_!_4.5,,,,,,,,,,,,,
@-header,sem_4_awardId_!_8,,,,,,,,,,,,,
@-header,sem_4_awardName_!_Lower Second,,,,,,,,,,,,,
@-header,sem_4_totalUnits_!_40,,,,,,,,,,,,,
@-header,sem_4_totalModulePoints_!_120,,,,,,,,,,,,,
@-header,sem_4_academicYearId_!_8,,,,,,,,,,,,,
@-header,sem_4_academicYear_!_2016/2017,,,,,,,,,,,,,
@-header,sem_4_gpa_!_3,,,,,,,,,,,,,
@-header,gpa_!_4,,,,,,,,,,,,,
@-header,awardId_!_7,,,,,,,,,,,,,
@-header,awardName_!_Upper Second,,,,,,,,,,,,,
@-header,cleared_!_,,,,,,,,,,,,,
@-header,filename_!_transcript_3524.csv,,,,,,,,,,,,,
@-business-logic-begin,,,,,,,,,,,,,,
134,1,7,2015/2016,0,,,Biostatistics,FCM 112,,73,10,B,3,8
135,1,7,2015/2016,0,,,Epidemiology,FCM 113,,84,9,B+,4,8
136,1,7,2015/2016,0,,,Research Methodology,FCM 114,,93,8,A,5,6
137,1,7,2015/2016,0,,,Research management and leadership,FCM 115,,77,9,B+,4,6
142,1,7,2015/2016,0,,,Advanced Study Designs I,AEM 111,,90,8,A,5,4
143,1,7,2015/2016,0,,,Surveillance,AEM 112,,81,9,B+,4,6
144,1,7,2015/2016,0,,,Epidemiology of Communicable Disease,AEM 113,,87,8,A,5,6
145,1,7,2015/2016,0,,,Epidemiology of Non-Communicable Disease,AEM 114,,91,8,A,5,6
146,1,7,2015/2016,0,,,Screening and Diagnostics,AEM 115,,83,9,B+,4,6
147,2,7,2015/2016,0,,,Bio-ethics and GCP,AEM 121,,88,8,A,5,6
148,2,7,2015/2016,0,,,Monitoring and Evaluation of Health Projects,AEM 122,,80,9,B+,4,6
149,2,7,2015/2016,0,,,Linear regression,ABM 121,,89,8,A,5,7
150,2,7,2015/2016,0,,,Logistic regression,ABM 122,,85,8,A,5,7
152,2,7,2015/2016,0,,,Survey Methods,ABM 124,,81,9,B+,4,6
153,2,7,2015/2016,0,,,Likelihood Theory,ABM 125,,78,9,B+,4,6
154,2,7,2015/2016,0,,,Introduction to survival analysis (Poisson regression),ABM 126,,92,8,A,5,7
157,3,8,2016/2017,0,,,Advanced Survival analysis,ABM 231,,77,9,B+,4,7
158,3,8,2016/2017,0,,,Multi-level models,ABM 232,,86,8,A,5,7
779,4,8,2016/2017,0,,,DISSERTATION,RRW231,,69,10,B,3,40
@-business-logic-end,,,,,,,,,,,,,,
