@-header,flags_!_0,,,,,,,,,,,,,
@-header,studentId_!_84,,,,,,,,,,,,,
@-header,dateOfBirth_!_1978:4:14:00:00:00,,,,,,,,,,,,,
@-header,sexId_!_2,,,,,,,,,,,,,
@-header,sexName_!_Female,,,,,,,,,,,,,
@-header,profileId_!_1,,,,,,,,,,,,,
@-header,profileName_!_Kilimanjaro Christian Medical University College,,,,,,,,,,,,,
@-header,profileCity_!_Moshi,,,,,,,,,,,,,
@-header,profilePostalAddress_!_P.O Box 2240, Moshi,,,,,,,,,,,,,
@-header,profileWebsite_!_www.kcmuco.ac.tz,,,,,,,,,,,,,
@-header,profileCountryId_!_227,,,,,,,,,,,,,
@-header,profileCountryName_!_Tanzania,,,,,,,,,,,,,
@-header,systemName_!_University Management Information System,,,,,,,,,,,,,
@-header,postalAddress_!_box 866 moshi,,,,,,,,,,,,,
@-header,physicalAddress_!_Ushirika wa Neema,,,,,,,,,,,,,
@-header,countryId_!_227,,,,,,,,,,,,,
@-header,countryName_!_Tanzania,,,,,,,,,,,,,
@-header,registrationNumber_!_TUMA/KCMUCo/BScPhysio.2013/2014/TZ/0115,,,,,,,,,,,,,
@-header,fullname_!_Caroline C Mallya,,,,,,,,,,,,,
@-header,firstname_!_Caroline,,,,,,,,,,,,,
@-header,middlename_!_Clemence,,,,,,,,,,,,,
@-header,lastname_!_Mallya,,,,,,,,,,,,,
@-header,compilationTime_!_2018:05:21:11:55:32,,,,,,,,,,,,,
@-header,fileType_!_transcript,,,,,,,,,,,,,
@-header,courseId_!_4,,,,,,,,,,,,,
@-header,courseCode_!_BScPhysio.D,,,,,,,,,,,,,
@-header,courseName_!_Bachelor of Science in Physiotherapy (Direct),,,,,,,,,,,,,
@-header,duration_!_4,,,,,,,,,,,,,
@-header,levelId_!_15,,,,,,,,,,,,,
@-header,levelName_!_Bachelor Degree,,,,,,,,,,,,,
@-header,levelCode_!_8,,,,,,,,,,,,,
@-header,departmentId_!_4,,,,,,,,,,,,,
@-header,departmentName_!_Faculty of Rehabilitation Medicine,,,,,,,,,,,,,
@-header,admissionYearId_!_5,,,,,,,,,,,,,
@-header,admissionYearName_!_2013/2014,,,,,,,,,,,,,
@-header,admissionYearNumber_!_5,,,,,,,,,,,,,
@-header,currentBatchId_!_5,,,,,,,,,,,,,
@-header,currentBatchName_!_2013/2014,,,,,,,,,,,,,
@-header,currentBatchNumber_!_5,,,,,,,,,,,,,
@-header,lastResultsCummulativeSemester_!_8,,,,,,,,,,,,,
@-header,currentCummulativeSemester_!_6,,,,,,,,,,,,,
@-header,allSemestersIncluded_!_0,,,,,,,,,,,,,
@-header,numberOfSemestersPerYear_!_2,,,,,,,,,,,,,
@-header,graduated_!_0,,,,,,,,,,,,,
@-header,grade_0_id_!_1,,,,,,,,,,,,,
@-header,grade_0_name_!_A,,,,,,,,,,,,,
@-header,grade_0_point_!_5,,,,,,,,,,,,,
@-header,grade_0_lowestMarks_!_80,,,,,,,,,,,,,
@-header,grade_0_highestMarks_!_101,,,,,,,,,,,,,
@-header,grade_0_extraInformation_!_Excellent,,,,,,,,,,,,,
@-header,grade_1_id_!_2,,,,,,,,,,,,,
@-header,grade_1_name_!_B+,,,,,,,,,,,,,
@-header,grade_1_point_!_4,,,,,,,,,,,,,
@-header,grade_1_lowestMarks_!_70,,,,,,,,,,,,,
@-header,grade_1_highestMarks_!_80,,,,,,,,,,,,,
@-header,grade_1_extraInformation_!_Very Good,,,,,,,,,,,,,
@-header,grade_2_id_!_3,,,,,,,,,,,,,
@-header,grade_2_name_!_B,,,,,,,,,,,,,
@-header,grade_2_point_!_3,,,,,,,,,,,,,
@-header,grade_2_lowestMarks_!_60,,,,,,,,,,,,,
@-header,grade_2_highestMarks_!_70,,,,,,,,,,,,,
@-header,grade_2_extraInformation_!_Good,,,,,,,,,,,,,
@-header,grade_3_id_!_4,,,,,,,,,,,,,
@-header,grade_3_name_!_C,,,,,,,,,,,,,
@-header,grade_3_point_!_2,,,,,,,,,,,,,
@-header,grade_3_lowestMarks_!_50,,,,,,,,,,,,,
@-header,grade_3_highestMarks_!_60,,,,,,,,,,,,,
@-header,grade_3_extraInformation_!_Pass,,,,,,,,,,,,,
@-header,grade_4_id_!_5,,,,,,,,,,,,,
@-header,grade_4_name_!_D,,,,,,,,,,,,,
@-header,grade_4_point_!_1,,,,,,,,,,,,,
@-header,grade_4_lowestMarks_!_40,,,,,,,,,,,,,
@-header,grade_4_highestMarks_!_50,,,,,,,,,,,,,
@-header,grade_4_extraInformation_!_Supplementary,,,,,,,,,,,,,
@-header,grade_5_id_!_6,,,,,,,,,,,,,
@-header,grade_5_name_!_E,,,,,,,,,,,,,
@-header,grade_5_point_!_0,,,,,,,,,,,,,
@-header,grade_5_lowestMarks_!_0,,,,,,,,,,,,,
@-header,grade_5_highestMarks_!_40,,,,,,,,,,,,,
@-header,grade_5_extraInformation_!_Supplementary,,,,,,,,,,,,,
@-header,grade_6_id_!_7,,,,,,,,,,,,,
@-header,grade_6_name_!_I,,,,,,,,,,,,,
@-header,grade_6_point_!_0,,,,,,,,,,,,,
@-header,grade_6_lowestMarks_!_1001,,,,,,,,,,,,,
@-header,grade_6_highestMarks_!_1001,,,,,,,,,,,,,
@-header,grade_6_extraInformation_!_Incomplete,,,,,,,,,,,,,
@-header,award_0_id_!_1,,,,,,,,,,,,,
@-header,award_0_name_!_First Class,,,,,,,,,,,,,
@-header,award_0_lowestGPA_!_4.4,,,,,,,,,,,,,
@-header,award_0_highestGPA_!_5.1,,,,,,,,,,,,,
@-header,award_0_extraInformation_!_First Class,,,,,,,,,,,,,
@-header,award_1_id_!_2,,,,,,,,,,,,,
@-header,award_1_name_!_Upper Second,,,,,,,,,,,,,
@-header,award_1_lowestGPA_!_3.5,,,,,,,,,,,,,
@-header,award_1_highestGPA_!_4.4,,,,,,,,,,,,,
@-header,award_1_extraInformation_!_Upper Second,,,,,,,,,,,,,
@-header,award_2_id_!_3,,,,,,,,,,,,,
@-header,award_2_name_!_Lower Second,,,,,,,,,,,,,
@-header,award_2_lowestGPA_!_2.7,,,,,,,,,,,,,
@-header,award_2_highestGPA_!_3.5,,,,,,,,,,,,,
@-header,award_2_extraInformation_!_Lower Second,,,,,,,,,,,,,
@-header,award_3_id_!_4,,,,,,,,,,,,,
@-header,award_3_name_!_Pass,,,,,,,,,,,,,
@-header,award_3_lowestGPA_!_2.0,,,,,,,,,,,,,
@-header,award_3_highestGPA_!_2.7,,,,,,,,,,,,,
@-header,award_3_extraInformation_!_Pass,,,,,,,,,,,,,
@-header,award_4_id_!_5,,,,,,,,,,,,,
@-header,award_4_name_!_No Award,,,,,,,,,,,,,
@-header,award_4_lowestGPA_!_0.0,,,,,,,,,,,,,
@-header,award_4_highestGPA_!_2.0,,,,,,,,,,,,,
@-header,award_4_extraInformation_!_No Award,,,,,,,,,,,,,
@-header,sem_1_awardId_!_5,,,,,,,,,,,,,
@-header,sem_1_awardName_!_No Award,,,,,,,,,,,,,
@-header,sem_1_totalUnits_!_60,,,,,,,,,,,,,
@-header,sem_1_totalModulePoints_!_0,,,,,,,,,,,,,
@-header,sem_1_academicYearId_!_5,,,,,,,,,,,,,
@-header,sem_1_academicYear_!_2013/2014,,,,,,,,,,,,,
@-header,sem_1_gpa_!_0,,,,,,,,,,,,,
@-header,sem_3_awardId_!_5,,,,,,,,,,,,,
@-header,sem_3_awardName_!_No Award,,,,,,,,,,,,,
@-header,sem_3_totalUnits_!_60,,,,,,,,,,,,,
@-header,sem_3_totalModulePoints_!_0,,,,,,,,,,,,,
@-header,sem_3_academicYearId_!_6,,,,,,,,,,,,,
@-header,sem_3_academicYear_!_2014/2015,,,,,,,,,,,,,
@-header,sem_3_gpa_!_0,,,,,,,,,,,,,
@-header,sem_4_awardId_!_5,,,,,,,,,,,,,
@-header,sem_4_awardName_!_No Award,,,,,,,,,,,,,
@-header,sem_4_totalUnits_!_60,,,,,,,,,,,,,
@-header,sem_4_totalModulePoints_!_0,,,,,,,,,,,,,
@-header,sem_4_academicYearId_!_6,,,,,,,,,,,,,
@-header,sem_4_academicYear_!_2014/2015,,,,,,,,,,,,,
@-header,sem_4_gpa_!_0,,,,,,,,,,,,,
@-header,sem_5_awardId_!_5,,,,,,,,,,,,,
@-header,sem_5_awardName_!_No Award,,,,,,,,,,,,,
@-header,sem_5_totalUnits_!_60,,,,,,,,,,,,,
@-header,sem_5_totalModulePoints_!_0,,,,,,,,,,,,,
@-header,sem_5_academicYearId_!_7,,,,,,,,,,,,,
@-header,sem_5_academicYear_!_2015/2016,,,,,,,,,,,,,
@-header,sem_5_gpa_!_0,,,,,,,,,,,,,
@-header,sem_6_awardId_!_5,,,,,,,,,,,,,
@-header,sem_6_awardName_!_No Award,,,,,,,,,,,,,
@-header,sem_6_totalUnits_!_60,,,,,,,,,,,,,
@-header,sem_6_totalModulePoints_!_0,,,,,,,,,,,,,
@-header,sem_6_academicYearId_!_7,,,,,,,,,,,,,
@-header,sem_6_academicYear_!_2015/2016,,,,,,,,,,,,,
@-header,sem_6_gpa_!_0,,,,,,,,,,,,,
@-header,gpa_!_0,,,,,,,,,,,,,
@-header,awardId_!_5,,,,,,,,,,,,,
@-header,awardName_!_No Award,,,,,,,,,,,,,
@-header,cleared_!_,,,,,,,,,,,,,
@-header,filename_!_transcript_84.csv,,,,,,,,,,,,,
@-business-logic-begin,,,,,,,,,,,,,,
384,1,5,2013/2014,0,,,Anatomy Level 1 ,KBAN1102 ,,,7,I,0,12
387,1,5,2013/2014,0,,,Physiology Level 1 ,KBPH1103,,,7,I,0,8
388,1,5,2013/2014,0,,,Parasitology & Entomology,KBPE1104,,,7,I,0,4
390,1,5,2013/2014,0,,,Microbiology and Immunology ,KBMI1105,,,7,I,0,4
392,1,5,2013/2014,0,,,Biochemistry Level 1,KBBC1106,,,7,I,0,4
394,1,5,2013/2014,0,,,Clinical Science Level 1,KBCS1107,,,7,I,0,6
396,1,5,2013/2014,0,,,Physical Education level 1,KBPE1108,,,7,I,0,6
398,1,5,2013/2014,0,,,Nursing and first Aid,KBFI1109,,,7,I,0,4
498,1,5,2013/2014,0,,,PT101	Psychology,PT101,,,7,I,0,3
499,1,5,2013/2014,0,,,Sociology & anthropology,PT102	,,,7,I,0,3
500,1,5,2013/2014,0,,,	Ethics,PT103,,,7,I,0,3
501,1,5,2013/2014,0,,,	Communication & study skills,PT104,,,7,I,0,3
510,2,5,2013/2014,0,,,Anatomy Level 2 ,PT109	,,,,,,10
511,2,5,2013/2014,0,,,	Physiology Level 2,PT110,,,,,,8
512,2,5,2013/2014,0,,,	Kinesiology & Biomechanics,PP105,,,,,,4
513,2,5,2013/2014,0,,,	Medical Exercise Therapy level 1,PT111,,,,,,8
514,2,5,2013/2014,0,,,Basic Parasitology & Entomology,PT112	,,,,,,4
516,2,5,2013/2014,0,,,Biochemistry Level 2,PT114	,,,,,,3
517,2,5,2013/2014,0,,,Clinical Science Level 2,PT115	,,,,,,6
518,2,5,2013/2014,0,,,Physical Education Level 2,PP106	,,,,,,4
519,2,5,2013/2014,0,,,Clinical reasoning,PP107	,,,,,,3
521,2,5,2013/2014,0,,,	Pharmacology,PT117,,,,,,3
522,2,5,2013/2014,0,,,PP108	Public Health/Community Health,PP108	,,,,,,3
603,2,5,2013/2014,0,,,	Microbiology and Immunology ,KBMI205,,,,,,4
338,3,6,2014/2015,0,,,Foundation of Faith,BFF119,,,7,I,0,4
523,3,6,2014/2015,0,,,	Manual Therapy,PP321	,,,7,I,0,12
524,3,6,2014/2015,0,,,Soft Tissue Manipulation,PP322	,,,7,I,0,12
525,3,6,2014/2015,0,,,Electrotherapy & Thermotherapy Level 1,PT324,,,7,I,0,8
526,3,6,2014/2015,0,,,	Ergonomics,PT325	,,,7,I,0,8
605,3,6,2014/2015,0,,,	Clinical Practice  level 1 ,KBCP2106,,,7,I,0,12
645,3,6,2014/2015,0,,,General Surgery ,KBGN 2105,,,7,I,0,4
527,4,6,2014/2015,0,,,Musculoskeletal Conditions Level 1,PT417	,,,7,I,0,12
528,4,6,2014/2015,0,,,Adult Neurological conditions Level 1,PT418	,,,7,I,0,12
529,4,6,2014/2015,0,,,	Cardio respiratory Conditions Level 1,PT419,,,7,I,0,12
530,4,6,2014/2015,0,,,	Paediatric Conditions Level 1,PT420	,,,7,I,0,12
532,4,6,2014/2015,0,,,	Field Work (Community),PP405	,,,7,I,0,12
531,5,7,2015/2016,0,,,radiology,PT426	,,,7,I,0,4
533,5,7,2015/2016,0,,,	Psychiatry,PT527	,,,7,I,0,6
534,5,7,2015/2016,0,,,Musculoskeletal Conditions Level 2,PP517	,,,7,I,0,6
535,5,7,2015/2016,0,,,	Adult Neurological conditions Level 2,PP518	,,,7,I,0,6
536,5,7,2015/2016,0,,,Cardio respiratory conditions Level 2 ,PP519	,,,7,I,0,6
537,5,7,2015/2016,0,,,	Pediatric conditions,PT520	,,,7,I,0,6
538,5,7,2015/2016,0,,,	Pain management,PT528	,,,7,I,0,6
539,5,7,2015/2016,0,,,	Research Methodology,PT521	,,,7,I,0,4
540,5,7,2015/2016,0,,,	Information Technology,PP506	,,,7,I,0,4
651,5,7,2015/2016,0,,,Clinical Practice,PP 301,,,7,I,0,12
541,6,7,2015/2016,0,,,Obstetrics and Gynaecology,PT630	,,,7,I,0,8
542,6,7,2015/2016,0,,,	Urology,PT631	,,,7,I,0,8
543,6,7,2015/2016,0,,,	Advanced Musculoskeletal Physiotherapy Level 1,PP617	,,,7,I,0,8
544,6,7,2015/2016,0,,,Advanced  Neurological Physiotherapy Level 1,PP618	,,,7,I,0,8
545,6,7,2015/2016,0,,,	Advanced Cardiorespiratory Physiotherapy Level 1 ,PP619	,,,7,I,0,8
546,6,7,2015/2016,0,,,Advanced Paediatric Physiotherapy Level 1,PP620	,,,7,I,0,8
547,6,7,2015/2016,0,,,	Research Methodology Level 2,PT629,,,7,I,0,8
652,6,7,2015/2016,0,,,Clinical Practice,PP 302,,,7,I,0,4
548,7,8,2016/2017,0,,,	Elderly Care,PT732	,,,,,,8
549,7,8,2016/2017,0,,,	Orthopaedic technology and Rehabilitation,PT733	,,,,,,6
551,7,8,2016/2017,0,,,Administration and Management ,PT734,,,,,,6
552,7,8,2016/2017,0,,,	Field Placement,PP705	,,,,,,12
610,7,8,2016/2017,0,,,Epidemiology and Biostatistics,KBBE4104	,,,,,,6
654,7,8,2016/2017,0,,,Research Methodology Level 3,KBRM4101,,,,,,6
658,7,8,2016/2017,0,,,Physiotherapy in Paediatrics threory,KBPD 4201,,,,,,4
660,7,8,2016/2017,0,,,Physiotherapy in Internal Medicine theory,KBIM 4202,,,,,,4
662,7,8,2016/2017,0,,,Physiotherapy in General Surgery  theory,KBSG 4202,,,,,,4
664,7,8,2016/2017,0,,,Physiotherapy in Orthopaedics  theory,KBOT 404,,,,,,4
653,8,8,2016/2017,0,,,Research Project ,KBRP4201,,,,,,12
655,8,8,2016/2017,0,,,Physiotherapy in Paediatrics (Clinical Practice),KBPD4202,,,,,,6
656,8,8,2016/2017,0,,,Physiotherapy in Internal Medicine(Clinical Pr),KBIM4203,,,,,,6
657,8,8,2016/2017,0,,,Physiotherapy in General Surgery  (Clinical Pr),KBOT405,,,,,,6
659,8,8,2016/2017,0,,,Physiotherapy in Paediatrics (theory),KBPD 4202,,,,,,6
661,8,8,2016/2017,0,,,Physiotherapy in Internal Medicine  theory,KBIM 4203,,,,,,6
663,8,8,2016/2017,0,,,Physiotherapy in General Surgery  theory,KBSG4204,,,,,,6
665,8,8,2016/2017,0,,,Physiotherapy in Orthopaedics  theory,KBOT 405,,,,,,6
666,8,8,2016/2017,0,,,Physiotherapy in Orthopaedics  (Clinical Pr),KBOT  406,,,,,,6
@-business-logic-end,,,,,,,,,,,,,,
