@-header,flags_!_0,,,,,,,,,,,,,
@-header,studentId_!_173,,,,,,,,,,,,,
@-header,dateOfBirth_!_1983:1:30:00:00:00,,,,,,,,,,,,,
@-header,sexId_!_2,,,,,,,,,,,,,
@-header,sexName_!_Female,,,,,,,,,,,,,
@-header,profileId_!_1,,,,,,,,,,,,,
@-header,profileName_!_Kilimanjaro Christian Medical University College,,,,,,,,,,,,,
@-header,profileCity_!_Moshi,,,,,,,,,,,,,
@-header,profilePostalAddress_!_P.O Box 2240, Moshi,,,,,,,,,,,,,
@-header,profileWebsite_!_www.kcmuco.ac.tz,,,,,,,,,,,,,
@-header,profileCountryId_!_227,,,,,,,,,,,,,
@-header,profileCountryName_!_Tanzania,,,,,,,,,,,,,
@-header,systemName_!_University Management Information System,,,,,,,,,,,,,
@-header,postalAddress_!_1370,,,,,,,,,,,,,
@-header,physicalAddress_!_BUGANDO MWANZA,,,,,,,,,,,,,
@-header,countryId_!_227,,,,,,,,,,,,,
@-header,countryName_!_Tanzania,,,,,,,,,,,,,
@-header,registrationNumber_!_TUMA/KCMUCo/MMED.PAE.2013/2014/TZ/0337,,,,,,,,,,,,,
@-header,fullname_!_Heronima Joas,,,,,,,,,,,,,
@-header,firstname_!_Heronima,,,,,,,,,,,,,
@-header,middlename_!_Joas,,,,,,,,,,,,,
@-header,lastname_!_Kashaigili,,,,,,,,,,,,,
@-header,compilationTime_!_2018:11:24:16:54:23,,,,,,,,,,,,,
@-header,fileType_!_transcript,,,,,,,,,,,,,
@-header,courseId_!_29,,,,,,,,,,,,,
@-header,courseCode_!_MMED.PAE,,,,,,,,,,,,,
@-header,courseName_!_MMed in Paediatrics and Child Health,,,,,,,,,,,,,
@-header,duration_!_4,,,,,,,,,,,,,
@-header,levelId_!_17,,,,,,,,,,,,,
@-header,levelName_!_Masters Degree,,,,,,,,,,,,,
@-header,levelCode_!_9,,,,,,,,,,,,,
@-header,departmentId_!_8,,,,,,,,,,,,,
@-header,departmentName_!_Directorate of Postgraduate Studies,,,,,,,,,,,,,
@-header,admissionYearId_!_5,,,,,,,,,,,,,
@-header,admissionYearName_!_2013/2014,,,,,,,,,,,,,
@-header,admissionYearNumber_!_5,,,,,,,,,,,,,
@-header,currentBatchId_!_5,,,,,,,,,,,,,
@-header,currentBatchName_!_2013/2014,,,,,,,,,,,,,
@-header,currentBatchNumber_!_5,,,,,,,,,,,,,
@-header,lastResultsCummulativeSemester_!_8,,,,,,,,,,,,,
@-header,currentCummulativeSemester_!_8,,,,,,,,,,,,,
@-header,allSemestersIncluded_!_1,,,,,,,,,,,,,
@-header,numberOfSemestersPerYear_!_2,,,,,,,,,,,,,
@-header,graduated_!_0,,,,,,,,,,,,,
@-header,grade_0_id_!_8,,,,,,,,,,,,,
@-header,grade_0_name_!_A,,,,,,,,,,,,,
@-header,grade_0_point_!_5,,,,,,,,,,,,,
@-header,grade_0_lowestMarks_!_85,,,,,,,,,,,,,
@-header,grade_0_highestMarks_!_101,,,,,,,,,,,,,
@-header,grade_0_extraInformation_!_Excellent,,,,,,,,,,,,,
@-header,grade_1_id_!_9,,,,,,,,,,,,,
@-header,grade_1_name_!_B+,,,,,,,,,,,,,
@-header,grade_1_point_!_4,,,,,,,,,,,,,
@-header,grade_1_lowestMarks_!_75,,,,,,,,,,,,,
@-header,grade_1_highestMarks_!_85,,,,,,,,,,,,,
@-header,grade_1_extraInformation_!_Very Good,,,,,,,,,,,,,
@-header,grade_2_id_!_10,,,,,,,,,,,,,
@-header,grade_2_name_!_B,,,,,,,,,,,,,
@-header,grade_2_point_!_3,,,,,,,,,,,,,
@-header,grade_2_lowestMarks_!_60,,,,,,,,,,,,,
@-header,grade_2_highestMarks_!_75,,,,,,,,,,,,,
@-header,grade_2_extraInformation_!_Good,,,,,,,,,,,,,
@-header,grade_3_id_!_11,,,,,,,,,,,,,
@-header,grade_3_name_!_C,,,,,,,,,,,,,
@-header,grade_3_point_!_2,,,,,,,,,,,,,
@-header,grade_3_lowestMarks_!_50,,,,,,,,,,,,,
@-header,grade_3_highestMarks_!_60,,,,,,,,,,,,,
@-header,grade_3_extraInformation_!_Pass,,,,,,,,,,,,,
@-header,grade_4_id_!_13,,,,,,,,,,,,,
@-header,grade_4_name_!_I,,,,,,,,,,,,,
@-header,grade_4_point_!_0,,,,,,,,,,,,,
@-header,grade_4_lowestMarks_!_1001,,,,,,,,,,,,,
@-header,grade_4_highestMarks_!_1001,,,,,,,,,,,,,
@-header,grade_4_extraInformation_!_Incomplete,,,,,,,,,,,,,
@-header,grade_5_id_!_27,,,,,,,,,,,,,
@-header,grade_5_name_!_D,,,,,,,,,,,,,
@-header,grade_5_point_!_1,,,,,,,,,,,,,
@-header,grade_5_lowestMarks_!_40,,,,,,,,,,,,,
@-header,grade_5_highestMarks_!_49,,,,,,,,,,,,,
@-header,grade_5_extraInformation_!_Fail/Suppl,,,,,,,,,,,,,
@-header,award_0_id_!_6,,,,,,,,,,,,,
@-header,award_0_name_!_First Class,,,,,,,,,,,,,
@-header,award_0_lowestGPA_!_4.5,,,,,,,,,,,,,
@-header,award_0_highestGPA_!_5.1,,,,,,,,,,,,,
@-header,award_0_extraInformation_!_Excellent,,,,,,,,,,,,,
@-header,award_1_id_!_7,,,,,,,,,,,,,
@-header,award_1_name_!_Upper Second,,,,,,,,,,,,,
@-header,award_1_lowestGPA_!_4.0,,,,,,,,,,,,,
@-header,award_1_highestGPA_!_4.5,,,,,,,,,,,,,
@-header,award_1_extraInformation_!_Very Good,,,,,,,,,,,,,
@-header,award_2_id_!_8,,,,,,,,,,,,,
@-header,award_2_name_!_Lower Second,,,,,,,,,,,,,
@-header,award_2_lowestGPA_!_3.0,,,,,,,,,,,,,
@-header,award_2_highestGPA_!_4.0,,,,,,,,,,,,,
@-header,award_2_extraInformation_!_Good,,,,,,,,,,,,,
@-header,award_3_id_!_19,,,,,,,,,,,,,
@-header,award_3_name_!_No GPA,,,,,,,,,,,,,
@-header,award_3_lowestGPA_!_00,,,,,,,,,,,,,
@-header,award_3_highestGPA_!_2.9,,,,,,,,,,,,,
@-header,award_3_extraInformation_!_,,,,,,,,,,,,,
@-header,sem_1_awardId_!_8,,,,,,,,,,,,,
@-header,sem_1_awardName_!_Lower Second,,,,,,,,,,,,,
@-header,sem_1_totalUnits_!_62,,,,,,,,,,,,,
@-header,sem_1_totalModulePoints_!_188,,,,,,,,,,,,,
@-header,sem_1_academicYearId_!_5,,,,,,,,,,,,,
@-header,sem_1_academicYear_!_2013/2014,,,,,,,,,,,,,
@-header,sem_1_gpa_!_3,,,,,,,,,,,,,
@-header,sem_2_awardId_!_8,,,,,,,,,,,,,
@-header,sem_2_awardName_!_Lower Second,,,,,,,,,,,,,
@-header,sem_2_totalUnits_!_60,,,,,,,,,,,,,
@-header,sem_2_totalModulePoints_!_180,,,,,,,,,,,,,
@-header,sem_2_academicYearId_!_5,,,,,,,,,,,,,
@-header,sem_2_academicYear_!_2013/2014,,,,,,,,,,,,,
@-header,sem_2_gpa_!_3,,,,,,,,,,,,,
@-header,sem_3_awardId_!_8,,,,,,,,,,,,,
@-header,sem_3_awardName_!_Lower Second,,,,,,,,,,,,,
@-header,sem_3_totalUnits_!_60,,,,,,,,,,,,,
@-header,sem_3_totalModulePoints_!_180,,,,,,,,,,,,,
@-header,sem_3_academicYearId_!_6,,,,,,,,,,,,,
@-header,sem_3_academicYear_!_2014/2015,,,,,,,,,,,,,
@-header,sem_3_gpa_!_3,,,,,,,,,,,,,
@-header,sem_4_awardId_!_8,,,,,,,,,,,,,
@-header,sem_4_awardName_!_Lower Second,,,,,,,,,,,,,
@-header,sem_4_totalUnits_!_60,,,,,,,,,,,,,
@-header,sem_4_totalModulePoints_!_180,,,,,,,,,,,,,
@-header,sem_4_academicYearId_!_6,,,,,,,,,,,,,
@-header,sem_4_academicYear_!_2014/2015,,,,,,,,,,,,,
@-header,sem_4_gpa_!_3,,,,,,,,,,,,,
@-header,sem_5_awardId_!_8,,,,,,,,,,,,,
@-header,sem_5_awardName_!_Lower Second,,,,,,,,,,,,,
@-header,sem_5_totalUnits_!_60,,,,,,,,,,,,,
@-header,sem_5_totalModulePoints_!_180,,,,,,,,,,,,,
@-header,sem_5_academicYearId_!_7,,,,,,,,,,,,,
@-header,sem_5_academicYear_!_2015/2016,,,,,,,,,,,,,
@-header,sem_5_gpa_!_3,,,,,,,,,,,,,
@-header,sem_6_awardId_!_8,,,,,,,,,,,,,
@-header,sem_6_awardName_!_Lower Second,,,,,,,,,,,,,
@-header,sem_6_totalUnits_!_60,,,,,,,,,,,,,
@-header,sem_6_totalModulePoints_!_210,,,,,,,,,,,,,
@-header,sem_6_academicYearId_!_7,,,,,,,,,,,,,
@-header,sem_6_academicYear_!_2015/2016,,,,,,,,,,,,,
@-header,sem_6_gpa_!_3.5,,,,,,,,,,,,,
@-header,sem_7_awardId_!_7,,,,,,,,,,,,,
@-header,sem_7_awardName_!_Upper Second,,,,,,,,,,,,,
@-header,sem_7_totalUnits_!_60,,,,,,,,,,,,,
@-header,sem_7_totalModulePoints_!_240,,,,,,,,,,,,,
@-header,sem_7_academicYearId_!_8,,,,,,,,,,,,,
@-header,sem_7_academicYear_!_2016/2017,,,,,,,,,,,,,
@-header,sem_7_gpa_!_4,,,,,,,,,,,,,
@-header,sem_8_awardId_!_7,,,,,,,,,,,,,
@-header,sem_8_awardName_!_Upper Second,,,,,,,,,,,,,
@-header,sem_8_totalUnits_!_60,,,,,,,,,,,,,
@-header,sem_8_totalModulePoints_!_240,,,,,,,,,,,,,
@-header,sem_8_academicYearId_!_8,,,,,,,,,,,,,
@-header,sem_8_academicYear_!_2016/2017,,,,,,,,,,,,,
@-header,sem_8_gpa_!_4,,,,,,,,,,,,,
@-header,gpa_!_3.3,,,,,,,,,,,,,
@-header,awardId_!_8,,,,,,,,,,,,,
@-header,awardName_!_Lower Second,,,,,,,,,,,,,
@-header,cleared_!_,,,,,,,,,,,,,
@-header,filename_!_transcript_173.csv,,,,,,,,,,,,,
@-business-logic-begin,,,,,,,,,,,,,,
1251,1,5,2013/2014,0,,,EPIDEMIOLOGY,MAT 1,,69,10,B,3,10
1252,1,5,2013/2014,0,,,BIOSTATISTICS,MAT 2,,57,11,C,2,8
1253,1,5,2013/2014,0,,,RESEARCH METHODOLOGY,MAT 3,,77,9,B+,4,8
1254,1,5,2013/2014,0,,,ANATOMY,MAT 4,,52,11,C,2,7
1255,1,5,2013/2014,0,,,PHYSIOLOGY,MAT 5,,58,11,C,2,7
1256,1,5,2013/2014,0,,,CLINICAL PHARMACOLOGY,MAT 6,,64,10,B,3,7
1257,1,5,2013/2014,0,,,PATHOLOGY,MAT 7,,70,10,B,3,7
1258,1,5,2013/2014,0,,,IMMUNOLOGY & GENETICS,MAT 8,,85,8,A,5,8
1259,2,5,2013/2014,0,,,MAT 9,MAT 9,,71,10,B,3,20
1260,2,5,2013/2014,0,,,MAT 10,MAT 10,,72,10,B,3,20
1261,2,5,2013/2014,0,,,ESAT 1,KPG 1140,,72,10,B,3,20
1262,3,6,2014/2015,0,,,ESAT 2,KPG 1141,,66,10,B,3,60
1263,4,6,2014/2015,0,,,ESAT 3,KPG 1142,,74,10,B,3,60
1264,5,7,2015/2016,0,,,ESAT 4,KPG 1144,,74,10,B,3,60
1265,6,7,2015/2016,0,,,ESAT 5,KPG 1145,,73,10,B,3,30
1266,6,7,2015/2016,0,,,Dissertation ,DIS 116,,78,9,B+,4,30
1267,7,8,2016/2017,0,,,ESAT 6,KPG 1146,,75,9,B+,4,60
1268,8,8,2016/2017,0,,,Final University Exam,KC4119,,82,9,B+,4,60
@-business-logic-end,,,,,,,,,,,,,,
