@-header,flags_!_0,,,,,,,,,,,,,
@-header,studentId_!_4372,,,,,,,,,,,,,
@-header,dateOfBirth_!_1980:5:8:00:00:00,,,,,,,,,,,,,
@-header,sexId_!_2,,,,,,,,,,,,,
@-header,sexName_!_Female,,,,,,,,,,,,,
@-header,profileId_!_1,,,,,,,,,,,,,
@-header,profileName_!_Kilimanjaro Christian Medical University College,,,,,,,,,,,,,
@-header,profileCity_!_Moshi,,,,,,,,,,,,,
@-header,profilePostalAddress_!_P.O Box 2240, Moshi,,,,,,,,,,,,,
@-header,profileWebsite_!_www.kcmuco.ac.tz,,,,,,,,,,,,,
@-header,profileCountryId_!_227,,,,,,,,,,,,,
@-header,profileCountryName_!_Tanzania,,,,,,,,,,,,,
@-header,systemName_!_University Management Information System,,,,,,,,,,,,,
@-header,postalAddress_!_152 hai,,,,,,,,,,,,,
@-header,physicalAddress_!_boma ngombe,,,,,,,,,,,,,
@-header,countryId_!_227,,,,,,,,,,,,,
@-header,countryName_!_Tanzania,,,,,,,,,,,,,
@-header,registrationNumber_!_TUMA/KCMUCo/MScMidw.2016/2017/TZ/006,,,,,,,,,,,,,
@-header,fullname_!_NDANSHAU JACKLINE EBENEZA,,,,,,,,,,,,,
@-header,firstname_!_JACKLINE,,,,,,,,,,,,,
@-header,middlename_!_EBENEZER,,,,,,,,,,,,,
@-header,lastname_!_NDANSHAU,,,,,,,,,,,,,
@-header,compilationTime_!_2019:02:06:13:46:22,,,,,,,,,,,,,
@-header,fileType_!_transcript,,,,,,,,,,,,,
@-header,courseId_!_38,,,,,,,,,,,,,
@-header,courseCode_!_MScMidw,,,,,,,,,,,,,
@-header,courseName_!_Master of Science in Midwifery,,,,,,,,,,,,,
@-header,duration_!_2,,,,,,,,,,,,,
@-header,levelId_!_17,,,,,,,,,,,,,
@-header,levelName_!_Masters Degree,,,,,,,,,,,,,
@-header,levelCode_!_9,,,,,,,,,,,,,
@-header,departmentId_!_8,,,,,,,,,,,,,
@-header,departmentName_!_Directorate of Postgraduate Studies,,,,,,,,,,,,,
@-header,admissionYearId_!_8,,,,,,,,,,,,,
@-header,admissionYearName_!_2016/2017,,,,,,,,,,,,,
@-header,admissionYearNumber_!_8,,,,,,,,,,,,,
@-header,currentBatchId_!_7,,,,,,,,,,,,,
@-header,currentBatchName_!_2015/2016,,,,,,,,,,,,,
@-header,currentBatchNumber_!_7,,,,,,,,,,,,,
@-header,lastResultsCummulativeSemester_!_4,,,,,,,,,,,,,
@-header,currentCummulativeSemester_!_4,,,,,,,,,,,,,
@-header,allSemestersIncluded_!_1,,,,,,,,,,,,,
@-header,numberOfSemestersPerYear_!_2,,,,,,,,,,,,,
@-header,graduated_!_0,,,,,,,,,,,,,
@-header,grade_0_id_!_8,,,,,,,,,,,,,
@-header,grade_0_name_!_A,,,,,,,,,,,,,
@-header,grade_0_point_!_5,,,,,,,,,,,,,
@-header,grade_0_lowestMarks_!_85,,,,,,,,,,,,,
@-header,grade_0_highestMarks_!_101,,,,,,,,,,,,,
@-header,grade_0_extraInformation_!_Excellent,,,,,,,,,,,,,
@-header,grade_1_id_!_9,,,,,,,,,,,,,
@-header,grade_1_name_!_B+,,,,,,,,,,,,,
@-header,grade_1_point_!_4,,,,,,,,,,,,,
@-header,grade_1_lowestMarks_!_75,,,,,,,,,,,,,
@-header,grade_1_highestMarks_!_85,,,,,,,,,,,,,
@-header,grade_1_extraInformation_!_Very Good,,,,,,,,,,,,,
@-header,grade_2_id_!_10,,,,,,,,,,,,,
@-header,grade_2_name_!_B,,,,,,,,,,,,,
@-header,grade_2_point_!_3,,,,,,,,,,,,,
@-header,grade_2_lowestMarks_!_60,,,,,,,,,,,,,
@-header,grade_2_highestMarks_!_75,,,,,,,,,,,,,
@-header,grade_2_extraInformation_!_Good,,,,,,,,,,,,,
@-header,grade_3_id_!_11,,,,,,,,,,,,,
@-header,grade_3_name_!_C,,,,,,,,,,,,,
@-header,grade_3_point_!_2,,,,,,,,,,,,,
@-header,grade_3_lowestMarks_!_50,,,,,,,,,,,,,
@-header,grade_3_highestMarks_!_60,,,,,,,,,,,,,
@-header,grade_3_extraInformation_!_Pass,,,,,,,,,,,,,
@-header,grade_4_id_!_13,,,,,,,,,,,,,
@-header,grade_4_name_!_I,,,,,,,,,,,,,
@-header,grade_4_point_!_0,,,,,,,,,,,,,
@-header,grade_4_lowestMarks_!_1001,,,,,,,,,,,,,
@-header,grade_4_highestMarks_!_1001,,,,,,,,,,,,,
@-header,grade_4_extraInformation_!_Incomplete,,,,,,,,,,,,,
@-header,grade_5_id_!_27,,,,,,,,,,,,,
@-header,grade_5_name_!_D,,,,,,,,,,,,,
@-header,grade_5_point_!_1,,,,,,,,,,,,,
@-header,grade_5_lowestMarks_!_40,,,,,,,,,,,,,
@-header,grade_5_highestMarks_!_49,,,,,,,,,,,,,
@-header,grade_5_extraInformation_!_Fail/Suppl,,,,,,,,,,,,,
@-header,award_0_id_!_6,,,,,,,,,,,,,
@-header,award_0_name_!_First Class,,,,,,,,,,,,,
@-header,award_0_lowestGPA_!_4.5,,,,,,,,,,,,,
@-header,award_0_highestGPA_!_5.1,,,,,,,,,,,,,
@-header,award_0_extraInformation_!_Excellent,,,,,,,,,,,,,
@-header,award_1_id_!_7,,,,,,,,,,,,,
@-header,award_1_name_!_Upper Second,,,,,,,,,,,,,
@-header,award_1_lowestGPA_!_4.0,,,,,,,,,,,,,
@-header,award_1_highestGPA_!_4.5,,,,,,,,,,,,,
@-header,award_1_extraInformation_!_Very Good,,,,,,,,,,,,,
@-header,award_2_id_!_8,,,,,,,,,,,,,
@-header,award_2_name_!_Lower Second,,,,,,,,,,,,,
@-header,award_2_lowestGPA_!_3.0,,,,,,,,,,,,,
@-header,award_2_highestGPA_!_4.0,,,,,,,,,,,,,
@-header,award_2_extraInformation_!_Good,,,,,,,,,,,,,
@-header,award_3_id_!_19,,,,,,,,,,,,,
@-header,award_3_name_!_No GPA,,,,,,,,,,,,,
@-header,award_3_lowestGPA_!_00,,,,,,,,,,,,,
@-header,award_3_highestGPA_!_3.0,,,,,,,,,,,,,
@-header,award_3_extraInformation_!_,,,,,,,,,,,,,
@-header,sem_1_awardId_!_8,,,,,,,,,,,,,
@-header,sem_1_awardName_!_Lower Second,,,,,,,,,,,,,
@-header,sem_1_totalUnits_!_54,,,,,,,,,,,,,
@-header,sem_1_totalModulePoints_!_165,,,,,,,,,,,,,
@-header,sem_1_academicYearId_!_7,,,,,,,,,,,,,
@-header,sem_1_academicYear_!_2015/2016,,,,,,,,,,,,,
@-header,sem_1_gpa_!_3,,,,,,,,,,,,,
@-header,sem_2_awardId_!_7,,,,,,,,,,,,,
@-header,sem_2_awardName_!_Upper Second,,,,,,,,,,,,,
@-header,sem_2_totalUnits_!_30,,,,,,,,,,,,,
@-header,sem_2_totalModulePoints_!_132,,,,,,,,,,,,,
@-header,sem_2_academicYearId_!_7,,,,,,,,,,,,,
@-header,sem_2_academicYear_!_2015/2016,,,,,,,,,,,,,
@-header,sem_2_gpa_!_4.4,,,,,,,,,,,,,
@-header,sem_3_awardId_!_8,,,,,,,,,,,,,
@-header,sem_3_awardName_!_Lower Second,,,,,,,,,,,,,
@-header,sem_3_totalUnits_!_39,,,,,,,,,,,,,
@-header,sem_3_totalModulePoints_!_141,,,,,,,,,,,,,
@-header,sem_3_academicYearId_!_8,,,,,,,,,,,,,
@-header,sem_3_academicYear_!_2016/2017,,,,,,,,,,,,,
@-header,sem_3_gpa_!_3.6,,,,,,,,,,,,,
@-header,sem_4_awardId_!_8,,,,,,,,,,,,,
@-header,sem_4_awardName_!_Lower Second,,,,,,,,,,,,,
@-header,sem_4_totalUnits_!_6,,,,,,,,,,,,,
@-header,sem_4_totalModulePoints_!_18,,,,,,,,,,,,,
@-header,sem_4_academicYearId_!_8,,,,,,,,,,,,,
@-header,sem_4_academicYear_!_2016/2017,,,,,,,,,,,,,
@-header,sem_4_gpa_!_3,,,,,,,,,,,,,
@-header,gpa_!_3.5,,,,,,,,,,,,,
@-header,awardId_!_8,,,,,,,,,,,,,
@-header,awardName_!_Lower Second,,,,,,,,,,,,,
@-header,cleared_!_,,,,,,,,,,,,,
@-header,filename_!_transcript_4372.csv,,,,,,,,,,,,,
@-business-logic-begin,,,,,,,,,,,,,,
1,1,7,2015/2016,0,,,EPIDEMIOLOGY,KMEP 1101,,61,10,B,3,6
2,1,7,2015/2016,0,,,BIOSTATISTICS,KMBS 1102,,60,10,B,3,6
3,1,7,2015/2016,0,,,RESEARCH METHODOLOGY,KMRM 1103,,64,10,B,3,6
6,1,7,2015/2016,0,,,RESEARCH MANAGEMENT,FCM105,,63,10,B,3,6
7,1,7,2015/2016,0,,,Introduction to Global Health,FCM 101,,62,10,B,3,9
10,1,7,2015/2016,0,,,ADVANCED PRACTICE IN MIDWIFERY,KMAP 1210,,69,10,B,3,18
1305,1,7,2015/2016,0,,,BIOETHICS,KMBE 1104,,79,9,B+,4,3
8,2,7,2015/2016,0,,,HEALTH  POLICY AND PLANNING,KMHP 1209,,62,10,B,3,6
9,2,7,2015/2016,0,,,ADVANCED NEONATAL SCIENCE,KMAN 2113,,87,8,A,5,12
1306,2,7,2015/2016,0,,,LEADERSHIP AND MANAGEMENT,KMLM 1105,,84,9,B+,4,6
1309,2,7,2015/2016,0,,,EDUCATIONAL APROACHES,KMEA 1106,,87,8,A,5,6
11,3,8,2016/2017,0,,,INTEGRATED ADVANCED MIDWIFERY PRACTICUM,KMIM 2114,,72,10,B,3,9
12,3,8,2016/2017,0,,,ADVANCED MIDWIFERY SCIENCE,KMAM 2112,,76,9,B+,4,15
1307,3,8,2016/2017,0,,,REPRODUCTIVE HEALTH HIV AND AIDS,KMRH 1211,,84,9,B+,4,9
1308,3,8,2016/2017,0,,,CULTURAL LEGAL AND POLITICAL PERSPECTIVES OF MAT,KMCL 1107,,67,10,B,3,6
1043,4,8,2016/2017,0,,,Dissertation,DIS618,,67,10,B,3,6
@-business-logic-end,,,,,,,,,,,,,,
