@-header,flags_!_0,,,,,,,,,,,,,
@-header,studentId_!_725,,,,,,,,,,,,,
@-header,dateOfBirth_!_1994:10:30:00:00:00,,,,,,,,,,,,,
@-header,sexId_!_1,,,,,,,,,,,,,
@-header,sexName_!_Male,,,,,,,,,,,,,
@-header,profileId_!_1,,,,,,,,,,,,,
@-header,profileName_!_Kilimanjaro Christian Medical University College,,,,,,,,,,,,,
@-header,profileCity_!_Moshi,,,,,,,,,,,,,
@-header,profilePostalAddress_!_P.O Box 2240, Moshi,,,,,,,,,,,,,
@-header,profileWebsite_!_www.kcmuco.ac.tz,,,,,,,,,,,,,
@-header,profileCountryId_!_227,,,,,,,,,,,,,
@-header,profileCountryName_!_Tanzania,,,,,,,,,,,,,
@-header,systemName_!_University Management Information System,,,,,,,,,,,,,
@-header,postalAddress_!_533 korogwe,,,,,,,,,,,,,
@-header,physicalAddress_!_morogoro,,,,,,,,,,,,,
@-header,countryId_!_227,,,,,,,,,,,,,
@-header,countryName_!_Tanzania,,,,,,,,,,,,,
@-header,registrationNumber_!_TUMA/KCMUCo/BScPhysio.2014/2015/TZ/0151,,,,,,,,,,,,,
@-header,fullname_!_SAID S PEMBE,,,,,,,,,,,,,
@-header,firstname_!_SAID,,,,,,,,,,,,,
@-header,middlename_!_SELEMAN,,,,,,,,,,,,,
@-header,lastname_!_PEMBE,,,,,,,,,,,,,
@-header,compilationTime_!_2018:04:04:08:45:09,,,,,,,,,,,,,
@-header,fileType_!_transcript,,,,,,,,,,,,,
@-header,courseId_!_4,,,,,,,,,,,,,
@-header,courseCode_!_BScPhysio.D,,,,,,,,,,,,,
@-header,courseName_!_Bachelor of Science in Physiotherapy (Direct),,,,,,,,,,,,,
@-header,duration_!_4,,,,,,,,,,,,,
@-header,levelId_!_15,,,,,,,,,,,,,
@-header,levelName_!_Bachelor Degree,,,,,,,,,,,,,
@-header,levelCode_!_8,,,,,,,,,,,,,
@-header,departmentId_!_4,,,,,,,,,,,,,
@-header,departmentName_!_Faculty of Rehabilitation Medicine,,,,,,,,,,,,,
@-header,admissionYearId_!_6,,,,,,,,,,,,,
@-header,admissionYearName_!_2014/2015,,,,,,,,,,,,,
@-header,admissionYearNumber_!_6,,,,,,,,,,,,,
@-header,currentBatchId_!_6,,,,,,,,,,,,,
@-header,currentBatchName_!_2014/2015,,,,,,,,,,,,,
@-header,currentBatchNumber_!_6,,,,,,,,,,,,,
@-header,lastResultsCummulativeSemester_!_6,,,,,,,,,,,,,
@-header,currentCummulativeSemester_!_7,,,,,,,,,,,,,
@-header,allSemestersIncluded_!_0,,,,,,,,,,,,,
@-header,numberOfSemestersPerYear_!_2,,,,,,,,,,,,,
@-header,graduated_!_0,,,,,,,,,,,,,
@-header,grade_0_id_!_1,,,,,,,,,,,,,
@-header,grade_0_name_!_A,,,,,,,,,,,,,
@-header,grade_0_point_!_5,,,,,,,,,,,,,
@-header,grade_0_lowestMarks_!_80,,,,,,,,,,,,,
@-header,grade_0_highestMarks_!_101,,,,,,,,,,,,,
@-header,grade_0_extraInformation_!_Excellent,,,,,,,,,,,,,
@-header,grade_1_id_!_2,,,,,,,,,,,,,
@-header,grade_1_name_!_B+,,,,,,,,,,,,,
@-header,grade_1_point_!_4,,,,,,,,,,,,,
@-header,grade_1_lowestMarks_!_70,,,,,,,,,,,,,
@-header,grade_1_highestMarks_!_80,,,,,,,,,,,,,
@-header,grade_1_extraInformation_!_Very Good,,,,,,,,,,,,,
@-header,grade_2_id_!_3,,,,,,,,,,,,,
@-header,grade_2_name_!_B,,,,,,,,,,,,,
@-header,grade_2_point_!_3,,,,,,,,,,,,,
@-header,grade_2_lowestMarks_!_60,,,,,,,,,,,,,
@-header,grade_2_highestMarks_!_70,,,,,,,,,,,,,
@-header,grade_2_extraInformation_!_Good,,,,,,,,,,,,,
@-header,grade_3_id_!_4,,,,,,,,,,,,,
@-header,grade_3_name_!_C,,,,,,,,,,,,,
@-header,grade_3_point_!_2,,,,,,,,,,,,,
@-header,grade_3_lowestMarks_!_50,,,,,,,,,,,,,
@-header,grade_3_highestMarks_!_60,,,,,,,,,,,,,
@-header,grade_3_extraInformation_!_Pass,,,,,,,,,,,,,
@-header,grade_4_id_!_5,,,,,,,,,,,,,
@-header,grade_4_name_!_D,,,,,,,,,,,,,
@-header,grade_4_point_!_1,,,,,,,,,,,,,
@-header,grade_4_lowestMarks_!_40,,,,,,,,,,,,,
@-header,grade_4_highestMarks_!_50,,,,,,,,,,,,,
@-header,grade_4_extraInformation_!_Supplimentary,,,,,,,,,,,,,
@-header,grade_5_id_!_6,,,,,,,,,,,,,
@-header,grade_5_name_!_E,,,,,,,,,,,,,
@-header,grade_5_point_!_0,,,,,,,,,,,,,
@-header,grade_5_lowestMarks_!_0,,,,,,,,,,,,,
@-header,grade_5_highestMarks_!_40,,,,,,,,,,,,,
@-header,grade_5_extraInformation_!_Supplementary,,,,,,,,,,,,,
@-header,grade_6_id_!_7,,,,,,,,,,,,,
@-header,grade_6_name_!_I,,,,,,,,,,,,,
@-header,grade_6_point_!_0,,,,,,,,,,,,,
@-header,grade_6_lowestMarks_!_1001,,,,,,,,,,,,,
@-header,grade_6_highestMarks_!_1001,,,,,,,,,,,,,
@-header,grade_6_extraInformation_!_Incomplete,,,,,,,,,,,,,
@-header,award_0_id_!_1,,,,,,,,,,,,,
@-header,award_0_name_!_First Class,,,,,,,,,,,,,
@-header,award_0_lowestGPA_!_4.4,,,,,,,,,,,,,
@-header,award_0_highestGPA_!_5.1,,,,,,,,,,,,,
@-header,award_0_extraInformation_!_First Class,,,,,,,,,,,,,
@-header,award_1_id_!_2,,,,,,,,,,,,,
@-header,award_1_name_!_Upper Second,,,,,,,,,,,,,
@-header,award_1_lowestGPA_!_3.5,,,,,,,,,,,,,
@-header,award_1_highestGPA_!_4.4,,,,,,,,,,,,,
@-header,award_1_extraInformation_!_Upper Second,,,,,,,,,,,,,
@-header,award_2_id_!_3,,,,,,,,,,,,,
@-header,award_2_name_!_Lower Second,,,,,,,,,,,,,
@-header,award_2_lowestGPA_!_2.7,,,,,,,,,,,,,
@-header,award_2_highestGPA_!_3.5,,,,,,,,,,,,,
@-header,award_2_extraInformation_!_Lower Second,,,,,,,,,,,,,
@-header,award_3_id_!_4,,,,,,,,,,,,,
@-header,award_3_name_!_Pass,,,,,,,,,,,,,
@-header,award_3_lowestGPA_!_2.0,,,,,,,,,,,,,
@-header,award_3_highestGPA_!_2.7,,,,,,,,,,,,,
@-header,award_3_extraInformation_!_Pass,,,,,,,,,,,,,
@-header,award_4_id_!_5,,,,,,,,,,,,,
@-header,award_4_name_!_No Award,,,,,,,,,,,,,
@-header,award_4_lowestGPA_!_0.0,,,,,,,,,,,,,
@-header,award_4_highestGPA_!_2.0,,,,,,,,,,,,,
@-header,award_4_extraInformation_!_No Award,,,,,,,,,,,,,
@-header,sem_5_awardId_!_5,,,,,,,,,,,,,
@-header,sem_5_awardName_!_No Award,,,,,,,,,,,,,
@-header,sem_5_totalUnits_!_0,,,,,,,,,,,,,
@-header,sem_5_totalModulePoints_!_0,,,,,,,,,,,,,
@-header,sem_5_academicYearId_!_8,,,,,,,,,,,,,
@-header,sem_5_academicYear_!_2016/2017,,,,,,,,,,,,,
@-header,sem_5_gpa_!_0,,,,,,,,,,,,,
@-header,sem_6_awardId_!_5,,,,,,,,,,,,,
@-header,sem_6_awardName_!_No Award,,,,,,,,,,,,,
@-header,sem_6_totalUnits_!_0,,,,,,,,,,,,,
@-header,sem_6_totalModulePoints_!_0,,,,,,,,,,,,,
@-header,sem_6_academicYearId_!_8,,,,,,,,,,,,,
@-header,sem_6_academicYear_!_2016/2017,,,,,,,,,,,,,
@-header,sem_6_gpa_!_0,,,,,,,,,,,,,
@-header,gpa_!_0,,,,,,,,,,,,,
@-header,awardId_!_5,,,,,,,,,,,,,
@-header,awardName_!_No Award,,,,,,,,,,,,,
@-header,cleared_!_,,,,,,,,,,,,,
@-header,filename_!_transcript_725.csv,,,,,,,,,,,,,
@-business-logic-begin,,,,,,,,,,,,,,
384,1,,,,,,,,,,,,
387,1,,,,,,,,,,,,
388,1,,,,,,,,,,,,
390,1,,,,,,,,,,,,
392,1,,,,,,,,,,,,
394,1,,,,,,,,,,,,
396,1,,,,,,,,,,,,
398,1,,,,,,,,,,,,
498,1,,,,,,,,,,,,
499,1,,,,,,,,,,,,
500,1,,,,,,,,,,,,
501,1,,,,,,,,,,,,
510,2,,,,,,,,,,,,
511,2,,,,,,,,,,,,
512,2,,,,,,,,,,,,
513,2,,,,,,,,,,,,
514,2,,,,,,,,,,,,
516,2,,,,,,,,,,,,
517,2,,,,,,,,,,,,
518,2,,,,,,,,,,,,
519,2,,,,,,,,,,,,
521,2,,,,,,,,,,,,
522,2,,,,,,,,,,,,
603,2,,,,,,,,,,,,
338,3,,,,,,,,,,,,
523,3,,,,,,,,,,,,
524,3,,,,,,,,,,,,
525,3,,,,,,,,,,,,
526,3,,,,,,,,,,,,
605,3,,,,,,,,,,,,
645,3,,,,,,,,,,,,
527,4,,,,,,,,,,,,
528,4,,,,,,,,,,,,
529,4,,,,,,,,,,,,
530,4,,,,,,,,,,,,
532,4,,,,,,,,,,,,
531,5,8,2016/2017,0,,,radiology,PT426	,,58,4,C,2,4
533,5,8,2016/2017,0,,,	Psychiatry,PT527	,,76,2,B+,4,6
534,5,8,2016/2017,0,,,Musculoskeletal Conditions Level 2,PP517	,,50,4,C,2,6
535,5,8,2016/2017,0,,,	Adult Neurological conditions Level 2,PP518	,,55,4,C,2,6
536,5,8,2016/2017,0,,,Cardio respiratory conditions Level 2 ,PP519	,,66,3,B,3,6
537,5,8,2016/2017,0,,,	Pediatric conditions,PT520	,,59,4,C,2,6
538,5,8,2016/2017,0,,,	Pain management,PT528	,,52,4,C,2,6
539,5,8,2016/2017,0,,,	Research Methodology,PT521	,,50,4,C,2,4
540,5,8,2016/2017,0,,,	Information Technology,PP506	,,57,4,C,2,4
651,5,8,2016/2017,0,,,Clinical Practice,PP 301,,56,4,C,2,12
541,6,8,2016/2017,0,,,Obstetrics and Gynaecology,PT630	,,59,4,C,2,8
542,6,8,2016/2017,0,,,	Urology,PT631	,,64,3,B,3,8
543,6,8,2016/2017,0,,,	Advanced Musculoskeletal Physiotherapy Level 1,PP617	,,52,4,C,2,8
544,6,8,2016/2017,0,,,Advanced  Neurological Physiotherapy Level 1,PP618	,,62,3,B,3,8
545,6,8,2016/2017,0,,,	Advanced Cardiorespiratory Physiotherapy Level 1 ,PP619	,,58,4,C,2,8
546,6,8,2016/2017,0,,,Advanced Paediatric Physiotherapy Level 1,PP620	,,62,3,B,3,8
547,6,8,2016/2017,0,,,	Research Methodology Level 2,PT629,,50,4,C,2,8
652,6,8,2016/2017,0,,,Clinical Practice,PP 302,,62,3,B,3,4
@-business-logic-end,,,,,,,,,,,,,,
