@-header,flags_!_0,,,,,,,,,,,,,
@-header,studentId_!_3614,,,,,,,,,,,,,
@-header,dateOfBirth_!_1974:3:11:00:00:00,,,,,,,,,,,,,
@-header,sexId_!_1,,,,,,,,,,,,,
@-header,sexName_!_Male,,,,,,,,,,,,,
@-header,profileId_!_1,,,,,,,,,,,,,
@-header,profileName_!_Kilimanjaro Christian Medical University College,,,,,,,,,,,,,
@-header,profileCity_!_Moshi,,,,,,,,,,,,,
@-header,profilePostalAddress_!_P.O Box 2240, Moshi,,,,,,,,,,,,,
@-header,profileWebsite_!_www.kcmuco.ac.tz,,,,,,,,,,,,,
@-header,profileCountryId_!_227,,,,,,,,,,,,,
@-header,profileCountryName_!_Tanzania,,,,,,,,,,,,,
@-header,systemName_!_University Management Information System,,,,,,,,,,,,,
@-header,postalAddress_!_5004,,,,,,,,,,,,,
@-header,physicalAddress_!_TANGA,,,,,,,,,,,,,
@-header,countryId_!_227,,,,,,,,,,,,,
@-header,countryName_!_Tanzania,,,,,,,,,,,,,
@-header,registrationNumber_!_TUMA/KCMUCo/MSc.MMIM.2015/2016/TZ/034,,,,,,,,,,,,,
@-header,fullname_!_RASHIDI M ALLY,,,,,,,,,,,,,
@-header,firstname_!_RASHID,,,,,,,,,,,,,
@-header,middlename_!_ALLY,,,,,,,,,,,,,
@-header,lastname_!_MADEBE,,,,,,,,,,,,,
@-header,compilationTime_!_2019:02:06:11:32:39,,,,,,,,,,,,,
@-header,fileType_!_transcript,,,,,,,,,,,,,
@-header,courseId_!_16,,,,,,,,,,,,,
@-header,courseCode_!_MSc.MMIM,,,,,,,,,,,,,
@-header,courseName_!_Master of Science(MSc) in Medical Microbiology, Immunology with Molecular Biology,,,,,,,,,,,,,
@-header,duration_!_2,,,,,,,,,,,,,
@-header,levelId_!_17,,,,,,,,,,,,,
@-header,levelName_!_Masters Degree,,,,,,,,,,,,,
@-header,levelCode_!_9,,,,,,,,,,,,,
@-header,departmentId_!_8,,,,,,,,,,,,,
@-header,departmentName_!_Directorate of Postgraduate Studies,,,,,,,,,,,,,
@-header,admissionYearId_!_7,,,,,,,,,,,,,
@-header,admissionYearName_!_2015/2016,,,,,,,,,,,,,
@-header,admissionYearNumber_!_7,,,,,,,,,,,,,
@-header,currentBatchId_!_7,,,,,,,,,,,,,
@-header,currentBatchName_!_2015/2016,,,,,,,,,,,,,
@-header,currentBatchNumber_!_7,,,,,,,,,,,,,
@-header,lastResultsCummulativeSemester_!_4,,,,,,,,,,,,,
@-header,currentCummulativeSemester_!_3,,,,,,,,,,,,,
@-header,allSemestersIncluded_!_0,,,,,,,,,,,,,
@-header,numberOfSemestersPerYear_!_2,,,,,,,,,,,,,
@-header,graduated_!_0,,,,,,,,,,,,,
@-header,grade_0_id_!_8,,,,,,,,,,,,,
@-header,grade_0_name_!_A,,,,,,,,,,,,,
@-header,grade_0_point_!_5,,,,,,,,,,,,,
@-header,grade_0_lowestMarks_!_85,,,,,,,,,,,,,
@-header,grade_0_highestMarks_!_101,,,,,,,,,,,,,
@-header,grade_0_extraInformation_!_Excellent,,,,,,,,,,,,,
@-header,grade_1_id_!_9,,,,,,,,,,,,,
@-header,grade_1_name_!_B+,,,,,,,,,,,,,
@-header,grade_1_point_!_4,,,,,,,,,,,,,
@-header,grade_1_lowestMarks_!_75,,,,,,,,,,,,,
@-header,grade_1_highestMarks_!_85,,,,,,,,,,,,,
@-header,grade_1_extraInformation_!_Very Good,,,,,,,,,,,,,
@-header,grade_2_id_!_10,,,,,,,,,,,,,
@-header,grade_2_name_!_B,,,,,,,,,,,,,
@-header,grade_2_point_!_3,,,,,,,,,,,,,
@-header,grade_2_lowestMarks_!_60,,,,,,,,,,,,,
@-header,grade_2_highestMarks_!_75,,,,,,,,,,,,,
@-header,grade_2_extraInformation_!_Good,,,,,,,,,,,,,
@-header,grade_3_id_!_11,,,,,,,,,,,,,
@-header,grade_3_name_!_C,,,,,,,,,,,,,
@-header,grade_3_point_!_2,,,,,,,,,,,,,
@-header,grade_3_lowestMarks_!_50,,,,,,,,,,,,,
@-header,grade_3_highestMarks_!_60,,,,,,,,,,,,,
@-header,grade_3_extraInformation_!_Pass,,,,,,,,,,,,,
@-header,grade_4_id_!_13,,,,,,,,,,,,,
@-header,grade_4_name_!_I,,,,,,,,,,,,,
@-header,grade_4_point_!_0,,,,,,,,,,,,,
@-header,grade_4_lowestMarks_!_1001,,,,,,,,,,,,,
@-header,grade_4_highestMarks_!_1001,,,,,,,,,,,,,
@-header,grade_4_extraInformation_!_Incomplete,,,,,,,,,,,,,
@-header,grade_5_id_!_27,,,,,,,,,,,,,
@-header,grade_5_name_!_D,,,,,,,,,,,,,
@-header,grade_5_point_!_1,,,,,,,,,,,,,
@-header,grade_5_lowestMarks_!_40,,,,,,,,,,,,,
@-header,grade_5_highestMarks_!_49,,,,,,,,,,,,,
@-header,grade_5_extraInformation_!_Fail/Suppl,,,,,,,,,,,,,
@-header,award_0_id_!_6,,,,,,,,,,,,,
@-header,award_0_name_!_First Class,,,,,,,,,,,,,
@-header,award_0_lowestGPA_!_4.5,,,,,,,,,,,,,
@-header,award_0_highestGPA_!_5.1,,,,,,,,,,,,,
@-header,award_0_extraInformation_!_Excellent,,,,,,,,,,,,,
@-header,award_1_id_!_7,,,,,,,,,,,,,
@-header,award_1_name_!_Upper Second,,,,,,,,,,,,,
@-header,award_1_lowestGPA_!_4.0,,,,,,,,,,,,,
@-header,award_1_highestGPA_!_4.5,,,,,,,,,,,,,
@-header,award_1_extraInformation_!_Very Good,,,,,,,,,,,,,
@-header,award_2_id_!_8,,,,,,,,,,,,,
@-header,award_2_name_!_Lower Second,,,,,,,,,,,,,
@-header,award_2_lowestGPA_!_3.0,,,,,,,,,,,,,
@-header,award_2_highestGPA_!_4.0,,,,,,,,,,,,,
@-header,award_2_extraInformation_!_Good,,,,,,,,,,,,,
@-header,award_3_id_!_19,,,,,,,,,,,,,
@-header,award_3_name_!_No GPA,,,,,,,,,,,,,
@-header,award_3_lowestGPA_!_00,,,,,,,,,,,,,
@-header,award_3_highestGPA_!_3.0,,,,,,,,,,,,,
@-header,award_3_extraInformation_!_,,,,,,,,,,,,,
@-header,sem_1_awardId_!_8,,,,,,,,,,,,,
@-header,sem_1_awardName_!_Lower Second,,,,,,,,,,,,,
@-header,sem_1_totalUnits_!_64,,,,,,,,,,,,,
@-header,sem_1_totalModulePoints_!_213,,,,,,,,,,,,,
@-header,sem_1_academicYearId_!_7,,,,,,,,,,,,,
@-header,sem_1_academicYear_!_2015/2016,,,,,,,,,,,,,
@-header,sem_1_gpa_!_3.3,,,,,,,,,,,,,
@-header,sem_2_awardId_!_7,,,,,,,,,,,,,
@-header,sem_2_awardName_!_Upper Second,,,,,,,,,,,,,
@-header,sem_2_totalUnits_!_27,,,,,,,,,,,,,
@-header,sem_2_totalModulePoints_!_108,,,,,,,,,,,,,
@-header,sem_2_academicYearId_!_7,,,,,,,,,,,,,
@-header,sem_2_academicYear_!_2015/2016,,,,,,,,,,,,,
@-header,sem_2_gpa_!_4,,,,,,,,,,,,,
@-header,sem_3_awardId_!_7,,,,,,,,,,,,,
@-header,sem_3_awardName_!_Upper Second,,,,,,,,,,,,,
@-header,sem_3_totalUnits_!_30,,,,,,,,,,,,,
@-header,sem_3_totalModulePoints_!_129,,,,,,,,,,,,,
@-header,sem_3_academicYearId_!_8,,,,,,,,,,,,,
@-header,sem_3_academicYear_!_2016/2017,,,,,,,,,,,,,
@-header,sem_3_gpa_!_4.3,,,,,,,,,,,,,
@-header,sem_4_awardId_!_8,,,,,,,,,,,,,
@-header,sem_4_awardName_!_Lower Second,,,,,,,,,,,,,
@-header,sem_4_totalUnits_!_40,,,,,,,,,,,,,
@-header,sem_4_totalModulePoints_!_120,,,,,,,,,,,,,
@-header,sem_4_academicYearId_!_8,,,,,,,,,,,,,
@-header,sem_4_academicYear_!_2016/2017,,,,,,,,,,,,,
@-header,sem_4_gpa_!_3,,,,,,,,,,,,,
@-header,gpa_!_3.6,,,,,,,,,,,,,
@-header,awardId_!_8,,,,,,,,,,,,,
@-header,awardName_!_Lower Second,,,,,,,,,,,,,
@-header,cleared_!_,,,,,,,,,,,,,
@-header,filename_!_transcript_3614.csv,,,,,,,,,,,,,
@-business-logic-begin,,,,,,,,,,,,,,
736,1,7,2015/2016,0,,,EPIDEMIOLOGY,FCM103,,62,10,B,3,8
738,1,7,2015/2016,0,,,BIOSTATISTICS,FCM102,,62,10,B,3,8
739,1,7,2015/2016,0,,,RESEARCH METHODOLOGY,KMRM 1103,,63,10,B,3,6
744,1,7,2015/2016,0,,,INTRODUCTION TO MMIM,MIM1101,,75,9,B+,4,9
747,1,7,2015/2016,0,,,CELLULAR & MOL. IMMUNOLOGY ,MIM1102,,70,10,B,3,6
902,1,7,2015/2016,0,,,ADVANCED MEDICAL MYCOLOGY,MIM1111,,84,9,B+,4,6
903,1,7,2015/2016,0,,,PARASITES & PARASITIC INFECTIONS,MIM1109,,63,10,B,3,6
905,1,7,2015/2016,0,,,ADVANCED MEDICAL BACTERIOLOGY,MIM1108,,76,9,B+,4,6
909,1,7,2015/2016,0,,,SYSTEMATIC MEDICAL BACTERIOLOGY,MIM1107,,74,10,B,3,9
735,2,7,2015/2016,0,,,MOLECULAR BIOLOGY,MIM1113,,72,10,B,3,6
737,2,7,2015/2016,0,,,TECHNIQUES IN IMMUNOLOGY,MIM1105,,80,9,B+,4,9
742,2,7,2015/2016,0,,,BASICS OF GCLP,MIM1104,,77,9,B+,4,6
745,2,7,2015/2016,0,,,ADVANCED MEDICAL VIROLOGY,MIM1110,,90,8,A,5,6
748,3,8,2016/2017,0,,,IMMUNOGENETICS,MIM1103,,76,9,B+,4,6
749,3,8,2016/2017,0,,,MICROBIAL GENETIC,MIM1106,,80,9,B+,4,6
751,3,8,2016/2017,0,,,TECHNIQUES IN MEDICAL MICROBIOLOGY,MIM1112,,85,8,A,5,9
752,3,8,2016/2017,0,,,MOLECULAR BIOLOGY TECHNIQUES,MIM1114,,75,9,B+,4,9
1026,4,8,2016/2017,0,,,Dissertation ,DIS 116,,72,10,B,3,40
@-business-logic-end,,,,,,,,,,,,,,
