@-header,flags_!_0,,,,,,,,,,,,,
@-header,studentId_!_167,,,,,,,,,,,,,
@-header,dateOfBirth_!_1976:5:23:00:00:00,,,,,,,,,,,,,
@-header,sexId_!_1,,,,,,,,,,,,,
@-header,sexName_!_Male,,,,,,,,,,,,,
@-header,profileId_!_1,,,,,,,,,,,,,
@-header,profileName_!_Kilimanjaro Christian Medical University College,,,,,,,,,,,,,
@-header,profileCity_!_Moshi,,,,,,,,,,,,,
@-header,profilePostalAddress_!_P.O Box 2240, Moshi,,,,,,,,,,,,,
@-header,profileWebsite_!_www.kcmuco.ac.tz,,,,,,,,,,,,,
@-header,profileCountryId_!_227,,,,,,,,,,,,,
@-header,profileCountryName_!_Tanzania,,,,,,,,,,,,,
@-header,systemName_!_University Management Information System,,,,,,,,,,,,,
@-header,postalAddress_!_Box 1755,,,,,,,,,,,,,
@-header,physicalAddress_!_Box 1755.Mwanza,,,,,,,,,,,,,
@-header,countryId_!_227,,,,,,,,,,,,,
@-header,countryName_!_Tanzania,,,,,,,,,,,,,
@-header,registrationNumber_!_TUMA/KCMUCo/MMED.URO.2013/2014/TZ/0335,,,,,,,,,,,,,
@-header,fullname_!_Frank k. Chacha,,,,,,,,,,,,,
@-header,firstname_!_Frank,,,,,,,,,,,,,
@-header,middlename_!_Kora,,,,,,,,,,,,,
@-header,lastname_!_Chacha,,,,,,,,,,,,,
@-header,compilationTime_!_2019:02:15:13:34:21,,,,,,,,,,,,,
@-header,fileType_!_transcript,,,,,,,,,,,,,
@-header,courseId_!_31,,,,,,,,,,,,,
@-header,courseCode_!_MMED.URO,,,,,,,,,,,,,
@-header,courseName_!_MMed in Urology,,,,,,,,,,,,,
@-header,duration_!_4,,,,,,,,,,,,,
@-header,levelId_!_17,,,,,,,,,,,,,
@-header,levelName_!_Masters Degree,,,,,,,,,,,,,
@-header,levelCode_!_9,,,,,,,,,,,,,
@-header,departmentId_!_8,,,,,,,,,,,,,
@-header,departmentName_!_Directorate of Postgraduate Studies,,,,,,,,,,,,,
@-header,admissionYearId_!_5,,,,,,,,,,,,,
@-header,admissionYearName_!_2013/2014,,,,,,,,,,,,,
@-header,admissionYearNumber_!_5,,,,,,,,,,,,,
@-header,currentBatchId_!_5,,,,,,,,,,,,,
@-header,currentBatchName_!_2013/2014,,,,,,,,,,,,,
@-header,currentBatchNumber_!_5,,,,,,,,,,,,,
@-header,lastResultsCummulativeSemester_!_8,,,,,,,,,,,,,
@-header,currentCummulativeSemester_!_8,,,,,,,,,,,,,
@-header,allSemestersIncluded_!_1,,,,,,,,,,,,,
@-header,numberOfSemestersPerYear_!_2,,,,,,,,,,,,,
@-header,graduated_!_0,,,,,,,,,,,,,
@-header,grade_0_id_!_8,,,,,,,,,,,,,
@-header,grade_0_name_!_A,,,,,,,,,,,,,
@-header,grade_0_point_!_5,,,,,,,,,,,,,
@-header,grade_0_lowestMarks_!_85,,,,,,,,,,,,,
@-header,grade_0_highestMarks_!_101,,,,,,,,,,,,,
@-header,grade_0_extraInformation_!_Excellent,,,,,,,,,,,,,
@-header,grade_1_id_!_9,,,,,,,,,,,,,
@-header,grade_1_name_!_B+,,,,,,,,,,,,,
@-header,grade_1_point_!_4,,,,,,,,,,,,,
@-header,grade_1_lowestMarks_!_75,,,,,,,,,,,,,
@-header,grade_1_highestMarks_!_85,,,,,,,,,,,,,
@-header,grade_1_extraInformation_!_Very Good,,,,,,,,,,,,,
@-header,grade_2_id_!_10,,,,,,,,,,,,,
@-header,grade_2_name_!_B,,,,,,,,,,,,,
@-header,grade_2_point_!_3,,,,,,,,,,,,,
@-header,grade_2_lowestMarks_!_60,,,,,,,,,,,,,
@-header,grade_2_highestMarks_!_75,,,,,,,,,,,,,
@-header,grade_2_extraInformation_!_Good,,,,,,,,,,,,,
@-header,grade_3_id_!_11,,,,,,,,,,,,,
@-header,grade_3_name_!_C,,,,,,,,,,,,,
@-header,grade_3_point_!_2,,,,,,,,,,,,,
@-header,grade_3_lowestMarks_!_50,,,,,,,,,,,,,
@-header,grade_3_highestMarks_!_60,,,,,,,,,,,,,
@-header,grade_3_extraInformation_!_Pass,,,,,,,,,,,,,
@-header,grade_4_id_!_13,,,,,,,,,,,,,
@-header,grade_4_name_!_I,,,,,,,,,,,,,
@-header,grade_4_point_!_0,,,,,,,,,,,,,
@-header,grade_4_lowestMarks_!_1001,,,,,,,,,,,,,
@-header,grade_4_highestMarks_!_1001,,,,,,,,,,,,,
@-header,grade_4_extraInformation_!_Incomplete,,,,,,,,,,,,,
@-header,grade_5_id_!_27,,,,,,,,,,,,,
@-header,grade_5_name_!_D,,,,,,,,,,,,,
@-header,grade_5_point_!_1,,,,,,,,,,,,,
@-header,grade_5_lowestMarks_!_40,,,,,,,,,,,,,
@-header,grade_5_highestMarks_!_49,,,,,,,,,,,,,
@-header,grade_5_extraInformation_!_Fail/Suppl,,,,,,,,,,,,,
@-header,award_0_id_!_6,,,,,,,,,,,,,
@-header,award_0_name_!_First Class,,,,,,,,,,,,,
@-header,award_0_lowestGPA_!_4.5,,,,,,,,,,,,,
@-header,award_0_highestGPA_!_5.1,,,,,,,,,,,,,
@-header,award_0_extraInformation_!_Excellent,,,,,,,,,,,,,
@-header,award_1_id_!_7,,,,,,,,,,,,,
@-header,award_1_name_!_Upper Second,,,,,,,,,,,,,
@-header,award_1_lowestGPA_!_4.0,,,,,,,,,,,,,
@-header,award_1_highestGPA_!_4.5,,,,,,,,,,,,,
@-header,award_1_extraInformation_!_Very Good,,,,,,,,,,,,,
@-header,award_2_id_!_8,,,,,,,,,,,,,
@-header,award_2_name_!_Lower Second,,,,,,,,,,,,,
@-header,award_2_lowestGPA_!_3.0,,,,,,,,,,,,,
@-header,award_2_highestGPA_!_4.0,,,,,,,,,,,,,
@-header,award_2_extraInformation_!_Good,,,,,,,,,,,,,
@-header,award_3_id_!_19,,,,,,,,,,,,,
@-header,award_3_name_!_No GPA,,,,,,,,,,,,,
@-header,award_3_lowestGPA_!_00,,,,,,,,,,,,,
@-header,award_3_highestGPA_!_1.9,,,,,,,,,,,,,
@-header,award_3_extraInformation_!_,,,,,,,,,,,,,
@-header,award_4_id_!_20,,,,,,,,,,,,,
@-header,award_4_name_!_PASS,,,,,,,,,,,,,
@-header,award_4_lowestGPA_!_2,,,,,,,,,,,,,
@-header,award_4_highestGPA_!_2.9,,,,,,,,,,,,,
@-header,award_4_extraInformation_!_,,,,,,,,,,,,,
@-header,sem_1_awardId_!_8,,,,,,,,,,,,,
@-header,sem_1_awardName_!_Lower Second,,,,,,,,,,,,,
@-header,sem_1_totalUnits_!_60,,,,,,,,,,,,,
@-header,sem_1_totalModulePoints_!_194,,,,,,,,,,,,,
@-header,sem_1_academicYearId_!_5,,,,,,,,,,,,,
@-header,sem_1_academicYear_!_2013/2014,,,,,,,,,,,,,
@-header,sem_1_gpa_!_3.2,,,,,,,,,,,,,
@-header,sem_2_awardId_!_8,,,,,,,,,,,,,
@-header,sem_2_awardName_!_Lower Second,,,,,,,,,,,,,
@-header,sem_2_totalUnits_!_60,,,,,,,,,,,,,
@-header,sem_2_totalModulePoints_!_200,,,,,,,,,,,,,
@-header,sem_2_academicYearId_!_5,,,,,,,,,,,,,
@-header,sem_2_academicYear_!_2013/2014,,,,,,,,,,,,,
@-header,sem_2_gpa_!_3.3,,,,,,,,,,,,,
@-header,sem_3_awardId_!_6,,,,,,,,,,,,,
@-header,sem_3_awardName_!_First Class,,,,,,,,,,,,,
@-header,sem_3_totalUnits_!_60,,,,,,,,,,,,,
@-header,sem_3_totalModulePoints_!_300,,,,,,,,,,,,,
@-header,sem_3_academicYearId_!_6,,,,,,,,,,,,,
@-header,sem_3_academicYear_!_2014/2015,,,,,,,,,,,,,
@-header,sem_3_gpa_!_5,,,,,,,,,,,,,
@-header,sem_4_awardId_!_8,,,,,,,,,,,,,
@-header,sem_4_awardName_!_Lower Second,,,,,,,,,,,,,
@-header,sem_4_totalUnits_!_60,,,,,,,,,,,,,
@-header,sem_4_totalModulePoints_!_180,,,,,,,,,,,,,
@-header,sem_4_academicYearId_!_6,,,,,,,,,,,,,
@-header,sem_4_academicYear_!_2014/2015,,,,,,,,,,,,,
@-header,sem_4_gpa_!_3,,,,,,,,,,,,,
@-header,sem_5_awardId_!_8,,,,,,,,,,,,,
@-header,sem_5_awardName_!_Lower Second,,,,,,,,,,,,,
@-header,sem_5_totalUnits_!_60,,,,,,,,,,,,,
@-header,sem_5_totalModulePoints_!_180,,,,,,,,,,,,,
@-header,sem_5_academicYearId_!_7,,,,,,,,,,,,,
@-header,sem_5_academicYear_!_2015/2016,,,,,,,,,,,,,
@-header,sem_5_gpa_!_3,,,,,,,,,,,,,
@-header,sem_6_awardId_!_8,,,,,,,,,,,,,
@-header,sem_6_awardName_!_Lower Second,,,,,,,,,,,,,
@-header,sem_6_totalUnits_!_60,,,,,,,,,,,,,
@-header,sem_6_totalModulePoints_!_180,,,,,,,,,,,,,
@-header,sem_6_academicYearId_!_7,,,,,,,,,,,,,
@-header,sem_6_academicYear_!_2015/2016,,,,,,,,,,,,,
@-header,sem_6_gpa_!_3,,,,,,,,,,,,,
@-header,sem_7_awardId_!_8,,,,,,,,,,,,,
@-header,sem_7_awardName_!_Lower Second,,,,,,,,,,,,,
@-header,sem_7_totalUnits_!_60,,,,,,,,,,,,,
@-header,sem_7_totalModulePoints_!_180,,,,,,,,,,,,,
@-header,sem_7_academicYearId_!_8,,,,,,,,,,,,,
@-header,sem_7_academicYear_!_2016/2017,,,,,,,,,,,,,
@-header,sem_7_gpa_!_3,,,,,,,,,,,,,
@-header,sem_8_awardId_!_8,,,,,,,,,,,,,
@-header,sem_8_awardName_!_Lower Second,,,,,,,,,,,,,
@-header,sem_8_totalUnits_!_60,,,,,,,,,,,,,
@-header,sem_8_totalModulePoints_!_180,,,,,,,,,,,,,
@-header,sem_8_academicYearId_!_8,,,,,,,,,,,,,
@-header,sem_8_academicYear_!_2016/2017,,,,,,,,,,,,,
@-header,sem_8_gpa_!_3,,,,,,,,,,,,,
@-header,gpa_!_3.3,,,,,,,,,,,,,
@-header,awardId_!_8,,,,,,,,,,,,,
@-header,awardName_!_Lower Second,,,,,,,,,,,,,
@-header,cleared_!_,,,,,,,,,,,,,
@-header,filename_!_transcript_167.csv,,,,,,,,,,,,,
@-business-logic-begin,,,,,,,,,,,,,,
1287,1,5,2013/2014,0,,,EPIDEMIOLOGY,MAT 1,,61,10,B,3,10
1288,1,5,2013/2014,0,,,BIOSTATISTICS,MAT 2,,60,10,B,3,8
1289,1,5,2013/2014,0,,,RESEARCH METHODOLOGY,MAT 3,,78,9,B+,4,8
1290,1,5,2013/2014,0,,,ANATOMY,MAT 4,,65,10,B,3,7
1291,1,5,2013/2014,0,,,PHYSIOLOGY,MAT 5,,55,11,C,2,7
1292,1,5,2013/2014,0,,,CLINICAL PHARMACOLOGY,MAT 6,,76,9,B+,4,7
1293,1,5,2013/2014,0,,,PATHOLOGY,MAT 7,,60,10,B,3,7
1294,1,5,2013/2014,0,,,IMMUNOLOGY & GENETICS,MAT 8,,75,9,B+,4,6
1295,2,5,2013/2014,0,,,MAT 9,MAT 9,,68,10,B,3,20
1296,2,5,2013/2014,0,,,MAT 10,MAT 10,,84,9,B+,4,20
1297,2,5,2013/2014,0,,,ESAT 1,KPG 1140,,73,10,B,3,20
1298,3,6,2014/2015,0,,,ESAT 2,KPG 1141,,85,8,A,5,60
1299,4,6,2014/2015,0,,,ESAT 3,KPG 1142,,69,10,B,3,60
1300,5,7,2015/2016,0,,,ESAT 4,KPG 1144,,60,10,B,3,60
1301,6,7,2015/2016,0,,,ESAT 5,KPG 1145,,63,10,B,3,30
1302,6,7,2015/2016,0,,,Dissertation ,DIS 116,,67,10,B,3,30
1303,7,8,2016/2017,0,,,ESAT 6,KPG 1146,,68,10,B,3,60
1304,8,8,2016/2017,0,,,Final University Exam,KC4119,,71,10,B,3,60
@-business-logic-end,,,,,,,,,,,,,,
