@-header,flags_!_0,,,,,,,,,,,,,
@-header,studentId_!_487,,,,,,,,,,,,,
@-header,dateOfBirth_!_1980:10:24:00:00:00,,,,,,,,,,,,,
@-header,sexId_!_1,,,,,,,,,,,,,
@-header,sexName_!_Male,,,,,,,,,,,,,
@-header,profileId_!_1,,,,,,,,,,,,,
@-header,profileName_!_Kilimanjaro Christian Medical University College,,,,,,,,,,,,,
@-header,profileCity_!_Moshi,,,,,,,,,,,,,
@-header,profilePostalAddress_!_P.O Box 2240, Moshi,,,,,,,,,,,,,
@-header,profileWebsite_!_www.kcmuco.ac.tz,,,,,,,,,,,,,
@-header,profileCountryId_!_227,,,,,,,,,,,,,
@-header,profileCountryName_!_Tanzania,,,,,,,,,,,,,
@-header,systemName_!_University Management Information System,,,,,,,,,,,,,
@-header,postalAddress_!_1628,,,,,,,,,,,,,
@-header,physicalAddress_!_MASAKI,,,,,,,,,,,,,
@-header,countryId_!_227,,,,,,,,,,,,,
@-header,countryName_!_Tanzania,,,,,,,,,,,,,
@-header,registrationNumber_!_TUMA/KCMUCo/MSc.EAB.2014/2015/TZ/032,,,,,,,,,,,,,
@-header,fullname_!_Gaspar Mbita,,,,,,,,,,,,,
@-header,firstname_!_Gaspar,,,,,,,,,,,,,
@-header,middlename_!_Joseph,,,,,,,,,,,,,
@-header,lastname_!_Mbita,,,,,,,,,,,,,
@-header,compilationTime_!_2019:04:08:11:32:47,,,,,,,,,,,,,
@-header,fileType_!_transcript,,,,,,,,,,,,,
@-header,courseId_!_13,,,,,,,,,,,,,
@-header,courseCode_!_MSc.EAB,,,,,,,,,,,,,
@-header,courseName_!_Master of Science(MSc) in Epidemiology and Applied Biostatistics,,,,,,,,,,,,,
@-header,duration_!_2,,,,,,,,,,,,,
@-header,levelId_!_17,,,,,,,,,,,,,
@-header,levelName_!_Masters Degree,,,,,,,,,,,,,
@-header,levelCode_!_9,,,,,,,,,,,,,
@-header,departmentId_!_8,,,,,,,,,,,,,
@-header,departmentName_!_Directorate of Postgraduate Studies,,,,,,,,,,,,,
@-header,admissionYearId_!_6,,,,,,,,,,,,,
@-header,admissionYearName_!_2014/2015,,,,,,,,,,,,,
@-header,admissionYearNumber_!_6,,,,,,,,,,,,,
@-header,currentBatchId_!_6,,,,,,,,,,,,,
@-header,currentBatchName_!_2014/2015,,,,,,,,,,,,,
@-header,currentBatchNumber_!_6,,,,,,,,,,,,,
@-header,lastResultsCummulativeSemester_!_4,,,,,,,,,,,,,
@-header,currentCummulativeSemester_!_4,,,,,,,,,,,,,
@-header,allSemestersIncluded_!_1,,,,,,,,,,,,,
@-header,numberOfSemestersPerYear_!_2,,,,,,,,,,,,,
@-header,graduated_!_1,,,,,,,,,,,,,
@-header,grade_0_id_!_8,,,,,,,,,,,,,
@-header,grade_0_name_!_A,,,,,,,,,,,,,
@-header,grade_0_point_!_5,,,,,,,,,,,,,
@-header,grade_0_lowestMarks_!_85,,,,,,,,,,,,,
@-header,grade_0_highestMarks_!_101,,,,,,,,,,,,,
@-header,grade_0_extraInformation_!_Excellent,,,,,,,,,,,,,
@-header,grade_1_id_!_9,,,,,,,,,,,,,
@-header,grade_1_name_!_B+,,,,,,,,,,,,,
@-header,grade_1_point_!_4,,,,,,,,,,,,,
@-header,grade_1_lowestMarks_!_75,,,,,,,,,,,,,
@-header,grade_1_highestMarks_!_85,,,,,,,,,,,,,
@-header,grade_1_extraInformation_!_Very Good,,,,,,,,,,,,,
@-header,grade_2_id_!_10,,,,,,,,,,,,,
@-header,grade_2_name_!_B,,,,,,,,,,,,,
@-header,grade_2_point_!_3,,,,,,,,,,,,,
@-header,grade_2_lowestMarks_!_60,,,,,,,,,,,,,
@-header,grade_2_highestMarks_!_75,,,,,,,,,,,,,
@-header,grade_2_extraInformation_!_Good,,,,,,,,,,,,,
@-header,grade_3_id_!_11,,,,,,,,,,,,,
@-header,grade_3_name_!_C,,,,,,,,,,,,,
@-header,grade_3_point_!_2,,,,,,,,,,,,,
@-header,grade_3_lowestMarks_!_50,,,,,,,,,,,,,
@-header,grade_3_highestMarks_!_60,,,,,,,,,,,,,
@-header,grade_3_extraInformation_!_Pass,,,,,,,,,,,,,
@-header,grade_4_id_!_13,,,,,,,,,,,,,
@-header,grade_4_name_!_I,,,,,,,,,,,,,
@-header,grade_4_point_!_0,,,,,,,,,,,,,
@-header,grade_4_lowestMarks_!_1001,,,,,,,,,,,,,
@-header,grade_4_highestMarks_!_1001,,,,,,,,,,,,,
@-header,grade_4_extraInformation_!_Incomplete,,,,,,,,,,,,,
@-header,grade_5_id_!_27,,,,,,,,,,,,,
@-header,grade_5_name_!_D,,,,,,,,,,,,,
@-header,grade_5_point_!_1,,,,,,,,,,,,,
@-header,grade_5_lowestMarks_!_40,,,,,,,,,,,,,
@-header,grade_5_highestMarks_!_49,,,,,,,,,,,,,
@-header,grade_5_extraInformation_!_Fail/Suppl,,,,,,,,,,,,,
@-header,award_0_id_!_6,,,,,,,,,,,,,
@-header,award_0_name_!_First Class,,,,,,,,,,,,,
@-header,award_0_lowestGPA_!_4.5,,,,,,,,,,,,,
@-header,award_0_highestGPA_!_5.1,,,,,,,,,,,,,
@-header,award_0_extraInformation_!_Excellent,,,,,,,,,,,,,
@-header,award_1_id_!_7,,,,,,,,,,,,,
@-header,award_1_name_!_Upper Second,,,,,,,,,,,,,
@-header,award_1_lowestGPA_!_4.0,,,,,,,,,,,,,
@-header,award_1_highestGPA_!_4.5,,,,,,,,,,,,,
@-header,award_1_extraInformation_!_Very Good,,,,,,,,,,,,,
@-header,award_2_id_!_8,,,,,,,,,,,,,
@-header,award_2_name_!_Lower Second,,,,,,,,,,,,,
@-header,award_2_lowestGPA_!_3.0,,,,,,,,,,,,,
@-header,award_2_highestGPA_!_4.0,,,,,,,,,,,,,
@-header,award_2_extraInformation_!_Good,,,,,,,,,,,,,
@-header,award_3_id_!_19,,,,,,,,,,,,,
@-header,award_3_name_!_No GPA,,,,,,,,,,,,,
@-header,award_3_lowestGPA_!_00,,,,,,,,,,,,,
@-header,award_3_highestGPA_!_1.9,,,,,,,,,,,,,
@-header,award_3_extraInformation_!_,,,,,,,,,,,,,
@-header,award_4_id_!_20,,,,,,,,,,,,,
@-header,award_4_name_!_PASS,,,,,,,,,,,,,
@-header,award_4_lowestGPA_!_2,,,,,,,,,,,,,
@-header,award_4_highestGPA_!_2.9,,,,,,,,,,,,,
@-header,award_4_extraInformation_!_,,,,,,,,,,,,,
@-header,graduationYear_!_2016,,,,,,,,,,,,,
@-header,gpa_!_0,,,,,,,,,,,,,
@-header,awardId_!_,,,,,,,,,,,,,
@-header,awardName_!_,,,,,,,,,,,,,
@-header,cleared_!_,,,,,,,,,,,,,
@-header,filename_!_transcript_487.csv,,,,,,,,,,,,,
@-business-logic-begin,,,,,,,,,,,,,,
134,1,,,,,,,,,,,,
135,1,,,,,,,,,,,,
136,1,,,,,,,,,,,,
137,1,,,,,,,,,,,,
142,1,,,,,,,,,,,,
143,1,,,,,,,,,,,,
144,1,,,,,,,,,,,,
145,1,,,,,,,,,,,,
146,1,,,,,,,,,,,,
147,2,,,,,,,,,,,,
148,2,,,,,,,,,,,,
149,2,,,,,,,,,,,,
150,2,,,,,,,,,,,,
152,2,,,,,,,,,,,,
153,2,,,,,,,,,,,,
154,2,,,,,,,,,,,,
157,3,,,,,,,,,,,,
158,3,,,,,,,,,,,,
779,4,7,2015/2016,0,,,DISSERTATION,RRW231,,,,,,40
@-business-logic-end,,,,,,,,,,,,,,
