@-header,flags_!_0,,,,,,,,,,,,,
@-header,studentId_!_903,,,,,,,,,,,,,
@-header,dateOfBirth_!_1984:8:4:00:00:00,,,,,,,,,,,,,
@-header,sexId_!_1,,,,,,,,,,,,,
@-header,sexName_!_Male,,,,,,,,,,,,,
@-header,profileId_!_1,,,,,,,,,,,,,
@-header,profileName_!_Kilimanjaro Christian Medical University College,,,,,,,,,,,,,
@-header,profileCity_!_Moshi,,,,,,,,,,,,,
@-header,profilePostalAddress_!_P.O Box 2240, Moshi,,,,,,,,,,,,,
@-header,profileWebsite_!_www.kcmuco.ac.tz,,,,,,,,,,,,,
@-header,profileCountryId_!_227,,,,,,,,,,,,,
@-header,profileCountryName_!_Tanzania,,,,,,,,,,,,,
@-header,systemName_!_University Management Information System,,,,,,,,,,,,,
@-header,postalAddress_!_p.o.box 555,,,,,,,,,,,,,
@-header,physicalAddress_!_KIGOMA,,,,,,,,,,,,,
@-header,countryId_!_227,,,,,,,,,,,,,
@-header,countryName_!_Tanzania,,,,,,,,,,,,,
@-header,registrationNumber_!_TUMA/KCMUCo/BSC.N.2014/2015/TZ/0387,,,,,,,,,,,,,
@-header,fullname_!_EVERT MICHAEL,,,,,,,,,,,,,
@-header,firstname_!_EVERT,,,,,,,,,,,,,
@-header,middlename_!_MICHAEL,,,,,,,,,,,,,
@-header,lastname_!_NTIGWIMBUGWA,,,,,,,,,,,,,
@-header,compilationTime_!_2018:09:07:13:19:12,,,,,,,,,,,,,
@-header,fileType_!_transcript,,,,,,,,,,,,,
@-header,courseId_!_39,,,,,,,,,,,,,
@-header,courseCode_!_BSC.Ni,,,,,,,,,,,,,
@-header,courseName_!_Bachelor of Science in Nursing (In-Service),,,,,,,,,,,,,
@-header,duration_!_3,,,,,,,,,,,,,
@-header,levelId_!_15,,,,,,,,,,,,,
@-header,levelName_!_Bachelor Degree,,,,,,,,,,,,,
@-header,levelCode_!_8,,,,,,,,,,,,,
@-header,departmentId_!_3,,,,,,,,,,,,,
@-header,departmentName_!_Faculty of Nursing,,,,,,,,,,,,,
@-header,admissionYearId_!_6,,,,,,,,,,,,,
@-header,admissionYearName_!_2014/2015,,,,,,,,,,,,,
@-header,admissionYearNumber_!_6,,,,,,,,,,,,,
@-header,currentBatchId_!_6,,,,,,,,,,,,,
@-header,currentBatchName_!_2014/2015,,,,,,,,,,,,,
@-header,currentBatchNumber_!_6,,,,,,,,,,,,,
@-header,lastResultsCummulativeSemester_!_6,,,,,,,,,,,,,
@-header,currentCummulativeSemester_!_6,,,,,,,,,,,,,
@-header,allSemestersIncluded_!_1,,,,,,,,,,,,,
@-header,numberOfSemestersPerYear_!_2,,,,,,,,,,,,,
@-header,graduated_!_0,,,,,,,,,,,,,
@-header,grade_0_id_!_1,,,,,,,,,,,,,
@-header,grade_0_name_!_A,,,,,,,,,,,,,
@-header,grade_0_point_!_5,,,,,,,,,,,,,
@-header,grade_0_lowestMarks_!_80,,,,,,,,,,,,,
@-header,grade_0_highestMarks_!_101,,,,,,,,,,,,,
@-header,grade_0_extraInformation_!_Excellent,,,,,,,,,,,,,
@-header,grade_1_id_!_2,,,,,,,,,,,,,
@-header,grade_1_name_!_B+,,,,,,,,,,,,,
@-header,grade_1_point_!_4,,,,,,,,,,,,,
@-header,grade_1_lowestMarks_!_70,,,,,,,,,,,,,
@-header,grade_1_highestMarks_!_80,,,,,,,,,,,,,
@-header,grade_1_extraInformation_!_Very Good,,,,,,,,,,,,,
@-header,grade_2_id_!_3,,,,,,,,,,,,,
@-header,grade_2_name_!_B,,,,,,,,,,,,,
@-header,grade_2_point_!_3,,,,,,,,,,,,,
@-header,grade_2_lowestMarks_!_60,,,,,,,,,,,,,
@-header,grade_2_highestMarks_!_70,,,,,,,,,,,,,
@-header,grade_2_extraInformation_!_Good,,,,,,,,,,,,,
@-header,grade_3_id_!_4,,,,,,,,,,,,,
@-header,grade_3_name_!_C,,,,,,,,,,,,,
@-header,grade_3_point_!_2,,,,,,,,,,,,,
@-header,grade_3_lowestMarks_!_50,,,,,,,,,,,,,
@-header,grade_3_highestMarks_!_60,,,,,,,,,,,,,
@-header,grade_3_extraInformation_!_Pass,,,,,,,,,,,,,
@-header,grade_4_id_!_5,,,,,,,,,,,,,
@-header,grade_4_name_!_D,,,,,,,,,,,,,
@-header,grade_4_point_!_1,,,,,,,,,,,,,
@-header,grade_4_lowestMarks_!_40,,,,,,,,,,,,,
@-header,grade_4_highestMarks_!_50,,,,,,,,,,,,,
@-header,grade_4_extraInformation_!_Supplementary,,,,,,,,,,,,,
@-header,grade_5_id_!_6,,,,,,,,,,,,,
@-header,grade_5_name_!_E,,,,,,,,,,,,,
@-header,grade_5_point_!_0,,,,,,,,,,,,,
@-header,grade_5_lowestMarks_!_0,,,,,,,,,,,,,
@-header,grade_5_highestMarks_!_40,,,,,,,,,,,,,
@-header,grade_5_extraInformation_!_Supplementary,,,,,,,,,,,,,
@-header,grade_6_id_!_7,,,,,,,,,,,,,
@-header,grade_6_name_!_I,,,,,,,,,,,,,
@-header,grade_6_point_!_0,,,,,,,,,,,,,
@-header,grade_6_lowestMarks_!_1001,,,,,,,,,,,,,
@-header,grade_6_highestMarks_!_1001,,,,,,,,,,,,,
@-header,grade_6_extraInformation_!_Incomplete,,,,,,,,,,,,,
@-header,award_0_id_!_1,,,,,,,,,,,,,
@-header,award_0_name_!_First Class,,,,,,,,,,,,,
@-header,award_0_lowestGPA_!_4.4,,,,,,,,,,,,,
@-header,award_0_highestGPA_!_5.1,,,,,,,,,,,,,
@-header,award_0_extraInformation_!_First Class,,,,,,,,,,,,,
@-header,award_1_id_!_2,,,,,,,,,,,,,
@-header,award_1_name_!_Upper Second,,,,,,,,,,,,,
@-header,award_1_lowestGPA_!_3.5,,,,,,,,,,,,,
@-header,award_1_highestGPA_!_4.4,,,,,,,,,,,,,
@-header,award_1_extraInformation_!_Upper Second,,,,,,,,,,,,,
@-header,award_2_id_!_3,,,,,,,,,,,,,
@-header,award_2_name_!_Lower Second,,,,,,,,,,,,,
@-header,award_2_lowestGPA_!_2.7,,,,,,,,,,,,,
@-header,award_2_highestGPA_!_3.5,,,,,,,,,,,,,
@-header,award_2_extraInformation_!_Lower Second,,,,,,,,,,,,,
@-header,award_3_id_!_4,,,,,,,,,,,,,
@-header,award_3_name_!_Pass,,,,,,,,,,,,,
@-header,award_3_lowestGPA_!_2.0,,,,,,,,,,,,,
@-header,award_3_highestGPA_!_2.7,,,,,,,,,,,,,
@-header,award_3_extraInformation_!_Pass,,,,,,,,,,,,,
@-header,award_4_id_!_5,,,,,,,,,,,,,
@-header,award_4_name_!_No Award,,,,,,,,,,,,,
@-header,award_4_lowestGPA_!_0.0,,,,,,,,,,,,,
@-header,award_4_highestGPA_!_2.0,,,,,,,,,,,,,
@-header,award_4_extraInformation_!_No Award,,,,,,,,,,,,,
@-header,sem_1_awardId_!_5,,,,,,,,,,,,,
@-header,sem_1_awardName_!_No Award,,,,,,,,,,,,,
@-header,sem_1_totalUnits_!_24.7,,,,,,,,,,,,,
@-header,sem_1_totalModulePoints_!_35.3,,,,,,,,,,,,,
@-header,sem_1_academicYearId_!_6,,,,,,,,,,,,,
@-header,sem_1_academicYear_!_2014/2015,,,,,,,,,,,,,
@-header,sem_1_gpa_!_1.4,,,,,,,,,,,,,
@-header,sem_2_awardId_!_3,,,,,,,,,,,,,
@-header,sem_2_awardName_!_Lower Second,,,,,,,,,,,,,
@-header,sem_2_totalUnits_!_27.6,,,,,,,,,,,,,
@-header,sem_2_totalModulePoints_!_80.2,,,,,,,,,,,,,
@-header,sem_2_academicYearId_!_6,,,,,,,,,,,,,
@-header,sem_2_academicYear_!_2014/2015,,,,,,,,,,,,,
@-header,sem_2_gpa_!_2.9,,,,,,,,,,,,,
@-header,sem_3_awardId_!_4,,,,,,,,,,,,,
@-header,sem_3_awardName_!_Pass,,,,,,,,,,,,,
@-header,sem_3_totalUnits_!_30.3,,,,,,,,,,,,,
@-header,sem_3_totalModulePoints_!_69.3,,,,,,,,,,,,,
@-header,sem_3_academicYearId_!_7,,,,,,,,,,,,,
@-header,sem_3_academicYear_!_2015/2016,,,,,,,,,,,,,
@-header,sem_3_gpa_!_2.2,,,,,,,,,,,,,
@-header,sem_4_awardId_!_3,,,,,,,,,,,,,
@-header,sem_4_awardName_!_Lower Second,,,,,,,,,,,,,
@-header,sem_4_totalUnits_!_24.2,,,,,,,,,,,,,
@-header,sem_4_totalModulePoints_!_73.3,,,,,,,,,,,,,
@-header,sem_4_academicYearId_!_7,,,,,,,,,,,,,
@-header,sem_4_academicYear_!_2015/2016,,,,,,,,,,,,,
@-header,sem_4_gpa_!_3,,,,,,,,,,,,,
@-header,sem_5_awardId_!_4,,,,,,,,,,,,,
@-header,sem_5_awardName_!_Pass,,,,,,,,,,,,,
@-header,sem_5_totalUnits_!_35.3,,,,,,,,,,,,,
@-header,sem_5_totalModulePoints_!_79.4,,,,,,,,,,,,,
@-header,sem_5_academicYearId_!_8,,,,,,,,,,,,,
@-header,sem_5_academicYear_!_2016/2017,,,,,,,,,,,,,
@-header,sem_5_gpa_!_2.2,,,,,,,,,,,,,
@-header,sem_6_awardId_!_3,,,,,,,,,,,,,
@-header,sem_6_awardName_!_Lower Second,,,,,,,,,,,,,
@-header,sem_6_totalUnits_!_35.2,,,,,,,,,,,,,
@-header,sem_6_totalModulePoints_!_98.1,,,,,,,,,,,,,
@-header,sem_6_academicYearId_!_8,,,,,,,,,,,,,
@-header,sem_6_academicYear_!_2016/2017,,,,,,,,,,,,,
@-header,sem_6_gpa_!_2.7,,,,,,,,,,,,,
@-header,gpa_!_2.4,,,,,,,,,,,,,
@-header,awardId_!_4,,,,,,,,,,,,,
@-header,awardName_!_Pass,,,,,,,,,,,,,
@-header,cleared_!_,,,,,,,,,,,,,
@-header,filename_!_transcript_903.csv,,,,,,,,,,,,,
@-business-logic-begin,,,,,,,,,,,,,,
73,1,6,2014/2015,0,,,Physiology,PH 104,,55,4,C,2,4
74,1,6,2014/2015,0,,,Parasitology,PAR 104,,56,4,C,2,2
75,1,6,2014/2015,0,,,Pharmacology,PHR 104,,54,4,C,2,2.6
76,1,6,2014/2015,0,,,Microbiology,MIN 104,,49,5,D,1,5.6
78,1,6,2014/2015,0,,,Communication Skills,CSN 104,,57,4,C,2,2
606,1,6,2014/2015,0,,,Anatomy,ANA 114,,48,5,D,1,4.0
607,1,6,2014/2015,0,,,Biochemistry,BIN 114,,41,5,D,1,4.5
79,2,6,2014/2015,0,,,Anatomy,ANA 104,,71,2,B+,4,4
80,2,6,2014/2015,0,,,Physiology,PH 104,,61,3,B,3,4
81,2,6,2014/2015,0,,,Parasitology,PAR 104,,61,3,B,3,4
83,2,6,2014/2015,0,,,Microbiology,MIN 104,,51,4,C,2,5.6
608,2,6,2014/2015,0,,,Pharmacology,PHR 114,,56,4,C,2,5.5
609,2,6,2014/2015,0,,,Clinical Biochemistry,CHE 3625,,73,2,B+,4,4.5
86,3,7,2015/2016,0,,,Sociology & Anthropology,SOC 204,,73,2,B+,4,2
87,3,7,2015/2016,0,,,Psychology,PSN 204,,57,4,C,2,5
88,3,7,2015/2016,0,,,Development Studies,DSN 204,,55,4,C,2,2
89,3,7,2015/2016,0,,,Advanced Nursing Sciences,ANS 204,,52,4,C,2,4
90,3,7,2015/2016,0,,,Community  Health Nursing,CHN 204,,58,4,C,2,4
91,3,7,2015/2016,0,,,Research Methodology ,RSM 204,,47,5,D,1,3.3
92,3,7,2015/2016,0,,,Leadership & Management,LEM 204,,70,2,B+,4,4
894,3,7,2015/2016,0,,,Foundation of Faith,FOF 204,,56,4,C,2,6
1029,3,7,2015/2016,0,,,Epidemiology and Biostatistics,EPB204	,,,,,,0
93,4,7,2015/2016,0,,,Sociology & Anthropology,SOC 204,,60,3,B,3,3
94,4,7,2015/2016,0,,,Development Studies,DSN 204,,59,4,C,2,2
95,4,7,2015/2016,0,,,Advanced Nursing Sciences,ANS 204,,70,2,B+,4,5.3
96,4,7,2015/2016,0,,,Community  Health Nursing,CHN 204,,58,4,C,2,6.6
97,4,7,2015/2016,0,,,Research Methodology ,RSM 204,,62,3,B,3,3.3
98,4,7,2015/2016,0,,,Leadership & Management,LEM 204,,73,2,B+,4,4
100,5,8,2016/2017,0,,,Nursing Education,NED 304,,45,5,D,1,5
101,5,8,2016/2017,0,,,Research Methodology ,RSM 304,,68,3,B,3,5.7
102,5,8,2016/2017,0,,,Community Nursing ,CHN 304,,56,4,C,2,4.5
103,5,8,2016/2017,0,,,Leadership & Management,LEM 304,,49,5,D,1,6
568,5,8,2016/2017,0,,,Advanced Nursing Sciences,ANS 314,,61,3,B,3,14.1
105,6,8,2016/2017,0,,,Nursing Education,NED 304,,65,3,B,3,10.5
106,6,8,2016/2017,0,,,Research Methodology ,RSM 304,,54,4,C,2,3.5
107,6,8,2016/2017,0,,,Community Nursing ,CHN 304,,54,4,C,2,5.1
108,6,8,2016/2017,0,,,Leadership & Management,LEM 304,,76,2,B+,4,5.1
569,6,8,2016/2017,0,,,Advanced Nursing Sciences,ANS 324,,59,4,C,2,7.5
726,6,8,2016/2017,0,,,Research Report,REM 304,,72,2,B+,4,3.5
@-business-logic-end,,,,,,,,,,,,,,
