S/N,CSEE Index NO,ACSEE Index NO,NAMES,SEX,REG ,COURSE,YOS,BANK,ACCOUNT NO
25,S0388.0027.2012,S0485.0885.2015,"KISANGA, EUNICE JULIUS",F,TUMA/KCMUCo/BHLSc.2015/2016/TZ/0430,BSHL,1,CRDB,1.52283E+11
91,S1422.0078.2011,S0125.0923.2014,JONASS ISMAIL JAMES,M,"TUMA/KCMUCo/BScHLSc.2014/2015/TZ/0348
",BSHL,2,CRDB,1.52328E+11
99,S0295.0065.2011,S0203.0570.2014,"MAGAMBO, ROSE ALPHONCE",F,"""TUMA/KCMUCo/BScHLSc.2014/2015/TZ/0347
""",BSHL,2,CRDB,1.52243E+11
158,S0368.0149.1992,DIPLOMA,"SELLA, STEPHEN",M,TU.KCMUCo.BScHLSc.2012.TZ.0220,BSHL,3,NMB,40908000351
309,S1274.0119.2011,S0345.0622.2014,"KARINO, KILAYE",M,TUMA/KCMUCo/BScHLSc.2014/2015/TZ/0361,BSN,2,CRDB,1.52328E+11
367,S0518.0009.2006,DIPLOMA,"LUFEGA, DIDACE",M,TUMA/KCMUCo/BSC.N.2014/2015/TZ/0323,BSN,2,CRDB,1.52328E+11
379,S0905.0008.2006,S0108.0506.2009,"LYIMO, ANGELA",F,TUMA/KCMCCO/BSc.N2013/2014/TZ/0322,BSN,3, NMB ,6058100744
412,S0328.0022.2012,S0227.0540.2015,"ASSENGA, EDWIGA PAUL",F,TUMA/KCMUCo/BScPhysio.2015/2016/TZ/0385,BSPH,1,CRDB,1.52515E+11
455,S0459.0077.2011,S0125.0942.2014,"MUSHI, NICKSON R",M,TUMA/KCMUCo/BScPhysio.2015/2016/TZ/00203,BSPH,1,CRDB,1.52328E+11
503,S0329.0157.2009,S0584.0587.2012,"BENDERA, PETRO T",M,TU/KCMUCo/BScPhy.2012/TZ/0103,BSPH,4,STANBIC,1.40522E+11
504,S0310.0012.2009,S0437.0535.2012,"JETHWA, CHANDNI K",F,TU/KCMUCo/BScPhy.2012/TZ/0107,BSPH,4,NBC,26201266259
505,S1370.0104.2009,S0113.0526.2012,"MALLEY, KASTORY S",M,TU/KCMUCo/BScPhy.2012/TZ/0105,BSPH,4,NBC,45201115093
506,S0869.0123.2009,S0143.0598.2012,"MOSHI, IMANUEL L",M,TU/KCMUCo/BScPhy.2012/TZ/0100,BSPH,4,NMB,6068100759
507,S0264.0016.2009,S0264.0527.2012,"MWAGENI, CHRISTABELLA F",F,TU/KCMUCo/BScPhy.2012/TZ/0097,BSPH,4,CRDB,1.52237E+11
508,S3533.0207.2009,S0101.0751.2012,"MWANANGWA, JOSEPH G",M,TU/KCMUCo/BScPhy.2012/TZ/0102,BSPH,4,NBC,17201133179
509,S0222.0232.2009,S0206.0568.2012,"MWANGUNGA, NANCY",F,TU/KCMUCo/BScPhy.2012/TZ/0096,BSPH,4,NBC,22201238100
510,S0893.0075.2009,S0142.0659.2012,"OMARY, ATHUMANI R",M,TU/KCMUCo/BScPhy.2012/TZ/0106,BSPH,4,NMB,4238101015
511,S0240.0059.2009,S0333.0621.2012,"PETER, ROSEMARY N",F,TU/KCMUCo/BScPhy.2012/TZ/0098,BSPH,4,CRDB,1.52335E+11
547,S1004.0055.2009,S1600.0503.2013,"NGOWI, SILVESTERA N",F,TUMA/KCMUCo/BScPhysio.2013/2014/TZ/0155,BSPO,3, CRDB ,1.52328E+11
549,S1401.0100.2009,S0134.0604.2012,"ALEXANDA, RICHARD",M,TU/KCMUCo/BSc.P&O.2012/TZ/142,BSPO,4,NMB,4228101472
550,S1590.0049.2009,S0338.0807.2012,"DAVID, DICKSON",M,TU/KCMUCo/BSc.P&O.2012/TZ/137,BSPO,4,CRDB,1.12042E+11
551,S0846.0068.2006,S0132.0734.2009,"HAMIS, RAJABU S",M,TU/KCMUCo/BSc.P&O.2012/TZ/139,BSPO,4,CRDB,1.52328E+11
552,S1737.0063.2009,S0485.0614.2012,"ISDORY, JOSEPH S",M,TU/KCMUCo/BSc.P&O.2012/TZ/134,BSPO,4,CRDB,1.52324E+11
553,S3568.0086.2009,S0110.0622.2012,"JOSEPH, JAMES",M,TU/KCMUCo/BSc.P&O.2012/TZ/126,BSPO,4,NBC,14201315880
554,S0169.0004.2009,S0117.0502.2012,"MIKINDO, ARBOGAST S",M,TU/KCMUCo/BSc.P&O.2012/TZ/132,BSPO,4,NMB,2198100445
555,S0127.0025.2009,S0174.0511.2012,"NDESI, FREDRICK CM",M,TU/KCMUCo/BSc.P&O.2012/TZ/135,BSPO,4,CRDB,1.52332E+11
556,S0110.0043.2009,S0107.0585.2012,"PETER, GODBLESS",M,TU/KCMUCo/BSc.P&O.2012/TZ/130,BSPO,4,CRDB,1.52278E+11
618,S3823.0074.2010,S0184.0558.2015,"KITUTU, YOHANA F",M,TUMA/KCMUCo/MD/2015/2016/1745,MD,1,CRDB,1.52285E+11
623,S0184.0055.2012,S0184.0537.2015,"KWAYU, ASTON GASPER",M,TUMA/KCMUCo/MD/2015/2016/1739,MD,1,CRDB,1.52327E+11
814,S2244.0112.2010,S0123.0652.2013,"BATULE,  KULWA  JOHN",M,TUMA/KCMUCo/MD.2015/2016/TZ/164,MD,1, CRDB ,1.52328E+11
823,S0224.0069.2010,S0224.0551.2013,"ABUBAKAR,  NURBAN  N",F,TUMA/KCMUCo/MD/2013/2014/TZ/1263,MD,2, NBC ,48206004880
836,S0330.0223.2010,S0107.0600.2013,"CHIKOMA, JOSHUA ADELADE",M,TUMA/KCMUCo/MD/2013/2014/TZ/1199,MD,2,CRDB,1.52324E+11
915,S1518.0085.2010,S0443.0660.2013,"MBWILE, OSWARD EDWIN",M,TUMA/KCMUCo/MD/2013/2014/TZ/1312,MD,2, CRDB ,1.52328E+11
922,S1189.0143.2005,S0101.0769.2008,"MICHAEL, ROBERT S",M,TUMA/KCMUCo/MD/2013/2014/TZ/1191,MD,2, NMB ,70210000215
942,S0206.0071.2011,S0276.0590.2014,SHEILA MUSA NJAKU,F,TUMA/KCMUCo/MD.2014/2015/TZ/11503,MD,2,CRDB,1.52243E+11
991,S0298.0031.2010,S0248.0589.2013,"ABDULKARIM,  SHADIA  Y",F,TUMA/KCMUCo/MD/2013/2014/TZ/1231,MD,3, CRDB ,1.52433E+11
993,S1997.0054.2010,S0221.0717.2013,"ALPHONCE,  REGINA  MSHABAHA",F,TUMA/KCMUCo/MD/2013/2014/TZ/1220,MD,3, CRDB ,1.52328E+11
994,S1141.0001.2010,S0220.0504.2013,"ANDONGOLILE,  ALICE  ASUKILE",F,TUMA/KCMUCo/MD/2013/2014/TZ/1254,MD,3, NMB ,5108101788
995,S1947.0136.2010,S0549.0657.2013,"ASENGA, JONAS JUST",M,TUMA/KCMUCo/MD/2013/2014/TZ/1288,MD,3, CRDB ,1.52328E+11
996,E0004.0022.2010,E0000.0000.2012,"ASHIRAF, LATIF",M,TUMA/KCMUCo/MD/2013/2014/TZ/1185,MD,3, CRDB ,1.52324E+11
997,S1328.0043.2010,S0155.0507.2013,"AUDAX, ARISTIDES B",M,TUMA/KCMUCo/MD/2013/2014/TZ/1247,MD,3, CRDB ,1.52288E+11
998,S2530.0065.2010,S0155.0506.2013,"AUGUSTINE,  ANORD",M,TUMA/KCMUCo/MD/2013/2014/TZ/1204,MD,3, NMB ,31110008351
999,S0781.0171.2010,S0140.0508.2013,"BARABARA, AMANIEL RENATUS",M,TUMA/KCMUCo/MD/2013/2014/TZ/1316,MD,3, CRDB ,1.5234E+11
1000,S2421.0008.2010,S0233.0525.2013,"BARNABAS,  EUNICE  H",F,TUMA/KCMUCo/MD/2013/2014/TZ/1300,MD,3, CRDB ,1.52328E+11
1001,S0455.0100.2010,S0578.0662.2013,"BARONGO, GIDION  ",M,TUMA/KCMUCo/MD/2013/2014/TZ/1238,MD,3, CRDB ,1.52352E+11
1002,S0800.0024.2010,S0248.0567.2013,"BILAKWATE, JULIETH SEBBA",F,TUMA/KCMUCo/MD/2013/2014/TZ/1226,MD,3, CRDB ,1.52433E+11
1003,S0328.0168.2004,S0156.0567.2007,"BONAVENTURA, JONATHAN  ",M,TUMA/KCMUCo/MD/2013/2014/TZ/1256,MD,3, NBC ,17201135413
1004,S2323.0066.2010,S0936.0635.2013,"BULUNJA,  SALIMBA",M,TUMA/KCMUCo/MD/2013/2014/TZ/1295,MD,3, CRDB ,1.52328E+11
1005,S1153.0085.2010,S0936.0578.2013,"BUNZARI, JONAS",M,TUMA/KCMCo/MD/2013/2014/TZ/1284,MD,3, CRDB ,1.52328E+11
1006,S0800.0069.2010,S0342.0544.2013,"CHAMBEGA, CHAMBEGA MHINA",M,TUMA/KCMUCo/MD/2013/2014/TZ/1171,MD,3, NBC ,31203001012
1007,S2652.0030.2010,S0206.0574.2013,"CHENGE, NEEMA",F,TUMA/KCMUCo/MD/2013/2014/TZ/1206,MD,3, CRDB ,1.5236E+11
1008,S2655.0034.2010,S0211.0711.2013,"CHILALE, MBONI EMMANUEL",F,TUMA/KCMUCo/MD/2013/2014/TZ/1311,MD,3, NBC ,16201181110
1009,S1607.0126.2010,S0936.0648.2013,"CHRISTOPHER, SYLVANUS",M,TUMA/KCMUCo/MD/2013/2014/TZ/1285,MD,3, CRDB ,1.52328E+11
1010,S0671.0037.2006,S0437.0512.2009,"CHUM, SALAMA H",F,TUMA/KCMUCo/MD/2013/2014/TZ/1179,MD,3, CRDB ,1.5234E+11
1011,S0534.0165.2010,S0437.0538.2013,"DANIEL, JENSON",M,TUMA/KCMUCo/MD/2013/2014/TZ/1201,MD,3, CRDB ,1.52324E+11
1012,S0249.0020.2010,S1187.0556.2013,"DANSTAN,  ELIZABETH  KOKUBANZA",F,TUMA/KCMUCo/MD/2013/2014/TZ/1225,MD,3, CRDB ,1.52216E+11
1014,S1706.0015.2010,S0304.0513.2013,"DICKSON,  GRACE",F,TUMA/KCMUCo/MD/2013/2014/TZ/1303,MD,3, CRDB ,1.52328E+11
1015,S1051.0197.2010,S0134.0593.2013,"DONALD, PETER MBINDA",M,TUMA/KCMUCo/MD/2013/2014/TZ/1281,MD,3, CRDB ,1.52353E+11
1016,S0692.0047.2010,S4692.0602.2013,"EDWARD, ELISHA",M,TUMA/KCMUCo/MD/2013/2014/TZ/1270,MD,3, CRDB ,1.5221E+11
1017,S0554.0135.2010,S0108.0657.2013,"EMMANUEL, PETRO",M,TUMA/KCMUCo/MD/2013/2014/TZ/1286,MD,3, CRDB ,1.52328E+11
1020,S3674.0057.2010,S4692.0622.2013,"GEORGE,  GOSBERT  M",M,TUMA/KCMUCo/MD/2013/2014/TZ/1259,MD,3, CRDB ,1.52057E+11
1021,S0245.0009.2010,S1187.0535.2013,"GWALTU, COLLEEN GOMA",F,TUMA/KCMUCo/MD/2013/2014/TZ/1250,MD,3, CRDB ,1.52328E+11
1022,S0155.0043.2010,S0140.0523.2013,"HAMISI, JAFARI",M,TUMA/KCMUCo/MD/2013/2014/TZ/1205,MD,3, CRDB ,1.5234E+11
1023,S0204.0125.2010,S0204.0510.2013,"HAMISI,  JACKLINE  DOMINICK",F,TUMA/KCMUCo/MD/2013/2014/TZ/1308,MD,3, CRDB ,1.52294E+11
1024,S1601.0027.2010,S0150.0623.2013,"IBAMBAI, FRANK G",M,TUMA/KCMUCo/MD/2013/2014/TZ/1283,MD,3, CRDB ,1.52328E+11
1025,S0235.0076.2010,S0304.0531.2013,"IBRAHIM, RUKIA",F,TUMA/KCMUCo/MD/2013/2014/TZ/1302,MD,3, CRDB ,1.52328E+11
1026,S0144.0064.2010,S0119.0596.2013,"JOSEPH, INNOCENT",M,TUMA/KCMUCo/MD/2013/2014/TZ/1193,MD,3, CRDB ,1.12561E+11
1027,S2324.0116.2010,S0135.0692.2013,"JOSEPH, NEMES BERNAD",M,TUMA/KCMUCo/MD/2013/2014/TZ/1282,MD,3, CRDB ,1.52355E+11
1028,S3861.0023.2010,S4692.0604.2013,"JOSSE,  EMMANUEL",M,TUMA/KCMUCo/MD/2013/2014/TZ/1255,MD,3, CRDB ,1.52232E+11
1029,S0712.0083.2010,S0140.0512.2013,"JULIUS, BARAKA",M,TUMA/KCMUCo/MD/2013/2014/TZ/1219,MD,3, CRDB ,1.52324E+11
1030,S0630.0037.2010,S0155.0529.2013,"JULIUS, JOSEPH",M,TUMA/KCMUCo/MD/2013/2014/TZ/1212,MD,3, NMB ,30308100571
1031,S0130.0032.2010,S0140.0535.2013,"KABONDO, WILFRED D",M,TUMA/KCMUCo/MD/2013/2014/TZ/1293,MD,3, NBC ,35201134850
1032,S0297.0043.2010,S0214.0542.2013,"KADOGOSA,  NEEMA  E",F,TUMA/KCMUCo/MD/2013/2014/TZ/1313,MD,3, CRDB ,1.52222E+11
1034,S0207.0036.2010,S0214.0527.2013,"KAISHE,  GENOFEVA  FELIX",F,TUMA/KCMUCo/MD/2013/2014/TZ/1319,MD,3, NMB ,40410000488
1035,S1689.0104.2010,S0119.0586.2013,"KAMUGISHA, ELYNSE",M,TUMA/KCMUCo/MD/2013/2014/TZ/1203,MD,3, CRDB ,1.52216E+11
1036,S2499.0059.2010,S0119.0603.2013,"KARABA, JOSHUA ALEXANDER",M,TUMA/KCMUCo/MD/2013/2014/TZ/1173,MD,3, CRDB ,1.52253E+11
1037,S0692.0003.2010,S0233.0506.2013,"KASIMBA, ANGELINA P",F,TUMA/KCMUCo/MD/2013/2014/TZ/1194,MD,3, CRDB ,1.52324E+11
1038,S0248.0014.2010,S0248.0548.2013,"KATISHO, CATHERINE C",F,TUMA/KCMUCo/MD/2013/2014/TZ/1208,MD,3, NBC ,17201139080
1039,S0692.0078.2010,S4692.0671.2013,"KILEMWA, PROSPER A",M,TUMA/KCMUCo/MD/2013/2014/TZ/1229,MD,3, CRDB ,1.52278E+11
1040,S1672.0073.2010,S0107.0562.2013,"KIPAKA, ARON MSENGA",M,TUMA/KCMUCo/MD/2013/2014/TZ/1291,MD,3, CRDB ,1.52379E+11
1041,S0534.0189.2010,S0155.0539.2013,"KIPEJA, MKOMBA ABEL.",M,TUMA/KCMUCo/MD/2013/2014/TZ/1236,MD,3, NBC ,17204011747
1042,S0665.0054.2010,S1757.0551.2013,"KIWANGO, FRANK J",M,TUMA/KCMUCo/MD/2013/2014/TZ/1239,MD,3, NBC ,30204006221
1043,S0217.0007.2010,S0206.0507.2013,"KOMBA,  AULERIA  SEVERINE",F,TUMA/KCMUCo/MD/2013/2014/TZ/1202,MD,3, CRDB ,1.52278E+11
1045,S0241.0015.2010,S0276.0588.2013,"KYENGU, CONSOLATA REUBEN",F,TUMA/KCMUCo/MD/2013/2014/TZ/1327,MD,3, CRDB ,1.52382E+11
1046,S2421.0033.2010,S1187.0679.2013,"LAIZER,  SWEETNESS  N",F,TUMA/KCMUCo/MD/2013/2014/TZ/1176,MD,3, CRDB ,1.52201E+11
1047,S1147.0035.2010,S0333.0526.2013,"LAIZER,  EVALINE  KAILAS",F,TUMA/KCMUCo/MD/2013/2014/TZ/1289,MD,3, CRDB ,1.52335E+11
1048,S0248.0051.2010,S0248.0563.2013,"LEMA, JEANINE E",F,TUMA/KCMUCo/MD/2013/2014/TZ/1188,MD,3, CRDB ,1.52453E+11
1049,S1880.0153.2010,S0276.0628.2013,"LUKOO, SUZANA",F,TUMA/KCMUCo/MD/2013/2014/TZ/1262,MD,3, NBC ,28204004520
1050,S0564.0153.2010,S0155.0533.2013,"MABELELE, MABULA MUSSA",M,TUMA/KCMUCo/MD/2013/2014/TZ/1228,MD,3, NMB ,3121604433
1051,S3674.0051.2010,S4692.0599.2013,"MACHA, EDGAR M",M,TUMA/KCMUCo/MD/2013/2014/TZ/1261,MD,3, CRDB ,1.52211E+11
1052,S0146.0037.2010,S0174.0512.2013,"MACKENZIE, GODFREY A",M,TUMA/KCMUCo/MD/2013/2014/TZ/1297,MD,3, CRDB ,1.52328E+11
1053,S0600.0061.2010,S0156.0513.2013,"MAKEMBA, CHARLES MAJURA",M,TUMA/KCMUCo/MD/2013/2014/TZ/1246,MD,3, CRDB ,1.52328E+11
1054,S2421.0050.2010,S0110.0601.2013,"MAKUKA,  GERVAS  K",M,TUMA/KCMUCo/MD/2013/2014/TZ/1190,MD,3, CRDB ,1.52301E+11
1055,S3886.0025.2010,S0150.0680.2013,"MANALA, JOEL DAVID",M,TUMA/KCMUCo/MD/2013/2014/TZ/1192,MD,3, CRDB ,1.52324E+11
1058,S0511.0189.2010,S0119.0618.2013,"MANYUTI, RIDHIWANI H",M,TUMA/KCMUCo/MD/2013/2014/TZ/1215,MD,3, CRDB ,1.52253E+11
1059,S2376.0196.2010,S0155.0504.2013,"MARIKI,  AMANI",M,TUMA/KCMUCo/MD/2013/2014/TZ/1217,MD,3, CRDB ,1.52328E+11
1061,S2893.0102.2010,S0156.0554.2013,"MARTINI,  RICHARD  NICKANORY",M,TUMA/KCMUCo/MD/2013/2014/TZ/1310,MD,3, CRDB ,1.52328E+11
1062,S0140.0056.2010,S0110.0618.2013,"MASAKA, JONAS MOSES",M,TUMA/KCMUCo/MD/2013/2014/TZ/1216,MD,3, CRDB ,1.52328E+11
1063,S1247.0006.2010,S1071.0505.2013,"MASAMBAJI, AMINA M",F,TUMA/KCMUCo/MD/2013/2014/TZ/1249,MD,3, CRDB ,1.52017E+11
1064,S2117.0044.2010,S0147.0725.2013,"MASANJA, EMMANUEL D",M,TUMA/KCMUCo/MD/2013/2014/TZ/1207,MD,3, NBC ,17201139005
1065,S0823.0179.2010,S0823.0620.2013,"MASANJA, ERNEST RICHARD",M,TUMA/KCMUCo/MD/2013/2014/TZ/1244,MD,3, CRDB ,1.52213E+11
1066,S0248.0012.2010,S0248.0546.2013,"MASANJE, CAROLINE F",F,TUMA/KCMUCo/MD/2013/2014/TZ/1245,MD,3, CRDB ,1.5235E+11
1067,S0387.0033.2010,S0135.0511.2013,"MASHUHURI, AIDAN AUDAX",M,TUMA/KCMUCo/MD/2013/2014/TZ/1274,MD,3, CRDB ,1.52328E+11
1068,S1674.0073.2010,S0158.0765.2013,"MASONGA, AGREY G",M,TUMA/KCMUCo/MD/2013/2014/TZ/1292,MD,3, CRDB ,1.52243E+11
1070,S0947.0142.2010,S0134.0531.2013,"MAYO, EMANUEL Y",M,TUMA/KCMUCo/MD/2013/2014/TZ/1280,MD,3, NMB ,4121603419
1071,S2766.0074.2010,S0347.0631.2013,"MAYUNGA, DAUD K",M,TUMA/KCMUCo/MD/2013/2014/TZ/1278,MD,3, CRDB ,1.52328E+11
1072,S0958.0118.2010,S0156.0532.2013,"MBEYA, JOSEPH THADEI",M,TUMA/KCMUCo/MD/2013/2014/TZ/1234,MD,3, NMB ,4178102244
1073,S1515.0028.2010,S0211.0688.2013,"MBILINYI,  GELESTIANA  BERTO",F,TUMA/KCMUCo/MD/2013/2014/TZ/1248,MD,3, CRDB ,1.52328E+11
1074,S0224.0030.2010,S0224.0530.2013,"MBISE, IKUNDA I",F,TUMA/KCMUCo/MD/2013/2014/TZ/1252,MD,3, CRDB ,1.52328E+11
1075,S1343.0138.2010,S0800.0636.2013,"MBOYA, ERICK ALEXANDER",M,TUMA/KCMUCo/MD/2013/2014/TZ/1272,MD,3, CRDB ,1.52328E+11
1076,S1187.0041.2010,S0248.0578.2013,"MBWAMBO, HALIMA J",F,TUMA/KCMCo/MD.2013/2014/TZ/1326,MD,3, CRDB ,1.52328E+11
1078,S0531.0093.2010,S0107.0613.2013,"MEKERE, MAYNARD S",M,TUMA/KCMUCo/MD/2013/2014/TZ/1243,MD,3, CRDB ,1.52295E+11
1079,S0800.0114.2010,S0800.0690.2013,"METHUSELA, LEOPOLD DANIEL",M,TUMA/KCMUCo/MD/2013/2014/TZ/1267,MD,3, CRDB ,1.52405E+11
1080,S0156.0088.2010,S0140.0511.2013,"MGAYA, BARAKA EDWARD",M,TUMA/KCMUCo/MD/2013/2014/TZ/1294,MD,3, CRDB ,1.5234E+11
1081,S1049.0010.2010,S0263.0510.2013,"MICHAEL,  ELIZABETH",F,TUMA/KCMUCo/MD/2013/2014/TZ/1325,MD,3, CRDB ,1.52235E+11
1083,S1075.0018.2010,S0211.0678.2013,"MINJA, ELIHAIKA JEROBOAM",F,TUMA/KCMCo/MD.2013/2014/TZ/1321,MD,3, CRDB ,1.52285E+11
1084,S0546.0075.2010,S0216.0732.2013,"MKAMA,  JANETH",F,TUMA/KCMUCo/MD/2013/2014/TZ/1260,MD,3, CRDB ,1.52355E+11
1085,S1147.0211.2010,S0112.0527.2013,"MKANULA, FADHILI DEOGRATIUS",M,TUMA/KCMUCo/MD/2013/2014/TZ/1184,MD,3, NMB ,40810008208
1086,S2344.0036.2010,S2499.0727.2013,"MKUNGURA,  SAAD  H",M,TUMA/KCMUCo/MD/2013/2014/TZ/1240,MD,3, CRDB ,1.5245E+11
1087,S0124.0005.2010,S0413.0546.2013,"MLANGE, BERLINO MODESTUS",M,TUMA/KCMUCo/MD/2013/2014/TZ/1276,MD,3, CRDB ,1.52328E+11
1088,S0921.0115.2010,S0345.0611.2013,"MMARY, FILEMON EMANUELY",M,TUMA/KCMUCo/MD/2013/2014/TZ/1237,MD,3, NBC ,17201139078
1089,S0203.0014.2010,S0248.0547.2013,"MNYETI,  CATHERINE  A",F,TUMA/KCMUCo/MD/2013/2014/TZ/1227,MD,3, CRDB ,1.52071E+11
1090,S3518.0066.2010,S0135.0622.2013,"MOHAMEDI,  IBRAHIM  J",M,TUMA/KCMUCo/MD/2013/2014/TZ/1235,MD,3, CRDB ,1.52324E+11
1091,S1453.0152.2010,S0119.0620.2013,"MONG'ATEKO, ROGEGA EZEKIEL",M,TUMA/KCMUCo/MD/2013/2014/TZ/1233,MD,3, CRDB ,1.52253E+11
1092,S3884.0094.2010,S0206.0586.2013,"MOSHI, ROZINA P",F,TUMA/KCMUCo/MD/2013/2014/TZ/1196,MD,3, CRDB ,1.52278E+11
1093,S0613.0156.2010,S0334.0770.2013,"MPEMBA, MZURI CHELELE",M,TUMA/KCMUCo/MD/2013/2014/TZ/1268,MD,3, NMB ,50810003409
1094,S2380.0074.2010,S0134.0527.2013,"MSELE,  EDWIN  C",M,TUMA/KCMUCo/MD/2013/2014/TZ/1287,MD,3, CRDB ,1.52324E+11
1095,S0485.0008.2010,S0485.0598.2013,"MSELE, ANGELA N",F,TUMA/KCMUCo/MD/2013/2014/TZ/1195,MD,3, CRDB ,1.52324E+11
1096,S0781.0158.2010,S0857.0598.2013,"MSEMO, ABDALLAH ABDI",M,TUMA/KCMUCo/MD/2013/2014/TZ/1298,MD,3, CRDB ,1.52328E+11
1097,S1803.0150.2010,S0413.0593.2013,"MSHANGA, LINUS LIVINGSTONE",M,TUMA/KCMUCo/MD/2013/2014/TZ/1266,MD,3, CRDB ,1.52328E+11
1098,S0420.0031.2010,S3804.0555.2013,"MSOFFE, JAMES A",M,TUMA/KCMUCo/MD/2013/2014/TZ/1213,MD,3, NMB ,4021604389
1099,S0209.0002.2010,S4692.0504.2013,"MSOMBA,  ANGELAH  P",F,TUMA/KCMUCo/MD/2013/2014/TZ/1264,MD,3, CRDB ,1.12568E+11
1100,S3547.0029.2010,S0175.0519.2013,"MSONGWE,  ERICK  YOSWE",M,TUMA/KCMUCo/MD/2013/2014/TZ/1290,MD,3, CRDB ,1.52328E+11
1101,S0195.0078.2010,S0155.0544.2013,"MTASINGWA, RAYNER STEVEN",M,TUMA/KCMUCo/MD/2013/2014/TZ/1181,MD,3, NMB ,5108101695
1102,S0645.0203.2009,S0101.0774.2012,"MULLAH, TELESPHORY ",M,TU/KCMUCo/MD.2012/TZ/1124,MD,3,NMB,42210001298
1103,S1241.0249.2010,S0158.0861.2013,"MUSSA, OMARY",M,TUMA/KCMUCo/MD.2013/14/TZ/1323,MD,3, CRDB ,1.52328E+11
1104,S0184.0093.2010,S0155.0559.2013,"MWAKIBINGA, YASSON ABHA",M,TUMA/KCMUCo/MD/2013/2014/TZ/1214,MD,3, NBC ,25204001533
1105,S0534.0192.2010,S0534.0680.2013,"MWALIKO, MOHAMED SALIM",M,TUMA/KCMUCo/MD/2013/2014/TZ/1197,MD,3, CRDB ,1.52288E+11
1106,S0158.0075.2010,S1186.0547.2013,"MWALUKASA, OSWARD",M,TUMA/KCMUCo/MD/2013/2014/TZ/1317,MD,3, CRDB ,1.52328E+11
1107,S0248.0067.2010,S1187.0640.2013,"MWAMBASHI,  MONICA  G",F,TUMA/KCMUCo/MD/2013/2014/TZ/1230,MD,3, CRDB ,1.52324E+11
1109,S1361.0169.2010,S1043.0567.2013,"MWASAMWENE, KELVIN JULIUS",M,TUMA/KCMUCo/MD/2013/2014/TZ/1309,MD,3, CRDB ,1.52422E+11
1110,S3047.0081.2010,S2383.0576.2013,"MWITA,  MICHAEL  MASWI",M,TUMA/KCMUCo/MD/2013/2014/TZ/1257,MD,3, NMB ,31110006234
1111,S0184.0047.2010,S0184.0544.2013,"NATHAN, DAVID MWEMEZI",M,TUMA/KCMUCo/MD/2013/2014/TZ/1253,MD,3, CRDB ,1.52213E+11
1112,S0127.0038.2010,S0338.0827.2013,"NG'WANDU, PASCHAL AM",M,TUMA/KCMUCo/MD/2013/2014/TZ/1251,MD,3, CRDB ,1.52328E+11
1113,S0812.0034.2003,S0153.0655.2006,"NGAVALANGA, HAMISI I",M,TUMA/KCMUCo/MD/2013/2014/TZ/1211,MD,3, NMB ,70208000641
1114,S0692.0013.2010,S1187-0566.2013,"NGIDA,  FARAJA  D",F,TUMA/KCMUCo/MD/2013/2014/TZ/1221,MD,3, CRDB ,1.52278E+11
1115,S0712.0098.2010,S0119.0587.2013,"NGIMBA, EMMANUEL  ",M,TUMA/KCMUCo/MD/2013/2014/TZ/1182,MD,3, CRDB ,1.52253E+11
1116,S0233.0068.2010,S0233.0564.2013,"NICAS,  SALVA-ANGELINA",F,TUMA/KCMUCo/MD/2013/2014/TZ/1210,MD,3, CRDB ,1.52328E+11
1117,S0546.0083.2010,S0304.0521.2013,"NJILE,  JOYCE",F,TUMA/KCMUCo/MD/2013/2014/TZ/1307,MD,3, CRDB ,1.52328E+11
1118,S0248.0065.2010,S0248.0575.2013,"NKWAMA,  MERCY  L",F,TUMA/KCMUCo/MD/2013/2014/TZ/1296,MD,3, CRDB ,1.52433E+11
1119,S1288.0081.2010,S0706.0530.2013,"NNKO, GODLISTEN T",M,TUMA/KCMUCo/MD/2013/2014/TZ/1241,MD,3, CRDB ,1.52235E+11
1120,S0731.0402.2010,S0731.0667.2013,"NYAMBUYA, JUSTINE A",M,TUMA/KCMUCo/MD/2013/2014/TZ/1183,MD,3, CRDB ,1.52294E+11
1121,S0459.0045.2005,S0857.0619.2008,"OSIMA, DAVID J",M,TUMA/KCMUCo/MD/2013/2014/TZ/1180,MD,3, NBC ,57201052720
1122,S1646.0005.2010,S0413.0541.2013,"PASCHAL, ANICETH PELEKA",M,TUMA/KCMUCo/MD/2013/2014/TZ/1279,MD,3, CRDB ,1.52328E+11
1123,S0205.0132.2010,S0175.0178.2013,"PESHA, RACHEL TITUS",F,TUMA/KCMUCo/MD/2013/2014/TZ/1271,MD,3, CRDB ,1.52448E+11
1124,S0397.0096.2010,S0109.0815.2013,"PHILBERT, MATHIAS MUCHUNGUZI",M,TUMA/KCMUCo/MD/2013/2014/TZ/1218,MD,3, CRDB ,1.52216E+11
1126,S0108.0182.2010,S0140.0530.2013,"SANGA, OMEGA",M,TUMA/KCMUCo/MD/2013/2014/TZ/1269,MD,3, CRDB ,1.5234E+11
1127,S0108.0061.2010,S0413.0538.2013,"SECHA, ALFRED",M,TUMA/KCMUCo/MD/2013/2014/TZ/1305,MD,3, CRDB ,1.52328E+11
1128,S0925.0178.2010,S0108.0650.2013,"SHAGATA, NOCK NOCK",M,TUMA/KCMUCo/MD/2013/2014/TZ/1324,MD,3, CRDB ,1.52243E+11
1129,S2421.0045.2010,S0110.0578.2013,"SHIRIMA,  DENNIS  E",M,TUMA/KCMUCo/MD/2013/2014/TZ/1175,MD,3, NBC ,14201328187
1130,S0485.0039.2010,S0206.0524.2013,"SHIRIMA, FEBRONIA L",F,TUMA/KCMUCo/MD/2013/2014/TZ/1222,MD,3, CRDB ,1.52328E+11
1132,S0119.0079.2010,S0119.0611.2013,"SOMBE, NEVIL",M,TUMA/KCMUCo/MD/2013/2014/TZ/1273,MD,3, CRDB ,1.52253E+11
1133,S0204.0104.2010,S0206.0536.2013,"SWAI,  HAPPINESS  JUDICAL",F,TUMA/KCMUCo/MD/2013/2014/TZ/1223,MD,3, CRDB ,1.52278E+11
1134,S0662.0162.2010,S0150.0773.2013,"THABITI, NEWTON ZUBERI",M,TUMA/KCMUCo/MD/2013/2014/TZ/1304,MD,3, CRDB ,1.52385E+11
1135,S3674.0028.2010,S4692.0564.2013,THECLA SANDRA KISUSI,F,TUMA/KCMUCo/MD/2013/2014/TZ/1301,MD,3,CRDB,1.52328E+11
1136,S0329.0085.2010,S0351.0626.2013,"UNDERSON, JOHNSON  ",M,TUMA/KCMUCo/MD/2013/2014/TZ/1224,MD,3, CRDB ,1.12048E+11
1137,S2769.0074.2010,S0147.0772.2013,"VEDASTUS,  LEONARD  MASAMBU",M,TUMA/KCMUCo/MD/2013/2014/TZ/1189,MD,3, NBC ,71204008299
1138,S0352.0050.2010,S1272.0534.2013,"WAKWESA, LAMECK NYAMTUMBAGA",M,TUMA/KCMUCo/MD/2013/2014/TZ/1186,MD,3, NMB ,40310015521
1139,S0140.0068.2000,S0338.0599.2003,"YUSUFU, OMARY",M,TUMA/KCMUCo/MD/2013/2014/TZ/1242,MD,3, CRDB ,1.12098E+11
1141,S0152.0082.2004,S0156.0564.2012,"ALLAN, IKEKO",M,TU/KCMUCo/MD.2012/TZ/1156,MD,4, NMB ,62308001990
1142,S0106.0021.2009,S0110.0663.2012,"ALLUTE, PETRO S",M,TU/KCMUCo/MD.2012/TZ/1117,MD,4,NBC,17204011050
1143,S0867.0068.2009,S1071.0679.2012,"ALLY, AZIZ",M,TU/KCMUCo/MD.2012/TZ/1147,MD,4,NMB,60910000817
1144,S0672.0105.2009,S0206.0566.2012,"ALLY, NABILA F",F,TU/KCMUCo/MD.2012/TZ/1131,MD,4,CRDB,1.52278E+11
1145,S0960.0371.2009,S0140.0518.2012,"ARUMASI, GEOPHREY A",M,TU/KCMUCo/MD.2012/TZ/1156,MD,4,CRDB,1.12012E+11
1146,S0342.0100.2009,S0342.0564.2012,"ASSEY, EMMANUEL V",M,TU/KCMUCo/MD.2012/TZ/1010,MD,4,CRDB,1.52357E+11
1147,S1198.0065.2009,S0134.0591.2012,"AUGUSTINO, ONESMO",M,TU/KCMUCo/MD.2012/TZ/1081,MD,4,CRDB,1.12548E+11
1148,S1757.0014.2009,S1187.0558.2012,"BAITAN, FRIDA W",F,TU/KCMUCo/MD.2012/TZ/1122,MD,4,CRDB,1.522E+11
1149,S0553.0034.2003,S0120.0555.2006,"BARNABAS, DITRICK",M,TU/KCMUCo/MD.2012/TZ/1043,MD,4,CRDB,1.52438E+11
1150,S0313.0086.2009,S0578.0578.2012,"BENEDICTOR, ERNEST",M,TU/KCMUCo/MD.2012/TZ/1021,MD,4,NBC,15201249175
1151,S0578.0250.2009,S0150.0875.2012,"BIGAMBO, WILSON N",M,TU/KCMUCo/MD.2012/TZ/1101,MD,4,CRDB,1.52324E+11
1152,S0960.0461.2009,S0110.0649.2012,"BINGE, MUSSA",M,TU/KCMUCo/MD.2012/TZ/1095,MD,4,CRDB,1.522E+11
1153,S0342.0021.2009,S0342.0512.2012,"BURENGELO, DORICA C",F,TU/KCMUCo/MD.2012/TZ/1024,MD,4,CRDB,1.52205E+11
1154,S1267.0025.2009,S2354.0508.2012,"BYEMERWA, PRINCE N J",M,TU/KCMUCo/MD.2012/TZ/1041,MD,4,CRDB,1.52324E+11
1155,S0205.0056.2009,S1187.0556.2012,"CHUWA, FRANCISCA S",F,TU/KCMUCo/MD.2012/TZ/1007,MD,4,CRDB,1.52293E+11
1156,S0534.0078.2009,S0534.0641.2012,"CHUWA, ALOISI W",M,TU/KCMUCo/MD.2012/TZ/1042,MD,4,CRDB,1.52413E+11
1157,E0211.1242.2010,E0211.1071.2009,COSTANTINE MALITI,M,TU/KCMUCo/MD.2011/TZ/0868,MD,4,NBC,17201124075
1158,S0192.0052.2009,S0150.0728.2012,"DAMASI, JOSEPH H",M,TU/KCMUCo/MD.2012/TZ/1104,MD,4,CRDB,1.52324E+11
1159,S1626.0020.2009,S0216.0780.2012,"DANIEL, GIFT S",F,TU/KCMUCo/MD.2012/TZ/1128,MD,4,NMB,40310034756
1160,S0107.0042.2009,S0110.0666.2012,"DAVID, REUBEN",M,TU/KCMUCo/MD.2012/TZ/1108,MD,4,NBC,14201298134
1161,S1147.0119.2009,S0303.0508.2012,"DOSSAJEE, UMMEHANI M",F,TU/KCMUCo/MD.2012/TZ/1066,MD,4,NBC,17201132825
1162,S0214.0025.1997,S0137.0632.2000,"ELIAS, ELIONORA",F,TU/KCMUCo/MD.2012/TZ/1100,MD,4,CRDB,1.52324E+11
1163,S0320.0013.2008,S1197.0618.2012,"EMMANUEL, DALAWIDA",M,TU/KCMUCo/MD.2012/TZ/1142,MD,4,NMB,5131602289
1164,S0189.0046.2009,S1187.0685.2012,"FIMBO, JOHN S",M,TU/KCMUCo/MD.2012/TZ/1050,MD,4,CRDB,1.1201E+11
1165,S0534.0162.2009,S0110.0625.2012,"FRANCIS, JOHN ",M,TU/KCMUCo/MD.2012/TZ/1052,MD,4,CRDB,1.522E+11
1166,S1833.0059.2009,S0104.0505.2012,"FROLIAN, ALISTIDES",M,TU/KCMUCo/MD.2012/TZ/1040,MD,4,CRDB,1.12061E+11
1167,S0867.0004.2009,S0206.0502.2012,"FUNGO, ALINUWE",F,TU/KCMUCo/MD.2012/TZ/1015,MD,4,CRDB,1.12055E+11
1168,S3674.0089.2009,S4692.0669.2012,"GAHHU, WAZIRI M",M,TU/KCMUCo/MD.2012/TZ/1032,MD,4,CRDB,1.52206E+11
1169,S2326.0062.2009,S0150.0845.2012,"GEORGE, SEBASTIAN",M,TU/KCMUCo/MD.2012/TZ/1103,MD,4,CRDB,1.52363E+11
1170,S1350.0001.2009,S0335.0501.2012,"GIGA, ALINA A",F,TU/KCMUCo/MD.2012/TZ/1115,MD,4,CRDB,1.52324E+11
1171,S0110.0092.2009,S0119.0621.2012,"HAMISI, RAMADHANI",M,TU/KCMUCo/MD.2012/TZ/1011,MD,4,CRDB,1.1205E+11
1172,S1453.0008.2009,S0211.0680.2012,"HEMED, ASIA",F,TU/KCMUCo/MD.2012/TZ/1045,MD,4,NMB,6108101908
1173,S0168.0037.2009,S0110.0676.2012,"HOTAY, THOMAS B",M,TU/KCMUCo/MD.2012/TZ/1130,MD,4,NBC,17204011073
1174,S0202.0133.2009,S0220.0552.2012,"IBRAHIM, PENDO M",F,TU/KCMUCo/MD.2012/TZ/1012,MD,4,NMB,5108100936
1175,S0192.0024.2003,S0155.0568.2006,"IDD, KELVIN",M,TU/KCMUCo/MD.2012/TZ/1107,MD,4,NMB,2188100007
1176,S0245.0005.1999,S0137.0835.2002,"ITAMBU, BLANDINA L",F,TU/KCMUCo/MD.2012/TZ/1017,MD,4,NBC,31201006160
1177,S0891.0118.2009,S0554.0629.2012,"JAMES, MARCO",M,TU/KCMUCo/MD.2012/TZ/1072,MD,4,NBC,17204011024
1178,S0302.0276.2009,S0110.0621.2012,"JAMES, JAMES J",M,TU/KCMUCo/MD.2012/TZ/1120,MD,4,EXIM,5795382141
1179,S0313.0076.2009,S0135.0535.2012,"JOEL, CALEB",M,TU/KCMUCo/MD.2012/TZ/1155,MD,4,CRDB,1.52324E+11
1180,S0698.0119.1999,S0340.0509.2003,"JOHN, HENNRY",M,TU/KCMUCo/MD.2012/TZ/1016,MD,4,NMB,2161602164
1181,S0222.0006.2009,S1011.0501.2012,"JONATHAN, AGNES",F,TU/KCMUCo/MD.2012/TZ/1096,MD,4,EXIM,5489931109
1182,S0368.0096.2009,S0110.0579.2012,"JOSEPH, BARIKIELI",M,TU/KCMUCo/MD.2012/TZ/1112,MD,4,NMB,41201601947
1183,S0159.0012.2009,S0155.0511.2012,"JOSEPHAT, DONALD",M,TU/KCMUCo/MD.2012/TZ/1163,MD,4,CRDB,1.52324E+11
1184,S0461.0044.2008,S0119.0630.2011,"JUMA, IDRISA  ",M,TU/KCMUCo/MD.2011/TZ/0969,MD,4,CRDB,1.52324E+11
1185,S0461.0059.2009,S0150.0862.2012,"KABADI, STEVEN A",M,TU/KCMUCo/MD.2012/TZ/1102,MD,4,CRDB,1.52324E+11
1186,S0729.0073.2009,S4692.0630.2012,"KAGARUKI, JUCUNDNUS F",M,TU/KCMUCo/MD.2012/TZ/1084,MD,4,CRDB,1.52211E+11
1187,S0148.0018.2002,S0147.0674.2005,"KAMAZIMA, VICTOR",M,TU/KCMUCo/MD.2012/TZ/1167,MD,4,CRDB,1.12057E+11
1188,S0179.0001.2009,S0140.0502.2012,"KATAGA, ADOLF J",M,TU/KCMUCo/MD.2012/TZ/1048,MD,4,CRDB,1.12466E+11
1189,S0496.0606.1995,S0137.0599.1998,"KATENGESYA, ROBERT",M,TU/KCMUCo/MD.2012/TZ/1019,MD,4,NMB,6108001536
1190,S1626.0061.2009,S1187.0661.2012,"KATENGU, SIFAELI",F,TU/KCMUCo/MD.2012/TZ/1148,MD,4,CRDB,1.52219E+11
1191,S0356.0049.2009,S0578.0579.2012,"KAWICHE, EZRA",M,TU/KCMUCo/MD.2012/TZ/1065,MD,4,NMB,31510001252
1192,S0179.0024.2009,S0110.0660.2012,"KAYANGE, PETER A",M,TU/KCMUCo/MD.2012/TZ/1036,MD,4,CRDB,1.522E+11
1193,S0672.0040.2009,S0206.0523.2012,"KIBAKAYA, FATINA",F,TU/KCMUCo/MD.2012/TZ/1029,MD,4,CRDB,1.52278E+11
1194,S0729.0036.2009,S0189.0506.2012,"KIHWELE, ALBERT DV",M,TU/KCMUCo/MD.2012/TZ/1014,MD,4,CRDB,1.1208E+11
1195,S3674.0055.2009,S4692.0589.2012,"KILONGOLA, CHRISTOPHER J",M,TU/KCMUCo/MD.2012/TZ/1020,MD,4,CRDB,1.52237E+11
1196,S0134.0077.2003,S0153.0657.2006,"KILWALE, HERI",M,TU/KCMUCo/MD.2012/TZ/1132,MD,4,NMB,4158000570
1197,S1272.0058.2009,S0485.0607.2012,"KISSIMA, INNOCENT F",M,TU/KCMUCo/MD.2012/TZ/1134,MD,4,CRDB,1.52324E+11
1198,S2506.0030.2009,S0119.0589.2012,"KITELEKE, BENJAMIN A",M,TU/KCMUCo/MD.2012/TZ/1088,MD,4,CRDB,1.52328E+11
1199,S0144.0156.2009,S0147.0704.2012,"KIWANUKA, MOHAMED",M,TU/KCMUCo/MD.2012/TZ/1027,MD,4,CRDB,1.52251E+11
1200,S0205.0089.2009,S0214.0533.2012,"KIWIA, JACQULINE S",F,TU/KCMUCo/MD.2012/TZ/1078,MD,4,CRDB,1.52206E+11
1201,S0241.0031.2009,S0304.0511.2012,"KUNAMILA, IRENE M",F,TU/KCMUCo/MD.2012/TZ/1110,MD,4,NBC,70201061251
1202,S3101.0114.2009,S0134.0549.2012,"KUNDA, GERMIN M",M,TU/KCMUCo/MD.2012/TZ/1080,MD,4,CRDB,1.52324E+11
1203,S1441.0016.2009,S0189.0507.2012,"KYARUZI, AMRI",M,TU/KCMUCo/MD.2012/TZ/1077,MD,4,CRDB,1.12047E+11
1204,S0304.0077.2009,S0206.0550.2012,"LALASHOWI, JULIETH",F,TU/KCMUCo/MD.2012/TZ/1139,MD,4,NMB,2218101343
1205,S0184.0012.2003,S0184.0534.2006,"LYIMO, LUIYANA D",F,TU/KCMUCo/MD.2012/TZ/1137,MD,4,NMB,2128100010
1206,S0205.0135.2009,S0233.0572.2012,"LYIMO, REHEMA E",F,TU/KCMUCo/MD.2012/TZ/1079,MD,4,CRDB,1.52021E+11
1207,S0263.0032.2009,S0206.0530.2012,"LYIMO, GLORIA R",F,TU/KCMUCo/MD.2012/TZ/1055,MD,4,CRDB,1.52278E+11
1208,S3491.0044.2009,S0485.0603.2012,"MAGWESELA, FARAJA M",M,TU/KCMUCo/MD.2012/TZ/1138,MD,4,CRDB,1.52232E+11
1209,S0205.0141.2009,S0233.0577.2012,"MAHAWI, SALAMA O",F,TU/KCMUCo/MD.2012/TZ/1013,MD,4,NMB,42310000653
1210,S0311.0181.2003,S0443.0861.2006,"MAHEMBE, GEORGE C",M,TU/KCMUCo/MD.2012/TZ/1141,MD,4,NMB,2018002208
1211,S2043.0034.2009,S0155.0523.2012,"MAKONDA, JAJI",M,TU/KCMUCo/MD.2012/TZ/1053,MD,4,CRDB,1.52324E+11
1212,S0534.0018.2009,S0534.0546.2012,"MAKUPA, GLORY",F,TU/KCMUCo/MD.2012/TZ/1034,MD,4,CRDB,1.1209E+11
1213,S1147.0066.2009,S0220.0535.2012,"MALISA, LILIAN G",F,TU/KCMUCo/MD.2012/TZ/1090,MD,4,NBC,17201132886
1214,S0328.0207.2009,S0134.0536.2012,"MALLYA, EMILIAN P",M,TU/KCMUCo/MD.2012/TZ/1093,MD,4,CRDB,1.52324E+11
1215,S1419.0016.2009,S0151.0505.2012,"MALWA, ALEXANDER VC",M,TU/KCMUCo/MD.2012/TZ/1071,MD,4,NMB,31608100539
1216,S1702.0074.2009,S0151.0672.2012,"MARCO, JOHN",M,TU/KCMUCo/MD.2012/TZ/1070,MD,4,NMB,31608100467
1217,S0760.0061.2008,S0334.0552.2011,"MARCO, BONIPHACE N",M,TU/MD/1166,MD,4,NMB,3101601993
1218,S0648.0158.2009,S0352.0647.2012,"MARO, NYAMHANGA",M,TU/KCMUCo/MD.2012/TZ/1166,MD,4,CRDB,1.52324E+11
1219,S0184.0029.2009,S0107.0538.2012,"MASENGA, ALBERT E",M,TU/KCMUCo/MD.2012/TZ/1125,MD,4,CRDB,1.12042E+11
1220,S0800.0055.2009,S0184.0550.2012,"MASETTA, ANDREW R",M,TU/KCMUCo/MD.2012/TZ/1069,MD,4,CRDB,1.52328E+11
1221,S0160.0016.2009,S0110.0575.2012,"MASSAWE, ARAFAT A",M,TU/KCMUCo/MD.2012/TZ/1051,MD,4,NBC,14204003339
1222,S0194.0072.2009,S0110.0609.2012,"MASSAWE, GIDEON A",M,TU/KCMUCo/MD.2012/TZ/1121,MD,4,CRDB,1.52324E+11
1223,S3693.0002.2009,S0220.0501.2012,"MASSAWE, AGNES J",F,TU/KCMUCo/MD.2012/TZ/1068,MD,4,CRDB,1.52328E+11
1224,S0508.0070.2009,S0135.0656.2012,"MASSAWE, REGAN V",M,TU/KCMUCo/MD.2012/TZ/1109,MD,4,CRDB,1.52324E+11
1225,S1051.0109.2009,S0155.0503.2012,"MATHEW, BLESSING",M,TU/KCMUCo/MD.2012/TZ/1062,MD,4,CRDB,1.12037E+11
1226,S1997.0092.2009,S0149.0627.2012,"MATHEW, GAUDENCE S",M,TU/KCMUCo/MD.2012/TZ/1106,MD,4,CRDB,1.52435E+11
1227,S0222.0084.2009,S0214.0517.2012,"MATHIAS, EVA",F,TU/KCMUCo/MD.2012/TZ/1111,MD,4,NMB,23510000593
1228,S0123.0045.2009,S0147.0674.2012,"MATULA, HAMISI M",M,TU/KCMUCo/MD.2012/TZ/1060,MD,4,CRDB,1.52251E+11
1229,S0189.0077.2009,S0119.0624.2012,"MBOYA, SALIM Z",M,TU/KCMUCo/MD.2012/TZ/1058,MD,4,CRDB,1.1208E+11
1230,S0184.0066.2009,S0184.0562.2012,"MERO, KEVIN L",M,TU/KCMUCo/MD.2012/TZ/1091,MD,4,CRDB,1.52328E+11
1231,S1543.0060.2009,S0134.0515.2012,"MFINANGA, ASIRAJI W",M,TU/KCMUCo/MD.2012/TZ/1123,MD,4,NMB,40310007659
1232,S2455.0159.2009,S0119.0601.2012,"MGAYA, GODFREY",M,TU/KCMUCo/MD.2012/TZ/1150,MD,4,CRDB,1.522E+11
1233,S1361.0236.2009,S0149.0596.2012,"MHAGAMA, ERICK",M,TU/KCMUCo/MD.2012/TZ/1126,MD,4,CRDB,1.52324E+11
1234,S0358.0109.2009,S0112.0545.2012,"MHANDO, KALOKOSILLA J",M,TU/KCMUCo/MD.2012/TZ/1057,MD,4,CRDB,1.52328E+11
1235,S0368.0107.2009,S0110.0594.2012,"MICHAEL, EMANUEL",M,TU/KCMUCo/MD.2012/TZ/1140,MD,4,NMB,42210001294
1236,S1601.0033.2009,S0534.0759.2012,"MKILANIA, NELIGWA M",M,TU/KCMUCo/MD.2012/TZ/1067,MD,4,EXIM,5339183333
1237,S0485.0211.2009,S0485.0604.2012,"MKINDI, GODLOVE W",M,TU/KCMUCo/MD.2012/TZ/1008,MD,4,CRDB,1.12079E+11
1238,S0316.0214.2004,S0347.0634.2007,"MKUWA, RODGERS",M,TU/KCMUCo/MD.2012/TZ/1097,MD,4,CRDB,1.52324E+11
1239,S0184.0055.2009,S0119.0600.2012,"MLAY, GILBERT H",M,TU/KCMUCo/MD.2012/TZ/1030,MD,4,NBC,31201137819
1240,S1187.0063.2009,S0248.0556.2012,"MLIGA, MERCIANA G",F,TU/KCMUCo/MD.2012/TZ/1037,MD,4,NMB,22610001299
1241,S1022.0349.2009,S0134.0603.2012,"MMBANDO, RHODES",M,TU/KCMUCo/MD.2012/TZ/1152,MD,4,CRDB,1.52324E+11
1242,S0608.0021.2009,S0276.0589.2012,"MNALI, ORESTA P",F,TU/KCMUCo/MD.2012/TZ/1119,MD,4,NMB,7068101124
1243,S0771.0039.2009,S0549.0550.2012,"MORICE, ALEX",M,TU/KCMUCo/MD.2012/TZ/1154,MD,4,NMB,21110000230
1244,S0224.0015.2009,S1187.0529.2012,"MOSHI, DEMETRIA C",F,TU/KCMUCo/MD.2012/TZ/1047,MD,4,CRDB,1.52324E+11
1245,S0531.0016.2009,S0214.0523.2012,"MPANGILE, GETRUDA D",F,TU/KCMUCo/MD.2012/TZ/1059,MD,4,CRDB,1.12071E+11
1246,S1038.0138.2009,S0134.0520.2012,"MRUMA, BONIFACE H",M,TU/KCMUCo/MD.2012/TZ/1118,MD,4,NMB,40310007657
1247,S0214.0057.2009,S0206.0569.2012,"MSANGA, NDIWELA",F,TU/KCMUCo/MD.2012/TZ/1087,MD,4,CRDB,1.52278E+11
1248,S0180.0041.2009,S4692.0655.2012,"MSANGI, SAMWEL G",M,TU/KCMUCo/MD.2012/TZ/1085,MD,4,NBC,47204000362
1249,S0515.0213.2009,S0133.0755.2012,"MSUNZA, ZEPHANIA",M,TU/KCMUCo/MD.2012/TZ/1114,MD,4,NMB,60501606051
1250,S0158.0009.2004,S0143.0554.2007,"MTEGA, ALTO",M,TU/KCMCCo/MD.2012/TZ/1145,MD,4,CRDB,1.5235E+11
1251,S1505.0128.2009,S0153.0708.2012,"MWAKYUSA, ANDULILE G",M,TU/KCMUCo/MD.2012/TZ/1099,MD,4,CRDB,1.52324E+11
1252,S0172.0004.2009,S0140.0506.2012,"MWINGWA, ANTHON",M,TU/KCMUCo/MD.2012/TZ/1023,MD,4,CRDB,1.12012E+11
1253,S0264.0087.2009,S0264.0646.2012,"MWITA, WINFRIDA C",F,TU/KCMUCo/MD.2012/TZ/1075,MD,4,CRDB,1.52206E+11
1254,S0179.0002.2009,S0140.0503.2012,"NAALI, ALLAN A",M,TU/KCMUCo/MD.2012/TZ/1035,MD,4,CRDB,1.5234E+11
1255,S0239.0067.2009,S0224.0535.2012,"NDUNGURU, NEEMA J",F,TU/KCMUCo/MD.2012/TZ/1031,MD,4,NMB,21210001260
1256,S0729.0001.2009,S0107.0502.2012,"NDUNGURU, AGNESS P",F,TU/KCMUCo/MD.2012/TZ/1086,MD,4,CRDB,1.52278E+11
1257,S0729.0054.2009,S4692.0594.2012,"NGOMELLO, DAWANI K",M,TU/KCMUCo/MD.2012/TZ/1133,MD,4,NBC,17204011036
1258,S0117.0024.2009,S0119.0612.2012,"NGWANDA, JUSTINE D",M,TU/KCMUCo/MD.2012/TZ/1158,MD,4,CRDB,1.52288E+11
1259,S0316.0262.2002,S0582.0535.2005,"NIA, RAMADHANI",M,TU/KCMUCo/MD.2012/TZ/1098,MD,4,CRDB,1.52324E+11
1260,S0867.0113.2009,S0119.0609.2012,"NJEGITE, JOHN",M,TU/KCMUCo/MD.2012/TZ/1157,MD,4,CRDB,1.52422E+11
1261,S0249.0050.2009,S1187.0579.2012,"NKOUABI, JACQUELINE I",F,TU/KCMUCo/MD.2012/TZ/1026,MD,4,CRDB,1.52335E+11
1262,S0152.0060.2009,S0151.0620.2012,"NKYA, GIFT J",M,TU/KCMUCo/MD.2012/TZ/1127,MD,4,DTB,7140322001
1263,S0198.0046.2009,S0107.0587.2012,"NNKO, GODWIN A",M,TU/KCMUCo/MD.2012/TZ/1073,MD,4,CRDB,1.52278E+11
1264,S1011.0045.2002,S0158.0581.2005,"NTAZI, ANOLD",M,TU/KCMUCo/MD.2012/TZ/1144,MD,4,CRDB,1.12046E+11
1265,S2499.0031.2009,S2499.0585.2012,"OTHMAN, SOPHIA O",F,TU/KCMUCo/MD.2012/TZ/1074,MD,4,NMB,2051621458
1266,S0224.0052.2009,S1187.0607.2012,"PAUL, LINDA PA",F,TU/KCMUCo/MD.2012/TZ/1044,MD,4,CRDB,1.52355E+11
1267,S1045.0278.2009,S0960.0839.2012,"PHIRI, JASPER",M,TU/KCMUCo/MD.2012/TZ/1049,MD,4,CRDB,1.52251E+11
1268,S3575.0081.2009,S0110.0680.2012,"QAYTLI, VITALIS",M,TU/KCMUCo/MD.2012/TZ/1116,MD,4,NMB,42210001292
1269,S0437.0143.2003,S0437.0587.2006,"RAMADHAN, THABIT K",M,TU/KCMUCo/MD.2012/TZ/1054,MD,4,NMB,2011601228
1270,S0150.0005.2009,S0149.0525.2012,"RAPHAEL, ANSELIM E",M,TU/KCMUCo/MD.2012/TZ/1146,MD,4,CRDB,1.52324E+11
1271,S0979.0083.2009,S0110.0576.2012,"REMWALD, ARISTARICK L",M,TU/KCMUCo/MD.2012/TZ/1094,MD,4,CRDB,1.522E+11
1272,S1706.0068.2009,S0133.0730.2012,"RWEYEMAMU, NELSON",M,TU/KCMUCo/MD.2012/TZ/1105,MD,4,CRDB,1.52251E+11
1273,S0148.0013.2009,S0175.0535.2012,"RWIZA, JUSTUS",M,TU/KCMUCo/MD.2012/TZ/1089,MD,4,NBC,17204012119
1274,S0139.0030.2009,S0134.0538.2012,"SABAS, EMMANUEL",M,TU/KCMUCo/MD.2012/TZ/1056,MD,4,NMB,2121601516
1275,S1626.0102.2009,S0800.0665.2012,"SAGALE, JOVIN",M,TU/KCMUCo/MD.2012/TZ/1022,MD,4,CRDB,1.12012E+11
1276,S0224.0021.2009,S1187.0542.2012,"SENKORO, ELIZABETH E",F,TU/KCMUCo/MD.2012/TZ/1025,MD,4,CRDB,1.52406E+11
1277,S2334.0195.2009,S0155.0539.2012,"SETH, SAMWEL A",M,TU/KCMUCo/MD.2012/TZ/1113,MD,4,CRDB,1.52324E+11
1278,S2011.0043.2009,S0104.0584.2012,"SHADRACK, MATHAYO",M,TU/KCMUCo/MD.2012/TZ/1039,MD,4,CRDB,1.52355E+11
1279,S0663.0053.2008,TZ015.0037.2010,"SHEMDOE, PAUL J",M,TU/KCMUCo/MD.2012/TZ/1165,MD,4,CRDB,1.52328E+11
1280,S0146.0035.2009,S0578.0583.2012,"SHIJA, GODLOVE",M,TU/KCMUCo/MD.2012/TZ/1064,MD,4,CRDB,1.12061E+11
1281,S0248.0067.2009,S0284.0563.2012,"SILLAS, SANDRA",F,TU/KCMUCo/MD.2012/TZ/1038,MD,4,CRDB,1.52237E+11
1282,S1453.0106.2009,S0108.0564.2012,"STEVEN, TEODASIA",F,TU/KCMUCo/MD.2012/TZ/1046,MD,4,CRDB,1.52242E+11
1283,S0589.0031.2009,S0150.0554.2012,"SUKUMBA, BONPHACE",M,TU/KCMUCo/MD.2012/TZ/1135,MD,4,CRDB,1.52332E+11
1284,S0184.0051.2009,S0184.0554.2012,"SWAI, FRANK E",M,TU/KCMUCo/MD.2012/TZ/1033,MD,4,CRDB,1.12057E+11
1285,S0451.0045.2001,S0368.0536.2005,"TSINGAY, MICHAEL",M,TU/KCMUCo/MD.2012/TZ/1063,MD,4,EXIM,5313594448
1286,S1689.0042.2009,S0800.0551.2012,"VEDASTO, JUDITH",M,TU/KCMUCo/MD.2012/TZ/1083,MD,4,CRDB,1.52435E+11
1287,S0583.0036.2005,S0229.0632.2008,"VULUA, SELESTINA",F,TU/KCMUCo/MD.2012/TZ/1143,MD,4,NMB,6028000990
1288,S1604.0018.2009,S2499.0694.2012,"WANDI, WENCESLAUS S",M,TU/KCMUCo/MD.2012/TZ/1092,MD,4,CRDB,1.52275E+11
1289,S2655.0070.2009,S0108.0631.2012,"WILLFRED, VENANCE",M,TU/KCMUCo/MD.2012/TZ/1136,MD,4,CRDB,1.5229E+11
1290,S0397.0060.2006,S0134.0521.2009,"YONAH, EDREY",M,TU/KCMUCo/MD.2012/TZ/1129,MD,4,NMB,4038100731
1291,S0729.0024.2009,S0233.0562.2012,"YONGOLO, NATEIYA M",F,TU/KCMUCo/MD.2012/TZ/1076,MD,4,CRDB,1.52357E+11
1292,S0731.0117.1999,S0137.0645.2002,"ZACHARIA, ANTHONY",M,TU/KCMUCo/MD.2012/TZ/1018,MD,4,NBC,17201113272
1293,S0600.0039.1998,DIPLOMA,"RUJANGI, MAILA",M,TU/KCMUCo/MD.2012/TZ/1168,MD,4,CRDB,1.52324E+11
1294,S1045.0075.2002,S1037.0925.2005,"ABDALLAH, KASSIM ",M,TU/MD/0979,MD,5,NBC,37201031835
1295,S0206.0080.2008,S3804.0534.2011,"ABDALLAH, SWABRA JAMAL",F,TU/KCMUCo/MD.2011/TZ/0993,MD,5,CRDB,1.52385E+11
1296,S0345.0094.2008,S03804.0527.2011,"ABDULRAHMANI, MWANAIDI",F,TU/KCMUCo/MD.2011/TZ/0884,MD,5,NMB,4171609568
1297,S0867.0033.2008,S0150.0503.2011,"ABEDNEGO, MASHAMBO",M,TU/MD/1002,MD,5,NBC,17201133945
1298,S0245.0001.2001,S0107.0501.2004,"AGNESS, SIMON MOYE",F,TU/MD/1000,MD,5,NMB,40301612788
1299,S1194.0003.2008,TZ015.0002.2011,"AKARO, ANNA VICENT",F,TU/KCMUCo/MD.2011/TZ/0962,MD,5,CRDB,1.52328E+11
1300,S1074.0028.2008,S0578.0567.2011,"ALBOGAST, EVELINA",F,TU/KCMUCo/MD.2011/TZ/0954,MD,5,CRDB,1.12011E+11
1301,S0178.0028.2006,S01578.0783.2010,"AMOSI, GWAMAKA ",M,TU/KCMUCo/MD.2011/TZ/0855,MD,5,CRDB,O112072412600
1302,S0302.0096.1997,S0211.0577.2000,"BONIFACE, MATRONA",F,TU/KCMUCo/MD.2011/TZ/0886,MD,5,NMB,4132400532
1303,S0112.0066.2008,S110.0565.2011,"BUKUKU, ELIASA SWATA",M,TU/KCMUCo/MD.2011/TZ/0977,MD,5,CRDB,1.52324E+11
1304,S0554.0093.2008,S0150.0657.2011,"CLEMENT, JULIUS",M,TU/KCMUCo/MD.2011/TZ/0972,MD,5,NMB,4051601811
1305,S0781.0162.2008,S0485.0281.2011,"DANIEL, JIMMY WILFRED",M,TU/KCMUCo/MD.2011/TZ/0946,MD,5,EXIM,5774172722
1306,S0534.0032.2008,S0534.0579.2011,"DENIS, MARIAM NYAMARWA",F,TU/KCMUCo/MD.2011/TZ/0876,MD,5,CRDB,1.12024E+11
1307,S0729.0009.2008,S0184.0541.2011,"ELIAH, DOREEN TUMWITIKEGE",F,TU/KCMUCo/MD.2011/TZ/0891,MD,5,CRDB,1.52301E+11
1308,S1110.0148.2008,S0158.0869.2011,"ELISANTE, JOSEPH",M,TU/KCMUCo/MD.2011/TZ/0927,MD,5,NMB,4081608696
1309,S0120.0068.2003,S0443.0769.2006,"FRANCIS, EDSON",M,TU/KCMUCo/MD.2011/TZ/0777,MD,5,CRDB,1.12072E+11
1310,S0184.0006.2008,S1187.0537.2011,"FREDRICK, DEBORAH",F,TU/KCMUCo/MD.2011/TZ/0981,MD,5,KCB,3300587840
1311,S0652.0049.2002,S0167.0536.2005,"FUTE, IVAN CHARLES",M,TU/KCMUCo/MD.2011/TZ/0885,MD,5,CRDB,1.12072E+11
1312,S0224.0023.2008,S0224.0516.2011,"GAMASSA, EDITRUDA",F,TU/KCMUCo/MD.2011/TZ/0996,MD,5,CRDB,1.1208E+11
1313,S0409.0024.2001,S0137.0873.2004,"GAZULO, CONDRAD DUMILICHUME",M,TU/KCMUCo/MD.2011/TZ/0878,MD,5,NMB,6148001024
1314,S0971.0028.2006,TZ003.0025.2011,"GEOGE, SHEPEA",M,TU/MD/0998,MD,5,CRDB,1.12047E+11
1315,S0108.0128.2008,S0119.0638.2011,"GEORGE, JOHNSTON",M,TU/KCMUCo/MD.2011/TZ/0934,MD,5,CRDB,1.12096E+11
1316,S0109.0038.1993,S0109.0510.1996,"GODIAN, ANDREW BEYANGA",M,TU/KCMUCo/MD.2011/TZ/0970,MD,5,NMB,3212400073
1317,S1038.0280.2008,S0140.0527.2011,"GOLEHA, NELSON JOSEPH",M,TU/KCMUCo/MD.2011/TZ/0986,MD,5,CRDB,1.12012E+11
1318,S1071.0353.2008,S2549.0671.2011,"GONDWE, STEPHEN ZEBRON",M,TU/KCMUCo/MD.2011/TZ/0883,MD,5,NBC,80201061486
1319,S0631.0104.2008,S0800.0679.2011,"GUNDA, MAPESI GAYA",M,TU/KCMUCo/MD.2011/TZ/0923,MD,5,CRDB,1.12031E+11
1320,S0921.0079.2008,S0345.0579.2011,"HAMISI, ANDREA",M,TU/KCMUCo/MD.2011/TZ/1004,MD,5,CRDB,1.12446E+11
1321,S1756.0004.2008,S0216.0746.2011,"HEADCRAPH, EUNICE",F,TU/KCMUCo/MD.2011/TZ/0948,MD,5,CRDB,1.52355E+11
1322,P0428.0134.2008,S0731.0871.2011,"IDDI, RASHID",M,TU/KCMUCo/MD.2011/TZ/0907,MD,5,CRDB,1.12081E+11
1323,S0979.0096.2008,S0110.0563.2011,"ISSA, EDEN EDWARD",M,TU/KCMUCo/MD.2011/TZ/0890,MD,5,CRDB,1.52324E+11
1324,S0345.0013.2008,S0340.0501.2011,"JETHWA, ANANDI PRAVIN",F,TU/KCMUCo/MD.2011/TZ/0898,MD,5,CRDB,1.52328E+11
1325,S0134.0071.2008,S0134.0555.2011,"JOHN, JEREMIAH",M,TU/KCMUCo/MD.2011/TZ/0976,MD,5,NMB,4228100060
1326,S0151.0095.1998,S0364.0575.2001,"JOHN, MASHAKA",M,TU/KCMUCo/MD.2011/TZ/0995,MD,5,NMB,2221600778
1327,S0304.0124.2008,S0155.0551.2011,"JOSEPHAT, FRANK",M,TU/KCMUCo/MD.2011/TZ/0912,MD,5,NMB,5101603858
1328,S0206.0076.2008,S0214.0567.2011,"KABIKA, SONIA JOSEPH",F,TU/KCMUCo/MD.2011/TZ/0935,MD,5,CRDB,1.52205E+11
1329,S0867.0053.2008,S2549.0570.2011,"KABUJE, CHRISTOPHER LAZECK",M,TU/KCMUCo/MD.2011/TZ/0887,MD,5,CRDB,1.12466E+11
1330,S0367.0011.2008,S0156.0540.2011,"KAJANGE, AMBILIKISYE DANIEL",M,TU/KCMUCo/MD.2011/TZ/0957,MD,5,NMB,2121606843
1331,S0304.0186.2008,S0155.0646.2011,"KAKUMBI, THOMAS JACKSON",M,TU/KCMUCo/MD.2011/TZ/0951,MD,5,NMB,5101603859
1332,E0048.0441.2007,U0048.543.2009,"KALEMA, JUVENTUS NDAHIRO",M,TU/KCMCO/MD.2010ATZ/0810,MD,5,CRDB,1.12091E+11
1333,E0520.7075.1995,S0342.0551.1998,"KANAMUGIRE, DAVIDCHACHA",M,TU/KCMCo/MD.2011/0964,MD,5, CRDB ,1.52554E+11
1334,S0447.0097.2003,S0167.0548.2006,"KAPUNGA, NICHOLAUS BRAYSON",M,TU/KCMUCo/MD.2011/TZ/0968,MD,5,CRDB,1.12015E+11
1335,S0534.0089.2008,S0534.0660.2011,"KATWANA, DAUD G",M,TU/KCMUCo/MD.2011/TZ/0857,MD,5,CRDB,1.12094E+11
1336,S0998.0051.2003,S0150.0558.2006,"KILEO, YUSUPHU MARTIN",M,TU/KCMUCo/MD.2011/TZ/0932,MD,5,NBC,17201124385
1337,S0544.0144.2008,S0485.0780.2011,"KILIAN, INNOCENT KANJE",M,TU/KCMUCo/MD.2011/TZ/0920,MD,5,NMB,4221601898
1338,S0731.0477.2008,S0101.0790.2011,"KIMATI, JOSEPH J.",M,TU/KCMUCo/MD.2011/TZ/0875,MD,5,NBC,17204010202
1339,S0241.0045.2008,S02016.0770.2011,"KIMWAGA, MARGARETH SIMON",F,TU/KCMUCo/MD.2011/TZ/0950,MD,5,CRDB,1.52355E+11
1340,S0263.0050.2008,S0233.0553.2011,"KIRUMBUYO, MARGARET MOSES",F,TU/KCMUCo/MD.2011/TZ/0929,MD,5,NMB,4228101209
1341,S0202.0039.1999,S0333.0510.2003,"KIWANGO, JUDITH MBITILA",F,TU/KCMUCo/MD.2011/TZ/0888,MD,5,CRDB,1.52328E+11
1342,S0268.0026.2008,S0206.0637.2011,"KOMBA, VENANSIA MANFRED",F,TU/KCMUCo/MD.2011/TZ/0945,MD,5,NBC,26204007794
1343,S1689.0146.2008,S0140.0526.2011,"LAURIAN, MUGISHA",M,TU/KCMUCo/MD.2011/TZ/0943,MD,5,CRDB,1.12012E+11
1344,S0190.0002.2007,S0190.0502.2010,"LUSWEMA, AUGUSTINE MICHAEL",M,TU/KCMUCo/MD.2011/TZ/0931,MD,5,NMB,6188101354
1345,S0342.0067.2008,S0342.0556.2011,"LWIZA, ALEX FELIX",M,TU/KCMUCo/MD.2011/TZ/0897,MD,5,CRDB,1.52324E+11
1346,S1241.0075.2008,S0534.0622.2011,"MABONGO, UPENDO JULIETH",F,TU/KCMUCo/MD.2011/TZ/0863,MD,5,CRDB,1.12025E+11
1347,S0782.0068.2001,S0134.0588.2004,"MACHANGE, RICHARD EXAUD",M,TU/KCMUCo/MD.2011/TZ/0859,MD,5,CRDB,1.52205E+11
1348,S1153.0121.2008,S0352.0715.2011,"MAFURU, THOMAS DIONIZ",M,TU/KCMUCo/MD.2011/TZ/0978,MD,5,NMB,3041602169
1349,S0218.0130.2003,S0496.0647.2006,"MAKUNGU, SARAH FARAJA",F,TU/KCMUCo/MD.2011/TZ/0895,MD,5,CRDB,1.52232E+11
1350,S0101.0450.2008,S0110.0654.2011,"MALAKIBUNGU, SUZO",M,TU/KCMUCo/MD.2011/TZ/0985,MD,5,CRDB,1.12031E+11
1351,S0311.0299.2008,S0135.0646.2011,"MALETO, VICTOR",M,TU/KCMUCo/MD.2011/TZ/0893,MD,5,EXIM,5776759595
1352,S0867.0099.2008,S0119.0652.2011,"MAPUNDA, MICHAEL",M,TU/KCMUCo/MD.2011/TZ/0877,MD,5,CRDB,1.52237E+11
1353,S0179.0031.2008,S0175.0569.2011,"MAPUNDA, OSCAR EDESIUS",M,TU/KCMUCo/MD.2011/TZ/0928,MD,5,NBC,49201070384
1354,S0241.0079.2008,S0216.0790.2011,"MARTIN, VERONICA OPANGA",F,TU/KCMUCo/MD.2011/TZ/0913,MD,5,NMB,3091600825
1355,S0823.0117.2008,S0140.0505.2011,"MARWA, BONIFACE ANDREW",M,TU/KCMUCo/MD.2011/TZ/0940,MD,5,CRDB,1.12012E+11
1356,S0534.0171.2008,S0534.0763.2011,"MASANJE, PETER",M,TU/KCMUCo/MD.2011/TZ/0909,MD,5,CRDB,1.52259E+11
1357,S0333.0191.1995,S0347.0695.1998,"MASESA, JOHN",M,TU/KCMUCo/MD.2011/TZ/0939,MD,5,NMB,4122401952
1358,S0867.0045.2008,S0150.0531.2011,"MASHAMBO, AYUBU ELIESIKIA",M,TU/KCMUCo/MD.2011/TZ/0866,MD,5,CRDB,1.52324E+11
1359,S1038.0298.2008,S0119.0676.2011,"MASSAWE, SHABANI A.",M,TU/KCMUCo/MD.2011/TZ/0908,MD,5,CRDB,1.52253E+11
1360,S0248.0051.2008,S0248.0547.2011,"MBEBA, LISA M",F,TU/KCMUCo/MD.2011/TZ/0930,MD,5,CRDB,1.52237E+11
1361,S0140.0029.2008,S0140.0511.2011,"MBURI, FADHILI MBONEA",M,TU/KCMUCo/MD.2011/TZ/0937,MD,5,CRDB,1.12012E+11
1362,S0869.0095.2008,S0135.0536.2011,"MCHAKY, EMMANUEL M",M,TU/KCMUCo/MD.2011/TZ/0966,MD,5,CRDB,1.52328E+11
1363,S0527.0042.1999,S0158.0662.2002,"MHAGAMA, ERASTO BRUNO",M,TU/KCMUCo/MD.2011/TZ/0960,MD,5,CRDB,1.52328E+11
1364,S1141.0016.2002,S0167.0524.2005,"MHIMBILA, ANTHONY APOLINARY",M,TU/KCMUCo/MD.2011/TZ/0892,MD,5,CRDB,1.12067E+11
1365,S0534.0144.2008,S0534.0726.2011,"MISSO, KENNEDY KISENGO",M,TU/KCMUCo/MD.2011/TZ/0915,MD,5,CRDB,1.52413E+11
1366,S0631.0088.2008,S0485.0775.2011,"MMBAGA, FRED",M,TU/KCMUCo/MD.2011/TZ/0911,MD,5,CRDB,1.52421E+11
1367,S0422.0083.2008,S0110.0601.2011,"MMBAGA, JOSHUA YOUZE",M,TU/KCMUCo/MD.2011/TZ/0914,MD,5,NMB,4088100271
1368,S1112.0009.2008,TZ015.0015.2011,"MOHAMEDALI, ABBAS FNURDIN",M,TU/KCMUCo/MD.2011/TZ/0919,MD,5,CRDB,1.52324E+11
1369,S0255.0036.2008,S1187.0660.2011,"MOHAMMED, MAYMUNA BAKARI",F,TU/KCMUCo/MD.2011/TZ/0889,MD,5,NBC,17204005566
1370,S0542.0044.1999,S0303.0538.2004,"MOLLEL, JULIUS FRANCIS",M,TU/KCMUCo/MD.2011/TZ/0874,MD,5,CRDB,1.52554E+11
1371,S0787.0056.2002,S0340.0513.2005,"MORIJO, KIKOTI JUMAA",M,TU/KCMUCo/MD.2011/TZ/0896,MD,5,NMB,5048000450
1372,S0485.0116.2003,S0147.0782.2005,"MSANGO, INNOCENT PATRIC",M,TU/KCMUCo/MD.2011/TZ/0952,MD,5,NBC,18201053370
1373,S0825.0006.2008,S0947.0522.2011,"MSEMO, FATINA SIABA",F,TU/KCMUCo/MD.2011/TZ/0963,MD,5,NBC,46201153334
1374,S0328.0126.2008,S0119.0613.2011,"MSHABAHA, DAVID JOSEPH",M,TU/KCMUCo/MD.2011/TZ/0941,MD,5,CRDB,1.52324E+11
1375,S3547.0004.2008,S1071.0724.2011,"MTAWA, DANIEL EDSON",M,TU/KCMUCo/MD.2011/TZ/0871,MD,5,CRDB,01J2068031000
1376,S0144.0062.2002,S0323.0532.2005,"MTUI, HILARY WILSON",M,TU/KCMUCo/MD.2011/TZ/0955,MD,5,CRDB,1.52324E+11
1377,S0342.0124.2008,S0342.0593.2011,"MUBASHIR, JUSABANI A",M,TU/MD/0881,MD,5,CRDB,1.5221E+11
1378,S0239.0014.2008,S0224.0509.2011,"MVILLE, CECILIA ALEX",F,TU/KCMUCo/MD.2011/TZ/0864,MD,5,CRDB,1.52021E+11
1379,S0143.0001.2003,S0443.0504.2006,"MWAIFUGE, AGNESS ANOSISYE",F,TU/KCMUCo/MD.2011/TZ/0948,MD,5,CRDB,1.52328E+11
1380,S0330.0013.1999,S0211.0510.2002,"MWAIGEMBE, ANETH AMBILIKILE",F,TU/KCMUCo/MD.2011/TZ/0980,MD,5,NMB,3078000469
1381,S0547.0096.2008,S0149.0605.2011,"MWAKATUNDU, GWAMAKA EDWARD",M,TU/KCMUCo/MD.2011/TZ/0971,MD,5,CRDB,1.52366E+11
1382,S0867.0025.2008,S0342.0527.2011,"MWALUWINGA, NURU SHAABAN",F,TU/KCMUCo/MD.2011/TZ/0901,MD,5,NBC,41206000539
1383,S0791.0083.1998,S0181.0536.2001,"MWAMBETE, IPYANA",M,TU/KCMUCo/MD.2011/TZ/0900,MD,5,CRDB,1.52328E+11
1384,S0155.0059.1997,S0153.0572.2000,"MWASHOLONZI, KENETH YONA",M,TU/KCMUCo/MD.2011/TZ/0921,MD,5,NMB,4031617601
1385,S1161.0156.2008,S0119.0653.2011,"MYULA, MICHAEL GAITAN",M,TU/KCMUCo/MD.2011/TZ/0989,MD,5,NMB,2121603643
1386,S0222.0108.2008,S0960.0512.2011,"MZIRAY, JASMINE",F,TU/KCMUCo/MD.2011/TZ/0961,MD,5,NMB,2062521397
1387,S0158.0025.1994,S0158.0539.1997,"NDUNGURU, COSTER URBAN",M,TU/KCMUCo/MD.2011/TZ/0862,MD,5,NMB,4072402155
1388,S0222.0047.2008,S0347.0594.2011,"NGAHATILWA, DIANA JOHNSON",F,TU/KCMUCo/MD.2011/TZ/0974,MD,5,NMB,2081600379
1389,S1625.0082.2008,S0352.0705.2011,"NGEREJA, SHUKRANI JOHN",M,TU/KCMUCo/MD.2011/TZ/0967,MD,5,CRDB,1.52332E+11
1390,S0250.0008.2003,S0368.0510.2006,"NGUMA, GLORIAALEX",F,TU/KCMUCo/MD.2011/TZ/0905,MD,5,NBC,28201119853
1391,S0554.0019.2004,S0143.0590.2007,"NGUSSA, ABEL MISSUNGWI",M,TU/KCMUCo/MD.2011/TZ/0953,MD,5,CRDB,1.52328E+11
1392,S0147.0033.2002,S0147.0708.2005,"NGWESHEMI, EUSTACE MICHAEL",M,TU/KCMUCo/MD.2011/TZ/0975,MD,5,CRDB,1.12412E+11
1393,S0885.0015.2002,S0151.0564.2005,"NHUMBA, NCHANGWA",M,TU/KCMUCo/MD.2011/TZ/0983,MD,5,NMB,2058000759
1394,S1071.0156.2008,S0534.0605.2011,"NJAU, ROSALIA E",F,TU/KCMUCo/MD.2011/TZ/0987,MD,5,CRDB,1.12093E+11
1395,S0263.0021.2008,S1187.0555.2011,"NTAPARA, ELIZABETH H",F,TU/KCMUCo/MD.2011/TZ/0918,MD,5,CRDB,1.52235E+11
1396,S0812.0036.2003,S0120.0565.2006,"NYAMVI, HERI SULEMAN",M,TU/KCMUCo/MD.2011/TZ/0936,MD,5,NBC,34201057905
1397,E7509.0001.2007,S0578.0585.2011,"OMOLLO, OCHIEN'G MAURICE",M,TU/KCMUCo/MD.2011/TZ/0973,MD,5,CRDB,1.52324E+11
1398,S0104.0016.2006,S0158.0628.2009,"PALAPALA, BISEKO",M,TU/MD/1003,MD,5,NMB,14110004826
1399,S0817.0021.2002,S0151.0524.2005,"PAUL, EMMANUEL",M,TU/KCMUCo/MD.2011/TZ/0938,MD,5,NMB,40310015891
1400,S1626.0113.2008,S0112.0626.2011,"PAUL, CHRISTOPHER ALINIKISA",M,TU/KCMUCo/MD.2011/TZ/0858,MD,5,CRDB,1.52421E+11
1401,S0207.0013.2008,S1187.0533.2011,"PAUL, CHRISTINE H",F,TU/KCMUCo/MD.2011/TZ/0869,MD,5,NMB,4031616990
1402,S0120.0078.2003,S0134.0538.2006,"PAULO, FRANCIS",M,TU/KCMUCo/MD.2011/TZ/0879,MD,5,NMB,2072516752
1403,S0232.0055.2008,S1187.0676.2011,"PETER, NYEMO KWANGA",F,TU/KCMUCo/MD.2011/TZ/0916,MD,5,NBC,17204004639
1404,S0351.0073.1990,S0133.0549.0993,"PUMBULI, MAULID ABDALLAH",M,TU/KCMUCo/MD.2011/TZ/0984,MD,5,CRDB,1.52328E+11
1405,S1109.0023.2008,S0800.0545.2011,"RUGAIMUKAM, JOSEPHINE JOSEPH",F,TU/KCMUCo/MD.2011/TZ/0894,MD,5,CRDB,1.52213E+11
1406,S0817.0058.2003,S0151.0592.2006,"RWEGASIRA, TRYPHONE",M,TU/KCMUCo/MD.2011/TZ/0956,MD,5,NBC,58201016070
1407,S0148.0017.2008,S0413.0519.2011,"RWEZAHURA, INNOCENT",M,TU/KCMUCo/MD.2011/TZ/0942,MD,5,NMB,7071601080
1408,S0958.0025.2008,S0306.0553.2011,"SAID, JIDAJ",F,TU/KCMUCo/MD.2011/TZ/0988,MD,5,CRDB,1.52219E+11
1409,S0618.0057.2007,S0140.0502.2010,"SANGA, ALEX",M,TU/KCMUCo/MD.2011/TZ/0917,MD,5,CRDB,1.12011E+11
1410,S0239.0067.2008,S0224.0541.2011,"SARO, PENDO PAUL",F,TU/KCMUCo/MD.2011/TZ/0880,MD,5,CRDB,1.52242E+11
1411,S0159.0042.2008,S0174.0524.2011,"SEBUKOTO, HILLARY",M,TU/KCMUCo/MD.2011/TZ/0944,MD,5,NMB,6028100558
1412,S0629.0129.2008,S0485.0778.2011,"SEMBE, HAMISI RASHIDI",M,TU/KCMUCo/MD.2011/TZ/0926,MD,5,CRDB,1.52328E+11
1413,S0185.0007.2000,S0140.0537.2003,"SENDAMA, FREDRICK MPUYA",M,TU/KCMUCo/MD.2011/TZ/0999,MD,5,NMB,5178601703
1414,S0772.0100.2007,S0443.0542.2010,"SHAYO, JOHN",M,TU/KCMUCo/MD.2011/TZ/0789,MD,5,NMB,2011606765
1415,S0233.0016.2008,S0248.0546.2011,"SHAYO, IRENE JOSEPH",F,TU/KCMUCo/MD.2011/TZ/0861,MD,5,NMB,5141602038
1416,S0326.0006.2002,S0326.0531.2005,"SHEIKH, SALHA MOHAMMED",F,TU/KCMUCo/MD.2011/TZ/0882,MD,5,NMB,2078001770
1417,S0640.0002.2008,S1187.0501.2011,"SICHONE, AGAPE ZAKARIA",F,TU/KCMUCo/MD.2011/TZ/0903,MD,5,NBC,17204004846
1418,S0850.0062.2008,S0134.0505.2011,"SOKA, ANSELIM JOSEPH",M,TU/KCMUCo/MD.2011/TZ/0867,MD,5,NMB,4228101190
1419,S0207.0090.1997,S0209.0520.2000,"STELLA, DOMINIC",F,TU/MD/0870,MD,5,NMB,4032532727
1420,S0101.0110.2008,S0119.0619.2011,"STEPHANO, EMMANUEL",M,TU/KCMUCo/MD.2011/TZ/0906,MD,5,CRDB,1.12023E+11
1421,S1482.0155.2008,S0158.0842.2011,"SWEYA, MUSSA",M,TU/KCMUCo/MD.2011/TZ/0873,MD,5,CRDB,1.12572E+11
1422,S0795.0027.2003,S0364.0542.2006,"TARIMO, OLIMPIA B",F,TU/KCMUCo/MD.2011/TZ/0959,MD,5,NBC,17201121890
1423,S0817.0014.2002,S0151.0502.2005,"TITO, ALPHONCE",M,TU/KCMUCo/MD.2011/TZ/0997,MD,5,NBC,40201135130
1424,S0848.0064.2006,S0158.0705.2009,"TLUWAY, PROSPER JOSEPH",M,TU/KCMCo/MD.2010/TZ/0853,MD,5,NMB,4121601710
1425,S0311.0284.2001,S0167.0551.2005,"UISO, PETER ARBOUGAST",M,TU/KCMUCo/MD.2011/TZ/0992,MD,5,CRDB,1.52328E+11
1426,S0205.0059.2008,S0534.0538.2011,"UISSO, FELISTER GERALD",F,TU/KCMUCo/MD.2011/TZ/0965,MD,5,CRDB,1.52324E+11
1427,S0184.0023.2008,S0248.0551.2011,"URASSA, NANCY BONIVENTURE",F,TU/KCMUCo/MD.2011/TZ/0904,MD,5,CRDB,1.52396E+11
1428,S2360.0044.2008,S0135.0607.2011,"URIMA, NELSON G",M,TU/KCMUCo/MD.2011/TZ/0865,MD,5,NMB,4031615394
1429,S0110.0015.2008,S1522.0559.2011,"URIO, DANIEL FITIAEL",M,TU/KCMUCo/MD.2011/TZ/0872,MD,5,CRDB,1.522E+11
1430,S0248.0031.2008,S0248.0544.2011,"URIYO, GLORIA ZEALOT",F,TU/KCMUCo/MD.2011/TZ/0860,MD,5,NBC,27201170223
1431,S0179.0021.2000,S0158.0713.2003,"WAMBUA, HENRY GILBERT",M,TU/KCMUCo/MD.2011/TZ/0994,MD,5,NMB,6098000183
1432,S1470.0118.2008,S0110.0661.2011,"ZABLON, YOHANA EZRON",M,TU/KCMUCo/MD.2011/TZ/0947,MD,5,NMB,4081609850
1433,S0132.0011.1999,S0133.0571.2002,"ZACHARIA, BIGNON PAUL",M,TU/KCMUCo/MD.2011/TZ/0925,MD,5,CRDB,1.52328E+11
1434,S0342.0148.2008,S0437.0538.2011,"SHANEABBAS, JAFFER JAFFER",M,TU/KCMUCo/MD.2011/TZ/0958,MD,5,CRDB,1.52324E+11
