@-header,flags_!_0,,,,,,,,,,,,,
@-header,studentId_!_773,,,,,,,,,,,,,
@-header,registrationNumber_!_TUMA/KCMUCo/BScHLSc.2014/2015/TZ/0331,,,,,,,,,,,,,
@-header,fullname_!_JOSEPH  E  MSHIU,,,,,,,,,,,,,
@-header,compilationTime_!_2017:07:06:12:01:44,,,,,,,,,,,,,
@-header,fileType_!_transcript,,,,,,,,,,,,,
@-header,courseId_!_8,,,,,,,,,,,,,
@-header,courseName_!_Bachelor of Science in Health Laboratory Science,,,,,,,,,,,,,
@-header,duration_!_3,,,,,,,,,,,,,
@-header,lastResultsCummulativeSemester_!_6,,,,,,,,,,,,,
@-header,currentCummulativeSemester_!_6,,,,,,,,,,,,,
@-header,allSemestersIncluded_!_1,,,,,,,,,,,,,
@-header,numberOfSemestersPerYear_!_2,,,,,,,,,,,,,
@-header,graduated_!_0,,,,,,,,,,,,,
@-header,sem_2_awardId_!_5,,,,,,,,,,,,,
@-header,sem_2_awardName_!_No Award,,,,,,,,,,,,,
@-header,sem_2_totalUnits_!_0,,,,,,,,,,,,,
@-header,sem_2_totalModulePoints_!_0,,,,,,,,,,,,,
@-header,sem_2_gpa_!_0,,,,,,,,,,,,,
@-header,sem_3_awardId_!_5,,,,,,,,,,,,,
@-header,sem_3_awardName_!_No Award,,,,,,,,,,,,,
@-header,sem_3_totalUnits_!_0,,,,,,,,,,,,,
@-header,sem_3_totalModulePoints_!_0,,,,,,,,,,,,,
@-header,sem_3_gpa_!_0,,,,,,,,,,,,,
@-header,sem_5_awardId_!_5,,,,,,,,,,,,,
@-header,sem_5_awardName_!_No Award,,,,,,,,,,,,,
@-header,sem_5_totalUnits_!_0,,,,,,,,,,,,,
@-header,sem_5_totalModulePoints_!_0,,,,,,,,,,,,,
@-header,sem_5_gpa_!_0,,,,,,,,,,,,,
@-header,gpa_!_0,,,,,,,,,,,,,
@-header,awardId_!_5,,,,,,,,,,,,,
@-header,awardName_!_No Award,,,,,,,,,,,,,
@-header,cleared_!_,,,,,,,,,,,,,
@-header,filename_!_transcript_773.csv,,,,,,,,,,,,,
@-business-logic-begin,,,,,,,,,,,,,,
208,1,,,,,,,,,,,,
209,1,,,,,,,,,,,,
210,1,,,,,,,,,,,,
211,1,,,,,,,,,,,,
212,1,,,,,,,,,,,,
215,1,,,,,,,,,,,,
216,1,,,,,,,,,,,,
340,1,,,,,,,,,,,,
341,1,,,,,,,,,,,,
367,1,,,,,,,,,,,,
217,2,6,2014/2015,0,,,Microbiology and Immunology,MIC 101,,,,,,0
218,2,6,2014/2015,0,,,Biochemistry,BIOC 101,,55,4,C,2,0
219,2,6,2014/2015,0,,,Histotechnology,HIST 101,,64,3,B,3,0
220,2,6,2014/2015,0,,,Haematology and Transfusion Science,HAEM 101,,,,,,0
221,2,6,2014/2015,0,,,Parasitology and Entomology,PARA 101,,,,,,0
359,2,6,2014/2015,0,,,Haematology,HEM 122,,74,2,B+,4,0
360,2,6,2014/2015,0,,,Laboratory Management,LM 102,,72,2,B+,4,0
361,2,6,2014/2015,0,,,Blood Transfussion,BT 102,,83,1,A,5,0
362,2,6,2014/2015,0,,,Physiology,DOC1102,,63,3,B,3,0
363,2,6,2014/2015,0,,,Anatomy,DOC1101,,58,4,C,2,0
207,3,7,2015/2016,0,,,Parasitology,Bhl0001,,73,2,B+,4,0
222,3,7,2015/2016,0,,,Microbiology and Immunology,MIC 201,,,,,,0
223,3,7,2015/2016,0,,,Clinical Chemistry,CC 201,,54,4,C,2,0
224,3,7,2015/2016,0,,,Histotechnology,HIST 201,,64,3,B,3,0
225,3,7,2015/2016,0,,,Haematology and Transfusion Science,HAM 201,,,,,,0
226,3,7,2015/2016,0,,,Parasistology and Entomology,PARA 201,,,,,,0
335,3,7,2015/2016,0,,,Haematology,HAE 201,,65,3,B,3,0
336,3,7,2015/2016,0,,,Blood Transfussion Science,BTS 201,,84,1,A,5,0
339,3,7,2015/2016,0,,,Foundation of Faith,BFF119,,63,3,B,3,0
355,3,7,2015/2016,0,,,Lab Animal Sciences,LA 100,,70,2,B+,4,0
356,3,7,2015/2016,0,,,Basic Pathology,BP201,,66,3,B,3,0
357,3,7,2015/2016,0,,,Immunology,IM201,,77,2,B+,4,0
358,3,7,2015/2016,0,,,Microbiology,MIC 223,,55,4,C,2,0
227,4,,,,,,,,,,,,
228,4,,,,,,,,,,,,
229,4,,,,,,,,,,,,
230,4,,,,,,,,,,,,
231,4,,,,,,,,,,,,
232,5,8,2016/2017,0,,,Molecular  Biology,BIO 301,,58,4,C,2,0
233,5,8,2016/2017,0,,,Bioatatistics and Research Methodology,RES 300,,,,,,0
234,5,8,2016/2017,0,,,Project formulation/wite up,PRO 300,,,,,,0
235,5,8,2016/2017,0,,,Microbiology & Immunology,MIC 301,,,,,,0
236,5,8,2016/2017,0,,,Clinical Chemistry,CC 301,,,,,,0
237,5,8,2016/2017,0,,,Histotechnology,HIST 301,,,,,,0
238,5,8,2016/2017,0,,,Haematology and Entomolog,HAEM 31,,,,,,0
239,5,8,2016/2017,0,,,Parasitology and Entomology,PARA 301,,,,,,0
240,5,8,2016/2017,0,,,Field Placements,PRO 302,,,,,,0
291,5,8,2016/2017,0,,,Lab Quality System,LQS0301,,66,3,B,3,0
351,5,8,2016/2017,0,,,Research Methodology ,RSM 304,,48,5,D,1,0
352,5,8,2016/2017,0,,,Biostatics,BIS 301,,61,3,B,3,0
241,6,,,,,,,,,,,,
242,6,,,,,,,,,,,,
243,6,,,,,,,,,,,,
244,6,,,,,,,,,,,,
245,6,,,,,,,,,,,,
246,6,,,,,,,,,,,,
@-business-logic-end,,,,,,,,,,,,,,
